           LABEL RECORDS STANDARD                                       CPFDXBTB
           RECORDING MODE F                                             CPFDXBTB
           RECORD CONTAINS 80 CHARACTERS                                CPFDXBTB
           BLOCK CONTAINS 162 RECORDS                                   CPFDXBTB
           DATA RECORD IS XBTB-BUDGET-TABLE-RECORD.                     CPFDXBTB
       01  XBTB-BUDGET-TABLE-RECORD                  PIC X(80).         CPFDXBTB
