      *---------------------------------------------------------------*
      *                                                               *
      *  RECORD FAPWK29                              04/24/00  12:16  *
      *                                                               *
      *---------------------------------------------------------------*
       01  FAPWK29.
           02  SEQ-NMBR-4162-AP29                       PIC X(4).
           02  ORGN-CODE-4162-AP29                      PIC X(4).
           02  BANK-ACCT-CODE-4162-AP29                 PIC X(2).
