       01  FCHDU05-CURSOR-CODES.
           10  DBLINK-S-4001-4005-P-P-CODE
                                        PIC X(1)        VALUE 'C'.
           10  DBLINK-S-4001-4005-P-N-CODE
                                        PIC X(1)        VALUE 'C'.
           10  DBLINK-S-4052-4054-N-CODE
                                        PIC X(1)        VALUE 'C'.
           10  DBLINK-S-4003-4034-P-P-CODE
                                        PIC X(1)        VALUE 'C'.
           10  DBLINK-S-4008-4009-P-P-CODE
                                        PIC X(1)        VALUE 'C'.
           10  DBLINK-S-4033-4062-P-CODE
                                        PIC X(1)        VALUE 'C'.
           10  DBLINK-S-6117-6157-P-CODE
                                        PIC X(1)        VALUE 'C'.
           10  DBLINK-S-4011-4012-N-CODE
                                        PIC X(1)        VALUE 'C'.
           10  DBLINK-S-INDX-FSCL-N-CODE
                                        PIC X(1)        VALUE 'C'.
           10  DBLINK-S-INDX-GL-N-CODE  PIC X(1)        VALUE 'C'.
           10  DBLINK-S-4000-4076-P-CODE
                                        PIC X(1)        VALUE 'C'.
           10  DBLINK-S-4014-4015-P-P-CODE
                                        PIC X(1)        VALUE 'C'.
           10  DBLINK-S-4026-4065-P-CODE
                                        PIC X(1)        VALUE 'C'.
           10  DBLINK-R4054-XTRN-CODE-D-CODE
                                        PIC X(1)        VALUE 'C'.
           10  DBLINK-S-4002-4010-P-P-CODE
                                        PIC X(1)        VALUE 'C'.
           10  DBLINK-S-4004-4105-P-P-CODE
                                        PIC X(1)        VALUE 'C'.
           10  DBLINK-S-4006-4007-P-P-CODE
                                        PIC X(1)        VALUE 'C'.
           10  DBLINK-S-4050-4066-P-CODE
                                        PIC X(1)        VALUE 'C'.
           10  DBLINK-S-4035-4063-P-CODE
                                        PIC X(1)        VALUE 'C'.
           10  DBLINK-S-6311-6186-P-CODE
                                        PIC X(1)        VALUE 'C'.
           10  DBLINK-S-4030-4064-P-CODE
                                        PIC X(1)        VALUE 'C'.
           10  DBLINK-S-4040-4041-N-CODE
                                        PIC X(1)        VALUE 'C'.
