       01  MAP-CONTROL.

    ***Created by Convert/DC version V8R03 on 11/09/00 at 14:00***

           02  FCHMI73-MAP-CONTROL.
           03  FCHMI73T.
           04  WK01-DCXMAPL-PARMS.
               10  WK01-MAPNAME                  PIC X(8)
                                                 VALUE 'FCHMI73I'.
               10  WK01-IKE-LENGTH               PIC S9(8)  COMP
                                                 VALUE 24962.
               10  WK01-TINA-LENGTH              PIC S9(4)  COMP
                                                 VALUE 1439.
           05  WK01-ATTRIBUTES                   PIC X(60)
                                                 VALUE SPACE.
           05  WK01-ATTRIBUTES-ERROR             PIC X(60) VALUE
               'U  BIF'.
           05  WK01-CURSOR-DFLD                  PIC X(36)
                                                 VALUE SPACES.
           05  WK01-CURSOR-DFLD-QUAL             PIC X(30)
                                                 VALUE SPACES.
           05  WK01-ROW                          PIC S9(4) COMP
                                                 VALUE ZERO.
           05  WK01-COLUMN                       PIC S9(4) COMP
                                                 VALUE ZERO.
           05  WK01-ERROR-MSG                    PIC X(80)
                                                 VALUE SPACES.
           05  WK01-MAP-DATA-LEN                 PIC S9(6)
                                                 VALUE ZERO.
           05  WK01-1ST-FLAG                     PIC X(1)
                                                 VALUE 'Y'.
           05  WK01-FLAG-OUTPUT-DATA             PIC X(1)
                                                 VALUE 'Y'.
      *    05  WK01-STATUS-RETURN-FLAG           PIC X(1)
      *                                          VALUE SPACES.
           05  WK01-ALL-BUT-FLAG                 PIC X(1)
                                                 VALUE SPACES.
           05  WK01-FLAG-ALL-FIELDS-CHANGED      PIC X(1)  VALUE 'Y'.
           05  WK01-FLAG-ANY-FIELDS-CHANGED      PIC X(1)  VALUE 'N'.
           05  WK01-FLAG-ALL-FIELDS-ERROR        PIC X(1)  VALUE 'Y'.
           05  WK01-FLAG-ANY-FIELDS-ERROR        PIC X(1)  VALUE 'N'.
           05  WK01-FLAG-ALL-FIELDS-ERASE        PIC X(1)  VALUE 'Y'.
           05  WK01-FLAG-ANY-FIELDS-ERASE        PIC X(1)  VALUE 'Y'.

           05  WK01-VARDATA                      PIC X(11880)
                                                 VALUE SPACES.
           05  FILLER                            PIC X(100)
                                                 VALUE SPACES.
           04  WK01-ELEMENT-AREA.

               10  WK01-ID-SY00-Z              PIC X(1)
                                               VALUE SPACE.
               10  WK01-ID-SY00-F              PIC X(1)
                                               VALUE SPACE.
               10  WK01-ID-SY00-A              PIC X(1)
                                               VALUE SPACE.
               10  WK01-ID-SY00-V              PIC X(1)
                                               VALUE SPACE.
               10  WK01-ID-SY00-O              PIC X(1)
                                               VALUE SPACE.
               10  WK01-ID-SY00       PIC X(8)
                                               VALUE SPACES.
               10  WK01-NAME-6001-SY00-Z              PIC X(1)
                                               VALUE SPACE.
               10  WK01-NAME-6001-SY00-F              PIC X(1)
                                               VALUE SPACE.
               10  WK01-NAME-6001-SY00-A              PIC X(1)
                                               VALUE SPACE.
               10  WK01-NAME-6001-SY00-V              PIC X(1)
                                               VALUE SPACE.
               10  WK01-NAME-6001-SY00-O              PIC X(1)
                                               VALUE SPACE.
               10  WK01-NAME-6001-SY00       PIC X(35)
                                               VALUE SPACES.
               10  WK01-DATE-Z              PIC X(1)
                                               VALUE SPACE.
               10  WK01-DATE-F              PIC X(1)
                                               VALUE SPACE.
               10  WK01-DATE-A              PIC X(1)
                                               VALUE SPACE.
               10  WK01-DATE-V              PIC X(1)
                                               VALUE SPACE.
               10  WK01-DATE-O              PIC X(1)
                                               VALUE SPACE.
               10  WK01-DATE       PIC X(8)
                                               VALUE SPACES.
               10  WK01-HH-MM-TIME-SY00-Z              PIC X(1)
                                               VALUE SPACE.
               10  WK01-HH-MM-TIME-SY00-F              PIC X(1)
                                               VALUE SPACE.
               10  WK01-HH-MM-TIME-SY00-A              PIC X(1)
                                               VALUE SPACE.
               10  WK01-HH-MM-TIME-SY00-V              PIC X(1)
                                               VALUE SPACE.
               10  WK01-HH-MM-TIME-SY00-O              PIC X(1)
                                               VALUE SPACE.
               10  WK01-HH-MM-TIME-SY00       PIC X(4)
                                               VALUE SPACES.
               10  WK01-PM-FLAG-SY00-Z              PIC X(1)
                                               VALUE SPACE.
               10  WK01-PM-FLAG-SY00-F              PIC X(1)
                                               VALUE SPACE.
               10  WK01-PM-FLAG-SY00-A              PIC X(1)
                                               VALUE SPACE.
               10  WK01-PM-FLAG-SY00-V              PIC X(1)
                                               VALUE SPACE.
               10  WK01-PM-FLAG-SY00-O              PIC X(1)
                                               VALUE SPACE.
               10  WK01-PM-FLAG-SY00       PIC X(1)
                                               VALUE SPACES.
               10  WK01-USER-ID-Z              PIC X(1)
                                               VALUE SPACE.
               10  WK01-USER-ID-F              PIC X(1)
                                               VALUE SPACE.
               10  WK01-USER-ID-A              PIC X(1)
                                               VALUE SPACE.
               10  WK01-USER-ID-V              PIC X(1)
                                               VALUE SPACE.
               10  WK01-USER-ID-O              PIC X(1)
                                               VALUE SPACE.
               10  WK01-USER-ID       PIC X(32)
                                               VALUE SPACES.
               10  WK01-RSPNS-ID-SY00-Z              PIC X(1)
                                               VALUE SPACE.
               10  WK01-RSPNS-ID-SY00-F              PIC X(1)
                                               VALUE SPACE.
               10  WK01-RSPNS-ID-SY00-A              PIC X(1)
                                               VALUE SPACE.
               10  WK01-RSPNS-ID-SY00-V              PIC X(1)
                                               VALUE SPACE.
               10  WK01-RSPNS-ID-SY00-O              PIC X(1)
                                               VALUE SPACE.
               10  WK01-RSPNS-ID-SY00       PIC X(8)
                                               VALUE SPACES.
               10  WK01-FUNC-DESCRIPTION-Z              PIC X(1)
                                               VALUE SPACE.
               10  WK01-FUNC-DESCRIPTION-F              PIC X(1)
                                               VALUE SPACE.
               10  WK01-FUNC-DESCRIPTION-A              PIC X(1)
                                               VALUE SPACE.
               10  WK01-FUNC-DESCRIPTION-V              PIC X(1)
                                               VALUE SPACE.
               10  WK01-FUNC-DESCRIPTION-O              PIC X(1)
                                               VALUE SPACE.
               10  WK01-FUNC-DESCRIPTION       PIC X(28)
                                               VALUE SPACES.
               10  WK01-STATUS-CODE-SY00-Z              PIC X(1)
                                               VALUE SPACE.
               10  WK01-STATUS-CODE-SY00-F              PIC X(1)
                                               VALUE SPACE.
               10  WK01-STATUS-CODE-SY00-A              PIC X(1)
                                               VALUE SPACE.
               10  WK01-STATUS-CODE-SY00-V              PIC X(1)
                                               VALUE SPACE.
               10  WK01-STATUS-CODE-SY00-O              PIC X(1)
                                               VALUE SPACE.
               10  WK01-STATUS-CODE-SY00       PIC X(1)
                                               VALUE SPACES.
               10  WK01-DATE-CH73-Z              PIC X(1)
                                               VALUE SPACE.
               10  WK01-DATE-CH73-F              PIC X(1)
                                               VALUE SPACE.
               10  WK01-DATE-CH73-A              PIC X(1)
                                               VALUE SPACE.
               10  WK01-DATE-CH73-V              PIC X(1)
                                               VALUE SPACE.
               10  WK01-DATE-CH73-O              PIC X(1)
                                               VALUE SPACE.
               10  WK01-DATE-CH73       PIC X(6)
                                               VALUE SPACES.
               10  WK01-STATUS-CH73-Z              PIC X(1)
                                               VALUE SPACE.
               10  WK01-STATUS-CH73-F              PIC X(1)
                                               VALUE SPACE.
               10  WK01-STATUS-CH73-A              PIC X(1)
                                               VALUE SPACE.
               10  WK01-STATUS-CH73-V              PIC X(1)
                                               VALUE SPACE.
               10  WK01-STATUS-CH73-O              PIC X(1)
                                               VALUE SPACE.
               10  WK01-STATUS-CH73       PIC X(1)
                                               VALUE SPACES.
               10  WK01-CODE-CH731-Z              PIC X(1)
                                               VALUE SPACE.
               10  WK01-CODE-CH731-F              PIC X(1)
                                               VALUE SPACE.
               10  WK01-CODE-CH731-A              PIC X(1)
                                               VALUE SPACE.
               10  WK01-CODE-CH731-V              PIC X(1)
                                               VALUE SPACE.
               10  WK01-CODE-CH731-O              PIC X(1)
                                               VALUE SPACE.
               10  WK01-CODE-CH731       PIC X(1)
                                               VALUE SPACES.
               10  WK01-CODE-4003-CH731-Z              PIC X(1)
                                               VALUE SPACE.
               10  WK01-CODE-4003-CH731-F              PIC X(1)
                                               VALUE SPACE.
               10  WK01-CODE-4003-CH731-A              PIC X(1)
                                               VALUE SPACE.
               10  WK01-CODE-4003-CH731-V              PIC X(1)
                                               VALUE SPACE.
               10  WK01-CODE-4003-CH731-O              PIC X(1)
                                               VALUE SPACE.
               10  WK01-CODE-4003-CH731       PIC X(1)
                                               VALUE SPACES.
               10  WK01-CODE-4003-CH7A1-Z              PIC X(1)
                                               VALUE SPACE.
               10  WK01-CODE-4003-CH7A1-F              PIC X(1)
                                               VALUE SPACE.
               10  WK01-CODE-4003-CH7A1-A              PIC X(1)
                                               VALUE SPACE.
               10  WK01-CODE-4003-CH7A1-V              PIC X(1)
                                               VALUE SPACE.
               10  WK01-CODE-4003-CH7A1-O              PIC X(1)
                                               VALUE SPACE.
               10  WK01-CODE-4003-CH7A1       PIC X(6)
                                               VALUE SPACES.
               10  WK01-CODE-TITLE-4034-CH731-Z              PIC X(1)
                                               VALUE SPACE.
               10  WK01-CODE-TITLE-4034-CH731-F              PIC X(1)
                                               VALUE SPACE.
               10  WK01-CODE-TITLE-4034-CH731-A              PIC X(1)
                                               VALUE SPACE.
               10  WK01-CODE-TITLE-4034-CH731-V              PIC X(1)
                                               VALUE SPACE.
               10  WK01-CODE-TITLE-4034-CH731-O              PIC X(1)
                                               VALUE SPACE.
               10  WK01-CODE-TITLE-4034-CH731       PIC X(35)
                                               VALUE SPACES.
               10  WK01-4034-CH731-Z              PIC X(1)
                                               VALUE SPACE.
               10  WK01-4034-CH731-F              PIC X(1)
                                               VALUE SPACE.
               10  WK01-4034-CH731-A              PIC X(1)
                                               VALUE SPACE.
               10  WK01-4034-CH731-V              PIC X(1)
                                               VALUE SPACE.
               10  WK01-4034-CH731-O              PIC X(1)
                                               VALUE SPACE.
               10  WK01-4034-CH731       PIC X(1)
                                               VALUE SPACES.
               10  WK01-DATE-4034-CH731-Z              PIC X(1)
                                               VALUE SPACE.
               10  WK01-DATE-4034-CH731-F              PIC X(1)
                                               VALUE SPACE.
               10  WK01-DATE-4034-CH731-A              PIC X(1)
                                               VALUE SPACE.
               10  WK01-DATE-4034-CH731-V              PIC X(1)
                                               VALUE SPACE.
               10  WK01-DATE-4034-CH731-O              PIC X(1)
                                               VALUE SPACE.
               10  WK01-DATE-4034-CH731       PIC X(6)
                                               VALUE SPACES.
               10  WK01-DATE-4034-CH7A1-Z              PIC X(1)
                                               VALUE SPACE.
               10  WK01-DATE-4034-CH7A1-F              PIC X(1)
                                               VALUE SPACE.
               10  WK01-DATE-4034-CH7A1-A              PIC X(1)
                                               VALUE SPACE.
               10  WK01-DATE-4034-CH7A1-V              PIC X(1)
                                               VALUE SPACE.
               10  WK01-DATE-4034-CH7A1-O              PIC X(1)
                                               VALUE SPACE.
               10  WK01-DATE-4034-CH7A1       PIC X(6)
                                               VALUE SPACES.
               10  WK01-CODE-CH732-Z              PIC X(1)
                                               VALUE SPACE.
               10  WK01-CODE-CH732-F              PIC X(1)
                                               VALUE SPACE.
               10  WK01-CODE-CH732-A              PIC X(1)
                                               VALUE SPACE.
               10  WK01-CODE-CH732-V              PIC X(1)
                                               VALUE SPACE.
               10  WK01-CODE-CH732-O              PIC X(1)
                                               VALUE SPACE.
               10  WK01-CODE-CH732       PIC X(1)
                                               VALUE SPACES.
               10  WK01-CODE-4003-CH732-Z              PIC X(1)
                                               VALUE SPACE.
               10  WK01-CODE-4003-CH732-F              PIC X(1)
                                               VALUE SPACE.
               10  WK01-CODE-4003-CH732-A              PIC X(1)
                                               VALUE SPACE.
               10  WK01-CODE-4003-CH732-V              PIC X(1)
                                               VALUE SPACE.
               10  WK01-CODE-4003-CH732-O              PIC X(1)
                                               VALUE SPACE.
               10  WK01-CODE-4003-CH732       PIC X(1)
                                               VALUE SPACES.
               10  WK01-CODE-4003-CH7A2-Z              PIC X(1)
                                               VALUE SPACE.
               10  WK01-CODE-4003-CH7A2-F              PIC X(1)
                                               VALUE SPACE.
               10  WK01-CODE-4003-CH7A2-A              PIC X(1)
                                               VALUE SPACE.
               10  WK01-CODE-4003-CH7A2-V              PIC X(1)
                                               VALUE SPACE.
               10  WK01-CODE-4003-CH7A2-O              PIC X(1)
                                               VALUE SPACE.
               10  WK01-CODE-4003-CH7A2       PIC X(6)
                                               VALUE SPACES.
               10  WK01-CODE-TITLE-4034-CH732-Z              PIC X(1)
                                               VALUE SPACE.
               10  WK01-CODE-TITLE-4034-CH732-F              PIC X(1)
                                               VALUE SPACE.
               10  WK01-CODE-TITLE-4034-CH732-A              PIC X(1)
                                               VALUE SPACE.
               10  WK01-CODE-TITLE-4034-CH732-V              PIC X(1)
                                               VALUE SPACE.
               10  WK01-CODE-TITLE-4034-CH732-O              PIC X(1)
                                               VALUE SPACE.
               10  WK01-CODE-TITLE-4034-CH732       PIC X(35)
                                               VALUE SPACES.
               10  WK01-4034-CH732-Z              PIC X(1)
                                               VALUE SPACE.
               10  WK01-4034-CH732-F              PIC X(1)
                                               VALUE SPACE.
               10  WK01-4034-CH732-A              PIC X(1)
                                               VALUE SPACE.
               10  WK01-4034-CH732-V              PIC X(1)
                                               VALUE SPACE.
               10  WK01-4034-CH732-O              PIC X(1)
                                               VALUE SPACE.
               10  WK01-4034-CH732       PIC X(1)
                                               VALUE SPACES.
               10  WK01-DATE-4034-CH732-Z              PIC X(1)
                                               VALUE SPACE.
               10  WK01-DATE-4034-CH732-F              PIC X(1)
                                               VALUE SPACE.
               10  WK01-DATE-4034-CH732-A              PIC X(1)
                                               VALUE SPACE.
               10  WK01-DATE-4034-CH732-V              PIC X(1)
                                               VALUE SPACE.
               10  WK01-DATE-4034-CH732-O              PIC X(1)
                                               VALUE SPACE.
               10  WK01-DATE-4034-CH732       PIC X(6)
                                               VALUE SPACES.
               10  WK01-DATE-4034-CH7A2-Z              PIC X(1)
                                               VALUE SPACE.
               10  WK01-DATE-4034-CH7A2-F              PIC X(1)
                                               VALUE SPACE.
               10  WK01-DATE-4034-CH7A2-A              PIC X(1)
                                               VALUE SPACE.
               10  WK01-DATE-4034-CH7A2-V              PIC X(1)
                                               VALUE SPACE.
               10  WK01-DATE-4034-CH7A2-O              PIC X(1)
                                               VALUE SPACE.
               10  WK01-DATE-4034-CH7A2       PIC X(6)
                                               VALUE SPACES.
               10  WK01-CODE-CH733-Z              PIC X(1)
                                               VALUE SPACE.
               10  WK01-CODE-CH733-F              PIC X(1)
                                               VALUE SPACE.
               10  WK01-CODE-CH733-A              PIC X(1)
                                               VALUE SPACE.
               10  WK01-CODE-CH733-V              PIC X(1)
                                               VALUE SPACE.
               10  WK01-CODE-CH733-O              PIC X(1)
                                               VALUE SPACE.
               10  WK01-CODE-CH733       PIC X(1)
                                               VALUE SPACES.
               10  WK01-CODE-4003-CH733-Z              PIC X(1)
                                               VALUE SPACE.
               10  WK01-CODE-4003-CH733-F              PIC X(1)
                                               VALUE SPACE.
               10  WK01-CODE-4003-CH733-A              PIC X(1)
                                               VALUE SPACE.
               10  WK01-CODE-4003-CH733-V              PIC X(1)
                                               VALUE SPACE.
               10  WK01-CODE-4003-CH733-O              PIC X(1)
                                               VALUE SPACE.
               10  WK01-CODE-4003-CH733       PIC X(1)
                                               VALUE SPACES.
               10  WK01-CODE-4003-CH7A3-Z              PIC X(1)
                                               VALUE SPACE.
               10  WK01-CODE-4003-CH7A3-F              PIC X(1)
                                               VALUE SPACE.
               10  WK01-CODE-4003-CH7A3-A              PIC X(1)
                                               VALUE SPACE.
               10  WK01-CODE-4003-CH7A3-V              PIC X(1)
                                               VALUE SPACE.
               10  WK01-CODE-4003-CH7A3-O              PIC X(1)
                                               VALUE SPACE.
               10  WK01-CODE-4003-CH7A3       PIC X(6)
                                               VALUE SPACES.
               10  WK01-CODE-TITLE-4034-CH733-Z              PIC X(1)
                                               VALUE SPACE.
               10  WK01-CODE-TITLE-4034-CH733-F              PIC X(1)
                                               VALUE SPACE.
               10  WK01-CODE-TITLE-4034-CH733-A              PIC X(1)
                                               VALUE SPACE.
               10  WK01-CODE-TITLE-4034-CH733-V              PIC X(1)
                                               VALUE SPACE.
               10  WK01-CODE-TITLE-4034-CH733-O              PIC X(1)
                                               VALUE SPACE.
               10  WK01-CODE-TITLE-4034-CH733       PIC X(35)
                                               VALUE SPACES.
               10  WK01-4034-CH733-Z              PIC X(1)
                                               VALUE SPACE.
               10  WK01-4034-CH733-F              PIC X(1)
                                               VALUE SPACE.
               10  WK01-4034-CH733-A              PIC X(1)
                                               VALUE SPACE.
               10  WK01-4034-CH733-V              PIC X(1)
                                               VALUE SPACE.
               10  WK01-4034-CH733-O              PIC X(1)
                                               VALUE SPACE.
               10  WK01-4034-CH733       PIC X(1)
                                               VALUE SPACES.
               10  WK01-DATE-4034-CH733-Z              PIC X(1)
                                               VALUE SPACE.
               10  WK01-DATE-4034-CH733-F              PIC X(1)
                                               VALUE SPACE.
               10  WK01-DATE-4034-CH733-A              PIC X(1)
                                               VALUE SPACE.
               10  WK01-DATE-4034-CH733-V              PIC X(1)
                                               VALUE SPACE.
               10  WK01-DATE-4034-CH733-O              PIC X(1)
                                               VALUE SPACE.
               10  WK01-DATE-4034-CH733       PIC X(6)
                                               VALUE SPACES.
               10  WK01-DATE-4034-CH7A3-Z              PIC X(1)
                                               VALUE SPACE.
               10  WK01-DATE-4034-CH7A3-F              PIC X(1)
                                               VALUE SPACE.
               10  WK01-DATE-4034-CH7A3-A              PIC X(1)
                                               VALUE SPACE.
               10  WK01-DATE-4034-CH7A3-V              PIC X(1)
                                               VALUE SPACE.
               10  WK01-DATE-4034-CH7A3-O              PIC X(1)
                                               VALUE SPACE.
               10  WK01-DATE-4034-CH7A3       PIC X(6)
                                               VALUE SPACES.
               10  WK01-CODE-CH734-Z              PIC X(1)
                                               VALUE SPACE.
               10  WK01-CODE-CH734-F              PIC X(1)
                                               VALUE SPACE.
               10  WK01-CODE-CH734-A              PIC X(1)
                                               VALUE SPACE.
               10  WK01-CODE-CH734-V              PIC X(1)
                                               VALUE SPACE.
               10  WK01-CODE-CH734-O              PIC X(1)
                                               VALUE SPACE.
               10  WK01-CODE-CH734       PIC X(1)
                                               VALUE SPACES.
               10  WK01-CODE-4003-CH734-Z              PIC X(1)
                                               VALUE SPACE.
               10  WK01-CODE-4003-CH734-F              PIC X(1)
                                               VALUE SPACE.
               10  WK01-CODE-4003-CH734-A              PIC X(1)
                                               VALUE SPACE.
               10  WK01-CODE-4003-CH734-V              PIC X(1)
                                               VALUE SPACE.
               10  WK01-CODE-4003-CH734-O              PIC X(1)
                                               VALUE SPACE.
               10  WK01-CODE-4003-CH734       PIC X(1)
                                               VALUE SPACES.
               10  WK01-CODE-4003-CH7A4-Z              PIC X(1)
                                               VALUE SPACE.
               10  WK01-CODE-4003-CH7A4-F              PIC X(1)
                                               VALUE SPACE.
               10  WK01-CODE-4003-CH7A4-A              PIC X(1)
                                               VALUE SPACE.
               10  WK01-CODE-4003-CH7A4-V              PIC X(1)
                                               VALUE SPACE.
               10  WK01-CODE-4003-CH7A4-O              PIC X(1)
                                               VALUE SPACE.
               10  WK01-CODE-4003-CH7A4       PIC X(6)
                                               VALUE SPACES.
               10  WK01-CODE-TITLE-4034-CH734-Z              PIC X(1)
                                               VALUE SPACE.
               10  WK01-CODE-TITLE-4034-CH734-F              PIC X(1)
                                               VALUE SPACE.
               10  WK01-CODE-TITLE-4034-CH734-A              PIC X(1)
                                               VALUE SPACE.
               10  WK01-CODE-TITLE-4034-CH734-V              PIC X(1)
                                               VALUE SPACE.
               10  WK01-CODE-TITLE-4034-CH734-O              PIC X(1)
                                               VALUE SPACE.
               10  WK01-CODE-TITLE-4034-CH734       PIC X(35)
                                               VALUE SPACES.
               10  WK01-4034-CH734-Z              PIC X(1)
                                               VALUE SPACE.
               10  WK01-4034-CH734-F              PIC X(1)
                                               VALUE SPACE.
               10  WK01-4034-CH734-A              PIC X(1)
                                               VALUE SPACE.
               10  WK01-4034-CH734-V              PIC X(1)
                                               VALUE SPACE.
               10  WK01-4034-CH734-O              PIC X(1)
                                               VALUE SPACE.
               10  WK01-4034-CH734       PIC X(1)
                                               VALUE SPACES.
               10  WK01-DATE-4034-CH734-Z              PIC X(1)
                                               VALUE SPACE.
               10  WK01-DATE-4034-CH734-F              PIC X(1)
                                               VALUE SPACE.
               10  WK01-DATE-4034-CH734-A              PIC X(1)
                                               VALUE SPACE.
               10  WK01-DATE-4034-CH734-V              PIC X(1)
                                               VALUE SPACE.
               10  WK01-DATE-4034-CH734-O              PIC X(1)
                                               VALUE SPACE.
               10  WK01-DATE-4034-CH734       PIC X(6)
                                               VALUE SPACES.
               10  WK01-DATE-4034-CH7A4-Z              PIC X(1)
                                               VALUE SPACE.
               10  WK01-DATE-4034-CH7A4-F              PIC X(1)
                                               VALUE SPACE.
               10  WK01-DATE-4034-CH7A4-A              PIC X(1)
                                               VALUE SPACE.
               10  WK01-DATE-4034-CH7A4-V              PIC X(1)
                                               VALUE SPACE.
               10  WK01-DATE-4034-CH7A4-O              PIC X(1)
                                               VALUE SPACE.
               10  WK01-DATE-4034-CH7A4       PIC X(6)
                                               VALUE SPACES.
               10  WK01-CODE-CH735-Z              PIC X(1)
                                               VALUE SPACE.
               10  WK01-CODE-CH735-F              PIC X(1)
                                               VALUE SPACE.
               10  WK01-CODE-CH735-A              PIC X(1)
                                               VALUE SPACE.
               10  WK01-CODE-CH735-V              PIC X(1)
                                               VALUE SPACE.
               10  WK01-CODE-CH735-O              PIC X(1)
                                               VALUE SPACE.
               10  WK01-CODE-CH735       PIC X(1)
                                               VALUE SPACES.
               10  WK01-CODE-4003-CH735-Z              PIC X(1)
                                               VALUE SPACE.
               10  WK01-CODE-4003-CH735-F              PIC X(1)
                                               VALUE SPACE.
               10  WK01-CODE-4003-CH735-A              PIC X(1)
                                               VALUE SPACE.
               10  WK01-CODE-4003-CH735-V              PIC X(1)
                                               VALUE SPACE.
               10  WK01-CODE-4003-CH735-O              PIC X(1)
                                               VALUE SPACE.
               10  WK01-CODE-4003-CH735       PIC X(1)
                                               VALUE SPACES.
               10  WK01-CODE-4003-CH7A5-Z              PIC X(1)
                                               VALUE SPACE.
               10  WK01-CODE-4003-CH7A5-F              PIC X(1)
                                               VALUE SPACE.
               10  WK01-CODE-4003-CH7A5-A              PIC X(1)
                                               VALUE SPACE.
               10  WK01-CODE-4003-CH7A5-V              PIC X(1)
                                               VALUE SPACE.
               10  WK01-CODE-4003-CH7A5-O              PIC X(1)
                                               VALUE SPACE.
               10  WK01-CODE-4003-CH7A5       PIC X(6)
                                               VALUE SPACES.
               10  WK01-CODE-TITLE-4034-CH735-Z              PIC X(1)
                                               VALUE SPACE.
               10  WK01-CODE-TITLE-4034-CH735-F              PIC X(1)
                                               VALUE SPACE.
               10  WK01-CODE-TITLE-4034-CH735-A              PIC X(1)
                                               VALUE SPACE.
               10  WK01-CODE-TITLE-4034-CH735-V              PIC X(1)
                                               VALUE SPACE.
               10  WK01-CODE-TITLE-4034-CH735-O              PIC X(1)
                                               VALUE SPACE.
               10  WK01-CODE-TITLE-4034-CH735       PIC X(35)
                                               VALUE SPACES.
               10  WK01-4034-CH735-Z              PIC X(1)
                                               VALUE SPACE.
               10  WK01-4034-CH735-F              PIC X(1)
                                               VALUE SPACE.
               10  WK01-4034-CH735-A              PIC X(1)
                                               VALUE SPACE.
               10  WK01-4034-CH735-V              PIC X(1)
                                               VALUE SPACE.
               10  WK01-4034-CH735-O              PIC X(1)
                                               VALUE SPACE.
               10  WK01-4034-CH735       PIC X(1)
                                               VALUE SPACES.
               10  WK01-DATE-4034-CH735-Z              PIC X(1)
                                               VALUE SPACE.
               10  WK01-DATE-4034-CH735-F              PIC X(1)
                                               VALUE SPACE.
               10  WK01-DATE-4034-CH735-A              PIC X(1)
                                               VALUE SPACE.
               10  WK01-DATE-4034-CH735-V              PIC X(1)
                                               VALUE SPACE.
               10  WK01-DATE-4034-CH735-O              PIC X(1)
                                               VALUE SPACE.
               10  WK01-DATE-4034-CH735       PIC X(6)
                                               VALUE SPACES.
               10  WK01-DATE-4034-CH7A5-Z              PIC X(1)
                                               VALUE SPACE.
               10  WK01-DATE-4034-CH7A5-F              PIC X(1)
                                               VALUE SPACE.
               10  WK01-DATE-4034-CH7A5-A              PIC X(1)
                                               VALUE SPACE.
               10  WK01-DATE-4034-CH7A5-V              PIC X(1)
                                               VALUE SPACE.
               10  WK01-DATE-4034-CH7A5-O              PIC X(1)
                                               VALUE SPACE.
               10  WK01-DATE-4034-CH7A5       PIC X(6)
                                               VALUE SPACES.
               10  WK01-CODE-CH736-Z              PIC X(1)
                                               VALUE SPACE.
               10  WK01-CODE-CH736-F              PIC X(1)
                                               VALUE SPACE.
               10  WK01-CODE-CH736-A              PIC X(1)
                                               VALUE SPACE.
               10  WK01-CODE-CH736-V              PIC X(1)
                                               VALUE SPACE.
               10  WK01-CODE-CH736-O              PIC X(1)
                                               VALUE SPACE.
               10  WK01-CODE-CH736       PIC X(1)
                                               VALUE SPACES.
               10  WK01-CODE-4003-CH736-Z              PIC X(1)
                                               VALUE SPACE.
               10  WK01-CODE-4003-CH736-F              PIC X(1)
                                               VALUE SPACE.
               10  WK01-CODE-4003-CH736-A              PIC X(1)
                                               VALUE SPACE.
               10  WK01-CODE-4003-CH736-V              PIC X(1)
                                               VALUE SPACE.
               10  WK01-CODE-4003-CH736-O              PIC X(1)
                                               VALUE SPACE.
               10  WK01-CODE-4003-CH736       PIC X(1)
                                               VALUE SPACES.
               10  WK01-CODE-4003-CH7A6-Z              PIC X(1)
                                               VALUE SPACE.
               10  WK01-CODE-4003-CH7A6-F              PIC X(1)
                                               VALUE SPACE.
               10  WK01-CODE-4003-CH7A6-A              PIC X(1)
                                               VALUE SPACE.
               10  WK01-CODE-4003-CH7A6-V              PIC X(1)
                                               VALUE SPACE.
               10  WK01-CODE-4003-CH7A6-O              PIC X(1)
                                               VALUE SPACE.
               10  WK01-CODE-4003-CH7A6       PIC X(6)
                                               VALUE SPACES.
               10  WK01-CODE-TITLE-4034-CH736-Z              PIC X(1)
                                               VALUE SPACE.
               10  WK01-CODE-TITLE-4034-CH736-F              PIC X(1)
                                               VALUE SPACE.
               10  WK01-CODE-TITLE-4034-CH736-A              PIC X(1)
                                               VALUE SPACE.
               10  WK01-CODE-TITLE-4034-CH736-V              PIC X(1)
                                               VALUE SPACE.
               10  WK01-CODE-TITLE-4034-CH736-O              PIC X(1)
                                               VALUE SPACE.
               10  WK01-CODE-TITLE-4034-CH736       PIC X(35)
                                               VALUE SPACES.
               10  WK01-4034-CH736-Z              PIC X(1)
                                               VALUE SPACE.
               10  WK01-4034-CH736-F              PIC X(1)
                                               VALUE SPACE.
               10  WK01-4034-CH736-A              PIC X(1)
                                               VALUE SPACE.
               10  WK01-4034-CH736-V              PIC X(1)
                                               VALUE SPACE.
               10  WK01-4034-CH736-O              PIC X(1)
                                               VALUE SPACE.
               10  WK01-4034-CH736       PIC X(1)
                                               VALUE SPACES.
               10  WK01-DATE-4034-CH736-Z              PIC X(1)
                                               VALUE SPACE.
               10  WK01-DATE-4034-CH736-F              PIC X(1)
                                               VALUE SPACE.
               10  WK01-DATE-4034-CH736-A              PIC X(1)
                                               VALUE SPACE.
               10  WK01-DATE-4034-CH736-V              PIC X(1)
                                               VALUE SPACE.
               10  WK01-DATE-4034-CH736-O              PIC X(1)
                                               VALUE SPACE.
               10  WK01-DATE-4034-CH736       PIC X(6)
                                               VALUE SPACES.
               10  WK01-DATE-4034-CH7A6-Z              PIC X(1)
                                               VALUE SPACE.
               10  WK01-DATE-4034-CH7A6-F              PIC X(1)
                                               VALUE SPACE.
               10  WK01-DATE-4034-CH7A6-A              PIC X(1)
                                               VALUE SPACE.
               10  WK01-DATE-4034-CH7A6-V              PIC X(1)
                                               VALUE SPACE.
               10  WK01-DATE-4034-CH7A6-O              PIC X(1)
                                               VALUE SPACE.
               10  WK01-DATE-4034-CH7A6       PIC X(6)
                                               VALUE SPACES.
               10  WK01-CODE-CH737-Z              PIC X(1)
                                               VALUE SPACE.
               10  WK01-CODE-CH737-F              PIC X(1)
                                               VALUE SPACE.
               10  WK01-CODE-CH737-A              PIC X(1)
                                               VALUE SPACE.
               10  WK01-CODE-CH737-V              PIC X(1)
                                               VALUE SPACE.
               10  WK01-CODE-CH737-O              PIC X(1)
                                               VALUE SPACE.
               10  WK01-CODE-CH737       PIC X(1)
                                               VALUE SPACES.
               10  WK01-CODE-4003-CH737-Z              PIC X(1)
                                               VALUE SPACE.
               10  WK01-CODE-4003-CH737-F              PIC X(1)
                                               VALUE SPACE.
               10  WK01-CODE-4003-CH737-A              PIC X(1)
                                               VALUE SPACE.
               10  WK01-CODE-4003-CH737-V              PIC X(1)
                                               VALUE SPACE.
               10  WK01-CODE-4003-CH737-O              PIC X(1)
                                               VALUE SPACE.
               10  WK01-CODE-4003-CH737       PIC X(1)
                                               VALUE SPACES.
               10  WK01-CODE-4003-CH7A7-Z              PIC X(1)
                                               VALUE SPACE.
               10  WK01-CODE-4003-CH7A7-F              PIC X(1)
                                               VALUE SPACE.
               10  WK01-CODE-4003-CH7A7-A              PIC X(1)
                                               VALUE SPACE.
               10  WK01-CODE-4003-CH7A7-V              PIC X(1)
                                               VALUE SPACE.
               10  WK01-CODE-4003-CH7A7-O              PIC X(1)
                                               VALUE SPACE.
               10  WK01-CODE-4003-CH7A7       PIC X(6)
                                               VALUE SPACES.
               10  WK01-CODE-TITLE-4034-CH737-Z              PIC X(1)
                                               VALUE SPACE.
               10  WK01-CODE-TITLE-4034-CH737-F              PIC X(1)
                                               VALUE SPACE.
               10  WK01-CODE-TITLE-4034-CH737-A              PIC X(1)
                                               VALUE SPACE.
               10  WK01-CODE-TITLE-4034-CH737-V              PIC X(1)
                                               VALUE SPACE.
               10  WK01-CODE-TITLE-4034-CH737-O              PIC X(1)
                                               VALUE SPACE.
               10  WK01-CODE-TITLE-4034-CH737       PIC X(35)
                                               VALUE SPACES.
               10  WK01-4034-CH737-Z              PIC X(1)
                                               VALUE SPACE.
               10  WK01-4034-CH737-F              PIC X(1)
                                               VALUE SPACE.
               10  WK01-4034-CH737-A              PIC X(1)
                                               VALUE SPACE.
               10  WK01-4034-CH737-V              PIC X(1)
                                               VALUE SPACE.
               10  WK01-4034-CH737-O              PIC X(1)
                                               VALUE SPACE.
               10  WK01-4034-CH737       PIC X(1)
                                               VALUE SPACES.
               10  WK01-DATE-4034-CH737-Z              PIC X(1)
                                               VALUE SPACE.
               10  WK01-DATE-4034-CH737-F              PIC X(1)
                                               VALUE SPACE.
               10  WK01-DATE-4034-CH737-A              PIC X(1)
                                               VALUE SPACE.
               10  WK01-DATE-4034-CH737-V              PIC X(1)
                                               VALUE SPACE.
               10  WK01-DATE-4034-CH737-O              PIC X(1)
                                               VALUE SPACE.
               10  WK01-DATE-4034-CH737       PIC X(6)
                                               VALUE SPACES.
               10  WK01-DATE-4034-CH7A7-Z              PIC X(1)
                                               VALUE SPACE.
               10  WK01-DATE-4034-CH7A7-F              PIC X(1)
                                               VALUE SPACE.
               10  WK01-DATE-4034-CH7A7-A              PIC X(1)
                                               VALUE SPACE.
               10  WK01-DATE-4034-CH7A7-V              PIC X(1)
                                               VALUE SPACE.
               10  WK01-DATE-4034-CH7A7-O              PIC X(1)
                                               VALUE SPACE.
               10  WK01-DATE-4034-CH7A7       PIC X(6)
                                               VALUE SPACES.
               10  WK01-CODE-CH738-Z              PIC X(1)
                                               VALUE SPACE.
               10  WK01-CODE-CH738-F              PIC X(1)
                                               VALUE SPACE.
               10  WK01-CODE-CH738-A              PIC X(1)
                                               VALUE SPACE.
               10  WK01-CODE-CH738-V              PIC X(1)
                                               VALUE SPACE.
               10  WK01-CODE-CH738-O              PIC X(1)
                                               VALUE SPACE.
               10  WK01-CODE-CH738       PIC X(1)
                                               VALUE SPACES.
               10  WK01-CODE-4003-CH738-Z              PIC X(1)
                                               VALUE SPACE.
               10  WK01-CODE-4003-CH738-F              PIC X(1)
                                               VALUE SPACE.
               10  WK01-CODE-4003-CH738-A              PIC X(1)
                                               VALUE SPACE.
               10  WK01-CODE-4003-CH738-V              PIC X(1)
                                               VALUE SPACE.
               10  WK01-CODE-4003-CH738-O              PIC X(1)
                                               VALUE SPACE.
               10  WK01-CODE-4003-CH738       PIC X(1)
                                               VALUE SPACES.
               10  WK01-CODE-4003-CH7A8-Z              PIC X(1)
                                               VALUE SPACE.
               10  WK01-CODE-4003-CH7A8-F              PIC X(1)
                                               VALUE SPACE.
               10  WK01-CODE-4003-CH7A8-A              PIC X(1)
                                               VALUE SPACE.
               10  WK01-CODE-4003-CH7A8-V              PIC X(1)
                                               VALUE SPACE.
               10  WK01-CODE-4003-CH7A8-O              PIC X(1)
                                               VALUE SPACE.
               10  WK01-CODE-4003-CH7A8       PIC X(6)
                                               VALUE SPACES.
               10  WK01-CODE-TITLE-4034-CH738-Z              PIC X(1)
                                               VALUE SPACE.
               10  WK01-CODE-TITLE-4034-CH738-F              PIC X(1)
                                               VALUE SPACE.
               10  WK01-CODE-TITLE-4034-CH738-A              PIC X(1)
                                               VALUE SPACE.
               10  WK01-CODE-TITLE-4034-CH738-V              PIC X(1)
                                               VALUE SPACE.
               10  WK01-CODE-TITLE-4034-CH738-O              PIC X(1)
                                               VALUE SPACE.
               10  WK01-CODE-TITLE-4034-CH738       PIC X(35)
                                               VALUE SPACES.
               10  WK01-4034-CH738-Z              PIC X(1)
                                               VALUE SPACE.
               10  WK01-4034-CH738-F              PIC X(1)
                                               VALUE SPACE.
               10  WK01-4034-CH738-A              PIC X(1)
                                               VALUE SPACE.
               10  WK01-4034-CH738-V              PIC X(1)
                                               VALUE SPACE.
               10  WK01-4034-CH738-O              PIC X(1)
                                               VALUE SPACE.
               10  WK01-4034-CH738       PIC X(1)
                                               VALUE SPACES.
               10  WK01-DATE-4034-CH738-Z              PIC X(1)
                                               VALUE SPACE.
               10  WK01-DATE-4034-CH738-F              PIC X(1)
                                               VALUE SPACE.
               10  WK01-DATE-4034-CH738-A              PIC X(1)
                                               VALUE SPACE.
               10  WK01-DATE-4034-CH738-V              PIC X(1)
                                               VALUE SPACE.
               10  WK01-DATE-4034-CH738-O              PIC X(1)
                                               VALUE SPACE.
               10  WK01-DATE-4034-CH738       PIC X(6)
                                               VALUE SPACES.
               10  WK01-DATE-4034-CH7A8-Z              PIC X(1)
                                               VALUE SPACE.
               10  WK01-DATE-4034-CH7A8-F              PIC X(1)
                                               VALUE SPACE.
               10  WK01-DATE-4034-CH7A8-A              PIC X(1)
                                               VALUE SPACE.
               10  WK01-DATE-4034-CH7A8-V              PIC X(1)
                                               VALUE SPACE.
               10  WK01-DATE-4034-CH7A8-O              PIC X(1)
                                               VALUE SPACE.
               10  WK01-DATE-4034-CH7A8       PIC X(6)
                                               VALUE SPACES.
               10  WK01-CODE-CH739-Z              PIC X(1)
                                               VALUE SPACE.
               10  WK01-CODE-CH739-F              PIC X(1)
                                               VALUE SPACE.
               10  WK01-CODE-CH739-A              PIC X(1)
                                               VALUE SPACE.
               10  WK01-CODE-CH739-V              PIC X(1)
                                               VALUE SPACE.
               10  WK01-CODE-CH739-O              PIC X(1)
                                               VALUE SPACE.
               10  WK01-CODE-CH739       PIC X(1)
                                               VALUE SPACES.
               10  WK01-CODE-4003-CH739-Z              PIC X(1)
                                               VALUE SPACE.
               10  WK01-CODE-4003-CH739-F              PIC X(1)
                                               VALUE SPACE.
               10  WK01-CODE-4003-CH739-A              PIC X(1)
                                               VALUE SPACE.
               10  WK01-CODE-4003-CH739-V              PIC X(1)
                                               VALUE SPACE.
               10  WK01-CODE-4003-CH739-O              PIC X(1)
                                               VALUE SPACE.
               10  WK01-CODE-4003-CH739       PIC X(1)
                                               VALUE SPACES.
               10  WK01-CODE-4003-CH7A9-Z              PIC X(1)
                                               VALUE SPACE.
               10  WK01-CODE-4003-CH7A9-F              PIC X(1)
                                               VALUE SPACE.
               10  WK01-CODE-4003-CH7A9-A              PIC X(1)
                                               VALUE SPACE.
               10  WK01-CODE-4003-CH7A9-V              PIC X(1)
                                               VALUE SPACE.
               10  WK01-CODE-4003-CH7A9-O              PIC X(1)
                                               VALUE SPACE.
               10  WK01-CODE-4003-CH7A9       PIC X(6)
                                               VALUE SPACES.
               10  WK01-CODE-TITLE-4034-CH739-Z              PIC X(1)
                                               VALUE SPACE.
               10  WK01-CODE-TITLE-4034-CH739-F              PIC X(1)
                                               VALUE SPACE.
               10  WK01-CODE-TITLE-4034-CH739-A              PIC X(1)
                                               VALUE SPACE.
               10  WK01-CODE-TITLE-4034-CH739-V              PIC X(1)
                                               VALUE SPACE.
               10  WK01-CODE-TITLE-4034-CH739-O              PIC X(1)
                                               VALUE SPACE.
               10  WK01-CODE-TITLE-4034-CH739       PIC X(35)
                                               VALUE SPACES.
               10  WK01-4034-CH739-Z              PIC X(1)
                                               VALUE SPACE.
               10  WK01-4034-CH739-F              PIC X(1)
                                               VALUE SPACE.
               10  WK01-4034-CH739-A              PIC X(1)
                                               VALUE SPACE.
               10  WK01-4034-CH739-V              PIC X(1)
                                               VALUE SPACE.
               10  WK01-4034-CH739-O              PIC X(1)
                                               VALUE SPACE.
               10  WK01-4034-CH739       PIC X(1)
                                               VALUE SPACES.
               10  WK01-DATE-4034-CH739-Z              PIC X(1)
                                               VALUE SPACE.
               10  WK01-DATE-4034-CH739-F              PIC X(1)
                                               VALUE SPACE.
               10  WK01-DATE-4034-CH739-A              PIC X(1)
                                               VALUE SPACE.
               10  WK01-DATE-4034-CH739-V              PIC X(1)
                                               VALUE SPACE.
               10  WK01-DATE-4034-CH739-O              PIC X(1)
                                               VALUE SPACE.
               10  WK01-DATE-4034-CH739       PIC X(6)
                                               VALUE SPACES.
               10  WK01-DATE-4034-CH7A9-Z              PIC X(1)
                                               VALUE SPACE.
               10  WK01-DATE-4034-CH7A9-F              PIC X(1)
                                               VALUE SPACE.
               10  WK01-DATE-4034-CH7A9-A              PIC X(1)
                                               VALUE SPACE.
               10  WK01-DATE-4034-CH7A9-V              PIC X(1)
                                               VALUE SPACE.
               10  WK01-DATE-4034-CH7A9-O              PIC X(1)
                                               VALUE SPACE.
               10  WK01-DATE-4034-CH7A9       PIC X(6)
                                               VALUE SPACES.
               10  WK01-CODE-CH7310-Z              PIC X(1)
                                               VALUE SPACE.
               10  WK01-CODE-CH7310-F              PIC X(1)
                                               VALUE SPACE.
               10  WK01-CODE-CH7310-A              PIC X(1)
                                               VALUE SPACE.
               10  WK01-CODE-CH7310-V              PIC X(1)
                                               VALUE SPACE.
               10  WK01-CODE-CH7310-O              PIC X(1)
                                               VALUE SPACE.
               10  WK01-CODE-CH7310       PIC X(1)
                                               VALUE SPACES.
               10  WK01-CODE-4003-CH7310-Z              PIC X(1)
                                               VALUE SPACE.
               10  WK01-CODE-4003-CH7310-F              PIC X(1)
                                               VALUE SPACE.
               10  WK01-CODE-4003-CH7310-A              PIC X(1)
                                               VALUE SPACE.
               10  WK01-CODE-4003-CH7310-V              PIC X(1)
                                               VALUE SPACE.
               10  WK01-CODE-4003-CH7310-O              PIC X(1)
                                               VALUE SPACE.
               10  WK01-CODE-4003-CH7310       PIC X(1)
                                               VALUE SPACES.
               10  WK01-CODE-4003-CH7A10-Z              PIC X(1)
                                               VALUE SPACE.
               10  WK01-CODE-4003-CH7A10-F              PIC X(1)
                                               VALUE SPACE.
               10  WK01-CODE-4003-CH7A10-A              PIC X(1)
                                               VALUE SPACE.
               10  WK01-CODE-4003-CH7A10-V              PIC X(1)
                                               VALUE SPACE.
               10  WK01-CODE-4003-CH7A10-O              PIC X(1)
                                               VALUE SPACE.
               10  WK01-CODE-4003-CH7A10       PIC X(6)
                                               VALUE SPACES.
               10  WK01-CODE-TITLE-4034-CH7310-Z              PIC X(1)
                                               VALUE SPACE.
               10  WK01-CODE-TITLE-4034-CH7310-F              PIC X(1)
                                               VALUE SPACE.
               10  WK01-CODE-TITLE-4034-CH7310-A              PIC X(1)
                                               VALUE SPACE.
               10  WK01-CODE-TITLE-4034-CH7310-V              PIC X(1)
                                               VALUE SPACE.
               10  WK01-CODE-TITLE-4034-CH7310-O              PIC X(1)
                                               VALUE SPACE.
               10  WK01-CODE-TITLE-4034-CH7310       PIC X(35)
                                               VALUE SPACES.
               10  WK01-4034-CH7310-Z              PIC X(1)
                                               VALUE SPACE.
               10  WK01-4034-CH7310-F              PIC X(1)
                                               VALUE SPACE.
               10  WK01-4034-CH7310-A              PIC X(1)
                                               VALUE SPACE.
               10  WK01-4034-CH7310-V              PIC X(1)
                                               VALUE SPACE.
               10  WK01-4034-CH7310-O              PIC X(1)
                                               VALUE SPACE.
               10  WK01-4034-CH7310       PIC X(1)
                                               VALUE SPACES.
               10  WK01-DATE-4034-CH7310-Z              PIC X(1)
                                               VALUE SPACE.
               10  WK01-DATE-4034-CH7310-F              PIC X(1)
                                               VALUE SPACE.
               10  WK01-DATE-4034-CH7310-A              PIC X(1)
                                               VALUE SPACE.
               10  WK01-DATE-4034-CH7310-V              PIC X(1)
                                               VALUE SPACE.
               10  WK01-DATE-4034-CH7310-O              PIC X(1)
                                               VALUE SPACE.
               10  WK01-DATE-4034-CH7310       PIC X(6)
                                               VALUE SPACES.
               10  WK01-DATE-4034-CH7A10-Z              PIC X(1)
                                               VALUE SPACE.
               10  WK01-DATE-4034-CH7A10-F              PIC X(1)
                                               VALUE SPACE.
               10  WK01-DATE-4034-CH7A10-A              PIC X(1)
                                               VALUE SPACE.
               10  WK01-DATE-4034-CH7A10-V              PIC X(1)
                                               VALUE SPACE.
               10  WK01-DATE-4034-CH7A10-O              PIC X(1)
                                               VALUE SPACE.
               10  WK01-DATE-4034-CH7A10       PIC X(6)
                                               VALUE SPACES.
               10  WK01-CODE-CH7311-Z              PIC X(1)
                                               VALUE SPACE.
               10  WK01-CODE-CH7311-F              PIC X(1)
                                               VALUE SPACE.
               10  WK01-CODE-CH7311-A              PIC X(1)
                                               VALUE SPACE.
               10  WK01-CODE-CH7311-V              PIC X(1)
                                               VALUE SPACE.
               10  WK01-CODE-CH7311-O              PIC X(1)
                                               VALUE SPACE.
               10  WK01-CODE-CH7311       PIC X(1)
                                               VALUE SPACES.
               10  WK01-CODE-4003-CH7311-Z              PIC X(1)
                                               VALUE SPACE.
               10  WK01-CODE-4003-CH7311-F              PIC X(1)
                                               VALUE SPACE.
               10  WK01-CODE-4003-CH7311-A              PIC X(1)
                                               VALUE SPACE.
               10  WK01-CODE-4003-CH7311-V              PIC X(1)
                                               VALUE SPACE.
               10  WK01-CODE-4003-CH7311-O              PIC X(1)
                                               VALUE SPACE.
               10  WK01-CODE-4003-CH7311       PIC X(1)
                                               VALUE SPACES.
               10  WK01-CODE-4003-CH7A11-Z              PIC X(1)
                                               VALUE SPACE.
               10  WK01-CODE-4003-CH7A11-F              PIC X(1)
                                               VALUE SPACE.
               10  WK01-CODE-4003-CH7A11-A              PIC X(1)
                                               VALUE SPACE.
               10  WK01-CODE-4003-CH7A11-V              PIC X(1)
                                               VALUE SPACE.
               10  WK01-CODE-4003-CH7A11-O              PIC X(1)
                                               VALUE SPACE.
               10  WK01-CODE-4003-CH7A11       PIC X(6)
                                               VALUE SPACES.
               10  WK01-CODE-TITLE-4034-CH7311-Z              PIC X(1)
                                               VALUE SPACE.
               10  WK01-CODE-TITLE-4034-CH7311-F              PIC X(1)
                                               VALUE SPACE.
               10  WK01-CODE-TITLE-4034-CH7311-A              PIC X(1)
                                               VALUE SPACE.
               10  WK01-CODE-TITLE-4034-CH7311-V              PIC X(1)
                                               VALUE SPACE.
               10  WK01-CODE-TITLE-4034-CH7311-O              PIC X(1)
                                               VALUE SPACE.
               10  WK01-CODE-TITLE-4034-CH7311       PIC X(35)
                                               VALUE SPACES.
               10  WK01-4034-CH7311-Z              PIC X(1)
                                               VALUE SPACE.
               10  WK01-4034-CH7311-F              PIC X(1)
                                               VALUE SPACE.
               10  WK01-4034-CH7311-A              PIC X(1)
                                               VALUE SPACE.
               10  WK01-4034-CH7311-V              PIC X(1)
                                               VALUE SPACE.
               10  WK01-4034-CH7311-O              PIC X(1)
                                               VALUE SPACE.
               10  WK01-4034-CH7311       PIC X(1)
                                               VALUE SPACES.
               10  WK01-DATE-4034-CH7311-Z              PIC X(1)
                                               VALUE SPACE.
               10  WK01-DATE-4034-CH7311-F              PIC X(1)
                                               VALUE SPACE.
               10  WK01-DATE-4034-CH7311-A              PIC X(1)
                                               VALUE SPACE.
               10  WK01-DATE-4034-CH7311-V              PIC X(1)
                                               VALUE SPACE.
               10  WK01-DATE-4034-CH7311-O              PIC X(1)
                                               VALUE SPACE.
               10  WK01-DATE-4034-CH7311       PIC X(6)
                                               VALUE SPACES.
               10  WK01-DATE-4034-CH7A11-Z              PIC X(1)
                                               VALUE SPACE.
               10  WK01-DATE-4034-CH7A11-F              PIC X(1)
                                               VALUE SPACE.
               10  WK01-DATE-4034-CH7A11-A              PIC X(1)
                                               VALUE SPACE.
               10  WK01-DATE-4034-CH7A11-V              PIC X(1)
                                               VALUE SPACE.
               10  WK01-DATE-4034-CH7A11-O              PIC X(1)
                                               VALUE SPACE.
               10  WK01-DATE-4034-CH7A11       PIC X(6)
                                               VALUE SPACES.
               10  WK01-COA-CODE-CH73-Z              PIC X(1)
                                               VALUE SPACE.
               10  WK01-COA-CODE-CH73-F              PIC X(1)
                                               VALUE SPACE.
               10  WK01-COA-CODE-CH73-A              PIC X(1)
                                               VALUE SPACE.
               10  WK01-COA-CODE-CH73-V              PIC X(1)
                                               VALUE SPACE.
               10  WK01-COA-CODE-CH73-O              PIC X(1)
                                               VALUE SPACE.
               10  WK01-COA-CODE-CH73       PIC X(1)
                                               VALUE SPACES.
               10  WK01-ACCT-CODE-CH73-Z              PIC X(1)
                                               VALUE SPACE.
               10  WK01-ACCT-CODE-CH73-F              PIC X(1)
                                               VALUE SPACE.
               10  WK01-ACCT-CODE-CH73-A              PIC X(1)
                                               VALUE SPACE.
               10  WK01-ACCT-CODE-CH73-V              PIC X(1)
                                               VALUE SPACE.
               10  WK01-ACCT-CODE-CH73-O              PIC X(1)
                                               VALUE SPACE.
               10  WK01-ACCT-CODE-CH73       PIC X(6)
                                               VALUE SPACES.
               10  WK01-ZZMESSAGE-Z              PIC X(1)
                                               VALUE SPACE.
               10  WK01-ZZMESSAGE-F              PIC X(1)
                                               VALUE SPACE.
               10  WK01-ZZMESSAGE-A              PIC X(1)
                                               VALUE SPACE.
               10  WK01-ZZMESSAGE-V              PIC X(1)
                                               VALUE SPACE.
               10  WK01-ZZMESSAGE-O              PIC X(1)
                                               VALUE SPACE.
               10  WK01-ZZMESSAGE       PIC X(160)
                                               VALUE SPACES.
               10  WK01-PASSED-ONE-Z              PIC X(1)
                                               VALUE SPACE.
               10  WK01-PASSED-ONE-F              PIC X(1)
                                               VALUE SPACE.
               10  WK01-PASSED-ONE-A              PIC X(1)
                                               VALUE SPACE.
               10  WK01-PASSED-ONE-V              PIC X(1)
                                               VALUE SPACE.
               10  WK01-PASSED-ONE-O              PIC X(1)
                                               VALUE SPACE.
               10  WK01-PASSED-ONE       PIC X(32)
                                               VALUE SPACES.
               10  WK01-MAP-RESPONSE-Z              PIC X(1)
                                               VALUE SPACE.
               10  WK01-MAP-RESPONSE-F              PIC X(1)
                                               VALUE SPACE.
               10  WK01-MAP-RESPONSE-A              PIC X(1)
                                               VALUE SPACE.
               10  WK01-MAP-RESPONSE-V              PIC X(1)
                                               VALUE SPACE.
               10  WK01-MAP-RESPONSE-O              PIC X(1)
                                               VALUE SPACE.
               10  WK01-MAP-RESPONSE       PIC X(8)
                                               VALUE SPACES.
               10  WK01-TEXT-SY00-Z              PIC X(1)
                                               VALUE SPACE.
               10  WK01-TEXT-SY00-F              PIC X(1)
                                               VALUE SPACE.
               10  WK01-TEXT-SY00-A              PIC X(1)
                                               VALUE SPACE.
               10  WK01-TEXT-SY00-V              PIC X(1)
                                               VALUE SPACE.
               10  WK01-TEXT-SY00-O              PIC X(1)
                                               VALUE SPACE.
               10  WK01-TEXT-SY00       PIC X(14)
                                               VALUE SPACES.
           04  WK01-SUBSCRIPTED-WORK-AREA.
               05  FILLER                      PIC X(1).
               05  WK01-CODE-CH73-F             PIC X(1)
                                               OCCURS 11.
               05  WK01-CODE-4003-CH73-F             PIC X(1)
                                               OCCURS 11.
               05  WK01-CODE-4003-CH7A-F             PIC X(1)
                                               OCCURS 11.
               05  WK01-CODE-TITLE-4034-CH73-F             PIC X(1)
                                               OCCURS 11.
               05  WK01-4034-CH73-F             PIC X(1)
                                               OCCURS 11.
               05  WK01-DATE-4034-CH73-F             PIC X(1)
                                               OCCURS 11.
               05  WK01-DATE-4034-CH7A-F             PIC X(1)
                                               OCCURS 11.
