       01  MAP-CONTROL.

    ***Created by Convert/DC version V8R03 on 12/11/00 at 11:00***

           02  FCHMI80-MAP-CONTROL.
           03  FCHMI80T.
           04  WK01-DCXMAPL-PARMS.
               10  WK01-MAPNAME                  PIC X(8)
                                                 VALUE 'FCHMI80I'.
               10  WK01-IKE-LENGTH               PIC S9(8)  COMP
                                                 VALUE 24962.
               10  WK01-TINA-LENGTH              PIC S9(4)  COMP
                                                 VALUE 1391.
           05  WK01-ATTRIBUTES                   PIC X(60)
                                                 VALUE SPACE.
           05  WK01-ATTRIBUTES-ERROR             PIC X(60) VALUE
               'U  BIF'.
           05  WK01-CURSOR-DFLD                  PIC X(36)
                                                 VALUE SPACES.
           05  WK01-CURSOR-DFLD-QUAL             PIC X(30)
                                                 VALUE SPACES.
           05  WK01-ROW                          PIC S9(4) COMP
                                                 VALUE ZERO.
           05  WK01-COLUMN                       PIC S9(4) COMP
                                                 VALUE ZERO.
           05  WK01-ERROR-MSG                    PIC X(80)
                                                 VALUE SPACES.
           05  WK01-MAP-DATA-LEN                 PIC S9(6)
                                                 VALUE ZERO.
           05  WK01-1ST-FLAG                     PIC X(1)
                                                 VALUE 'Y'.
           05  WK01-FLAG-OUTPUT-DATA             PIC X(1)
                                                 VALUE 'Y'.
      *    05  WK01-STATUS-RETURN-FLAG           PIC X(1)
      *                                          VALUE SPACES.
           05  WK01-ALL-BUT-FLAG                 PIC X(1)
                                                 VALUE SPACES.
           05  WK01-FLAG-ALL-FIELDS-CHANGED      PIC X(1)  VALUE 'Y'.
           05  WK01-FLAG-ANY-FIELDS-CHANGED      PIC X(1)  VALUE 'N'.
           05  WK01-FLAG-ALL-FIELDS-ERROR        PIC X(1)  VALUE 'Y'.
           05  WK01-FLAG-ANY-FIELDS-ERROR        PIC X(1)  VALUE 'N'.
           05  WK01-FLAG-ALL-FIELDS-ERASE        PIC X(1)  VALUE 'Y'.
           05  WK01-FLAG-ANY-FIELDS-ERASE        PIC X(1)  VALUE 'Y'.

           05  WK01-VARDATA                      PIC X(11880)
                                                 VALUE SPACES.
           05  FILLER                            PIC X(100)
                                                 VALUE SPACES.
           04  WK01-ELEMENT-AREA.

               10  WK01-ID-SY00-Z              PIC X(1)
                                               VALUE SPACE.
               10  WK01-ID-SY00-F              PIC X(1)
                                               VALUE SPACE.
               10  WK01-ID-SY00-A              PIC X(1)
                                               VALUE SPACE.
               10  WK01-ID-SY00-V              PIC X(1)
                                               VALUE SPACE.
               10  WK01-ID-SY00-O              PIC X(1)
                                               VALUE SPACE.
               10  WK01-ID-SY00       PIC X(8)
                                               VALUE SPACES.
               10  WK01-NAME-6001-SY00-Z              PIC X(1)
                                               VALUE SPACE.
               10  WK01-NAME-6001-SY00-F              PIC X(1)
                                               VALUE SPACE.
               10  WK01-NAME-6001-SY00-A              PIC X(1)
                                               VALUE SPACE.
               10  WK01-NAME-6001-SY00-V              PIC X(1)
                                               VALUE SPACE.
               10  WK01-NAME-6001-SY00-O              PIC X(1)
                                               VALUE SPACE.
               10  WK01-NAME-6001-SY00       PIC X(35)
                                               VALUE SPACES.
               10  WK01-DATE-Z              PIC X(1)
                                               VALUE SPACE.
               10  WK01-DATE-F              PIC X(1)
                                               VALUE SPACE.
               10  WK01-DATE-A              PIC X(1)
                                               VALUE SPACE.
               10  WK01-DATE-V              PIC X(1)
                                               VALUE SPACE.
               10  WK01-DATE-O              PIC X(1)
                                               VALUE SPACE.
               10  WK01-DATE       PIC X(8)
                                               VALUE SPACES.
               10  WK01-HH-MM-TIME-SY00-Z              PIC X(1)
                                               VALUE SPACE.
               10  WK01-HH-MM-TIME-SY00-F              PIC X(1)
                                               VALUE SPACE.
               10  WK01-HH-MM-TIME-SY00-A              PIC X(1)
                                               VALUE SPACE.
               10  WK01-HH-MM-TIME-SY00-V              PIC X(1)
                                               VALUE SPACE.
               10  WK01-HH-MM-TIME-SY00-O              PIC X(1)
                                               VALUE SPACE.
               10  WK01-HH-MM-TIME-SY00       PIC X(4)
                                               VALUE SPACES.
               10  WK01-PM-FLAG-SY00-Z              PIC X(1)
                                               VALUE SPACE.
               10  WK01-PM-FLAG-SY00-F              PIC X(1)
                                               VALUE SPACE.
               10  WK01-PM-FLAG-SY00-A              PIC X(1)
                                               VALUE SPACE.
               10  WK01-PM-FLAG-SY00-V              PIC X(1)
                                               VALUE SPACE.
               10  WK01-PM-FLAG-SY00-O              PIC X(1)
                                               VALUE SPACE.
               10  WK01-PM-FLAG-SY00       PIC X(1)
                                               VALUE SPACES.
               10  WK01-USER-ID-Z              PIC X(1)
                                               VALUE SPACE.
               10  WK01-USER-ID-F              PIC X(1)
                                               VALUE SPACE.
               10  WK01-USER-ID-A              PIC X(1)
                                               VALUE SPACE.
               10  WK01-USER-ID-V              PIC X(1)
                                               VALUE SPACE.
               10  WK01-USER-ID-O              PIC X(1)
                                               VALUE SPACE.
               10  WK01-USER-ID       PIC X(32)
                                               VALUE SPACES.
               10  WK01-RSPNS-ID-SY00-Z              PIC X(1)
                                               VALUE SPACE.
               10  WK01-RSPNS-ID-SY00-F              PIC X(1)
                                               VALUE SPACE.
               10  WK01-RSPNS-ID-SY00-A              PIC X(1)
                                               VALUE SPACE.
               10  WK01-RSPNS-ID-SY00-V              PIC X(1)
                                               VALUE SPACE.
               10  WK01-RSPNS-ID-SY00-O              PIC X(1)
                                               VALUE SPACE.
               10  WK01-RSPNS-ID-SY00       PIC X(8)
                                               VALUE SPACES.
               10  WK01-FUNC-DESCRIPTION-Z              PIC X(1)
                                               VALUE SPACE.
               10  WK01-FUNC-DESCRIPTION-F              PIC X(1)
                                               VALUE SPACE.
               10  WK01-FUNC-DESCRIPTION-A              PIC X(1)
                                               VALUE SPACE.
               10  WK01-FUNC-DESCRIPTION-V              PIC X(1)
                                               VALUE SPACE.
               10  WK01-FUNC-DESCRIPTION-O              PIC X(1)
                                               VALUE SPACE.
               10  WK01-FUNC-DESCRIPTION       PIC X(28)
                                               VALUE SPACES.
               10  WK01-STATUS-CODE-SY00-Z              PIC X(1)
                                               VALUE SPACE.
               10  WK01-STATUS-CODE-SY00-F              PIC X(1)
                                               VALUE SPACE.
               10  WK01-STATUS-CODE-SY00-A              PIC X(1)
                                               VALUE SPACE.
               10  WK01-STATUS-CODE-SY00-V              PIC X(1)
                                               VALUE SPACE.
               10  WK01-STATUS-CODE-SY00-O              PIC X(1)
                                               VALUE SPACE.
               10  WK01-STATUS-CODE-SY00       PIC X(1)
                                               VALUE SPACES.
               10  WK01-DATE-CH80-Z              PIC X(1)
                                               VALUE SPACE.
               10  WK01-DATE-CH80-F              PIC X(1)
                                               VALUE SPACE.
               10  WK01-DATE-CH80-A              PIC X(1)
                                               VALUE SPACE.
               10  WK01-DATE-CH80-V              PIC X(1)
                                               VALUE SPACE.
               10  WK01-DATE-CH80-O              PIC X(1)
                                               VALUE SPACE.
               10  WK01-DATE-CH80       PIC X(6)
                                               VALUE SPACES.
               10  WK01-STATUS-CH80-Z              PIC X(1)
                                               VALUE SPACE.
               10  WK01-STATUS-CH80-F              PIC X(1)
                                               VALUE SPACE.
               10  WK01-STATUS-CH80-A              PIC X(1)
                                               VALUE SPACE.
               10  WK01-STATUS-CH80-V              PIC X(1)
                                               VALUE SPACE.
               10  WK01-STATUS-CH80-O              PIC X(1)
                                               VALUE SPACE.
               10  WK01-STATUS-CH80       PIC X(1)
                                               VALUE SPACES.
               10  WK01-CODE-CH801-Z              PIC X(1)
                                               VALUE SPACE.
               10  WK01-CODE-CH801-F              PIC X(1)
                                               VALUE SPACE.
               10  WK01-CODE-CH801-A              PIC X(1)
                                               VALUE SPACE.
               10  WK01-CODE-CH801-V              PIC X(1)
                                               VALUE SPACE.
               10  WK01-CODE-CH801-O              PIC X(1)
                                               VALUE SPACE.
               10  WK01-CODE-CH801       PIC X(1)
                                               VALUE SPACES.
               10  WK01-CODE-4008-CH801-Z              PIC X(1)
                                               VALUE SPACE.
               10  WK01-CODE-4008-CH801-F              PIC X(1)
                                               VALUE SPACE.
               10  WK01-CODE-4008-CH801-A              PIC X(1)
                                               VALUE SPACE.
               10  WK01-CODE-4008-CH801-V              PIC X(1)
                                               VALUE SPACE.
               10  WK01-CODE-4008-CH801-O              PIC X(1)
                                               VALUE SPACE.
               10  WK01-CODE-4008-CH801       PIC X(1)
                                               VALUE SPACES.
               10  WK01-TYPE-CODE-4008-CH801-Z              PIC X(1)
                                               VALUE SPACE.
               10  WK01-TYPE-CODE-4008-CH801-F              PIC X(1)
                                               VALUE SPACE.
               10  WK01-TYPE-CODE-4008-CH801-A              PIC X(1)
                                               VALUE SPACE.
               10  WK01-TYPE-CODE-4008-CH801-V              PIC X(1)
                                               VALUE SPACE.
               10  WK01-TYPE-CODE-4008-CH801-O              PIC X(1)
                                               VALUE SPACE.
               10  WK01-TYPE-CODE-4008-CH801       PIC X(2)
                                               VALUE SPACES.
               10  WK01-TYPE-DESC-4009-CH801-Z              PIC X(1)
                                               VALUE SPACE.
               10  WK01-TYPE-DESC-4009-CH801-F              PIC X(1)
                                               VALUE SPACE.
               10  WK01-TYPE-DESC-4009-CH801-A              PIC X(1)
                                               VALUE SPACE.
               10  WK01-TYPE-DESC-4009-CH801-V              PIC X(1)
                                               VALUE SPACE.
               10  WK01-TYPE-DESC-4009-CH801-O              PIC X(1)
                                               VALUE SPACE.
               10  WK01-TYPE-DESC-4009-CH801       PIC X(35)
                                               VALUE SPACES.
               10  WK01-4009-CH801-Z              PIC X(1)
                                               VALUE SPACE.
               10  WK01-4009-CH801-F              PIC X(1)
                                               VALUE SPACE.
               10  WK01-4009-CH801-A              PIC X(1)
                                               VALUE SPACE.
               10  WK01-4009-CH801-V              PIC X(1)
                                               VALUE SPACE.
               10  WK01-4009-CH801-O              PIC X(1)
                                               VALUE SPACE.
               10  WK01-4009-CH801       PIC X(1)
                                               VALUE SPACES.
               10  WK01-DATE-4009-CH801-Z              PIC X(1)
                                               VALUE SPACE.
               10  WK01-DATE-4009-CH801-F              PIC X(1)
                                               VALUE SPACE.
               10  WK01-DATE-4009-CH801-A              PIC X(1)
                                               VALUE SPACE.
               10  WK01-DATE-4009-CH801-V              PIC X(1)
                                               VALUE SPACE.
               10  WK01-DATE-4009-CH801-O              PIC X(1)
                                               VALUE SPACE.
               10  WK01-DATE-4009-CH801       PIC X(6)
                                               VALUE SPACES.
               10  WK01-DATE-4009-CH8A1-Z              PIC X(1)
                                               VALUE SPACE.
               10  WK01-DATE-4009-CH8A1-F              PIC X(1)
                                               VALUE SPACE.
               10  WK01-DATE-4009-CH8A1-A              PIC X(1)
                                               VALUE SPACE.
               10  WK01-DATE-4009-CH8A1-V              PIC X(1)
                                               VALUE SPACE.
               10  WK01-DATE-4009-CH8A1-O              PIC X(1)
                                               VALUE SPACE.
               10  WK01-DATE-4009-CH8A1       PIC X(6)
                                               VALUE SPACES.
               10  WK01-CODE-CH802-Z              PIC X(1)
                                               VALUE SPACE.
               10  WK01-CODE-CH802-F              PIC X(1)
                                               VALUE SPACE.
               10  WK01-CODE-CH802-A              PIC X(1)
                                               VALUE SPACE.
               10  WK01-CODE-CH802-V              PIC X(1)
                                               VALUE SPACE.
               10  WK01-CODE-CH802-O              PIC X(1)
                                               VALUE SPACE.
               10  WK01-CODE-CH802       PIC X(1)
                                               VALUE SPACES.
               10  WK01-CODE-4008-CH802-Z              PIC X(1)
                                               VALUE SPACE.
               10  WK01-CODE-4008-CH802-F              PIC X(1)
                                               VALUE SPACE.
               10  WK01-CODE-4008-CH802-A              PIC X(1)
                                               VALUE SPACE.
               10  WK01-CODE-4008-CH802-V              PIC X(1)
                                               VALUE SPACE.
               10  WK01-CODE-4008-CH802-O              PIC X(1)
                                               VALUE SPACE.
               10  WK01-CODE-4008-CH802       PIC X(1)
                                               VALUE SPACES.
               10  WK01-TYPE-CODE-4008-CH802-Z              PIC X(1)
                                               VALUE SPACE.
               10  WK01-TYPE-CODE-4008-CH802-F              PIC X(1)
                                               VALUE SPACE.
               10  WK01-TYPE-CODE-4008-CH802-A              PIC X(1)
                                               VALUE SPACE.
               10  WK01-TYPE-CODE-4008-CH802-V              PIC X(1)
                                               VALUE SPACE.
               10  WK01-TYPE-CODE-4008-CH802-O              PIC X(1)
                                               VALUE SPACE.
               10  WK01-TYPE-CODE-4008-CH802       PIC X(2)
                                               VALUE SPACES.
               10  WK01-TYPE-DESC-4009-CH802-Z              PIC X(1)
                                               VALUE SPACE.
               10  WK01-TYPE-DESC-4009-CH802-F              PIC X(1)
                                               VALUE SPACE.
               10  WK01-TYPE-DESC-4009-CH802-A              PIC X(1)
                                               VALUE SPACE.
               10  WK01-TYPE-DESC-4009-CH802-V              PIC X(1)
                                               VALUE SPACE.
               10  WK01-TYPE-DESC-4009-CH802-O              PIC X(1)
                                               VALUE SPACE.
               10  WK01-TYPE-DESC-4009-CH802       PIC X(35)
                                               VALUE SPACES.
               10  WK01-4009-CH802-Z              PIC X(1)
                                               VALUE SPACE.
               10  WK01-4009-CH802-F              PIC X(1)
                                               VALUE SPACE.
               10  WK01-4009-CH802-A              PIC X(1)
                                               VALUE SPACE.
               10  WK01-4009-CH802-V              PIC X(1)
                                               VALUE SPACE.
               10  WK01-4009-CH802-O              PIC X(1)
                                               VALUE SPACE.
               10  WK01-4009-CH802       PIC X(1)
                                               VALUE SPACES.
               10  WK01-DATE-4009-CH802-Z              PIC X(1)
                                               VALUE SPACE.
               10  WK01-DATE-4009-CH802-F              PIC X(1)
                                               VALUE SPACE.
               10  WK01-DATE-4009-CH802-A              PIC X(1)
                                               VALUE SPACE.
               10  WK01-DATE-4009-CH802-V              PIC X(1)
                                               VALUE SPACE.
               10  WK01-DATE-4009-CH802-O              PIC X(1)
                                               VALUE SPACE.
               10  WK01-DATE-4009-CH802       PIC X(6)
                                               VALUE SPACES.
               10  WK01-DATE-4009-CH8A2-Z              PIC X(1)
                                               VALUE SPACE.
               10  WK01-DATE-4009-CH8A2-F              PIC X(1)
                                               VALUE SPACE.
               10  WK01-DATE-4009-CH8A2-A              PIC X(1)
                                               VALUE SPACE.
               10  WK01-DATE-4009-CH8A2-V              PIC X(1)
                                               VALUE SPACE.
               10  WK01-DATE-4009-CH8A2-O              PIC X(1)
                                               VALUE SPACE.
               10  WK01-DATE-4009-CH8A2       PIC X(6)
                                               VALUE SPACES.
               10  WK01-CODE-CH803-Z              PIC X(1)
                                               VALUE SPACE.
               10  WK01-CODE-CH803-F              PIC X(1)
                                               VALUE SPACE.
               10  WK01-CODE-CH803-A              PIC X(1)
                                               VALUE SPACE.
               10  WK01-CODE-CH803-V              PIC X(1)
                                               VALUE SPACE.
               10  WK01-CODE-CH803-O              PIC X(1)
                                               VALUE SPACE.
               10  WK01-CODE-CH803       PIC X(1)
                                               VALUE SPACES.
               10  WK01-CODE-4008-CH803-Z              PIC X(1)
                                               VALUE SPACE.
               10  WK01-CODE-4008-CH803-F              PIC X(1)
                                               VALUE SPACE.
               10  WK01-CODE-4008-CH803-A              PIC X(1)
                                               VALUE SPACE.
               10  WK01-CODE-4008-CH803-V              PIC X(1)
                                               VALUE SPACE.
               10  WK01-CODE-4008-CH803-O              PIC X(1)
                                               VALUE SPACE.
               10  WK01-CODE-4008-CH803       PIC X(1)
                                               VALUE SPACES.
               10  WK01-TYPE-CODE-4008-CH803-Z              PIC X(1)
                                               VALUE SPACE.
               10  WK01-TYPE-CODE-4008-CH803-F              PIC X(1)
                                               VALUE SPACE.
               10  WK01-TYPE-CODE-4008-CH803-A              PIC X(1)
                                               VALUE SPACE.
               10  WK01-TYPE-CODE-4008-CH803-V              PIC X(1)
                                               VALUE SPACE.
               10  WK01-TYPE-CODE-4008-CH803-O              PIC X(1)
                                               VALUE SPACE.
               10  WK01-TYPE-CODE-4008-CH803       PIC X(2)
                                               VALUE SPACES.
               10  WK01-TYPE-DESC-4009-CH803-Z              PIC X(1)
                                               VALUE SPACE.
               10  WK01-TYPE-DESC-4009-CH803-F              PIC X(1)
                                               VALUE SPACE.
               10  WK01-TYPE-DESC-4009-CH803-A              PIC X(1)
                                               VALUE SPACE.
               10  WK01-TYPE-DESC-4009-CH803-V              PIC X(1)
                                               VALUE SPACE.
               10  WK01-TYPE-DESC-4009-CH803-O              PIC X(1)
                                               VALUE SPACE.
               10  WK01-TYPE-DESC-4009-CH803       PIC X(35)
                                               VALUE SPACES.
               10  WK01-4009-CH803-Z              PIC X(1)
                                               VALUE SPACE.
               10  WK01-4009-CH803-F              PIC X(1)
                                               VALUE SPACE.
               10  WK01-4009-CH803-A              PIC X(1)
                                               VALUE SPACE.
               10  WK01-4009-CH803-V              PIC X(1)
                                               VALUE SPACE.
               10  WK01-4009-CH803-O              PIC X(1)
                                               VALUE SPACE.
               10  WK01-4009-CH803       PIC X(1)
                                               VALUE SPACES.
               10  WK01-DATE-4009-CH803-Z              PIC X(1)
                                               VALUE SPACE.
               10  WK01-DATE-4009-CH803-F              PIC X(1)
                                               VALUE SPACE.
               10  WK01-DATE-4009-CH803-A              PIC X(1)
                                               VALUE SPACE.
               10  WK01-DATE-4009-CH803-V              PIC X(1)
                                               VALUE SPACE.
               10  WK01-DATE-4009-CH803-O              PIC X(1)
                                               VALUE SPACE.
               10  WK01-DATE-4009-CH803       PIC X(6)
                                               VALUE SPACES.
               10  WK01-DATE-4009-CH8A3-Z              PIC X(1)
                                               VALUE SPACE.
               10  WK01-DATE-4009-CH8A3-F              PIC X(1)
                                               VALUE SPACE.
               10  WK01-DATE-4009-CH8A3-A              PIC X(1)
                                               VALUE SPACE.
               10  WK01-DATE-4009-CH8A3-V              PIC X(1)
                                               VALUE SPACE.
               10  WK01-DATE-4009-CH8A3-O              PIC X(1)
                                               VALUE SPACE.
               10  WK01-DATE-4009-CH8A3       PIC X(6)
                                               VALUE SPACES.
               10  WK01-CODE-CH804-Z              PIC X(1)
                                               VALUE SPACE.
               10  WK01-CODE-CH804-F              PIC X(1)
                                               VALUE SPACE.
               10  WK01-CODE-CH804-A              PIC X(1)
                                               VALUE SPACE.
               10  WK01-CODE-CH804-V              PIC X(1)
                                               VALUE SPACE.
               10  WK01-CODE-CH804-O              PIC X(1)
                                               VALUE SPACE.
               10  WK01-CODE-CH804       PIC X(1)
                                               VALUE SPACES.
               10  WK01-CODE-4008-CH804-Z              PIC X(1)
                                               VALUE SPACE.
               10  WK01-CODE-4008-CH804-F              PIC X(1)
                                               VALUE SPACE.
               10  WK01-CODE-4008-CH804-A              PIC X(1)
                                               VALUE SPACE.
               10  WK01-CODE-4008-CH804-V              PIC X(1)
                                               VALUE SPACE.
               10  WK01-CODE-4008-CH804-O              PIC X(1)
                                               VALUE SPACE.
               10  WK01-CODE-4008-CH804       PIC X(1)
                                               VALUE SPACES.
               10  WK01-TYPE-CODE-4008-CH804-Z              PIC X(1)
                                               VALUE SPACE.
               10  WK01-TYPE-CODE-4008-CH804-F              PIC X(1)
                                               VALUE SPACE.
               10  WK01-TYPE-CODE-4008-CH804-A              PIC X(1)
                                               VALUE SPACE.
               10  WK01-TYPE-CODE-4008-CH804-V              PIC X(1)
                                               VALUE SPACE.
               10  WK01-TYPE-CODE-4008-CH804-O              PIC X(1)
                                               VALUE SPACE.
               10  WK01-TYPE-CODE-4008-CH804       PIC X(2)
                                               VALUE SPACES.
               10  WK01-TYPE-DESC-4009-CH804-Z              PIC X(1)
                                               VALUE SPACE.
               10  WK01-TYPE-DESC-4009-CH804-F              PIC X(1)
                                               VALUE SPACE.
               10  WK01-TYPE-DESC-4009-CH804-A              PIC X(1)
                                               VALUE SPACE.
               10  WK01-TYPE-DESC-4009-CH804-V              PIC X(1)
                                               VALUE SPACE.
               10  WK01-TYPE-DESC-4009-CH804-O              PIC X(1)
                                               VALUE SPACE.
               10  WK01-TYPE-DESC-4009-CH804       PIC X(35)
                                               VALUE SPACES.
               10  WK01-4009-CH804-Z              PIC X(1)
                                               VALUE SPACE.
               10  WK01-4009-CH804-F              PIC X(1)
                                               VALUE SPACE.
               10  WK01-4009-CH804-A              PIC X(1)
                                               VALUE SPACE.
               10  WK01-4009-CH804-V              PIC X(1)
                                               VALUE SPACE.
               10  WK01-4009-CH804-O              PIC X(1)
                                               VALUE SPACE.
               10  WK01-4009-CH804       PIC X(1)
                                               VALUE SPACES.
               10  WK01-DATE-4009-CH804-Z              PIC X(1)
                                               VALUE SPACE.
               10  WK01-DATE-4009-CH804-F              PIC X(1)
                                               VALUE SPACE.
               10  WK01-DATE-4009-CH804-A              PIC X(1)
                                               VALUE SPACE.
               10  WK01-DATE-4009-CH804-V              PIC X(1)
                                               VALUE SPACE.
               10  WK01-DATE-4009-CH804-O              PIC X(1)
                                               VALUE SPACE.
               10  WK01-DATE-4009-CH804       PIC X(6)
                                               VALUE SPACES.
               10  WK01-DATE-4009-CH8A4-Z              PIC X(1)
                                               VALUE SPACE.
               10  WK01-DATE-4009-CH8A4-F              PIC X(1)
                                               VALUE SPACE.
               10  WK01-DATE-4009-CH8A4-A              PIC X(1)
                                               VALUE SPACE.
               10  WK01-DATE-4009-CH8A4-V              PIC X(1)
                                               VALUE SPACE.
               10  WK01-DATE-4009-CH8A4-O              PIC X(1)
                                               VALUE SPACE.
               10  WK01-DATE-4009-CH8A4       PIC X(6)
                                               VALUE SPACES.
               10  WK01-CODE-CH805-Z              PIC X(1)
                                               VALUE SPACE.
               10  WK01-CODE-CH805-F              PIC X(1)
                                               VALUE SPACE.
               10  WK01-CODE-CH805-A              PIC X(1)
                                               VALUE SPACE.
               10  WK01-CODE-CH805-V              PIC X(1)
                                               VALUE SPACE.
               10  WK01-CODE-CH805-O              PIC X(1)
                                               VALUE SPACE.
               10  WK01-CODE-CH805       PIC X(1)
                                               VALUE SPACES.
               10  WK01-CODE-4008-CH805-Z              PIC X(1)
                                               VALUE SPACE.
               10  WK01-CODE-4008-CH805-F              PIC X(1)
                                               VALUE SPACE.
               10  WK01-CODE-4008-CH805-A              PIC X(1)
                                               VALUE SPACE.
               10  WK01-CODE-4008-CH805-V              PIC X(1)
                                               VALUE SPACE.
               10  WK01-CODE-4008-CH805-O              PIC X(1)
                                               VALUE SPACE.
               10  WK01-CODE-4008-CH805       PIC X(1)
                                               VALUE SPACES.
               10  WK01-TYPE-CODE-4008-CH805-Z              PIC X(1)
                                               VALUE SPACE.
               10  WK01-TYPE-CODE-4008-CH805-F              PIC X(1)
                                               VALUE SPACE.
               10  WK01-TYPE-CODE-4008-CH805-A              PIC X(1)
                                               VALUE SPACE.
               10  WK01-TYPE-CODE-4008-CH805-V              PIC X(1)
                                               VALUE SPACE.
               10  WK01-TYPE-CODE-4008-CH805-O              PIC X(1)
                                               VALUE SPACE.
               10  WK01-TYPE-CODE-4008-CH805       PIC X(2)
                                               VALUE SPACES.
               10  WK01-TYPE-DESC-4009-CH805-Z              PIC X(1)
                                               VALUE SPACE.
               10  WK01-TYPE-DESC-4009-CH805-F              PIC X(1)
                                               VALUE SPACE.
               10  WK01-TYPE-DESC-4009-CH805-A              PIC X(1)
                                               VALUE SPACE.
               10  WK01-TYPE-DESC-4009-CH805-V              PIC X(1)
                                               VALUE SPACE.
               10  WK01-TYPE-DESC-4009-CH805-O              PIC X(1)
                                               VALUE SPACE.
               10  WK01-TYPE-DESC-4009-CH805       PIC X(35)
                                               VALUE SPACES.
               10  WK01-4009-CH805-Z              PIC X(1)
                                               VALUE SPACE.
               10  WK01-4009-CH805-F              PIC X(1)
                                               VALUE SPACE.
               10  WK01-4009-CH805-A              PIC X(1)
                                               VALUE SPACE.
               10  WK01-4009-CH805-V              PIC X(1)
                                               VALUE SPACE.
               10  WK01-4009-CH805-O              PIC X(1)
                                               VALUE SPACE.
               10  WK01-4009-CH805       PIC X(1)
                                               VALUE SPACES.
               10  WK01-DATE-4009-CH805-Z              PIC X(1)
                                               VALUE SPACE.
               10  WK01-DATE-4009-CH805-F              PIC X(1)
                                               VALUE SPACE.
               10  WK01-DATE-4009-CH805-A              PIC X(1)
                                               VALUE SPACE.
               10  WK01-DATE-4009-CH805-V              PIC X(1)
                                               VALUE SPACE.
               10  WK01-DATE-4009-CH805-O              PIC X(1)
                                               VALUE SPACE.
               10  WK01-DATE-4009-CH805       PIC X(6)
                                               VALUE SPACES.
               10  WK01-DATE-4009-CH8A5-Z              PIC X(1)
                                               VALUE SPACE.
               10  WK01-DATE-4009-CH8A5-F              PIC X(1)
                                               VALUE SPACE.
               10  WK01-DATE-4009-CH8A5-A              PIC X(1)
                                               VALUE SPACE.
               10  WK01-DATE-4009-CH8A5-V              PIC X(1)
                                               VALUE SPACE.
               10  WK01-DATE-4009-CH8A5-O              PIC X(1)
                                               VALUE SPACE.
               10  WK01-DATE-4009-CH8A5       PIC X(6)
                                               VALUE SPACES.
               10  WK01-CODE-CH806-Z              PIC X(1)
                                               VALUE SPACE.
               10  WK01-CODE-CH806-F              PIC X(1)
                                               VALUE SPACE.
               10  WK01-CODE-CH806-A              PIC X(1)
                                               VALUE SPACE.
               10  WK01-CODE-CH806-V              PIC X(1)
                                               VALUE SPACE.
               10  WK01-CODE-CH806-O              PIC X(1)
                                               VALUE SPACE.
               10  WK01-CODE-CH806       PIC X(1)
                                               VALUE SPACES.
               10  WK01-CODE-4008-CH806-Z              PIC X(1)
                                               VALUE SPACE.
               10  WK01-CODE-4008-CH806-F              PIC X(1)
                                               VALUE SPACE.
               10  WK01-CODE-4008-CH806-A              PIC X(1)
                                               VALUE SPACE.
               10  WK01-CODE-4008-CH806-V              PIC X(1)
                                               VALUE SPACE.
               10  WK01-CODE-4008-CH806-O              PIC X(1)
                                               VALUE SPACE.
               10  WK01-CODE-4008-CH806       PIC X(1)
                                               VALUE SPACES.
               10  WK01-TYPE-CODE-4008-CH806-Z              PIC X(1)
                                               VALUE SPACE.
               10  WK01-TYPE-CODE-4008-CH806-F              PIC X(1)
                                               VALUE SPACE.
               10  WK01-TYPE-CODE-4008-CH806-A              PIC X(1)
                                               VALUE SPACE.
               10  WK01-TYPE-CODE-4008-CH806-V              PIC X(1)
                                               VALUE SPACE.
               10  WK01-TYPE-CODE-4008-CH806-O              PIC X(1)
                                               VALUE SPACE.
               10  WK01-TYPE-CODE-4008-CH806       PIC X(2)
                                               VALUE SPACES.
               10  WK01-TYPE-DESC-4009-CH806-Z              PIC X(1)
                                               VALUE SPACE.
               10  WK01-TYPE-DESC-4009-CH806-F              PIC X(1)
                                               VALUE SPACE.
               10  WK01-TYPE-DESC-4009-CH806-A              PIC X(1)
                                               VALUE SPACE.
               10  WK01-TYPE-DESC-4009-CH806-V              PIC X(1)
                                               VALUE SPACE.
               10  WK01-TYPE-DESC-4009-CH806-O              PIC X(1)
                                               VALUE SPACE.
               10  WK01-TYPE-DESC-4009-CH806       PIC X(35)
                                               VALUE SPACES.
               10  WK01-4009-CH806-Z              PIC X(1)
                                               VALUE SPACE.
               10  WK01-4009-CH806-F              PIC X(1)
                                               VALUE SPACE.
               10  WK01-4009-CH806-A              PIC X(1)
                                               VALUE SPACE.
               10  WK01-4009-CH806-V              PIC X(1)
                                               VALUE SPACE.
               10  WK01-4009-CH806-O              PIC X(1)
                                               VALUE SPACE.
               10  WK01-4009-CH806       PIC X(1)
                                               VALUE SPACES.
               10  WK01-DATE-4009-CH806-Z              PIC X(1)
                                               VALUE SPACE.
               10  WK01-DATE-4009-CH806-F              PIC X(1)
                                               VALUE SPACE.
               10  WK01-DATE-4009-CH806-A              PIC X(1)
                                               VALUE SPACE.
               10  WK01-DATE-4009-CH806-V              PIC X(1)
                                               VALUE SPACE.
               10  WK01-DATE-4009-CH806-O              PIC X(1)
                                               VALUE SPACE.
               10  WK01-DATE-4009-CH806       PIC X(6)
                                               VALUE SPACES.
               10  WK01-DATE-4009-CH8A6-Z              PIC X(1)
                                               VALUE SPACE.
               10  WK01-DATE-4009-CH8A6-F              PIC X(1)
                                               VALUE SPACE.
               10  WK01-DATE-4009-CH8A6-A              PIC X(1)
                                               VALUE SPACE.
               10  WK01-DATE-4009-CH8A6-V              PIC X(1)
                                               VALUE SPACE.
               10  WK01-DATE-4009-CH8A6-O              PIC X(1)
                                               VALUE SPACE.
               10  WK01-DATE-4009-CH8A6       PIC X(6)
                                               VALUE SPACES.
               10  WK01-CODE-CH807-Z              PIC X(1)
                                               VALUE SPACE.
               10  WK01-CODE-CH807-F              PIC X(1)
                                               VALUE SPACE.
               10  WK01-CODE-CH807-A              PIC X(1)
                                               VALUE SPACE.
               10  WK01-CODE-CH807-V              PIC X(1)
                                               VALUE SPACE.
               10  WK01-CODE-CH807-O              PIC X(1)
                                               VALUE SPACE.
               10  WK01-CODE-CH807       PIC X(1)
                                               VALUE SPACES.
               10  WK01-CODE-4008-CH807-Z              PIC X(1)
                                               VALUE SPACE.
               10  WK01-CODE-4008-CH807-F              PIC X(1)
                                               VALUE SPACE.
               10  WK01-CODE-4008-CH807-A              PIC X(1)
                                               VALUE SPACE.
               10  WK01-CODE-4008-CH807-V              PIC X(1)
                                               VALUE SPACE.
               10  WK01-CODE-4008-CH807-O              PIC X(1)
                                               VALUE SPACE.
               10  WK01-CODE-4008-CH807       PIC X(1)
                                               VALUE SPACES.
               10  WK01-TYPE-CODE-4008-CH807-Z              PIC X(1)
                                               VALUE SPACE.
               10  WK01-TYPE-CODE-4008-CH807-F              PIC X(1)
                                               VALUE SPACE.
               10  WK01-TYPE-CODE-4008-CH807-A              PIC X(1)
                                               VALUE SPACE.
               10  WK01-TYPE-CODE-4008-CH807-V              PIC X(1)
                                               VALUE SPACE.
               10  WK01-TYPE-CODE-4008-CH807-O              PIC X(1)
                                               VALUE SPACE.
               10  WK01-TYPE-CODE-4008-CH807       PIC X(2)
                                               VALUE SPACES.
               10  WK01-TYPE-DESC-4009-CH807-Z              PIC X(1)
                                               VALUE SPACE.
               10  WK01-TYPE-DESC-4009-CH807-F              PIC X(1)
                                               VALUE SPACE.
               10  WK01-TYPE-DESC-4009-CH807-A              PIC X(1)
                                               VALUE SPACE.
               10  WK01-TYPE-DESC-4009-CH807-V              PIC X(1)
                                               VALUE SPACE.
               10  WK01-TYPE-DESC-4009-CH807-O              PIC X(1)
                                               VALUE SPACE.
               10  WK01-TYPE-DESC-4009-CH807       PIC X(35)
                                               VALUE SPACES.
               10  WK01-4009-CH807-Z              PIC X(1)
                                               VALUE SPACE.
               10  WK01-4009-CH807-F              PIC X(1)
                                               VALUE SPACE.
               10  WK01-4009-CH807-A              PIC X(1)
                                               VALUE SPACE.
               10  WK01-4009-CH807-V              PIC X(1)
                                               VALUE SPACE.
               10  WK01-4009-CH807-O              PIC X(1)
                                               VALUE SPACE.
               10  WK01-4009-CH807       PIC X(1)
                                               VALUE SPACES.
               10  WK01-DATE-4009-CH807-Z              PIC X(1)
                                               VALUE SPACE.
               10  WK01-DATE-4009-CH807-F              PIC X(1)
                                               VALUE SPACE.
               10  WK01-DATE-4009-CH807-A              PIC X(1)
                                               VALUE SPACE.
               10  WK01-DATE-4009-CH807-V              PIC X(1)
                                               VALUE SPACE.
               10  WK01-DATE-4009-CH807-O              PIC X(1)
                                               VALUE SPACE.
               10  WK01-DATE-4009-CH807       PIC X(6)
                                               VALUE SPACES.
               10  WK01-DATE-4009-CH8A7-Z              PIC X(1)
                                               VALUE SPACE.
               10  WK01-DATE-4009-CH8A7-F              PIC X(1)
                                               VALUE SPACE.
               10  WK01-DATE-4009-CH8A7-A              PIC X(1)
                                               VALUE SPACE.
               10  WK01-DATE-4009-CH8A7-V              PIC X(1)
                                               VALUE SPACE.
               10  WK01-DATE-4009-CH8A7-O              PIC X(1)
                                               VALUE SPACE.
               10  WK01-DATE-4009-CH8A7       PIC X(6)
                                               VALUE SPACES.
               10  WK01-CODE-CH808-Z              PIC X(1)
                                               VALUE SPACE.
               10  WK01-CODE-CH808-F              PIC X(1)
                                               VALUE SPACE.
               10  WK01-CODE-CH808-A              PIC X(1)
                                               VALUE SPACE.
               10  WK01-CODE-CH808-V              PIC X(1)
                                               VALUE SPACE.
               10  WK01-CODE-CH808-O              PIC X(1)
                                               VALUE SPACE.
               10  WK01-CODE-CH808       PIC X(1)
                                               VALUE SPACES.
               10  WK01-CODE-4008-CH808-Z              PIC X(1)
                                               VALUE SPACE.
               10  WK01-CODE-4008-CH808-F              PIC X(1)
                                               VALUE SPACE.
               10  WK01-CODE-4008-CH808-A              PIC X(1)
                                               VALUE SPACE.
               10  WK01-CODE-4008-CH808-V              PIC X(1)
                                               VALUE SPACE.
               10  WK01-CODE-4008-CH808-O              PIC X(1)
                                               VALUE SPACE.
               10  WK01-CODE-4008-CH808       PIC X(1)
                                               VALUE SPACES.
               10  WK01-TYPE-CODE-4008-CH808-Z              PIC X(1)
                                               VALUE SPACE.
               10  WK01-TYPE-CODE-4008-CH808-F              PIC X(1)
                                               VALUE SPACE.
               10  WK01-TYPE-CODE-4008-CH808-A              PIC X(1)
                                               VALUE SPACE.
               10  WK01-TYPE-CODE-4008-CH808-V              PIC X(1)
                                               VALUE SPACE.
               10  WK01-TYPE-CODE-4008-CH808-O              PIC X(1)
                                               VALUE SPACE.
               10  WK01-TYPE-CODE-4008-CH808       PIC X(2)
                                               VALUE SPACES.
               10  WK01-TYPE-DESC-4009-CH808-Z              PIC X(1)
                                               VALUE SPACE.
               10  WK01-TYPE-DESC-4009-CH808-F              PIC X(1)
                                               VALUE SPACE.
               10  WK01-TYPE-DESC-4009-CH808-A              PIC X(1)
                                               VALUE SPACE.
               10  WK01-TYPE-DESC-4009-CH808-V              PIC X(1)
                                               VALUE SPACE.
               10  WK01-TYPE-DESC-4009-CH808-O              PIC X(1)
                                               VALUE SPACE.
               10  WK01-TYPE-DESC-4009-CH808       PIC X(35)
                                               VALUE SPACES.
               10  WK01-4009-CH808-Z              PIC X(1)
                                               VALUE SPACE.
               10  WK01-4009-CH808-F              PIC X(1)
                                               VALUE SPACE.
               10  WK01-4009-CH808-A              PIC X(1)
                                               VALUE SPACE.
               10  WK01-4009-CH808-V              PIC X(1)
                                               VALUE SPACE.
               10  WK01-4009-CH808-O              PIC X(1)
                                               VALUE SPACE.
               10  WK01-4009-CH808       PIC X(1)
                                               VALUE SPACES.
               10  WK01-DATE-4009-CH808-Z              PIC X(1)
                                               VALUE SPACE.
               10  WK01-DATE-4009-CH808-F              PIC X(1)
                                               VALUE SPACE.
               10  WK01-DATE-4009-CH808-A              PIC X(1)
                                               VALUE SPACE.
               10  WK01-DATE-4009-CH808-V              PIC X(1)
                                               VALUE SPACE.
               10  WK01-DATE-4009-CH808-O              PIC X(1)
                                               VALUE SPACE.
               10  WK01-DATE-4009-CH808       PIC X(6)
                                               VALUE SPACES.
               10  WK01-DATE-4009-CH8A8-Z              PIC X(1)
                                               VALUE SPACE.
               10  WK01-DATE-4009-CH8A8-F              PIC X(1)
                                               VALUE SPACE.
               10  WK01-DATE-4009-CH8A8-A              PIC X(1)
                                               VALUE SPACE.
               10  WK01-DATE-4009-CH8A8-V              PIC X(1)
                                               VALUE SPACE.
               10  WK01-DATE-4009-CH8A8-O              PIC X(1)
                                               VALUE SPACE.
               10  WK01-DATE-4009-CH8A8       PIC X(6)
                                               VALUE SPACES.
               10  WK01-CODE-CH809-Z              PIC X(1)
                                               VALUE SPACE.
               10  WK01-CODE-CH809-F              PIC X(1)
                                               VALUE SPACE.
               10  WK01-CODE-CH809-A              PIC X(1)
                                               VALUE SPACE.
               10  WK01-CODE-CH809-V              PIC X(1)
                                               VALUE SPACE.
               10  WK01-CODE-CH809-O              PIC X(1)
                                               VALUE SPACE.
               10  WK01-CODE-CH809       PIC X(1)
                                               VALUE SPACES.
               10  WK01-CODE-4008-CH809-Z              PIC X(1)
                                               VALUE SPACE.
               10  WK01-CODE-4008-CH809-F              PIC X(1)
                                               VALUE SPACE.
               10  WK01-CODE-4008-CH809-A              PIC X(1)
                                               VALUE SPACE.
               10  WK01-CODE-4008-CH809-V              PIC X(1)
                                               VALUE SPACE.
               10  WK01-CODE-4008-CH809-O              PIC X(1)
                                               VALUE SPACE.
               10  WK01-CODE-4008-CH809       PIC X(1)
                                               VALUE SPACES.
               10  WK01-TYPE-CODE-4008-CH809-Z              PIC X(1)
                                               VALUE SPACE.
               10  WK01-TYPE-CODE-4008-CH809-F              PIC X(1)
                                               VALUE SPACE.
               10  WK01-TYPE-CODE-4008-CH809-A              PIC X(1)
                                               VALUE SPACE.
               10  WK01-TYPE-CODE-4008-CH809-V              PIC X(1)
                                               VALUE SPACE.
               10  WK01-TYPE-CODE-4008-CH809-O              PIC X(1)
                                               VALUE SPACE.
               10  WK01-TYPE-CODE-4008-CH809       PIC X(2)
                                               VALUE SPACES.
               10  WK01-TYPE-DESC-4009-CH809-Z              PIC X(1)
                                               VALUE SPACE.
               10  WK01-TYPE-DESC-4009-CH809-F              PIC X(1)
                                               VALUE SPACE.
               10  WK01-TYPE-DESC-4009-CH809-A              PIC X(1)
                                               VALUE SPACE.
               10  WK01-TYPE-DESC-4009-CH809-V              PIC X(1)
                                               VALUE SPACE.
               10  WK01-TYPE-DESC-4009-CH809-O              PIC X(1)
                                               VALUE SPACE.
               10  WK01-TYPE-DESC-4009-CH809       PIC X(35)
                                               VALUE SPACES.
               10  WK01-4009-CH809-Z              PIC X(1)
                                               VALUE SPACE.
               10  WK01-4009-CH809-F              PIC X(1)
                                               VALUE SPACE.
               10  WK01-4009-CH809-A              PIC X(1)
                                               VALUE SPACE.
               10  WK01-4009-CH809-V              PIC X(1)
                                               VALUE SPACE.
               10  WK01-4009-CH809-O              PIC X(1)
                                               VALUE SPACE.
               10  WK01-4009-CH809       PIC X(1)
                                               VALUE SPACES.
               10  WK01-DATE-4009-CH809-Z              PIC X(1)
                                               VALUE SPACE.
               10  WK01-DATE-4009-CH809-F              PIC X(1)
                                               VALUE SPACE.
               10  WK01-DATE-4009-CH809-A              PIC X(1)
                                               VALUE SPACE.
               10  WK01-DATE-4009-CH809-V              PIC X(1)
                                               VALUE SPACE.
               10  WK01-DATE-4009-CH809-O              PIC X(1)
                                               VALUE SPACE.
               10  WK01-DATE-4009-CH809       PIC X(6)
                                               VALUE SPACES.
               10  WK01-DATE-4009-CH8A9-Z              PIC X(1)
                                               VALUE SPACE.
               10  WK01-DATE-4009-CH8A9-F              PIC X(1)
                                               VALUE SPACE.
               10  WK01-DATE-4009-CH8A9-A              PIC X(1)
                                               VALUE SPACE.
               10  WK01-DATE-4009-CH8A9-V              PIC X(1)
                                               VALUE SPACE.
               10  WK01-DATE-4009-CH8A9-O              PIC X(1)
                                               VALUE SPACE.
               10  WK01-DATE-4009-CH8A9       PIC X(6)
                                               VALUE SPACES.
               10  WK01-CODE-CH8010-Z              PIC X(1)
                                               VALUE SPACE.
               10  WK01-CODE-CH8010-F              PIC X(1)
                                               VALUE SPACE.
               10  WK01-CODE-CH8010-A              PIC X(1)
                                               VALUE SPACE.
               10  WK01-CODE-CH8010-V              PIC X(1)
                                               VALUE SPACE.
               10  WK01-CODE-CH8010-O              PIC X(1)
                                               VALUE SPACE.
               10  WK01-CODE-CH8010       PIC X(1)
                                               VALUE SPACES.
               10  WK01-CODE-4008-CH8010-Z              PIC X(1)
                                               VALUE SPACE.
               10  WK01-CODE-4008-CH8010-F              PIC X(1)
                                               VALUE SPACE.
               10  WK01-CODE-4008-CH8010-A              PIC X(1)
                                               VALUE SPACE.
               10  WK01-CODE-4008-CH8010-V              PIC X(1)
                                               VALUE SPACE.
               10  WK01-CODE-4008-CH8010-O              PIC X(1)
                                               VALUE SPACE.
               10  WK01-CODE-4008-CH8010       PIC X(1)
                                               VALUE SPACES.
               10  WK01-TYPE-CODE-4008-CH8010-Z              PIC X(1)
                                               VALUE SPACE.
               10  WK01-TYPE-CODE-4008-CH8010-F              PIC X(1)
                                               VALUE SPACE.
               10  WK01-TYPE-CODE-4008-CH8010-A              PIC X(1)
                                               VALUE SPACE.
               10  WK01-TYPE-CODE-4008-CH8010-V              PIC X(1)
                                               VALUE SPACE.
               10  WK01-TYPE-CODE-4008-CH8010-O              PIC X(1)
                                               VALUE SPACE.
               10  WK01-TYPE-CODE-4008-CH8010       PIC X(2)
                                               VALUE SPACES.
               10  WK01-TYPE-DESC-4009-CH8010-Z              PIC X(1)
                                               VALUE SPACE.
               10  WK01-TYPE-DESC-4009-CH8010-F              PIC X(1)
                                               VALUE SPACE.
               10  WK01-TYPE-DESC-4009-CH8010-A              PIC X(1)
                                               VALUE SPACE.
               10  WK01-TYPE-DESC-4009-CH8010-V              PIC X(1)
                                               VALUE SPACE.
               10  WK01-TYPE-DESC-4009-CH8010-O              PIC X(1)
                                               VALUE SPACE.
               10  WK01-TYPE-DESC-4009-CH8010       PIC X(35)
                                               VALUE SPACES.
               10  WK01-4009-CH8010-Z              PIC X(1)
                                               VALUE SPACE.
               10  WK01-4009-CH8010-F              PIC X(1)
                                               VALUE SPACE.
               10  WK01-4009-CH8010-A              PIC X(1)
                                               VALUE SPACE.
               10  WK01-4009-CH8010-V              PIC X(1)
                                               VALUE SPACE.
               10  WK01-4009-CH8010-O              PIC X(1)
                                               VALUE SPACE.
               10  WK01-4009-CH8010       PIC X(1)
                                               VALUE SPACES.
               10  WK01-DATE-4009-CH8010-Z              PIC X(1)
                                               VALUE SPACE.
               10  WK01-DATE-4009-CH8010-F              PIC X(1)
                                               VALUE SPACE.
               10  WK01-DATE-4009-CH8010-A              PIC X(1)
                                               VALUE SPACE.
               10  WK01-DATE-4009-CH8010-V              PIC X(1)
                                               VALUE SPACE.
               10  WK01-DATE-4009-CH8010-O              PIC X(1)
                                               VALUE SPACE.
               10  WK01-DATE-4009-CH8010       PIC X(6)
                                               VALUE SPACES.
               10  WK01-DATE-4009-CH8A10-Z              PIC X(1)
                                               VALUE SPACE.
               10  WK01-DATE-4009-CH8A10-F              PIC X(1)
                                               VALUE SPACE.
               10  WK01-DATE-4009-CH8A10-A              PIC X(1)
                                               VALUE SPACE.
               10  WK01-DATE-4009-CH8A10-V              PIC X(1)
                                               VALUE SPACE.
               10  WK01-DATE-4009-CH8A10-O              PIC X(1)
                                               VALUE SPACE.
               10  WK01-DATE-4009-CH8A10       PIC X(6)
                                               VALUE SPACES.
               10  WK01-CODE-CH8011-Z              PIC X(1)
                                               VALUE SPACE.
               10  WK01-CODE-CH8011-F              PIC X(1)
                                               VALUE SPACE.
               10  WK01-CODE-CH8011-A              PIC X(1)
                                               VALUE SPACE.
               10  WK01-CODE-CH8011-V              PIC X(1)
                                               VALUE SPACE.
               10  WK01-CODE-CH8011-O              PIC X(1)
                                               VALUE SPACE.
               10  WK01-CODE-CH8011       PIC X(1)
                                               VALUE SPACES.
               10  WK01-CODE-4008-CH8011-Z              PIC X(1)
                                               VALUE SPACE.
               10  WK01-CODE-4008-CH8011-F              PIC X(1)
                                               VALUE SPACE.
               10  WK01-CODE-4008-CH8011-A              PIC X(1)
                                               VALUE SPACE.
               10  WK01-CODE-4008-CH8011-V              PIC X(1)
                                               VALUE SPACE.
               10  WK01-CODE-4008-CH8011-O              PIC X(1)
                                               VALUE SPACE.
               10  WK01-CODE-4008-CH8011       PIC X(1)
                                               VALUE SPACES.
               10  WK01-TYPE-CODE-4008-CH8011-Z              PIC X(1)
                                               VALUE SPACE.
               10  WK01-TYPE-CODE-4008-CH8011-F              PIC X(1)
                                               VALUE SPACE.
               10  WK01-TYPE-CODE-4008-CH8011-A              PIC X(1)
                                               VALUE SPACE.
               10  WK01-TYPE-CODE-4008-CH8011-V              PIC X(1)
                                               VALUE SPACE.
               10  WK01-TYPE-CODE-4008-CH8011-O              PIC X(1)
                                               VALUE SPACE.
               10  WK01-TYPE-CODE-4008-CH8011       PIC X(2)
                                               VALUE SPACES.
               10  WK01-TYPE-DESC-4009-CH8011-Z              PIC X(1)
                                               VALUE SPACE.
               10  WK01-TYPE-DESC-4009-CH8011-F              PIC X(1)
                                               VALUE SPACE.
               10  WK01-TYPE-DESC-4009-CH8011-A              PIC X(1)
                                               VALUE SPACE.
               10  WK01-TYPE-DESC-4009-CH8011-V              PIC X(1)
                                               VALUE SPACE.
               10  WK01-TYPE-DESC-4009-CH8011-O              PIC X(1)
                                               VALUE SPACE.
               10  WK01-TYPE-DESC-4009-CH8011       PIC X(35)
                                               VALUE SPACES.
               10  WK01-4009-CH8011-Z              PIC X(1)
                                               VALUE SPACE.
               10  WK01-4009-CH8011-F              PIC X(1)
                                               VALUE SPACE.
               10  WK01-4009-CH8011-A              PIC X(1)
                                               VALUE SPACE.
               10  WK01-4009-CH8011-V              PIC X(1)
                                               VALUE SPACE.
               10  WK01-4009-CH8011-O              PIC X(1)
                                               VALUE SPACE.
               10  WK01-4009-CH8011       PIC X(1)
                                               VALUE SPACES.
               10  WK01-DATE-4009-CH8011-Z              PIC X(1)
                                               VALUE SPACE.
               10  WK01-DATE-4009-CH8011-F              PIC X(1)
                                               VALUE SPACE.
               10  WK01-DATE-4009-CH8011-A              PIC X(1)
                                               VALUE SPACE.
               10  WK01-DATE-4009-CH8011-V              PIC X(1)
                                               VALUE SPACE.
               10  WK01-DATE-4009-CH8011-O              PIC X(1)
                                               VALUE SPACE.
               10  WK01-DATE-4009-CH8011       PIC X(6)
                                               VALUE SPACES.
               10  WK01-DATE-4009-CH8A11-Z              PIC X(1)
                                               VALUE SPACE.
               10  WK01-DATE-4009-CH8A11-F              PIC X(1)
                                               VALUE SPACE.
               10  WK01-DATE-4009-CH8A11-A              PIC X(1)
                                               VALUE SPACE.
               10  WK01-DATE-4009-CH8A11-V              PIC X(1)
                                               VALUE SPACE.
               10  WK01-DATE-4009-CH8A11-O              PIC X(1)
                                               VALUE SPACE.
               10  WK01-DATE-4009-CH8A11       PIC X(6)
                                               VALUE SPACES.
               10  WK01-COA-CODE-CH80-Z              PIC X(1)
                                               VALUE SPACE.
               10  WK01-COA-CODE-CH80-F              PIC X(1)
                                               VALUE SPACE.
               10  WK01-COA-CODE-CH80-A              PIC X(1)
                                               VALUE SPACE.
               10  WK01-COA-CODE-CH80-V              PIC X(1)
                                               VALUE SPACE.
               10  WK01-COA-CODE-CH80-O              PIC X(1)
                                               VALUE SPACE.
               10  WK01-COA-CODE-CH80       PIC X(1)
                                               VALUE SPACES.
               10  WK01-FUND-TYPE-CODE-CH80-Z              PIC X(1)
                                               VALUE SPACE.
               10  WK01-FUND-TYPE-CODE-CH80-F              PIC X(1)
                                               VALUE SPACE.
               10  WK01-FUND-TYPE-CODE-CH80-A              PIC X(1)
                                               VALUE SPACE.
               10  WK01-FUND-TYPE-CODE-CH80-V              PIC X(1)
                                               VALUE SPACE.
               10  WK01-FUND-TYPE-CODE-CH80-O              PIC X(1)
                                               VALUE SPACE.
               10  WK01-FUND-TYPE-CODE-CH80       PIC X(2)
                                               VALUE SPACES.
               10  WK01-ZZMESSAGE-Z              PIC X(1)
                                               VALUE SPACE.
               10  WK01-ZZMESSAGE-F              PIC X(1)
                                               VALUE SPACE.
               10  WK01-ZZMESSAGE-A              PIC X(1)
                                               VALUE SPACE.
               10  WK01-ZZMESSAGE-V              PIC X(1)
                                               VALUE SPACE.
               10  WK01-ZZMESSAGE-O              PIC X(1)
                                               VALUE SPACE.
               10  WK01-ZZMESSAGE       PIC X(160)
                                               VALUE SPACES.
               10  WK01-PASSED-ONE-Z              PIC X(1)
                                               VALUE SPACE.
               10  WK01-PASSED-ONE-F              PIC X(1)
                                               VALUE SPACE.
               10  WK01-PASSED-ONE-A              PIC X(1)
                                               VALUE SPACE.
               10  WK01-PASSED-ONE-V              PIC X(1)
                                               VALUE SPACE.
               10  WK01-PASSED-ONE-O              PIC X(1)
                                               VALUE SPACE.
               10  WK01-PASSED-ONE       PIC X(32)
                                               VALUE SPACES.
               10  WK01-MAP-RESPONSE-Z              PIC X(1)
                                               VALUE SPACE.
               10  WK01-MAP-RESPONSE-F              PIC X(1)
                                               VALUE SPACE.
               10  WK01-MAP-RESPONSE-A              PIC X(1)
                                               VALUE SPACE.
               10  WK01-MAP-RESPONSE-V              PIC X(1)
                                               VALUE SPACE.
               10  WK01-MAP-RESPONSE-O              PIC X(1)
                                               VALUE SPACE.
               10  WK01-MAP-RESPONSE       PIC X(8)
                                               VALUE SPACES.
               10  WK01-TEXT-SY00-Z              PIC X(1)
                                               VALUE SPACE.
               10  WK01-TEXT-SY00-F              PIC X(1)
                                               VALUE SPACE.
               10  WK01-TEXT-SY00-A              PIC X(1)
                                               VALUE SPACE.
               10  WK01-TEXT-SY00-V              PIC X(1)
                                               VALUE SPACE.
               10  WK01-TEXT-SY00-O              PIC X(1)
                                               VALUE SPACE.
               10  WK01-TEXT-SY00       PIC X(14)
                                               VALUE SPACES.
           04  WK01-SUBSCRIPTED-WORK-AREA.
               05  FILLER                      PIC X(1).
               05  WK01-CODE-CH80-F             PIC X(1)
                                               OCCURS 11.
               05  WK01-CODE-4008-CH80-F             PIC X(1)
                                               OCCURS 11.
               05  WK01-TYPE-DESC-4009-CH80-F             PIC X(1)
                                               OCCURS 11.
               05  WK01-4009-CH80-F             PIC X(1)
                                               OCCURS 11.
               05  WK01-DATE-4009-CH80-F             PIC X(1)
                                               OCCURS 11.
               05  WK01-DATE-4009-CH8A-F             PIC X(1)
                                               OCCURS 11.
               05  WK01-TYPE-CODE-4008-CH80-F             PIC X(1)
                                               OCCURS 11.
