       01  MAP-CONTROL.

    ***Created by Convert/DC version V8R03 on 12/11/00 at 10:00***

           02  FCHMI79-MAP-CONTROL.
           03  FCHMI79T.
           04  WK01-DCXMAPL-PARMS.
               10  WK01-MAPNAME                  PIC X(8)
                                                 VALUE 'FCHMI79I'.
               10  WK01-IKE-LENGTH               PIC S9(8)  COMP
                                                 VALUE 14705.
               10  WK01-TINA-LENGTH              PIC S9(4)  COMP
                                                 VALUE 988.
           05  WK01-ATTRIBUTES                   PIC X(60)
                                                 VALUE SPACE.
           05  WK01-ATTRIBUTES-ERROR             PIC X(60) VALUE
               'U  BIF'.
           05  WK01-CURSOR-DFLD                  PIC X(36)
                                                 VALUE SPACES.
           05  WK01-CURSOR-DFLD-QUAL             PIC X(30)
                                                 VALUE SPACES.
           05  WK01-ROW                          PIC S9(4) COMP
                                                 VALUE ZERO.
           05  WK01-COLUMN                       PIC S9(4) COMP
                                                 VALUE ZERO.
           05  WK01-ERROR-MSG                    PIC X(80)
                                                 VALUE SPACES.
           05  WK01-MAP-DATA-LEN                 PIC S9(6)
                                                 VALUE ZERO.
           05  WK01-1ST-FLAG                     PIC X(1)
                                                 VALUE 'Y'.
           05  WK01-FLAG-OUTPUT-DATA             PIC X(1)
                                                 VALUE 'Y'.
      *    05  WK01-STATUS-RETURN-FLAG           PIC X(1)
      *                                          VALUE SPACES.
           05  WK01-ALL-BUT-FLAG                 PIC X(1)
                                                 VALUE SPACES.
           05  WK01-FLAG-ALL-FIELDS-CHANGED      PIC X(1)  VALUE 'Y'.
           05  WK01-FLAG-ANY-FIELDS-CHANGED      PIC X(1)  VALUE 'N'.
           05  WK01-FLAG-ALL-FIELDS-ERROR        PIC X(1)  VALUE 'Y'.
           05  WK01-FLAG-ANY-FIELDS-ERROR        PIC X(1)  VALUE 'N'.
           05  WK01-FLAG-ALL-FIELDS-ERASE        PIC X(1)  VALUE 'Y'.
           05  WK01-FLAG-ANY-FIELDS-ERASE        PIC X(1)  VALUE 'Y'.

           05  WK01-VARDATA                      PIC X(11880)
                                                 VALUE SPACES.
           05  FILLER                            PIC X(100)
                                                 VALUE SPACES.
           04  WK01-ELEMENT-AREA.

               10  WK01-ID-SY00-Z              PIC X(1)
                                               VALUE SPACE.
               10  WK01-ID-SY00-F              PIC X(1)
                                               VALUE SPACE.
               10  WK01-ID-SY00-A              PIC X(1)
                                               VALUE SPACE.
               10  WK01-ID-SY00-V              PIC X(1)
                                               VALUE SPACE.
               10  WK01-ID-SY00-O              PIC X(1)
                                               VALUE SPACE.
               10  WK01-ID-SY00       PIC X(8)
                                               VALUE SPACES.
               10  WK01-NAME-6001-SY00-Z              PIC X(1)
                                               VALUE SPACE.
               10  WK01-NAME-6001-SY00-F              PIC X(1)
                                               VALUE SPACE.
               10  WK01-NAME-6001-SY00-A              PIC X(1)
                                               VALUE SPACE.
               10  WK01-NAME-6001-SY00-V              PIC X(1)
                                               VALUE SPACE.
               10  WK01-NAME-6001-SY00-O              PIC X(1)
                                               VALUE SPACE.
               10  WK01-NAME-6001-SY00       PIC X(35)
                                               VALUE SPACES.
               10  WK01-DATE-Z              PIC X(1)
                                               VALUE SPACE.
               10  WK01-DATE-F              PIC X(1)
                                               VALUE SPACE.
               10  WK01-DATE-A              PIC X(1)
                                               VALUE SPACE.
               10  WK01-DATE-V              PIC X(1)
                                               VALUE SPACE.
               10  WK01-DATE-O              PIC X(1)
                                               VALUE SPACE.
               10  WK01-DATE       PIC X(8)
                                               VALUE SPACES.
               10  WK01-HH-MM-TIME-SY00-Z              PIC X(1)
                                               VALUE SPACE.
               10  WK01-HH-MM-TIME-SY00-F              PIC X(1)
                                               VALUE SPACE.
               10  WK01-HH-MM-TIME-SY00-A              PIC X(1)
                                               VALUE SPACE.
               10  WK01-HH-MM-TIME-SY00-V              PIC X(1)
                                               VALUE SPACE.
               10  WK01-HH-MM-TIME-SY00-O              PIC X(1)
                                               VALUE SPACE.
               10  WK01-HH-MM-TIME-SY00       PIC X(4)
                                               VALUE SPACES.
               10  WK01-PM-FLAG-SY00-Z              PIC X(1)
                                               VALUE SPACE.
               10  WK01-PM-FLAG-SY00-F              PIC X(1)
                                               VALUE SPACE.
               10  WK01-PM-FLAG-SY00-A              PIC X(1)
                                               VALUE SPACE.
               10  WK01-PM-FLAG-SY00-V              PIC X(1)
                                               VALUE SPACE.
               10  WK01-PM-FLAG-SY00-O              PIC X(1)
                                               VALUE SPACE.
               10  WK01-PM-FLAG-SY00       PIC X(1)
                                               VALUE SPACES.
               10  WK01-USER-ID-Z              PIC X(1)
                                               VALUE SPACE.
               10  WK01-USER-ID-F              PIC X(1)
                                               VALUE SPACE.
               10  WK01-USER-ID-A              PIC X(1)
                                               VALUE SPACE.
               10  WK01-USER-ID-V              PIC X(1)
                                               VALUE SPACE.
               10  WK01-USER-ID-O              PIC X(1)
                                               VALUE SPACE.
               10  WK01-USER-ID       PIC X(32)
                                               VALUE SPACES.
               10  WK01-RSPNS-ID-SY00-Z              PIC X(1)
                                               VALUE SPACE.
               10  WK01-RSPNS-ID-SY00-F              PIC X(1)
                                               VALUE SPACE.
               10  WK01-RSPNS-ID-SY00-A              PIC X(1)
                                               VALUE SPACE.
               10  WK01-RSPNS-ID-SY00-V              PIC X(1)
                                               VALUE SPACE.
               10  WK01-RSPNS-ID-SY00-O              PIC X(1)
                                               VALUE SPACE.
               10  WK01-RSPNS-ID-SY00       PIC X(8)
                                               VALUE SPACES.
               10  WK01-FUNC-DESCRIPTION-Z              PIC X(1)
                                               VALUE SPACE.
               10  WK01-FUNC-DESCRIPTION-F              PIC X(1)
                                               VALUE SPACE.
               10  WK01-FUNC-DESCRIPTION-A              PIC X(1)
                                               VALUE SPACE.
               10  WK01-FUNC-DESCRIPTION-V              PIC X(1)
                                               VALUE SPACE.
               10  WK01-FUNC-DESCRIPTION-O              PIC X(1)
                                               VALUE SPACE.
               10  WK01-FUNC-DESCRIPTION       PIC X(28)
                                               VALUE SPACES.
               10  WK01-STATUS-CODE-SY00-Z              PIC X(1)
                                               VALUE SPACE.
               10  WK01-STATUS-CODE-SY00-F              PIC X(1)
                                               VALUE SPACE.
               10  WK01-STATUS-CODE-SY00-A              PIC X(1)
                                               VALUE SPACE.
               10  WK01-STATUS-CODE-SY00-V              PIC X(1)
                                               VALUE SPACE.
               10  WK01-STATUS-CODE-SY00-O              PIC X(1)
                                               VALUE SPACE.
               10  WK01-STATUS-CODE-SY00       PIC X(1)
                                               VALUE SPACES.
               10  WK01-TEXT-SY01-Z              PIC X(1)
                                               VALUE SPACE.
               10  WK01-TEXT-SY01-F              PIC X(1)
                                               VALUE SPACE.
               10  WK01-TEXT-SY01-A              PIC X(1)
                                               VALUE SPACE.
               10  WK01-TEXT-SY01-V              PIC X(1)
                                               VALUE SPACE.
               10  WK01-TEXT-SY01-O              PIC X(1)
                                               VALUE SPACE.
               10  WK01-TEXT-SY01       PIC X(8)
                                               VALUE SPACES.
               10  WK01-TEXT-SY0A-Z              PIC X(1)
                                               VALUE SPACE.
               10  WK01-TEXT-SY0A-F              PIC X(1)
                                               VALUE SPACE.
               10  WK01-TEXT-SY0A-A              PIC X(1)
                                               VALUE SPACE.
               10  WK01-TEXT-SY0A-V              PIC X(1)
                                               VALUE SPACE.
               10  WK01-TEXT-SY0A-O              PIC X(1)
                                               VALUE SPACE.
               10  WK01-TEXT-SY0A       PIC X(11)
                                               VALUE SPACES.
               10  WK01-TEXT-SY0B-Z              PIC X(1)
                                               VALUE SPACE.
               10  WK01-TEXT-SY0B-F              PIC X(1)
                                               VALUE SPACE.
               10  WK01-TEXT-SY0B-A              PIC X(1)
                                               VALUE SPACE.
               10  WK01-TEXT-SY0B-V              PIC X(1)
                                               VALUE SPACE.
               10  WK01-TEXT-SY0B-O              PIC X(1)
                                               VALUE SPACE.
               10  WK01-TEXT-SY0B       PIC X(5)
                                               VALUE SPACES.
               10  WK01-CODE-CH791-Z              PIC X(1)
                                               VALUE SPACE.
               10  WK01-CODE-CH791-F              PIC X(1)
                                               VALUE SPACE.
               10  WK01-CODE-CH791-A              PIC X(1)
                                               VALUE SPACE.
               10  WK01-CODE-CH791-V              PIC X(1)
                                               VALUE SPACE.
               10  WK01-CODE-CH791-O              PIC X(1)
                                               VALUE SPACE.
               10  WK01-CODE-CH791       PIC X(1)
                                               VALUE SPACES.
               10  WK01-CODE-4052-CH791-Z              PIC X(1)
                                               VALUE SPACE.
               10  WK01-CODE-4052-CH791-F              PIC X(1)
                                               VALUE SPACE.
               10  WK01-CODE-4052-CH791-A              PIC X(1)
                                               VALUE SPACE.
               10  WK01-CODE-4052-CH791-V              PIC X(1)
                                               VALUE SPACE.
               10  WK01-CODE-4052-CH791-O              PIC X(1)
                                               VALUE SPACE.
               10  WK01-CODE-4052-CH791       PIC X(1)
                                               VALUE SPACES.
               10  WK01-ENTY-CODE-4052-CH791-Z              PIC X(1)
                                               VALUE SPACE.
               10  WK01-ENTY-CODE-4052-CH791-F              PIC X(1)
                                               VALUE SPACE.
               10  WK01-ENTY-CODE-4052-CH791-A              PIC X(1)
                                               VALUE SPACE.
               10  WK01-ENTY-CODE-4052-CH791-V              PIC X(1)
                                               VALUE SPACE.
               10  WK01-ENTY-CODE-4052-CH791-O              PIC X(1)
                                               VALUE SPACE.
               10  WK01-ENTY-CODE-4052-CH791       PIC X(4)
                                               VALUE SPACES.
               10  WK01-ENTY-CODE-4054-CH791-Z              PIC X(1)
                                               VALUE SPACE.
               10  WK01-ENTY-CODE-4054-CH791-F              PIC X(1)
                                               VALUE SPACE.
               10  WK01-ENTY-CODE-4054-CH791-A              PIC X(1)
                                               VALUE SPACE.
               10  WK01-ENTY-CODE-4054-CH791-V              PIC X(1)
                                               VALUE SPACE.
               10  WK01-ENTY-CODE-4054-CH791-O              PIC X(1)
                                               VALUE SPACE.
               10  WK01-ENTY-CODE-4054-CH791       PIC X(4)
                                               VALUE SPACES.
               10  WK01-CODE-4054-CH791-Z              PIC X(1)
                                               VALUE SPACE.
               10  WK01-CODE-4054-CH791-F              PIC X(1)
                                               VALUE SPACE.
               10  WK01-CODE-4054-CH791-A              PIC X(1)
                                               VALUE SPACE.
               10  WK01-CODE-4054-CH791-V              PIC X(1)
                                               VALUE SPACE.
               10  WK01-CODE-4054-CH791-O              PIC X(1)
                                               VALUE SPACE.
               10  WK01-CODE-4054-CH791       PIC X(10)
                                               VALUE SPACES.
               10  WK01-CODE-4055-CH791-Z              PIC X(1)
                                               VALUE SPACE.
               10  WK01-CODE-4055-CH791-F              PIC X(1)
                                               VALUE SPACE.
               10  WK01-CODE-4055-CH791-A              PIC X(1)
                                               VALUE SPACE.
               10  WK01-CODE-4055-CH791-V              PIC X(1)
                                               VALUE SPACE.
               10  WK01-CODE-4055-CH791-O              PIC X(1)
                                               VALUE SPACE.
               10  WK01-CODE-4055-CH791       PIC X(10)
                                               VALUE SPACES.
               10  WK01-CODE-DESC-4055-CH791-Z              PIC X(1)
                                               VALUE SPACE.
               10  WK01-CODE-DESC-4055-CH791-F              PIC X(1)
                                               VALUE SPACE.
               10  WK01-CODE-DESC-4055-CH791-A              PIC X(1)
                                               VALUE SPACE.
               10  WK01-CODE-DESC-4055-CH791-V              PIC X(1)
                                               VALUE SPACE.
               10  WK01-CODE-DESC-4055-CH791-O              PIC X(1)
                                               VALUE SPACE.
               10  WK01-CODE-DESC-4055-CH791       PIC X(35)
                                               VALUE SPACES.
               10  WK01-CODE-CH792-Z              PIC X(1)
                                               VALUE SPACE.
               10  WK01-CODE-CH792-F              PIC X(1)
                                               VALUE SPACE.
               10  WK01-CODE-CH792-A              PIC X(1)
                                               VALUE SPACE.
               10  WK01-CODE-CH792-V              PIC X(1)
                                               VALUE SPACE.
               10  WK01-CODE-CH792-O              PIC X(1)
                                               VALUE SPACE.
               10  WK01-CODE-CH792       PIC X(1)
                                               VALUE SPACES.
               10  WK01-CODE-4052-CH792-Z              PIC X(1)
                                               VALUE SPACE.
               10  WK01-CODE-4052-CH792-F              PIC X(1)
                                               VALUE SPACE.
               10  WK01-CODE-4052-CH792-A              PIC X(1)
                                               VALUE SPACE.
               10  WK01-CODE-4052-CH792-V              PIC X(1)
                                               VALUE SPACE.
               10  WK01-CODE-4052-CH792-O              PIC X(1)
                                               VALUE SPACE.
               10  WK01-CODE-4052-CH792       PIC X(1)
                                               VALUE SPACES.
               10  WK01-ENTY-CODE-4052-CH792-Z              PIC X(1)
                                               VALUE SPACE.
               10  WK01-ENTY-CODE-4052-CH792-F              PIC X(1)
                                               VALUE SPACE.
               10  WK01-ENTY-CODE-4052-CH792-A              PIC X(1)
                                               VALUE SPACE.
               10  WK01-ENTY-CODE-4052-CH792-V              PIC X(1)
                                               VALUE SPACE.
               10  WK01-ENTY-CODE-4052-CH792-O              PIC X(1)
                                               VALUE SPACE.
               10  WK01-ENTY-CODE-4052-CH792       PIC X(4)
                                               VALUE SPACES.
               10  WK01-ENTY-CODE-4054-CH792-Z              PIC X(1)
                                               VALUE SPACE.
               10  WK01-ENTY-CODE-4054-CH792-F              PIC X(1)
                                               VALUE SPACE.
               10  WK01-ENTY-CODE-4054-CH792-A              PIC X(1)
                                               VALUE SPACE.
               10  WK01-ENTY-CODE-4054-CH792-V              PIC X(1)
                                               VALUE SPACE.
               10  WK01-ENTY-CODE-4054-CH792-O              PIC X(1)
                                               VALUE SPACE.
               10  WK01-ENTY-CODE-4054-CH792       PIC X(4)
                                               VALUE SPACES.
               10  WK01-CODE-4054-CH792-Z              PIC X(1)
                                               VALUE SPACE.
               10  WK01-CODE-4054-CH792-F              PIC X(1)
                                               VALUE SPACE.
               10  WK01-CODE-4054-CH792-A              PIC X(1)
                                               VALUE SPACE.
               10  WK01-CODE-4054-CH792-V              PIC X(1)
                                               VALUE SPACE.
               10  WK01-CODE-4054-CH792-O              PIC X(1)
                                               VALUE SPACE.
               10  WK01-CODE-4054-CH792       PIC X(10)
                                               VALUE SPACES.
               10  WK01-CODE-4055-CH792-Z              PIC X(1)
                                               VALUE SPACE.
               10  WK01-CODE-4055-CH792-F              PIC X(1)
                                               VALUE SPACE.
               10  WK01-CODE-4055-CH792-A              PIC X(1)
                                               VALUE SPACE.
               10  WK01-CODE-4055-CH792-V              PIC X(1)
                                               VALUE SPACE.
               10  WK01-CODE-4055-CH792-O              PIC X(1)
                                               VALUE SPACE.
               10  WK01-CODE-4055-CH792       PIC X(10)
                                               VALUE SPACES.
               10  WK01-CODE-DESC-4055-CH792-Z              PIC X(1)
                                               VALUE SPACE.
               10  WK01-CODE-DESC-4055-CH792-F              PIC X(1)
                                               VALUE SPACE.
               10  WK01-CODE-DESC-4055-CH792-A              PIC X(1)
                                               VALUE SPACE.
               10  WK01-CODE-DESC-4055-CH792-V              PIC X(1)
                                               VALUE SPACE.
               10  WK01-CODE-DESC-4055-CH792-O              PIC X(1)
                                               VALUE SPACE.
               10  WK01-CODE-DESC-4055-CH792       PIC X(35)
                                               VALUE SPACES.
               10  WK01-CODE-CH793-Z              PIC X(1)
                                               VALUE SPACE.
               10  WK01-CODE-CH793-F              PIC X(1)
                                               VALUE SPACE.
               10  WK01-CODE-CH793-A              PIC X(1)
                                               VALUE SPACE.
               10  WK01-CODE-CH793-V              PIC X(1)
                                               VALUE SPACE.
               10  WK01-CODE-CH793-O              PIC X(1)
                                               VALUE SPACE.
               10  WK01-CODE-CH793       PIC X(1)
                                               VALUE SPACES.
               10  WK01-CODE-4052-CH793-Z              PIC X(1)
                                               VALUE SPACE.
               10  WK01-CODE-4052-CH793-F              PIC X(1)
                                               VALUE SPACE.
               10  WK01-CODE-4052-CH793-A              PIC X(1)
                                               VALUE SPACE.
               10  WK01-CODE-4052-CH793-V              PIC X(1)
                                               VALUE SPACE.
               10  WK01-CODE-4052-CH793-O              PIC X(1)
                                               VALUE SPACE.
               10  WK01-CODE-4052-CH793       PIC X(1)
                                               VALUE SPACES.
               10  WK01-ENTY-CODE-4052-CH793-Z              PIC X(1)
                                               VALUE SPACE.
               10  WK01-ENTY-CODE-4052-CH793-F              PIC X(1)
                                               VALUE SPACE.
               10  WK01-ENTY-CODE-4052-CH793-A              PIC X(1)
                                               VALUE SPACE.
               10  WK01-ENTY-CODE-4052-CH793-V              PIC X(1)
                                               VALUE SPACE.
               10  WK01-ENTY-CODE-4052-CH793-O              PIC X(1)
                                               VALUE SPACE.
               10  WK01-ENTY-CODE-4052-CH793       PIC X(4)
                                               VALUE SPACES.
               10  WK01-ENTY-CODE-4054-CH793-Z              PIC X(1)
                                               VALUE SPACE.
               10  WK01-ENTY-CODE-4054-CH793-F              PIC X(1)
                                               VALUE SPACE.
               10  WK01-ENTY-CODE-4054-CH793-A              PIC X(1)
                                               VALUE SPACE.
               10  WK01-ENTY-CODE-4054-CH793-V              PIC X(1)
                                               VALUE SPACE.
               10  WK01-ENTY-CODE-4054-CH793-O              PIC X(1)
                                               VALUE SPACE.
               10  WK01-ENTY-CODE-4054-CH793       PIC X(4)
                                               VALUE SPACES.
               10  WK01-CODE-4054-CH793-Z              PIC X(1)
                                               VALUE SPACE.
               10  WK01-CODE-4054-CH793-F              PIC X(1)
                                               VALUE SPACE.
               10  WK01-CODE-4054-CH793-A              PIC X(1)
                                               VALUE SPACE.
               10  WK01-CODE-4054-CH793-V              PIC X(1)
                                               VALUE SPACE.
               10  WK01-CODE-4054-CH793-O              PIC X(1)
                                               VALUE SPACE.
               10  WK01-CODE-4054-CH793       PIC X(10)
                                               VALUE SPACES.
               10  WK01-CODE-4055-CH793-Z              PIC X(1)
                                               VALUE SPACE.
               10  WK01-CODE-4055-CH793-F              PIC X(1)
                                               VALUE SPACE.
               10  WK01-CODE-4055-CH793-A              PIC X(1)
                                               VALUE SPACE.
               10  WK01-CODE-4055-CH793-V              PIC X(1)
                                               VALUE SPACE.
               10  WK01-CODE-4055-CH793-O              PIC X(1)
                                               VALUE SPACE.
               10  WK01-CODE-4055-CH793       PIC X(10)
                                               VALUE SPACES.
               10  WK01-CODE-DESC-4055-CH793-Z              PIC X(1)
                                               VALUE SPACE.
               10  WK01-CODE-DESC-4055-CH793-F              PIC X(1)
                                               VALUE SPACE.
               10  WK01-CODE-DESC-4055-CH793-A              PIC X(1)
                                               VALUE SPACE.
               10  WK01-CODE-DESC-4055-CH793-V              PIC X(1)
                                               VALUE SPACE.
               10  WK01-CODE-DESC-4055-CH793-O              PIC X(1)
                                               VALUE SPACE.
               10  WK01-CODE-DESC-4055-CH793       PIC X(35)
                                               VALUE SPACES.
               10  WK01-CODE-CH794-Z              PIC X(1)
                                               VALUE SPACE.
               10  WK01-CODE-CH794-F              PIC X(1)
                                               VALUE SPACE.
               10  WK01-CODE-CH794-A              PIC X(1)
                                               VALUE SPACE.
               10  WK01-CODE-CH794-V              PIC X(1)
                                               VALUE SPACE.
               10  WK01-CODE-CH794-O              PIC X(1)
                                               VALUE SPACE.
               10  WK01-CODE-CH794       PIC X(1)
                                               VALUE SPACES.
               10  WK01-CODE-4052-CH794-Z              PIC X(1)
                                               VALUE SPACE.
               10  WK01-CODE-4052-CH794-F              PIC X(1)
                                               VALUE SPACE.
               10  WK01-CODE-4052-CH794-A              PIC X(1)
                                               VALUE SPACE.
               10  WK01-CODE-4052-CH794-V              PIC X(1)
                                               VALUE SPACE.
               10  WK01-CODE-4052-CH794-O              PIC X(1)
                                               VALUE SPACE.
               10  WK01-CODE-4052-CH794       PIC X(1)
                                               VALUE SPACES.
               10  WK01-ENTY-CODE-4052-CH794-Z              PIC X(1)
                                               VALUE SPACE.
               10  WK01-ENTY-CODE-4052-CH794-F              PIC X(1)
                                               VALUE SPACE.
               10  WK01-ENTY-CODE-4052-CH794-A              PIC X(1)
                                               VALUE SPACE.
               10  WK01-ENTY-CODE-4052-CH794-V              PIC X(1)
                                               VALUE SPACE.
               10  WK01-ENTY-CODE-4052-CH794-O              PIC X(1)
                                               VALUE SPACE.
               10  WK01-ENTY-CODE-4052-CH794       PIC X(4)
                                               VALUE SPACES.
               10  WK01-ENTY-CODE-4054-CH794-Z              PIC X(1)
                                               VALUE SPACE.
               10  WK01-ENTY-CODE-4054-CH794-F              PIC X(1)
                                               VALUE SPACE.
               10  WK01-ENTY-CODE-4054-CH794-A              PIC X(1)
                                               VALUE SPACE.
               10  WK01-ENTY-CODE-4054-CH794-V              PIC X(1)
                                               VALUE SPACE.
               10  WK01-ENTY-CODE-4054-CH794-O              PIC X(1)
                                               VALUE SPACE.
               10  WK01-ENTY-CODE-4054-CH794       PIC X(4)
                                               VALUE SPACES.
               10  WK01-CODE-4054-CH794-Z              PIC X(1)
                                               VALUE SPACE.
               10  WK01-CODE-4054-CH794-F              PIC X(1)
                                               VALUE SPACE.
               10  WK01-CODE-4054-CH794-A              PIC X(1)
                                               VALUE SPACE.
               10  WK01-CODE-4054-CH794-V              PIC X(1)
                                               VALUE SPACE.
               10  WK01-CODE-4054-CH794-O              PIC X(1)
                                               VALUE SPACE.
               10  WK01-CODE-4054-CH794       PIC X(10)
                                               VALUE SPACES.
               10  WK01-CODE-4055-CH794-Z              PIC X(1)
                                               VALUE SPACE.
               10  WK01-CODE-4055-CH794-F              PIC X(1)
                                               VALUE SPACE.
               10  WK01-CODE-4055-CH794-A              PIC X(1)
                                               VALUE SPACE.
               10  WK01-CODE-4055-CH794-V              PIC X(1)
                                               VALUE SPACE.
               10  WK01-CODE-4055-CH794-O              PIC X(1)
                                               VALUE SPACE.
               10  WK01-CODE-4055-CH794       PIC X(10)
                                               VALUE SPACES.
               10  WK01-CODE-DESC-4055-CH794-Z              PIC X(1)
                                               VALUE SPACE.
               10  WK01-CODE-DESC-4055-CH794-F              PIC X(1)
                                               VALUE SPACE.
               10  WK01-CODE-DESC-4055-CH794-A              PIC X(1)
                                               VALUE SPACE.
               10  WK01-CODE-DESC-4055-CH794-V              PIC X(1)
                                               VALUE SPACE.
               10  WK01-CODE-DESC-4055-CH794-O              PIC X(1)
                                               VALUE SPACE.
               10  WK01-CODE-DESC-4055-CH794       PIC X(35)
                                               VALUE SPACES.
               10  WK01-CODE-CH795-Z              PIC X(1)
                                               VALUE SPACE.
               10  WK01-CODE-CH795-F              PIC X(1)
                                               VALUE SPACE.
               10  WK01-CODE-CH795-A              PIC X(1)
                                               VALUE SPACE.
               10  WK01-CODE-CH795-V              PIC X(1)
                                               VALUE SPACE.
               10  WK01-CODE-CH795-O              PIC X(1)
                                               VALUE SPACE.
               10  WK01-CODE-CH795       PIC X(1)
                                               VALUE SPACES.
               10  WK01-CODE-4052-CH795-Z              PIC X(1)
                                               VALUE SPACE.
               10  WK01-CODE-4052-CH795-F              PIC X(1)
                                               VALUE SPACE.
               10  WK01-CODE-4052-CH795-A              PIC X(1)
                                               VALUE SPACE.
               10  WK01-CODE-4052-CH795-V              PIC X(1)
                                               VALUE SPACE.
               10  WK01-CODE-4052-CH795-O              PIC X(1)
                                               VALUE SPACE.
               10  WK01-CODE-4052-CH795       PIC X(1)
                                               VALUE SPACES.
               10  WK01-ENTY-CODE-4052-CH795-Z              PIC X(1)
                                               VALUE SPACE.
               10  WK01-ENTY-CODE-4052-CH795-F              PIC X(1)
                                               VALUE SPACE.
               10  WK01-ENTY-CODE-4052-CH795-A              PIC X(1)
                                               VALUE SPACE.
               10  WK01-ENTY-CODE-4052-CH795-V              PIC X(1)
                                               VALUE SPACE.
               10  WK01-ENTY-CODE-4052-CH795-O              PIC X(1)
                                               VALUE SPACE.
               10  WK01-ENTY-CODE-4052-CH795       PIC X(4)
                                               VALUE SPACES.
               10  WK01-ENTY-CODE-4054-CH795-Z              PIC X(1)
                                               VALUE SPACE.
               10  WK01-ENTY-CODE-4054-CH795-F              PIC X(1)
                                               VALUE SPACE.
               10  WK01-ENTY-CODE-4054-CH795-A              PIC X(1)
                                               VALUE SPACE.
               10  WK01-ENTY-CODE-4054-CH795-V              PIC X(1)
                                               VALUE SPACE.
               10  WK01-ENTY-CODE-4054-CH795-O              PIC X(1)
                                               VALUE SPACE.
               10  WK01-ENTY-CODE-4054-CH795       PIC X(4)
                                               VALUE SPACES.
               10  WK01-CODE-4054-CH795-Z              PIC X(1)
                                               VALUE SPACE.
               10  WK01-CODE-4054-CH795-F              PIC X(1)
                                               VALUE SPACE.
               10  WK01-CODE-4054-CH795-A              PIC X(1)
                                               VALUE SPACE.
               10  WK01-CODE-4054-CH795-V              PIC X(1)
                                               VALUE SPACE.
               10  WK01-CODE-4054-CH795-O              PIC X(1)
                                               VALUE SPACE.
               10  WK01-CODE-4054-CH795       PIC X(10)
                                               VALUE SPACES.
               10  WK01-CODE-4055-CH795-Z              PIC X(1)
                                               VALUE SPACE.
               10  WK01-CODE-4055-CH795-F              PIC X(1)
                                               VALUE SPACE.
               10  WK01-CODE-4055-CH795-A              PIC X(1)
                                               VALUE SPACE.
               10  WK01-CODE-4055-CH795-V              PIC X(1)
                                               VALUE SPACE.
               10  WK01-CODE-4055-CH795-O              PIC X(1)
                                               VALUE SPACE.
               10  WK01-CODE-4055-CH795       PIC X(10)
                                               VALUE SPACES.
               10  WK01-CODE-DESC-4055-CH795-Z              PIC X(1)
                                               VALUE SPACE.
               10  WK01-CODE-DESC-4055-CH795-F              PIC X(1)
                                               VALUE SPACE.
               10  WK01-CODE-DESC-4055-CH795-A              PIC X(1)
                                               VALUE SPACE.
               10  WK01-CODE-DESC-4055-CH795-V              PIC X(1)
                                               VALUE SPACE.
               10  WK01-CODE-DESC-4055-CH795-O              PIC X(1)
                                               VALUE SPACE.
               10  WK01-CODE-DESC-4055-CH795       PIC X(35)
                                               VALUE SPACES.
               10  WK01-COA-CODE-4052-CH79-Z              PIC X(1)
                                               VALUE SPACE.
               10  WK01-COA-CODE-4052-CH79-F              PIC X(1)
                                               VALUE SPACE.
               10  WK01-COA-CODE-4052-CH79-A              PIC X(1)
                                               VALUE SPACE.
               10  WK01-COA-CODE-4052-CH79-V              PIC X(1)
                                               VALUE SPACE.
               10  WK01-COA-CODE-4052-CH79-O              PIC X(1)
                                               VALUE SPACE.
               10  WK01-COA-CODE-4052-CH79       PIC X(1)
                                               VALUE SPACES.
               10  WK01-XTRNL-ENTY-CD-4052-CH7-Z              PIC X(1)
                                               VALUE SPACE.
               10  WK01-XTRNL-ENTY-CD-4052-CH7-F              PIC X(1)
                                               VALUE SPACE.
               10  WK01-XTRNL-ENTY-CD-4052-CH7-A              PIC X(1)
                                               VALUE SPACE.
               10  WK01-XTRNL-ENTY-CD-4052-CH7-V              PIC X(1)
                                               VALUE SPACE.
               10  WK01-XTRNL-ENTY-CD-4052-CH7-O              PIC X(1)
                                               VALUE SPACE.
               10  WK01-XTRNL-ENTY-CD-4052-CH7       PIC X(4)
                                               VALUE SPACES.
               10  WK01-XTRNL-CODE-CH79-Z              PIC X(1)
                                               VALUE SPACE.
               10  WK01-XTRNL-CODE-CH79-F              PIC X(1)
                                               VALUE SPACE.
               10  WK01-XTRNL-CODE-CH79-A              PIC X(1)
                                               VALUE SPACE.
               10  WK01-XTRNL-CODE-CH79-V              PIC X(1)
                                               VALUE SPACE.
               10  WK01-XTRNL-CODE-CH79-O              PIC X(1)
                                               VALUE SPACE.
               10  WK01-XTRNL-CODE-CH79       PIC X(10)
                                               VALUE SPACES.
               10  WK01-INTRL-CODE-CH79-Z              PIC X(1)
                                               VALUE SPACE.
               10  WK01-INTRL-CODE-CH79-F              PIC X(1)
                                               VALUE SPACE.
               10  WK01-INTRL-CODE-CH79-A              PIC X(1)
                                               VALUE SPACE.
               10  WK01-INTRL-CODE-CH79-V              PIC X(1)
                                               VALUE SPACE.
               10  WK01-INTRL-CODE-CH79-O              PIC X(1)
                                               VALUE SPACE.
               10  WK01-INTRL-CODE-CH79       PIC X(10)
                                               VALUE SPACES.
               10  WK01-ZZMESSAGE-Z              PIC X(1)
                                               VALUE SPACE.
               10  WK01-ZZMESSAGE-F              PIC X(1)
                                               VALUE SPACE.
               10  WK01-ZZMESSAGE-A              PIC X(1)
                                               VALUE SPACE.
               10  WK01-ZZMESSAGE-V              PIC X(1)
                                               VALUE SPACE.
               10  WK01-ZZMESSAGE-O              PIC X(1)
                                               VALUE SPACE.
               10  WK01-ZZMESSAGE       PIC X(160)
                                               VALUE SPACES.
               10  WK01-PASSED-ONE-Z              PIC X(1)
                                               VALUE SPACE.
               10  WK01-PASSED-ONE-F              PIC X(1)
                                               VALUE SPACE.
               10  WK01-PASSED-ONE-A              PIC X(1)
                                               VALUE SPACE.
               10  WK01-PASSED-ONE-V              PIC X(1)
                                               VALUE SPACE.
               10  WK01-PASSED-ONE-O              PIC X(1)
                                               VALUE SPACE.
               10  WK01-PASSED-ONE       PIC X(32)
                                               VALUE SPACES.
               10  WK01-MAP-RESPONSE-Z              PIC X(1)
                                               VALUE SPACE.
               10  WK01-MAP-RESPONSE-F              PIC X(1)
                                               VALUE SPACE.
               10  WK01-MAP-RESPONSE-A              PIC X(1)
                                               VALUE SPACE.
               10  WK01-MAP-RESPONSE-V              PIC X(1)
                                               VALUE SPACE.
               10  WK01-MAP-RESPONSE-O              PIC X(1)
                                               VALUE SPACE.
               10  WK01-MAP-RESPONSE       PIC X(8)
                                               VALUE SPACES.
               10  WK01-TEXT-SY00-Z              PIC X(1)
                                               VALUE SPACE.
               10  WK01-TEXT-SY00-F              PIC X(1)
                                               VALUE SPACE.
               10  WK01-TEXT-SY00-A              PIC X(1)
                                               VALUE SPACE.
               10  WK01-TEXT-SY00-V              PIC X(1)
                                               VALUE SPACE.
               10  WK01-TEXT-SY00-O              PIC X(1)
                                               VALUE SPACE.
               10  WK01-TEXT-SY00       PIC X(14)
                                               VALUE SPACES.
           04  WK01-SUBSCRIPTED-WORK-AREA.
               05  FILLER                      PIC X(1).
               05  WK01-CODE-CH79-F             PIC X(1)
                                               OCCURS 5.
               05  WK01-CODE-4052-CH79-F             PIC X(1)
                                               OCCURS 5.
               05  WK01-ENTY-CODE-4052-CH79-F             PIC X(1)
                                               OCCURS 5.
               05  WK01-ENTY-CODE-4054-CH79-F             PIC X(1)
                                               OCCURS 5.
               05  WK01-CODE-4054-CH79-F             PIC X(1)
                                               OCCURS 5.
               05  WK01-CODE-4055-CH79-F             PIC X(1)
                                               OCCURS 5.
               05  WK01-CODE-DESC-4055-CH79-F             PIC X(1)
                                               OCCURS 5.
