      *---------------------------------------------------------------*
      *                                                               *
      *  RECORD FCHWK94                              04/24/00  12:21  *
      *                                                               *
      *---------------------------------------------------------------*
       01  FCHWK94.
           02  RQST-COA-CODE-4011-CH94                  PIC X(1).
           02  RQST-FIMS-ENTY-CODE-4011-CH94            PIC X(8).
           02  RQST-ELMNT-NAME-4011-CH94                PIC X(30).
