      *---------------------------------------------------------------*
      *                                                               *
      *  RECORD FCHWK23                              04/24/00  12:23  *
      *                                                               *
      *---------------------------------------------------------------*
       01  FCHWK23.
           02  COA-CODE-4024-CH23                       PIC X(1).
           02  COA-TITLE-4076-CH23                      PIC X(35).
           02  FSCL-YR-4024-CH23                        PIC X(2).
