      *---------------------------------------------------------------*
      *                                                               *
      *  RECORD FCHWK50                              04/24/00  12:25  *
      *                                                               *
      *---------------------------------------------------------------*
       01  FCHWK50.
           02  BANK-PID-4046-CH50.
               03  BANK-ID-DIGIT-ONE-4046-CH50          PIC X(1).
               03  BANK-ID-LAST-NINE-4046-CH50          PIC X(9).
