      *---------------------------------------------------------------*
      *                                                               *
      *  RECORD FCHWK60                              04/24/00  12:27  *
      *                                                               *
      *---------------------------------------------------------------*
       01  FCHWK60.
           02  COA-CODE-4030-CH60                       PIC X(1).
           02  COST-SHARE-CODE-4030-CH60                PIC X(6).
