      *---------------------------------------------------------------*
      *                                                               *
      *  RECORD FCHWK85                              04/24/00  12:20  *
      *                                                               *
      *---------------------------------------------------------------*
       01  FCHWK85.
           02  RQST-COA-CODE-CH85                       PIC X(1).
           02  SLCTN-DATE-CH85                          PIC X(6).
           02  RQST-FSCL-YR-CH85                        PIC X(2).
