      *---------------------------------------------------------------*
      *                                                               *
      *  RECORD FCHWK11                              11/16/00  10:11  *
      *                                                               *
      *---------------------------------------------------------------*
       01  FCHWK11.
           02  COA-CODE-4050-CH11                       PIC X(1).
           02  ACTVY-CODE-4050-CH11                     PIC X(6).
           02  START-DATE-4066-CH11                     PIC X(8).
