      *---------------------------------------------------------------*
      *                                                               *
      *  RECORD FCHWD49                              04/24/00  13:03  *
      *                                                               *
      *---------------------------------------------------------------*
       01  FCHWD49.
           02  SAVE-DBKEY-ID-4060-CH49
                                     COMP   OCCURS 13   PIC S9(8).
           02  ACTN-ERR-FLAG-CH49                       PIC X(1).
