      *---------------------------------------------------------------*
      *                                                               *
      *  RECORD FCHWK56                              04/24/00  12:26  *
      *                                                               *
      *---------------------------------------------------------------*
       01  FCHWK56.
           02  RULE-CLASS-CODE-4180-CH56                PIC X(4).
           02  SEQ-NMBR-4182-CH56                       PIC X(4).
