       01  MAP-CONTROL.

    ***Created by Convert/DC version V8R03 on 12/12/00 at 16:00***

           02  FCOMT07-MAP-CONTROL.
           03  FCOMT07T.
           04  WK01-DCXMAPL-PARMS.
               10  WK01-MAPNAME                  PIC X(8)
                                                 VALUE 'FCOMT07I'.
               10  WK01-IKE-LENGTH               PIC S9(8)  COMP
                                                 VALUE 29696.
               10  WK01-TINA-LENGTH              PIC S9(4)  COMP
                                                 VALUE 1537.
           05  WK01-ATTRIBUTES                   PIC X(60)
                                                 VALUE SPACE.
           05  WK01-ATTRIBUTES-ERROR             PIC X(60) VALUE
               'U  BIF'.
           05  WK01-CURSOR-DFLD                  PIC X(36)
                                                 VALUE SPACES.
           05  WK01-CURSOR-DFLD-QUAL             PIC X(30)
                                                 VALUE SPACES.
           05  WK01-ROW                          PIC S9(4) COMP
                                                 VALUE ZERO.
           05  WK01-COLUMN                       PIC S9(4) COMP
                                                 VALUE ZERO.
           05  WK01-ERROR-MSG                    PIC X(80)
                                                 VALUE SPACES.
           05  WK01-MAP-DATA-LEN                 PIC S9(6)
                                                 VALUE ZERO.
           05  WK01-1ST-FLAG                     PIC X(1)
                                                 VALUE 'Y'.
           05  WK01-FLAG-OUTPUT-DATA             PIC X(1)
                                                 VALUE 'Y'.
      *    05  WK01-STATUS-RETURN-FLAG           PIC X(1)
      *                                          VALUE SPACES.
           05  WK01-ALL-BUT-FLAG                 PIC X(1)
                                                 VALUE SPACES.
           05  WK01-FLAG-ALL-FIELDS-CHANGED      PIC X(1)  VALUE 'Y'.
           05  WK01-FLAG-ANY-FIELDS-CHANGED      PIC X(1)  VALUE 'N'.
           05  WK01-FLAG-ALL-FIELDS-ERROR        PIC X(1)  VALUE 'Y'.
           05  WK01-FLAG-ANY-FIELDS-ERROR        PIC X(1)  VALUE 'N'.
           05  WK01-FLAG-ALL-FIELDS-ERASE        PIC X(1)  VALUE 'Y'.
           05  WK01-FLAG-ANY-FIELDS-ERASE        PIC X(1)  VALUE 'Y'.

           05  WK01-VARDATA                      PIC X(11880)
                                                 VALUE SPACES.
           05  FILLER                            PIC X(100)
                                                 VALUE SPACES.
           04  WK01-ELEMENT-AREA.

               10  WK01-ID-SY00-Z              PIC X(1)
                                               VALUE SPACE.
               10  WK01-ID-SY00-F              PIC X(1)
                                               VALUE SPACE.
               10  WK01-ID-SY00-A              PIC X(1)
                                               VALUE SPACE.
               10  WK01-ID-SY00-V              PIC X(1)
                                               VALUE SPACE.
               10  WK01-ID-SY00-O              PIC X(1)
                                               VALUE SPACE.
               10  WK01-ID-SY00       PIC X(8)
                                               VALUE SPACES.
               10  WK01-NAME-6001-SY00-Z              PIC X(1)
                                               VALUE SPACE.
               10  WK01-NAME-6001-SY00-F              PIC X(1)
                                               VALUE SPACE.
               10  WK01-NAME-6001-SY00-A              PIC X(1)
                                               VALUE SPACE.
               10  WK01-NAME-6001-SY00-V              PIC X(1)
                                               VALUE SPACE.
               10  WK01-NAME-6001-SY00-O              PIC X(1)
                                               VALUE SPACE.
               10  WK01-NAME-6001-SY00       PIC X(35)
                                               VALUE SPACES.
               10  WK01-DATE-Z              PIC X(1)
                                               VALUE SPACE.
               10  WK01-DATE-F              PIC X(1)
                                               VALUE SPACE.
               10  WK01-DATE-A              PIC X(1)
                                               VALUE SPACE.
               10  WK01-DATE-V              PIC X(1)
                                               VALUE SPACE.
               10  WK01-DATE-O              PIC X(1)
                                               VALUE SPACE.
               10  WK01-DATE       PIC X(8)
                                               VALUE SPACES.
               10  WK01-HH-MM-TIME-SY00-Z              PIC X(1)
                                               VALUE SPACE.
               10  WK01-HH-MM-TIME-SY00-F              PIC X(1)
                                               VALUE SPACE.
               10  WK01-HH-MM-TIME-SY00-A              PIC X(1)
                                               VALUE SPACE.
               10  WK01-HH-MM-TIME-SY00-V              PIC X(1)
                                               VALUE SPACE.
               10  WK01-HH-MM-TIME-SY00-O              PIC X(1)
                                               VALUE SPACE.
               10  WK01-HH-MM-TIME-SY00       PIC X(4)
                                               VALUE SPACES.
               10  WK01-PM-FLAG-SY00-Z              PIC X(1)
                                               VALUE SPACE.
               10  WK01-PM-FLAG-SY00-F              PIC X(1)
                                               VALUE SPACE.
               10  WK01-PM-FLAG-SY00-A              PIC X(1)
                                               VALUE SPACE.
               10  WK01-PM-FLAG-SY00-V              PIC X(1)
                                               VALUE SPACE.
               10  WK01-PM-FLAG-SY00-O              PIC X(1)
                                               VALUE SPACE.
               10  WK01-PM-FLAG-SY00       PIC X(1)
                                               VALUE SPACES.
               10  WK01-USER-ID-Z              PIC X(1)
                                               VALUE SPACE.
               10  WK01-USER-ID-F              PIC X(1)
                                               VALUE SPACE.
               10  WK01-USER-ID-A              PIC X(1)
                                               VALUE SPACE.
               10  WK01-USER-ID-V              PIC X(1)
                                               VALUE SPACE.
               10  WK01-USER-ID-O              PIC X(1)
                                               VALUE SPACE.
               10  WK01-USER-ID       PIC X(32)
                                               VALUE SPACES.
               10  WK01-RSPNS-ID-SY00-Z              PIC X(1)
                                               VALUE SPACE.
               10  WK01-RSPNS-ID-SY00-F              PIC X(1)
                                               VALUE SPACE.
               10  WK01-RSPNS-ID-SY00-A              PIC X(1)
                                               VALUE SPACE.
               10  WK01-RSPNS-ID-SY00-V              PIC X(1)
                                               VALUE SPACE.
               10  WK01-RSPNS-ID-SY00-O              PIC X(1)
                                               VALUE SPACE.
               10  WK01-RSPNS-ID-SY00       PIC X(8)
                                               VALUE SPACES.
               10  WK01-FUNC-DESCRIPTION-Z              PIC X(1)
                                               VALUE SPACE.
               10  WK01-FUNC-DESCRIPTION-F              PIC X(1)
                                               VALUE SPACE.
               10  WK01-FUNC-DESCRIPTION-A              PIC X(1)
                                               VALUE SPACE.
               10  WK01-FUNC-DESCRIPTION-V              PIC X(1)
                                               VALUE SPACE.
               10  WK01-FUNC-DESCRIPTION-O              PIC X(1)
                                               VALUE SPACE.
               10  WK01-FUNC-DESCRIPTION       PIC X(28)
                                               VALUE SPACES.
               10  WK01-STATUS-CODE-SY00-Z              PIC X(1)
                                               VALUE SPACE.
               10  WK01-STATUS-CODE-SY00-F              PIC X(1)
                                               VALUE SPACE.
               10  WK01-STATUS-CODE-SY00-A              PIC X(1)
                                               VALUE SPACE.
               10  WK01-STATUS-CODE-SY00-V              PIC X(1)
                                               VALUE SPACE.
               10  WK01-STATUS-CODE-SY00-O              PIC X(1)
                                               VALUE SPACE.
               10  WK01-STATUS-CODE-SY00       PIC X(1)
                                               VALUE SPACES.
               10  WK01-VIEW-6257-CO07-Z              PIC X(1)
                                               VALUE SPACE.
               10  WK01-VIEW-6257-CO07-F              PIC X(1)
                                               VALUE SPACE.
               10  WK01-VIEW-6257-CO07-A              PIC X(1)
                                               VALUE SPACE.
               10  WK01-VIEW-6257-CO07-V              PIC X(1)
                                               VALUE SPACE.
               10  WK01-VIEW-6257-CO07-O              PIC X(1)
                                               VALUE SPACE.
               10  WK01-VIEW-6257-CO07       PIC X(8)
                                               VALUE SPACES.
               10  WK01-DESC-6257-CO07-Z              PIC X(1)
                                               VALUE SPACE.
               10  WK01-DESC-6257-CO07-F              PIC X(1)
                                               VALUE SPACE.
               10  WK01-DESC-6257-CO07-A              PIC X(1)
                                               VALUE SPACE.
               10  WK01-DESC-6257-CO07-V              PIC X(1)
                                               VALUE SPACE.
               10  WK01-DESC-6257-CO07-O              PIC X(1)
                                               VALUE SPACE.
               10  WK01-DESC-6257-CO07       PIC X(30)
                                               VALUE SPACES.
               10  WK01-TYPE-6258-CO07-Z              PIC X(1)
                                               VALUE SPACE.
               10  WK01-TYPE-6258-CO07-F              PIC X(1)
                                               VALUE SPACE.
               10  WK01-TYPE-6258-CO07-A              PIC X(1)
                                               VALUE SPACE.
               10  WK01-TYPE-6258-CO07-V              PIC X(1)
                                               VALUE SPACE.
               10  WK01-TYPE-6258-CO07-O              PIC X(1)
                                               VALUE SPACE.
               10  WK01-TYPE-6258-CO07       PIC X(4)
                                               VALUE SPACES.
               10  WK01-DESC-6258-CO07-Z              PIC X(1)
                                               VALUE SPACE.
               10  WK01-DESC-6258-CO07-F              PIC X(1)
                                               VALUE SPACE.
               10  WK01-DESC-6258-CO07-A              PIC X(1)
                                               VALUE SPACE.
               10  WK01-DESC-6258-CO07-V              PIC X(1)
                                               VALUE SPACE.
               10  WK01-DESC-6258-CO07-O              PIC X(1)
                                               VALUE SPACE.
               10  WK01-DESC-6258-CO07       PIC X(30)
                                               VALUE SPACES.
               10  WK01-DATE-6259-CO07-Z              PIC X(1)
                                               VALUE SPACE.
               10  WK01-DATE-6259-CO07-F              PIC X(1)
                                               VALUE SPACE.
               10  WK01-DATE-6259-CO07-A              PIC X(1)
                                               VALUE SPACE.
               10  WK01-DATE-6259-CO07-V              PIC X(1)
                                               VALUE SPACE.
               10  WK01-DATE-6259-CO07-O              PIC X(1)
                                               VALUE SPACE.
               10  WK01-DATE-6259-CO07       PIC X(8)
                                               VALUE SPACES.
               10  WK01-PLAN-CODE-6259-CO07-Z              PIC X(1)
                                               VALUE SPACE.
               10  WK01-PLAN-CODE-6259-CO07-F              PIC X(1)
                                               VALUE SPACE.
               10  WK01-PLAN-CODE-6259-CO07-A              PIC X(1)
                                               VALUE SPACE.
               10  WK01-PLAN-CODE-6259-CO07-V              PIC X(1)
                                               VALUE SPACE.
               10  WK01-PLAN-CODE-6259-CO07-O              PIC X(1)
                                               VALUE SPACE.
               10  WK01-PLAN-CODE-6259-CO07       PIC X(4)
                                               VALUE SPACES.
               10  WK01-DESC-6259-CO07-Z              PIC X(1)
                                               VALUE SPACE.
               10  WK01-DESC-6259-CO07-F              PIC X(1)
                                               VALUE SPACE.
               10  WK01-DESC-6259-CO07-A              PIC X(1)
                                               VALUE SPACE.
               10  WK01-DESC-6259-CO07-V              PIC X(1)
                                               VALUE SPACE.
               10  WK01-DESC-6259-CO07-O              PIC X(1)
                                               VALUE SPACE.
               10  WK01-DESC-6259-CO07       PIC X(30)
                                               VALUE SPACES.
               10  WK01-DATE-6259-CO0A-Z              PIC X(1)
                                               VALUE SPACE.
               10  WK01-DATE-6259-CO0A-F              PIC X(1)
                                               VALUE SPACE.
               10  WK01-DATE-6259-CO0A-A              PIC X(1)
                                               VALUE SPACE.
               10  WK01-DATE-6259-CO0A-V              PIC X(1)
                                               VALUE SPACE.
               10  WK01-DATE-6259-CO0A-O              PIC X(1)
                                               VALUE SPACE.
               10  WK01-DATE-6259-CO0A       PIC X(8)
                                               VALUE SPACES.
               10  WK01-CODE-CO071-Z              PIC X(1)
                                               VALUE SPACE.
               10  WK01-CODE-CO071-F              PIC X(1)
                                               VALUE SPACE.
               10  WK01-CODE-CO071-A              PIC X(1)
                                               VALUE SPACE.
               10  WK01-CODE-CO071-V              PIC X(1)
                                               VALUE SPACE.
               10  WK01-CODE-CO071-O              PIC X(1)
                                               VALUE SPACE.
               10  WK01-CODE-CO071       PIC X(1)
                                               VALUE SPACES.
               10  WK01-CODE-SEQ-ID-6270-C071-Z              PIC X(1)
                                               VALUE SPACE.
               10  WK01-CODE-SEQ-ID-6270-C071-F              PIC X(1)
                                               VALUE SPACE.
               10  WK01-CODE-SEQ-ID-6270-C071-A              PIC X(1)
                                               VALUE SPACE.
               10  WK01-CODE-SEQ-ID-6270-C071-V              PIC X(1)
                                               VALUE SPACE.
               10  WK01-CODE-SEQ-ID-6270-C071-O              PIC X(1)
                                               VALUE SPACE.
               10  WK01-CODE-SEQ-ID-6270-C071       PIC X(3)
                                               VALUE SPACES.
               10  WK01-CODE-6260-CO071-Z              PIC X(1)
                                               VALUE SPACE.
               10  WK01-CODE-6260-CO071-F              PIC X(1)
                                               VALUE SPACE.
               10  WK01-CODE-6260-CO071-A              PIC X(1)
                                               VALUE SPACE.
               10  WK01-CODE-6260-CO071-V              PIC X(1)
                                               VALUE SPACE.
               10  WK01-CODE-6260-CO071-O              PIC X(1)
                                               VALUE SPACE.
               10  WK01-CODE-6260-CO071       PIC X(4)
                                               VALUE SPACES.
               10  WK01-DESC-6260-CO071-Z              PIC X(1)
                                               VALUE SPACE.
               10  WK01-DESC-6260-CO071-F              PIC X(1)
                                               VALUE SPACE.
               10  WK01-DESC-6260-CO071-A              PIC X(1)
                                               VALUE SPACE.
               10  WK01-DESC-6260-CO071-V              PIC X(1)
                                               VALUE SPACE.
               10  WK01-DESC-6260-CO071-O              PIC X(1)
                                               VALUE SPACE.
               10  WK01-DESC-6260-CO071       PIC X(10)
                                               VALUE SPACES.
               10  WK01-DESC-6260-CO0A1-Z              PIC X(1)
                                               VALUE SPACE.
               10  WK01-DESC-6260-CO0A1-F              PIC X(1)
                                               VALUE SPACE.
               10  WK01-DESC-6260-CO0A1-A              PIC X(1)
                                               VALUE SPACE.
               10  WK01-DESC-6260-CO0A1-V              PIC X(1)
                                               VALUE SPACE.
               10  WK01-DESC-6260-CO0A1-O              PIC X(1)
                                               VALUE SPACE.
               10  WK01-DESC-6260-CO0A1       PIC X(30)
                                               VALUE SPACES.
               10  WK01-DAYS-6270-CO071-Z              PIC X(1)
                                               VALUE SPACE.
               10  WK01-DAYS-6270-CO071-F              PIC X(1)
                                               VALUE SPACE.
               10  WK01-DAYS-6270-CO071-A              PIC X(1)
                                               VALUE SPACE.
               10  WK01-DAYS-6270-CO071-V              PIC X(1)
                                               VALUE SPACE.
               10  WK01-DAYS-6270-CO071-O              PIC X(1)
                                               VALUE SPACE.
               10  WK01-DAYS-6270-CO071       PIC X(3)
                                               VALUE SPACES.
               10  WK01-BATCH-FLAG-6270-CO071-Z              PIC X(1)
                                               VALUE SPACE.
               10  WK01-BATCH-FLAG-6270-CO071-F              PIC X(1)
                                               VALUE SPACE.
               10  WK01-BATCH-FLAG-6270-CO071-A              PIC X(1)
                                               VALUE SPACE.
               10  WK01-BATCH-FLAG-6270-CO071-V              PIC X(1)
                                               VALUE SPACE.
               10  WK01-BATCH-FLAG-6270-CO071-O              PIC X(1)
                                               VALUE SPACE.
               10  WK01-BATCH-FLAG-6270-CO071       PIC X(1)
                                               VALUE SPACES.
               10  WK01-BATCH-FLAG-6270-CO0A1-Z              PIC X(1)
                                               VALUE SPACE.
               10  WK01-BATCH-FLAG-6270-CO0A1-F              PIC X(1)
                                               VALUE SPACE.
               10  WK01-BATCH-FLAG-6270-CO0A1-A              PIC X(1)
                                               VALUE SPACE.
               10  WK01-BATCH-FLAG-6270-CO0A1-V              PIC X(1)
                                               VALUE SPACE.
               10  WK01-BATCH-FLAG-6270-CO0A1-O              PIC X(1)
                                               VALUE SPACE.
               10  WK01-BATCH-FLAG-6270-CO0A1       PIC X(1)
                                               VALUE SPACES.
               10  WK01-BATCH-MAX-6270-CO071-Z              PIC X(1)
                                               VALUE SPACE.
               10  WK01-BATCH-MAX-6270-CO071-F              PIC X(1)
                                               VALUE SPACE.
               10  WK01-BATCH-MAX-6270-CO071-A              PIC X(1)
                                               VALUE SPACE.
               10  WK01-BATCH-MAX-6270-CO071-V              PIC X(1)
                                               VALUE SPACE.
               10  WK01-BATCH-MAX-6270-CO071-O              PIC X(1)
                                               VALUE SPACE.
               10  WK01-BATCH-MAX-6270-CO071       PIC X(3)
                                               VALUE SPACES.
               10  WK01-FLAG-6261-CO071-Z              PIC X(1)
                                               VALUE SPACE.
               10  WK01-FLAG-6261-CO071-F              PIC X(1)
                                               VALUE SPACE.
               10  WK01-FLAG-6261-CO071-A              PIC X(1)
                                               VALUE SPACE.
               10  WK01-FLAG-6261-CO071-V              PIC X(1)
                                               VALUE SPACE.
               10  WK01-FLAG-6261-CO071-O              PIC X(1)
                                               VALUE SPACE.
               10  WK01-FLAG-6261-CO071       PIC X(1)
                                               VALUE SPACES.
               10  WK01-CODE-CO072-Z              PIC X(1)
                                               VALUE SPACE.
               10  WK01-CODE-CO072-F              PIC X(1)
                                               VALUE SPACE.
               10  WK01-CODE-CO072-A              PIC X(1)
                                               VALUE SPACE.
               10  WK01-CODE-CO072-V              PIC X(1)
                                               VALUE SPACE.
               10  WK01-CODE-CO072-O              PIC X(1)
                                               VALUE SPACE.
               10  WK01-CODE-CO072       PIC X(1)
                                               VALUE SPACES.
               10  WK01-CODE-SEQ-ID-6270-C072-Z              PIC X(1)
                                               VALUE SPACE.
               10  WK01-CODE-SEQ-ID-6270-C072-F              PIC X(1)
                                               VALUE SPACE.
               10  WK01-CODE-SEQ-ID-6270-C072-A              PIC X(1)
                                               VALUE SPACE.
               10  WK01-CODE-SEQ-ID-6270-C072-V              PIC X(1)
                                               VALUE SPACE.
               10  WK01-CODE-SEQ-ID-6270-C072-O              PIC X(1)
                                               VALUE SPACE.
               10  WK01-CODE-SEQ-ID-6270-C072       PIC X(3)
                                               VALUE SPACES.
               10  WK01-CODE-6260-CO072-Z              PIC X(1)
                                               VALUE SPACE.
               10  WK01-CODE-6260-CO072-F              PIC X(1)
                                               VALUE SPACE.
               10  WK01-CODE-6260-CO072-A              PIC X(1)
                                               VALUE SPACE.
               10  WK01-CODE-6260-CO072-V              PIC X(1)
                                               VALUE SPACE.
               10  WK01-CODE-6260-CO072-O              PIC X(1)
                                               VALUE SPACE.
               10  WK01-CODE-6260-CO072       PIC X(4)
                                               VALUE SPACES.
               10  WK01-DESC-6260-CO072-Z              PIC X(1)
                                               VALUE SPACE.
               10  WK01-DESC-6260-CO072-F              PIC X(1)
                                               VALUE SPACE.
               10  WK01-DESC-6260-CO072-A              PIC X(1)
                                               VALUE SPACE.
               10  WK01-DESC-6260-CO072-V              PIC X(1)
                                               VALUE SPACE.
               10  WK01-DESC-6260-CO072-O              PIC X(1)
                                               VALUE SPACE.
               10  WK01-DESC-6260-CO072       PIC X(10)
                                               VALUE SPACES.
               10  WK01-DESC-6260-CO0A2-Z              PIC X(1)
                                               VALUE SPACE.
               10  WK01-DESC-6260-CO0A2-F              PIC X(1)
                                               VALUE SPACE.
               10  WK01-DESC-6260-CO0A2-A              PIC X(1)
                                               VALUE SPACE.
               10  WK01-DESC-6260-CO0A2-V              PIC X(1)
                                               VALUE SPACE.
               10  WK01-DESC-6260-CO0A2-O              PIC X(1)
                                               VALUE SPACE.
               10  WK01-DESC-6260-CO0A2       PIC X(30)
                                               VALUE SPACES.
               10  WK01-DAYS-6270-CO072-Z              PIC X(1)
                                               VALUE SPACE.
               10  WK01-DAYS-6270-CO072-F              PIC X(1)
                                               VALUE SPACE.
               10  WK01-DAYS-6270-CO072-A              PIC X(1)
                                               VALUE SPACE.
               10  WK01-DAYS-6270-CO072-V              PIC X(1)
                                               VALUE SPACE.
               10  WK01-DAYS-6270-CO072-O              PIC X(1)
                                               VALUE SPACE.
               10  WK01-DAYS-6270-CO072       PIC X(3)
                                               VALUE SPACES.
               10  WK01-BATCH-FLAG-6270-CO072-Z              PIC X(1)
                                               VALUE SPACE.
               10  WK01-BATCH-FLAG-6270-CO072-F              PIC X(1)
                                               VALUE SPACE.
               10  WK01-BATCH-FLAG-6270-CO072-A              PIC X(1)
                                               VALUE SPACE.
               10  WK01-BATCH-FLAG-6270-CO072-V              PIC X(1)
                                               VALUE SPACE.
               10  WK01-BATCH-FLAG-6270-CO072-O              PIC X(1)
                                               VALUE SPACE.
               10  WK01-BATCH-FLAG-6270-CO072       PIC X(1)
                                               VALUE SPACES.
               10  WK01-BATCH-FLAG-6270-CO0A2-Z              PIC X(1)
                                               VALUE SPACE.
               10  WK01-BATCH-FLAG-6270-CO0A2-F              PIC X(1)
                                               VALUE SPACE.
               10  WK01-BATCH-FLAG-6270-CO0A2-A              PIC X(1)
                                               VALUE SPACE.
               10  WK01-BATCH-FLAG-6270-CO0A2-V              PIC X(1)
                                               VALUE SPACE.
               10  WK01-BATCH-FLAG-6270-CO0A2-O              PIC X(1)
                                               VALUE SPACE.
               10  WK01-BATCH-FLAG-6270-CO0A2       PIC X(1)
                                               VALUE SPACES.
               10  WK01-BATCH-MAX-6270-CO072-Z              PIC X(1)
                                               VALUE SPACE.
               10  WK01-BATCH-MAX-6270-CO072-F              PIC X(1)
                                               VALUE SPACE.
               10  WK01-BATCH-MAX-6270-CO072-A              PIC X(1)
                                               VALUE SPACE.
               10  WK01-BATCH-MAX-6270-CO072-V              PIC X(1)
                                               VALUE SPACE.
               10  WK01-BATCH-MAX-6270-CO072-O              PIC X(1)
                                               VALUE SPACE.
               10  WK01-BATCH-MAX-6270-CO072       PIC X(3)
                                               VALUE SPACES.
               10  WK01-FLAG-6261-CO072-Z              PIC X(1)
                                               VALUE SPACE.
               10  WK01-FLAG-6261-CO072-F              PIC X(1)
                                               VALUE SPACE.
               10  WK01-FLAG-6261-CO072-A              PIC X(1)
                                               VALUE SPACE.
               10  WK01-FLAG-6261-CO072-V              PIC X(1)
                                               VALUE SPACE.
               10  WK01-FLAG-6261-CO072-O              PIC X(1)
                                               VALUE SPACE.
               10  WK01-FLAG-6261-CO072       PIC X(1)
                                               VALUE SPACES.
               10  WK01-CODE-CO073-Z              PIC X(1)
                                               VALUE SPACE.
               10  WK01-CODE-CO073-F              PIC X(1)
                                               VALUE SPACE.
               10  WK01-CODE-CO073-A              PIC X(1)
                                               VALUE SPACE.
               10  WK01-CODE-CO073-V              PIC X(1)
                                               VALUE SPACE.
               10  WK01-CODE-CO073-O              PIC X(1)
                                               VALUE SPACE.
               10  WK01-CODE-CO073       PIC X(1)
                                               VALUE SPACES.
               10  WK01-CODE-SEQ-ID-6270-C073-Z              PIC X(1)
                                               VALUE SPACE.
               10  WK01-CODE-SEQ-ID-6270-C073-F              PIC X(1)
                                               VALUE SPACE.
               10  WK01-CODE-SEQ-ID-6270-C073-A              PIC X(1)
                                               VALUE SPACE.
               10  WK01-CODE-SEQ-ID-6270-C073-V              PIC X(1)
                                               VALUE SPACE.
               10  WK01-CODE-SEQ-ID-6270-C073-O              PIC X(1)
                                               VALUE SPACE.
               10  WK01-CODE-SEQ-ID-6270-C073       PIC X(3)
                                               VALUE SPACES.
               10  WK01-CODE-6260-CO073-Z              PIC X(1)
                                               VALUE SPACE.
               10  WK01-CODE-6260-CO073-F              PIC X(1)
                                               VALUE SPACE.
               10  WK01-CODE-6260-CO073-A              PIC X(1)
                                               VALUE SPACE.
               10  WK01-CODE-6260-CO073-V              PIC X(1)
                                               VALUE SPACE.
               10  WK01-CODE-6260-CO073-O              PIC X(1)
                                               VALUE SPACE.
               10  WK01-CODE-6260-CO073       PIC X(4)
                                               VALUE SPACES.
               10  WK01-DESC-6260-CO073-Z              PIC X(1)
                                               VALUE SPACE.
               10  WK01-DESC-6260-CO073-F              PIC X(1)
                                               VALUE SPACE.
               10  WK01-DESC-6260-CO073-A              PIC X(1)
                                               VALUE SPACE.
               10  WK01-DESC-6260-CO073-V              PIC X(1)
                                               VALUE SPACE.
               10  WK01-DESC-6260-CO073-O              PIC X(1)
                                               VALUE SPACE.
               10  WK01-DESC-6260-CO073       PIC X(10)
                                               VALUE SPACES.
               10  WK01-DESC-6260-CO0A3-Z              PIC X(1)
                                               VALUE SPACE.
               10  WK01-DESC-6260-CO0A3-F              PIC X(1)
                                               VALUE SPACE.
               10  WK01-DESC-6260-CO0A3-A              PIC X(1)
                                               VALUE SPACE.
               10  WK01-DESC-6260-CO0A3-V              PIC X(1)
                                               VALUE SPACE.
               10  WK01-DESC-6260-CO0A3-O              PIC X(1)
                                               VALUE SPACE.
               10  WK01-DESC-6260-CO0A3       PIC X(30)
                                               VALUE SPACES.
               10  WK01-DAYS-6270-CO073-Z              PIC X(1)
                                               VALUE SPACE.
               10  WK01-DAYS-6270-CO073-F              PIC X(1)
                                               VALUE SPACE.
               10  WK01-DAYS-6270-CO073-A              PIC X(1)
                                               VALUE SPACE.
               10  WK01-DAYS-6270-CO073-V              PIC X(1)
                                               VALUE SPACE.
               10  WK01-DAYS-6270-CO073-O              PIC X(1)
                                               VALUE SPACE.
               10  WK01-DAYS-6270-CO073       PIC X(3)
                                               VALUE SPACES.
               10  WK01-BATCH-FLAG-6270-CO073-Z              PIC X(1)
                                               VALUE SPACE.
               10  WK01-BATCH-FLAG-6270-CO073-F              PIC X(1)
                                               VALUE SPACE.
               10  WK01-BATCH-FLAG-6270-CO073-A              PIC X(1)
                                               VALUE SPACE.
               10  WK01-BATCH-FLAG-6270-CO073-V              PIC X(1)
                                               VALUE SPACE.
               10  WK01-BATCH-FLAG-6270-CO073-O              PIC X(1)
                                               VALUE SPACE.
               10  WK01-BATCH-FLAG-6270-CO073       PIC X(1)
                                               VALUE SPACES.
               10  WK01-BATCH-FLAG-6270-CO0A3-Z              PIC X(1)
                                               VALUE SPACE.
               10  WK01-BATCH-FLAG-6270-CO0A3-F              PIC X(1)
                                               VALUE SPACE.
               10  WK01-BATCH-FLAG-6270-CO0A3-A              PIC X(1)
                                               VALUE SPACE.
               10  WK01-BATCH-FLAG-6270-CO0A3-V              PIC X(1)
                                               VALUE SPACE.
               10  WK01-BATCH-FLAG-6270-CO0A3-O              PIC X(1)
                                               VALUE SPACE.
               10  WK01-BATCH-FLAG-6270-CO0A3       PIC X(1)
                                               VALUE SPACES.
               10  WK01-BATCH-MAX-6270-CO073-Z              PIC X(1)
                                               VALUE SPACE.
               10  WK01-BATCH-MAX-6270-CO073-F              PIC X(1)
                                               VALUE SPACE.
               10  WK01-BATCH-MAX-6270-CO073-A              PIC X(1)
                                               VALUE SPACE.
               10  WK01-BATCH-MAX-6270-CO073-V              PIC X(1)
                                               VALUE SPACE.
               10  WK01-BATCH-MAX-6270-CO073-O              PIC X(1)
                                               VALUE SPACE.
               10  WK01-BATCH-MAX-6270-CO073       PIC X(3)
                                               VALUE SPACES.
               10  WK01-FLAG-6261-CO073-Z              PIC X(1)
                                               VALUE SPACE.
               10  WK01-FLAG-6261-CO073-F              PIC X(1)
                                               VALUE SPACE.
               10  WK01-FLAG-6261-CO073-A              PIC X(1)
                                               VALUE SPACE.
               10  WK01-FLAG-6261-CO073-V              PIC X(1)
                                               VALUE SPACE.
               10  WK01-FLAG-6261-CO073-O              PIC X(1)
                                               VALUE SPACE.
               10  WK01-FLAG-6261-CO073       PIC X(1)
                                               VALUE SPACES.
               10  WK01-CODE-CO074-Z              PIC X(1)
                                               VALUE SPACE.
               10  WK01-CODE-CO074-F              PIC X(1)
                                               VALUE SPACE.
               10  WK01-CODE-CO074-A              PIC X(1)
                                               VALUE SPACE.
               10  WK01-CODE-CO074-V              PIC X(1)
                                               VALUE SPACE.
               10  WK01-CODE-CO074-O              PIC X(1)
                                               VALUE SPACE.
               10  WK01-CODE-CO074       PIC X(1)
                                               VALUE SPACES.
               10  WK01-CODE-SEQ-ID-6270-C074-Z              PIC X(1)
                                               VALUE SPACE.
               10  WK01-CODE-SEQ-ID-6270-C074-F              PIC X(1)
                                               VALUE SPACE.
               10  WK01-CODE-SEQ-ID-6270-C074-A              PIC X(1)
                                               VALUE SPACE.
               10  WK01-CODE-SEQ-ID-6270-C074-V              PIC X(1)
                                               VALUE SPACE.
               10  WK01-CODE-SEQ-ID-6270-C074-O              PIC X(1)
                                               VALUE SPACE.
               10  WK01-CODE-SEQ-ID-6270-C074       PIC X(3)
                                               VALUE SPACES.
               10  WK01-CODE-6260-CO074-Z              PIC X(1)
                                               VALUE SPACE.
               10  WK01-CODE-6260-CO074-F              PIC X(1)
                                               VALUE SPACE.
               10  WK01-CODE-6260-CO074-A              PIC X(1)
                                               VALUE SPACE.
               10  WK01-CODE-6260-CO074-V              PIC X(1)
                                               VALUE SPACE.
               10  WK01-CODE-6260-CO074-O              PIC X(1)
                                               VALUE SPACE.
               10  WK01-CODE-6260-CO074       PIC X(4)
                                               VALUE SPACES.
               10  WK01-DESC-6260-CO074-Z              PIC X(1)
                                               VALUE SPACE.
               10  WK01-DESC-6260-CO074-F              PIC X(1)
                                               VALUE SPACE.
               10  WK01-DESC-6260-CO074-A              PIC X(1)
                                               VALUE SPACE.
               10  WK01-DESC-6260-CO074-V              PIC X(1)
                                               VALUE SPACE.
               10  WK01-DESC-6260-CO074-O              PIC X(1)
                                               VALUE SPACE.
               10  WK01-DESC-6260-CO074       PIC X(10)
                                               VALUE SPACES.
               10  WK01-DESC-6260-CO0A4-Z              PIC X(1)
                                               VALUE SPACE.
               10  WK01-DESC-6260-CO0A4-F              PIC X(1)
                                               VALUE SPACE.
               10  WK01-DESC-6260-CO0A4-A              PIC X(1)
                                               VALUE SPACE.
               10  WK01-DESC-6260-CO0A4-V              PIC X(1)
                                               VALUE SPACE.
               10  WK01-DESC-6260-CO0A4-O              PIC X(1)
                                               VALUE SPACE.
               10  WK01-DESC-6260-CO0A4       PIC X(30)
                                               VALUE SPACES.
               10  WK01-DAYS-6270-CO074-Z              PIC X(1)
                                               VALUE SPACE.
               10  WK01-DAYS-6270-CO074-F              PIC X(1)
                                               VALUE SPACE.
               10  WK01-DAYS-6270-CO074-A              PIC X(1)
                                               VALUE SPACE.
               10  WK01-DAYS-6270-CO074-V              PIC X(1)
                                               VALUE SPACE.
               10  WK01-DAYS-6270-CO074-O              PIC X(1)
                                               VALUE SPACE.
               10  WK01-DAYS-6270-CO074       PIC X(3)
                                               VALUE SPACES.
               10  WK01-BATCH-FLAG-6270-CO074-Z              PIC X(1)
                                               VALUE SPACE.
               10  WK01-BATCH-FLAG-6270-CO074-F              PIC X(1)
                                               VALUE SPACE.
               10  WK01-BATCH-FLAG-6270-CO074-A              PIC X(1)
                                               VALUE SPACE.
               10  WK01-BATCH-FLAG-6270-CO074-V              PIC X(1)
                                               VALUE SPACE.
               10  WK01-BATCH-FLAG-6270-CO074-O              PIC X(1)
                                               VALUE SPACE.
               10  WK01-BATCH-FLAG-6270-CO074       PIC X(1)
                                               VALUE SPACES.
               10  WK01-BATCH-FLAG-6270-CO0A4-Z              PIC X(1)
                                               VALUE SPACE.
               10  WK01-BATCH-FLAG-6270-CO0A4-F              PIC X(1)
                                               VALUE SPACE.
               10  WK01-BATCH-FLAG-6270-CO0A4-A              PIC X(1)
                                               VALUE SPACE.
               10  WK01-BATCH-FLAG-6270-CO0A4-V              PIC X(1)
                                               VALUE SPACE.
               10  WK01-BATCH-FLAG-6270-CO0A4-O              PIC X(1)
                                               VALUE SPACE.
               10  WK01-BATCH-FLAG-6270-CO0A4       PIC X(1)
                                               VALUE SPACES.
               10  WK01-BATCH-MAX-6270-CO074-Z              PIC X(1)
                                               VALUE SPACE.
               10  WK01-BATCH-MAX-6270-CO074-F              PIC X(1)
                                               VALUE SPACE.
               10  WK01-BATCH-MAX-6270-CO074-A              PIC X(1)
                                               VALUE SPACE.
               10  WK01-BATCH-MAX-6270-CO074-V              PIC X(1)
                                               VALUE SPACE.
               10  WK01-BATCH-MAX-6270-CO074-O              PIC X(1)
                                               VALUE SPACE.
               10  WK01-BATCH-MAX-6270-CO074       PIC X(3)
                                               VALUE SPACES.
               10  WK01-FLAG-6261-CO074-Z              PIC X(1)
                                               VALUE SPACE.
               10  WK01-FLAG-6261-CO074-F              PIC X(1)
                                               VALUE SPACE.
               10  WK01-FLAG-6261-CO074-A              PIC X(1)
                                               VALUE SPACE.
               10  WK01-FLAG-6261-CO074-V              PIC X(1)
                                               VALUE SPACE.
               10  WK01-FLAG-6261-CO074-O              PIC X(1)
                                               VALUE SPACE.
               10  WK01-FLAG-6261-CO074       PIC X(1)
                                               VALUE SPACES.
               10  WK01-CODE-CO075-Z              PIC X(1)
                                               VALUE SPACE.
               10  WK01-CODE-CO075-F              PIC X(1)
                                               VALUE SPACE.
               10  WK01-CODE-CO075-A              PIC X(1)
                                               VALUE SPACE.
               10  WK01-CODE-CO075-V              PIC X(1)
                                               VALUE SPACE.
               10  WK01-CODE-CO075-O              PIC X(1)
                                               VALUE SPACE.
               10  WK01-CODE-CO075       PIC X(1)
                                               VALUE SPACES.
               10  WK01-CODE-SEQ-ID-6270-C075-Z              PIC X(1)
                                               VALUE SPACE.
               10  WK01-CODE-SEQ-ID-6270-C075-F              PIC X(1)
                                               VALUE SPACE.
               10  WK01-CODE-SEQ-ID-6270-C075-A              PIC X(1)
                                               VALUE SPACE.
               10  WK01-CODE-SEQ-ID-6270-C075-V              PIC X(1)
                                               VALUE SPACE.
               10  WK01-CODE-SEQ-ID-6270-C075-O              PIC X(1)
                                               VALUE SPACE.
               10  WK01-CODE-SEQ-ID-6270-C075       PIC X(3)
                                               VALUE SPACES.
               10  WK01-CODE-6260-CO075-Z              PIC X(1)
                                               VALUE SPACE.
               10  WK01-CODE-6260-CO075-F              PIC X(1)
                                               VALUE SPACE.
               10  WK01-CODE-6260-CO075-A              PIC X(1)
                                               VALUE SPACE.
               10  WK01-CODE-6260-CO075-V              PIC X(1)
                                               VALUE SPACE.
               10  WK01-CODE-6260-CO075-O              PIC X(1)
                                               VALUE SPACE.
               10  WK01-CODE-6260-CO075       PIC X(4)
                                               VALUE SPACES.
               10  WK01-DESC-6260-CO075-Z              PIC X(1)
                                               VALUE SPACE.
               10  WK01-DESC-6260-CO075-F              PIC X(1)
                                               VALUE SPACE.
               10  WK01-DESC-6260-CO075-A              PIC X(1)
                                               VALUE SPACE.
               10  WK01-DESC-6260-CO075-V              PIC X(1)
                                               VALUE SPACE.
               10  WK01-DESC-6260-CO075-O              PIC X(1)
                                               VALUE SPACE.
               10  WK01-DESC-6260-CO075       PIC X(10)
                                               VALUE SPACES.
               10  WK01-DESC-6260-CO0A5-Z              PIC X(1)
                                               VALUE SPACE.
               10  WK01-DESC-6260-CO0A5-F              PIC X(1)
                                               VALUE SPACE.
               10  WK01-DESC-6260-CO0A5-A              PIC X(1)
                                               VALUE SPACE.
               10  WK01-DESC-6260-CO0A5-V              PIC X(1)
                                               VALUE SPACE.
               10  WK01-DESC-6260-CO0A5-O              PIC X(1)
                                               VALUE SPACE.
               10  WK01-DESC-6260-CO0A5       PIC X(30)
                                               VALUE SPACES.
               10  WK01-DAYS-6270-CO075-Z              PIC X(1)
                                               VALUE SPACE.
               10  WK01-DAYS-6270-CO075-F              PIC X(1)
                                               VALUE SPACE.
               10  WK01-DAYS-6270-CO075-A              PIC X(1)
                                               VALUE SPACE.
               10  WK01-DAYS-6270-CO075-V              PIC X(1)
                                               VALUE SPACE.
               10  WK01-DAYS-6270-CO075-O              PIC X(1)
                                               VALUE SPACE.
               10  WK01-DAYS-6270-CO075       PIC X(3)
                                               VALUE SPACES.
               10  WK01-BATCH-FLAG-6270-CO075-Z              PIC X(1)
                                               VALUE SPACE.
               10  WK01-BATCH-FLAG-6270-CO075-F              PIC X(1)
                                               VALUE SPACE.
               10  WK01-BATCH-FLAG-6270-CO075-A              PIC X(1)
                                               VALUE SPACE.
               10  WK01-BATCH-FLAG-6270-CO075-V              PIC X(1)
                                               VALUE SPACE.
               10  WK01-BATCH-FLAG-6270-CO075-O              PIC X(1)
                                               VALUE SPACE.
               10  WK01-BATCH-FLAG-6270-CO075       PIC X(1)
                                               VALUE SPACES.
               10  WK01-BATCH-FLAG-6270-CO0A5-Z              PIC X(1)
                                               VALUE SPACE.
               10  WK01-BATCH-FLAG-6270-CO0A5-F              PIC X(1)
                                               VALUE SPACE.
               10  WK01-BATCH-FLAG-6270-CO0A5-A              PIC X(1)
                                               VALUE SPACE.
               10  WK01-BATCH-FLAG-6270-CO0A5-V              PIC X(1)
                                               VALUE SPACE.
               10  WK01-BATCH-FLAG-6270-CO0A5-O              PIC X(1)
                                               VALUE SPACE.
               10  WK01-BATCH-FLAG-6270-CO0A5       PIC X(1)
                                               VALUE SPACES.
               10  WK01-BATCH-MAX-6270-CO075-Z              PIC X(1)
                                               VALUE SPACE.
               10  WK01-BATCH-MAX-6270-CO075-F              PIC X(1)
                                               VALUE SPACE.
               10  WK01-BATCH-MAX-6270-CO075-A              PIC X(1)
                                               VALUE SPACE.
               10  WK01-BATCH-MAX-6270-CO075-V              PIC X(1)
                                               VALUE SPACE.
               10  WK01-BATCH-MAX-6270-CO075-O              PIC X(1)
                                               VALUE SPACE.
               10  WK01-BATCH-MAX-6270-CO075       PIC X(3)
                                               VALUE SPACES.
               10  WK01-FLAG-6261-CO075-Z              PIC X(1)
                                               VALUE SPACE.
               10  WK01-FLAG-6261-CO075-F              PIC X(1)
                                               VALUE SPACE.
               10  WK01-FLAG-6261-CO075-A              PIC X(1)
                                               VALUE SPACE.
               10  WK01-FLAG-6261-CO075-V              PIC X(1)
                                               VALUE SPACE.
               10  WK01-FLAG-6261-CO075-O              PIC X(1)
                                               VALUE SPACE.
               10  WK01-FLAG-6261-CO075       PIC X(1)
                                               VALUE SPACES.
               10  WK01-CODE-CO076-Z              PIC X(1)
                                               VALUE SPACE.
               10  WK01-CODE-CO076-F              PIC X(1)
                                               VALUE SPACE.
               10  WK01-CODE-CO076-A              PIC X(1)
                                               VALUE SPACE.
               10  WK01-CODE-CO076-V              PIC X(1)
                                               VALUE SPACE.
               10  WK01-CODE-CO076-O              PIC X(1)
                                               VALUE SPACE.
               10  WK01-CODE-CO076       PIC X(1)
                                               VALUE SPACES.
               10  WK01-CODE-SEQ-ID-6270-C076-Z              PIC X(1)
                                               VALUE SPACE.
               10  WK01-CODE-SEQ-ID-6270-C076-F              PIC X(1)
                                               VALUE SPACE.
               10  WK01-CODE-SEQ-ID-6270-C076-A              PIC X(1)
                                               VALUE SPACE.
               10  WK01-CODE-SEQ-ID-6270-C076-V              PIC X(1)
                                               VALUE SPACE.
               10  WK01-CODE-SEQ-ID-6270-C076-O              PIC X(1)
                                               VALUE SPACE.
               10  WK01-CODE-SEQ-ID-6270-C076       PIC X(3)
                                               VALUE SPACES.
               10  WK01-CODE-6260-CO076-Z              PIC X(1)
                                               VALUE SPACE.
               10  WK01-CODE-6260-CO076-F              PIC X(1)
                                               VALUE SPACE.
               10  WK01-CODE-6260-CO076-A              PIC X(1)
                                               VALUE SPACE.
               10  WK01-CODE-6260-CO076-V              PIC X(1)
                                               VALUE SPACE.
               10  WK01-CODE-6260-CO076-O              PIC X(1)
                                               VALUE SPACE.
               10  WK01-CODE-6260-CO076       PIC X(4)
                                               VALUE SPACES.
               10  WK01-DESC-6260-CO076-Z              PIC X(1)
                                               VALUE SPACE.
               10  WK01-DESC-6260-CO076-F              PIC X(1)
                                               VALUE SPACE.
               10  WK01-DESC-6260-CO076-A              PIC X(1)
                                               VALUE SPACE.
               10  WK01-DESC-6260-CO076-V              PIC X(1)
                                               VALUE SPACE.
               10  WK01-DESC-6260-CO076-O              PIC X(1)
                                               VALUE SPACE.
               10  WK01-DESC-6260-CO076       PIC X(10)
                                               VALUE SPACES.
               10  WK01-DESC-6260-CO0A6-Z              PIC X(1)
                                               VALUE SPACE.
               10  WK01-DESC-6260-CO0A6-F              PIC X(1)
                                               VALUE SPACE.
               10  WK01-DESC-6260-CO0A6-A              PIC X(1)
                                               VALUE SPACE.
               10  WK01-DESC-6260-CO0A6-V              PIC X(1)
                                               VALUE SPACE.
               10  WK01-DESC-6260-CO0A6-O              PIC X(1)
                                               VALUE SPACE.
               10  WK01-DESC-6260-CO0A6       PIC X(30)
                                               VALUE SPACES.
               10  WK01-DAYS-6270-CO076-Z              PIC X(1)
                                               VALUE SPACE.
               10  WK01-DAYS-6270-CO076-F              PIC X(1)
                                               VALUE SPACE.
               10  WK01-DAYS-6270-CO076-A              PIC X(1)
                                               VALUE SPACE.
               10  WK01-DAYS-6270-CO076-V              PIC X(1)
                                               VALUE SPACE.
               10  WK01-DAYS-6270-CO076-O              PIC X(1)
                                               VALUE SPACE.
               10  WK01-DAYS-6270-CO076       PIC X(3)
                                               VALUE SPACES.
               10  WK01-BATCH-FLAG-6270-CO076-Z              PIC X(1)
                                               VALUE SPACE.
               10  WK01-BATCH-FLAG-6270-CO076-F              PIC X(1)
                                               VALUE SPACE.
               10  WK01-BATCH-FLAG-6270-CO076-A              PIC X(1)
                                               VALUE SPACE.
               10  WK01-BATCH-FLAG-6270-CO076-V              PIC X(1)
                                               VALUE SPACE.
               10  WK01-BATCH-FLAG-6270-CO076-O              PIC X(1)
                                               VALUE SPACE.
               10  WK01-BATCH-FLAG-6270-CO076       PIC X(1)
                                               VALUE SPACES.
               10  WK01-BATCH-FLAG-6270-CO0A6-Z              PIC X(1)
                                               VALUE SPACE.
               10  WK01-BATCH-FLAG-6270-CO0A6-F              PIC X(1)
                                               VALUE SPACE.
               10  WK01-BATCH-FLAG-6270-CO0A6-A              PIC X(1)
                                               VALUE SPACE.
               10  WK01-BATCH-FLAG-6270-CO0A6-V              PIC X(1)
                                               VALUE SPACE.
               10  WK01-BATCH-FLAG-6270-CO0A6-O              PIC X(1)
                                               VALUE SPACE.
               10  WK01-BATCH-FLAG-6270-CO0A6       PIC X(1)
                                               VALUE SPACES.
               10  WK01-BATCH-MAX-6270-CO076-Z              PIC X(1)
                                               VALUE SPACE.
               10  WK01-BATCH-MAX-6270-CO076-F              PIC X(1)
                                               VALUE SPACE.
               10  WK01-BATCH-MAX-6270-CO076-A              PIC X(1)
                                               VALUE SPACE.
               10  WK01-BATCH-MAX-6270-CO076-V              PIC X(1)
                                               VALUE SPACE.
               10  WK01-BATCH-MAX-6270-CO076-O              PIC X(1)
                                               VALUE SPACE.
               10  WK01-BATCH-MAX-6270-CO076       PIC X(3)
                                               VALUE SPACES.
               10  WK01-FLAG-6261-CO076-Z              PIC X(1)
                                               VALUE SPACE.
               10  WK01-FLAG-6261-CO076-F              PIC X(1)
                                               VALUE SPACE.
               10  WK01-FLAG-6261-CO076-A              PIC X(1)
                                               VALUE SPACE.
               10  WK01-FLAG-6261-CO076-V              PIC X(1)
                                               VALUE SPACE.
               10  WK01-FLAG-6261-CO076-O              PIC X(1)
                                               VALUE SPACE.
               10  WK01-FLAG-6261-CO076       PIC X(1)
                                               VALUE SPACES.
               10  WK01-CODE-CO077-Z              PIC X(1)
                                               VALUE SPACE.
               10  WK01-CODE-CO077-F              PIC X(1)
                                               VALUE SPACE.
               10  WK01-CODE-CO077-A              PIC X(1)
                                               VALUE SPACE.
               10  WK01-CODE-CO077-V              PIC X(1)
                                               VALUE SPACE.
               10  WK01-CODE-CO077-O              PIC X(1)
                                               VALUE SPACE.
               10  WK01-CODE-CO077       PIC X(1)
                                               VALUE SPACES.
               10  WK01-CODE-SEQ-ID-6270-C077-Z              PIC X(1)
                                               VALUE SPACE.
               10  WK01-CODE-SEQ-ID-6270-C077-F              PIC X(1)
                                               VALUE SPACE.
               10  WK01-CODE-SEQ-ID-6270-C077-A              PIC X(1)
                                               VALUE SPACE.
               10  WK01-CODE-SEQ-ID-6270-C077-V              PIC X(1)
                                               VALUE SPACE.
               10  WK01-CODE-SEQ-ID-6270-C077-O              PIC X(1)
                                               VALUE SPACE.
               10  WK01-CODE-SEQ-ID-6270-C077       PIC X(3)
                                               VALUE SPACES.
               10  WK01-CODE-6260-CO077-Z              PIC X(1)
                                               VALUE SPACE.
               10  WK01-CODE-6260-CO077-F              PIC X(1)
                                               VALUE SPACE.
               10  WK01-CODE-6260-CO077-A              PIC X(1)
                                               VALUE SPACE.
               10  WK01-CODE-6260-CO077-V              PIC X(1)
                                               VALUE SPACE.
               10  WK01-CODE-6260-CO077-O              PIC X(1)
                                               VALUE SPACE.
               10  WK01-CODE-6260-CO077       PIC X(4)
                                               VALUE SPACES.
               10  WK01-DESC-6260-CO077-Z              PIC X(1)
                                               VALUE SPACE.
               10  WK01-DESC-6260-CO077-F              PIC X(1)
                                               VALUE SPACE.
               10  WK01-DESC-6260-CO077-A              PIC X(1)
                                               VALUE SPACE.
               10  WK01-DESC-6260-CO077-V              PIC X(1)
                                               VALUE SPACE.
               10  WK01-DESC-6260-CO077-O              PIC X(1)
                                               VALUE SPACE.
               10  WK01-DESC-6260-CO077       PIC X(10)
                                               VALUE SPACES.
               10  WK01-DESC-6260-CO0A7-Z              PIC X(1)
                                               VALUE SPACE.
               10  WK01-DESC-6260-CO0A7-F              PIC X(1)
                                               VALUE SPACE.
               10  WK01-DESC-6260-CO0A7-A              PIC X(1)
                                               VALUE SPACE.
               10  WK01-DESC-6260-CO0A7-V              PIC X(1)
                                               VALUE SPACE.
               10  WK01-DESC-6260-CO0A7-O              PIC X(1)
                                               VALUE SPACE.
               10  WK01-DESC-6260-CO0A7       PIC X(30)
                                               VALUE SPACES.
               10  WK01-DAYS-6270-CO077-Z              PIC X(1)
                                               VALUE SPACE.
               10  WK01-DAYS-6270-CO077-F              PIC X(1)
                                               VALUE SPACE.
               10  WK01-DAYS-6270-CO077-A              PIC X(1)
                                               VALUE SPACE.
               10  WK01-DAYS-6270-CO077-V              PIC X(1)
                                               VALUE SPACE.
               10  WK01-DAYS-6270-CO077-O              PIC X(1)
                                               VALUE SPACE.
               10  WK01-DAYS-6270-CO077       PIC X(3)
                                               VALUE SPACES.
               10  WK01-BATCH-FLAG-6270-CO077-Z              PIC X(1)
                                               VALUE SPACE.
               10  WK01-BATCH-FLAG-6270-CO077-F              PIC X(1)
                                               VALUE SPACE.
               10  WK01-BATCH-FLAG-6270-CO077-A              PIC X(1)
                                               VALUE SPACE.
               10  WK01-BATCH-FLAG-6270-CO077-V              PIC X(1)
                                               VALUE SPACE.
               10  WK01-BATCH-FLAG-6270-CO077-O              PIC X(1)
                                               VALUE SPACE.
               10  WK01-BATCH-FLAG-6270-CO077       PIC X(1)
                                               VALUE SPACES.
               10  WK01-BATCH-FLAG-6270-CO0A7-Z              PIC X(1)
                                               VALUE SPACE.
               10  WK01-BATCH-FLAG-6270-CO0A7-F              PIC X(1)
                                               VALUE SPACE.
               10  WK01-BATCH-FLAG-6270-CO0A7-A              PIC X(1)
                                               VALUE SPACE.
               10  WK01-BATCH-FLAG-6270-CO0A7-V              PIC X(1)
                                               VALUE SPACE.
               10  WK01-BATCH-FLAG-6270-CO0A7-O              PIC X(1)
                                               VALUE SPACE.
               10  WK01-BATCH-FLAG-6270-CO0A7       PIC X(1)
                                               VALUE SPACES.
               10  WK01-BATCH-MAX-6270-CO077-Z              PIC X(1)
                                               VALUE SPACE.
               10  WK01-BATCH-MAX-6270-CO077-F              PIC X(1)
                                               VALUE SPACE.
               10  WK01-BATCH-MAX-6270-CO077-A              PIC X(1)
                                               VALUE SPACE.
               10  WK01-BATCH-MAX-6270-CO077-V              PIC X(1)
                                               VALUE SPACE.
               10  WK01-BATCH-MAX-6270-CO077-O              PIC X(1)
                                               VALUE SPACE.
               10  WK01-BATCH-MAX-6270-CO077       PIC X(3)
                                               VALUE SPACES.
               10  WK01-FLAG-6261-CO077-Z              PIC X(1)
                                               VALUE SPACE.
               10  WK01-FLAG-6261-CO077-F              PIC X(1)
                                               VALUE SPACE.
               10  WK01-FLAG-6261-CO077-A              PIC X(1)
                                               VALUE SPACE.
               10  WK01-FLAG-6261-CO077-V              PIC X(1)
                                               VALUE SPACE.
               10  WK01-FLAG-6261-CO077-O              PIC X(1)
                                               VALUE SPACE.
               10  WK01-FLAG-6261-CO077       PIC X(1)
                                               VALUE SPACES.
               10  WK01-CODE-CO078-Z              PIC X(1)
                                               VALUE SPACE.
               10  WK01-CODE-CO078-F              PIC X(1)
                                               VALUE SPACE.
               10  WK01-CODE-CO078-A              PIC X(1)
                                               VALUE SPACE.
               10  WK01-CODE-CO078-V              PIC X(1)
                                               VALUE SPACE.
               10  WK01-CODE-CO078-O              PIC X(1)
                                               VALUE SPACE.
               10  WK01-CODE-CO078       PIC X(1)
                                               VALUE SPACES.
               10  WK01-CODE-SEQ-ID-6270-C078-Z              PIC X(1)
                                               VALUE SPACE.
               10  WK01-CODE-SEQ-ID-6270-C078-F              PIC X(1)
                                               VALUE SPACE.
               10  WK01-CODE-SEQ-ID-6270-C078-A              PIC X(1)
                                               VALUE SPACE.
               10  WK01-CODE-SEQ-ID-6270-C078-V              PIC X(1)
                                               VALUE SPACE.
               10  WK01-CODE-SEQ-ID-6270-C078-O              PIC X(1)
                                               VALUE SPACE.
               10  WK01-CODE-SEQ-ID-6270-C078       PIC X(3)
                                               VALUE SPACES.
               10  WK01-CODE-6260-CO078-Z              PIC X(1)
                                               VALUE SPACE.
               10  WK01-CODE-6260-CO078-F              PIC X(1)
                                               VALUE SPACE.
               10  WK01-CODE-6260-CO078-A              PIC X(1)
                                               VALUE SPACE.
               10  WK01-CODE-6260-CO078-V              PIC X(1)
                                               VALUE SPACE.
               10  WK01-CODE-6260-CO078-O              PIC X(1)
                                               VALUE SPACE.
               10  WK01-CODE-6260-CO078       PIC X(4)
                                               VALUE SPACES.
               10  WK01-DESC-6260-CO078-Z              PIC X(1)
                                               VALUE SPACE.
               10  WK01-DESC-6260-CO078-F              PIC X(1)
                                               VALUE SPACE.
               10  WK01-DESC-6260-CO078-A              PIC X(1)
                                               VALUE SPACE.
               10  WK01-DESC-6260-CO078-V              PIC X(1)
                                               VALUE SPACE.
               10  WK01-DESC-6260-CO078-O              PIC X(1)
                                               VALUE SPACE.
               10  WK01-DESC-6260-CO078       PIC X(10)
                                               VALUE SPACES.
               10  WK01-DESC-6260-CO0A8-Z              PIC X(1)
                                               VALUE SPACE.
               10  WK01-DESC-6260-CO0A8-F              PIC X(1)
                                               VALUE SPACE.
               10  WK01-DESC-6260-CO0A8-A              PIC X(1)
                                               VALUE SPACE.
               10  WK01-DESC-6260-CO0A8-V              PIC X(1)
                                               VALUE SPACE.
               10  WK01-DESC-6260-CO0A8-O              PIC X(1)
                                               VALUE SPACE.
               10  WK01-DESC-6260-CO0A8       PIC X(30)
                                               VALUE SPACES.
               10  WK01-DAYS-6270-CO078-Z              PIC X(1)
                                               VALUE SPACE.
               10  WK01-DAYS-6270-CO078-F              PIC X(1)
                                               VALUE SPACE.
               10  WK01-DAYS-6270-CO078-A              PIC X(1)
                                               VALUE SPACE.
               10  WK01-DAYS-6270-CO078-V              PIC X(1)
                                               VALUE SPACE.
               10  WK01-DAYS-6270-CO078-O              PIC X(1)
                                               VALUE SPACE.
               10  WK01-DAYS-6270-CO078       PIC X(3)
                                               VALUE SPACES.
               10  WK01-BATCH-FLAG-6270-CO078-Z              PIC X(1)
                                               VALUE SPACE.
               10  WK01-BATCH-FLAG-6270-CO078-F              PIC X(1)
                                               VALUE SPACE.
               10  WK01-BATCH-FLAG-6270-CO078-A              PIC X(1)
                                               VALUE SPACE.
               10  WK01-BATCH-FLAG-6270-CO078-V              PIC X(1)
                                               VALUE SPACE.
               10  WK01-BATCH-FLAG-6270-CO078-O              PIC X(1)
                                               VALUE SPACE.
               10  WK01-BATCH-FLAG-6270-CO078       PIC X(1)
                                               VALUE SPACES.
               10  WK01-BATCH-FLAG-6270-CO0A8-Z              PIC X(1)
                                               VALUE SPACE.
               10  WK01-BATCH-FLAG-6270-CO0A8-F              PIC X(1)
                                               VALUE SPACE.
               10  WK01-BATCH-FLAG-6270-CO0A8-A              PIC X(1)
                                               VALUE SPACE.
               10  WK01-BATCH-FLAG-6270-CO0A8-V              PIC X(1)
                                               VALUE SPACE.
               10  WK01-BATCH-FLAG-6270-CO0A8-O              PIC X(1)
                                               VALUE SPACE.
               10  WK01-BATCH-FLAG-6270-CO0A8       PIC X(1)
                                               VALUE SPACES.
               10  WK01-BATCH-MAX-6270-CO078-Z              PIC X(1)
                                               VALUE SPACE.
               10  WK01-BATCH-MAX-6270-CO078-F              PIC X(1)
                                               VALUE SPACE.
               10  WK01-BATCH-MAX-6270-CO078-A              PIC X(1)
                                               VALUE SPACE.
               10  WK01-BATCH-MAX-6270-CO078-V              PIC X(1)
                                               VALUE SPACE.
               10  WK01-BATCH-MAX-6270-CO078-O              PIC X(1)
                                               VALUE SPACE.
               10  WK01-BATCH-MAX-6270-CO078       PIC X(3)
                                               VALUE SPACES.
               10  WK01-FLAG-6261-CO078-Z              PIC X(1)
                                               VALUE SPACE.
               10  WK01-FLAG-6261-CO078-F              PIC X(1)
                                               VALUE SPACE.
               10  WK01-FLAG-6261-CO078-A              PIC X(1)
                                               VALUE SPACE.
               10  WK01-FLAG-6261-CO078-V              PIC X(1)
                                               VALUE SPACE.
               10  WK01-FLAG-6261-CO078-O              PIC X(1)
                                               VALUE SPACE.
               10  WK01-FLAG-6261-CO078       PIC X(1)
                                               VALUE SPACES.
               10  WK01-CODE-CO079-Z              PIC X(1)
                                               VALUE SPACE.
               10  WK01-CODE-CO079-F              PIC X(1)
                                               VALUE SPACE.
               10  WK01-CODE-CO079-A              PIC X(1)
                                               VALUE SPACE.
               10  WK01-CODE-CO079-V              PIC X(1)
                                               VALUE SPACE.
               10  WK01-CODE-CO079-O              PIC X(1)
                                               VALUE SPACE.
               10  WK01-CODE-CO079       PIC X(1)
                                               VALUE SPACES.
               10  WK01-CODE-SEQ-ID-6270-C079-Z              PIC X(1)
                                               VALUE SPACE.
               10  WK01-CODE-SEQ-ID-6270-C079-F              PIC X(1)
                                               VALUE SPACE.
               10  WK01-CODE-SEQ-ID-6270-C079-A              PIC X(1)
                                               VALUE SPACE.
               10  WK01-CODE-SEQ-ID-6270-C079-V              PIC X(1)
                                               VALUE SPACE.
               10  WK01-CODE-SEQ-ID-6270-C079-O              PIC X(1)
                                               VALUE SPACE.
               10  WK01-CODE-SEQ-ID-6270-C079       PIC X(3)
                                               VALUE SPACES.
               10  WK01-CODE-6260-CO079-Z              PIC X(1)
                                               VALUE SPACE.
               10  WK01-CODE-6260-CO079-F              PIC X(1)
                                               VALUE SPACE.
               10  WK01-CODE-6260-CO079-A              PIC X(1)
                                               VALUE SPACE.
               10  WK01-CODE-6260-CO079-V              PIC X(1)
                                               VALUE SPACE.
               10  WK01-CODE-6260-CO079-O              PIC X(1)
                                               VALUE SPACE.
               10  WK01-CODE-6260-CO079       PIC X(4)
                                               VALUE SPACES.
               10  WK01-DESC-6260-CO079-Z              PIC X(1)
                                               VALUE SPACE.
               10  WK01-DESC-6260-CO079-F              PIC X(1)
                                               VALUE SPACE.
               10  WK01-DESC-6260-CO079-A              PIC X(1)
                                               VALUE SPACE.
               10  WK01-DESC-6260-CO079-V              PIC X(1)
                                               VALUE SPACE.
               10  WK01-DESC-6260-CO079-O              PIC X(1)
                                               VALUE SPACE.
               10  WK01-DESC-6260-CO079       PIC X(10)
                                               VALUE SPACES.
               10  WK01-DESC-6260-CO0A9-Z              PIC X(1)
                                               VALUE SPACE.
               10  WK01-DESC-6260-CO0A9-F              PIC X(1)
                                               VALUE SPACE.
               10  WK01-DESC-6260-CO0A9-A              PIC X(1)
                                               VALUE SPACE.
               10  WK01-DESC-6260-CO0A9-V              PIC X(1)
                                               VALUE SPACE.
               10  WK01-DESC-6260-CO0A9-O              PIC X(1)
                                               VALUE SPACE.
               10  WK01-DESC-6260-CO0A9       PIC X(30)
                                               VALUE SPACES.
               10  WK01-DAYS-6270-CO079-Z              PIC X(1)
                                               VALUE SPACE.
               10  WK01-DAYS-6270-CO079-F              PIC X(1)
                                               VALUE SPACE.
               10  WK01-DAYS-6270-CO079-A              PIC X(1)
                                               VALUE SPACE.
               10  WK01-DAYS-6270-CO079-V              PIC X(1)
                                               VALUE SPACE.
               10  WK01-DAYS-6270-CO079-O              PIC X(1)
                                               VALUE SPACE.
               10  WK01-DAYS-6270-CO079       PIC X(3)
                                               VALUE SPACES.
               10  WK01-BATCH-FLAG-6270-CO079-Z              PIC X(1)
                                               VALUE SPACE.
               10  WK01-BATCH-FLAG-6270-CO079-F              PIC X(1)
                                               VALUE SPACE.
               10  WK01-BATCH-FLAG-6270-CO079-A              PIC X(1)
                                               VALUE SPACE.
               10  WK01-BATCH-FLAG-6270-CO079-V              PIC X(1)
                                               VALUE SPACE.
               10  WK01-BATCH-FLAG-6270-CO079-O              PIC X(1)
                                               VALUE SPACE.
               10  WK01-BATCH-FLAG-6270-CO079       PIC X(1)
                                               VALUE SPACES.
               10  WK01-BATCH-FLAG-6270-CO0A9-Z              PIC X(1)
                                               VALUE SPACE.
               10  WK01-BATCH-FLAG-6270-CO0A9-F              PIC X(1)
                                               VALUE SPACE.
               10  WK01-BATCH-FLAG-6270-CO0A9-A              PIC X(1)
                                               VALUE SPACE.
               10  WK01-BATCH-FLAG-6270-CO0A9-V              PIC X(1)
                                               VALUE SPACE.
               10  WK01-BATCH-FLAG-6270-CO0A9-O              PIC X(1)
                                               VALUE SPACE.
               10  WK01-BATCH-FLAG-6270-CO0A9       PIC X(1)
                                               VALUE SPACES.
               10  WK01-BATCH-MAX-6270-CO079-Z              PIC X(1)
                                               VALUE SPACE.
               10  WK01-BATCH-MAX-6270-CO079-F              PIC X(1)
                                               VALUE SPACE.
               10  WK01-BATCH-MAX-6270-CO079-A              PIC X(1)
                                               VALUE SPACE.
               10  WK01-BATCH-MAX-6270-CO079-V              PIC X(1)
                                               VALUE SPACE.
               10  WK01-BATCH-MAX-6270-CO079-O              PIC X(1)
                                               VALUE SPACE.
               10  WK01-BATCH-MAX-6270-CO079       PIC X(3)
                                               VALUE SPACES.
               10  WK01-FLAG-6261-CO079-Z              PIC X(1)
                                               VALUE SPACE.
               10  WK01-FLAG-6261-CO079-F              PIC X(1)
                                               VALUE SPACE.
               10  WK01-FLAG-6261-CO079-A              PIC X(1)
                                               VALUE SPACE.
               10  WK01-FLAG-6261-CO079-V              PIC X(1)
                                               VALUE SPACE.
               10  WK01-FLAG-6261-CO079-O              PIC X(1)
                                               VALUE SPACE.
               10  WK01-FLAG-6261-CO079       PIC X(1)
                                               VALUE SPACES.
               10  WK01-TEXT-CODE-SEQ-ID-C07-Z              PIC X(1)
                                               VALUE SPACE.
               10  WK01-TEXT-CODE-SEQ-ID-C07-F              PIC X(1)
                                               VALUE SPACE.
               10  WK01-TEXT-CODE-SEQ-ID-C07-A              PIC X(1)
                                               VALUE SPACE.
               10  WK01-TEXT-CODE-SEQ-ID-C07-V              PIC X(1)
                                               VALUE SPACE.
               10  WK01-TEXT-CODE-SEQ-ID-C07-O              PIC X(1)
                                               VALUE SPACE.
               10  WK01-TEXT-CODE-SEQ-ID-C07       PIC X(3)
                                               VALUE SPACES.
               10  WK01-ZZMESSAGE-Z              PIC X(1)
                                               VALUE SPACE.
               10  WK01-ZZMESSAGE-F              PIC X(1)
                                               VALUE SPACE.
               10  WK01-ZZMESSAGE-A              PIC X(1)
                                               VALUE SPACE.
               10  WK01-ZZMESSAGE-V              PIC X(1)
                                               VALUE SPACE.
               10  WK01-ZZMESSAGE-O              PIC X(1)
                                               VALUE SPACE.
               10  WK01-ZZMESSAGE       PIC X(160)
                                               VALUE SPACES.
               10  WK01-PASSED-ONE-Z              PIC X(1)
                                               VALUE SPACE.
               10  WK01-PASSED-ONE-F              PIC X(1)
                                               VALUE SPACE.
               10  WK01-PASSED-ONE-A              PIC X(1)
                                               VALUE SPACE.
               10  WK01-PASSED-ONE-V              PIC X(1)
                                               VALUE SPACE.
               10  WK01-PASSED-ONE-O              PIC X(1)
                                               VALUE SPACE.
               10  WK01-PASSED-ONE       PIC X(32)
                                               VALUE SPACES.
               10  WK01-MAP-RESPONSE-Z              PIC X(1)
                                               VALUE SPACE.
               10  WK01-MAP-RESPONSE-F              PIC X(1)
                                               VALUE SPACE.
               10  WK01-MAP-RESPONSE-A              PIC X(1)
                                               VALUE SPACE.
               10  WK01-MAP-RESPONSE-V              PIC X(1)
                                               VALUE SPACE.
               10  WK01-MAP-RESPONSE-O              PIC X(1)
                                               VALUE SPACE.
               10  WK01-MAP-RESPONSE       PIC X(8)
                                               VALUE SPACES.
               10  WK01-TEXT-SY00-Z              PIC X(1)
                                               VALUE SPACE.
               10  WK01-TEXT-SY00-F              PIC X(1)
                                               VALUE SPACE.
               10  WK01-TEXT-SY00-A              PIC X(1)
                                               VALUE SPACE.
               10  WK01-TEXT-SY00-V              PIC X(1)
                                               VALUE SPACE.
               10  WK01-TEXT-SY00-O              PIC X(1)
                                               VALUE SPACE.
               10  WK01-TEXT-SY00       PIC X(14)
                                               VALUE SPACES.
           04  WK01-SUBSCRIPTED-WORK-AREA.
               05  FILLER                      PIC X(1).
               05  WK01-CODE-CO07-F             PIC X(1)
                                               OCCURS 9.
               05  WK01-CODE-6260-CO07-F             PIC X(1)
                                               OCCURS 9.
               05  WK01-DESC-6260-CO07-F             PIC X(1)
                                               OCCURS 9.
               05  WK01-DESC-6260-CO0A-F             PIC X(1)
                                               OCCURS 9.
               05  WK01-CODE-SEQ-ID-6270-C07-F             PIC X(1)
                                               OCCURS 9.
               05  WK01-DAYS-6270-CO07-F             PIC X(1)
                                               OCCURS 9.
               05  WK01-FLAG-6261-CO07-F             PIC X(1)
                                               OCCURS 9.
               05  WK01-BATCH-FLAG-6270-CO07-F             PIC X(1)
                                               OCCURS 9.
               05  WK01-BATCH-FLAG-6270-CO0A-F             PIC X(1)
                                               OCCURS 9.
               05  WK01-BATCH-MAX-6270-CO07-F             PIC X(1)
                                               OCCURS 9.
