      *---------------------------------------------------------------*
      *                                                               *
      *  RECORD FCOWD09                              04/24/00  13:04  *
      *                                                               *
      *---------------------------------------------------------------*
       01  FCOWD09.
           02  SAVE-DBKEY-ID-6268-CO09
                                     COMP   OCCURS 11   PIC S9(8).
           02  USE-REC-FLAG-CO09                        PIC X(1).
