      *---------------------------------------------------------------*
      *                                                               *
      *  RECORD FCOWK01                              04/24/00  12:27  *
      *                                                               *
      *---------------------------------------------------------------*
       01  FCOWK01.
           02  RQST-COMM-VIEW-CO01                      PIC X(8).
