       01  MAP-CONTROL.

    ***Created by Convert/DC version V8R03 on 12/05/00 at 11:00***

           02  FEXMI25-MAP-CONTROL.
           03  FEXMI25T.
           04  WK01-DCXMAPL-PARMS.
               10  WK01-MAPNAME                  PIC X(8)
                                                 VALUE 'FEXMI25I'.
               10  WK01-IKE-LENGTH               PIC S9(8)  COMP
                                                 VALUE 22595.
               10  WK01-TINA-LENGTH              PIC S9(4)  COMP
                                                 VALUE 1688.
           05  WK01-ATTRIBUTES                   PIC X(60)
                                                 VALUE SPACE.
           05  WK01-ATTRIBUTES-ERROR             PIC X(60) VALUE
               'U  BIF'.
           05  WK01-CURSOR-DFLD                  PIC X(36)
                                                 VALUE SPACES.
           05  WK01-CURSOR-DFLD-QUAL             PIC X(30)
                                                 VALUE SPACES.
           05  WK01-ROW                          PIC S9(4) COMP
                                                 VALUE ZERO.
           05  WK01-COLUMN                       PIC S9(4) COMP
                                                 VALUE ZERO.
           05  WK01-ERROR-MSG                    PIC X(80)
                                                 VALUE SPACES.
           05  WK01-MAP-DATA-LEN                 PIC S9(6)
                                                 VALUE ZERO.
           05  WK01-1ST-FLAG                     PIC X(1)
                                                 VALUE 'Y'.
           05  WK01-FLAG-OUTPUT-DATA             PIC X(1)
                                                 VALUE 'Y'.
      *    05  WK01-STATUS-RETURN-FLAG           PIC X(1)
      *                                          VALUE SPACES.
           05  WK01-ALL-BUT-FLAG                 PIC X(1)
                                                 VALUE SPACES.
           05  WK01-FLAG-ALL-FIELDS-CHANGED      PIC X(1)  VALUE 'Y'.
           05  WK01-FLAG-ANY-FIELDS-CHANGED      PIC X(1)  VALUE 'N'.
           05  WK01-FLAG-ALL-FIELDS-ERROR        PIC X(1)  VALUE 'Y'.
           05  WK01-FLAG-ANY-FIELDS-ERROR        PIC X(1)  VALUE 'N'.
           05  WK01-FLAG-ALL-FIELDS-ERASE        PIC X(1)  VALUE 'Y'.
           05  WK01-FLAG-ANY-FIELDS-ERASE        PIC X(1)  VALUE 'Y'.

           05  WK01-VARDATA                      PIC X(11880)
                                                 VALUE SPACES.
           05  FILLER                            PIC X(100)
                                                 VALUE SPACES.
           04  WK01-ELEMENT-AREA.

               10  WK01-ID-SY00-Z              PIC X(1)
                                               VALUE SPACE.
               10  WK01-ID-SY00-F              PIC X(1)
                                               VALUE SPACE.
               10  WK01-ID-SY00-A              PIC X(1)
                                               VALUE SPACE.
               10  WK01-ID-SY00-V              PIC X(1)
                                               VALUE SPACE.
               10  WK01-ID-SY00-O              PIC X(1)
                                               VALUE SPACE.
               10  WK01-ID-SY00       PIC X(8)
                                               VALUE SPACES.
               10  WK01-NAME-6001-SY00-Z              PIC X(1)
                                               VALUE SPACE.
               10  WK01-NAME-6001-SY00-F              PIC X(1)
                                               VALUE SPACE.
               10  WK01-NAME-6001-SY00-A              PIC X(1)
                                               VALUE SPACE.
               10  WK01-NAME-6001-SY00-V              PIC X(1)
                                               VALUE SPACE.
               10  WK01-NAME-6001-SY00-O              PIC X(1)
                                               VALUE SPACE.
               10  WK01-NAME-6001-SY00       PIC X(35)
                                               VALUE SPACES.
               10  WK01-DATE-Z              PIC X(1)
                                               VALUE SPACE.
               10  WK01-DATE-F              PIC X(1)
                                               VALUE SPACE.
               10  WK01-DATE-A              PIC X(1)
                                               VALUE SPACE.
               10  WK01-DATE-V              PIC X(1)
                                               VALUE SPACE.
               10  WK01-DATE-O              PIC X(1)
                                               VALUE SPACE.
               10  WK01-DATE       PIC X(8)
                                               VALUE SPACES.
               10  WK01-HH-MM-TIME-SY00-Z              PIC X(1)
                                               VALUE SPACE.
               10  WK01-HH-MM-TIME-SY00-F              PIC X(1)
                                               VALUE SPACE.
               10  WK01-HH-MM-TIME-SY00-A              PIC X(1)
                                               VALUE SPACE.
               10  WK01-HH-MM-TIME-SY00-V              PIC X(1)
                                               VALUE SPACE.
               10  WK01-HH-MM-TIME-SY00-O              PIC X(1)
                                               VALUE SPACE.
               10  WK01-HH-MM-TIME-SY00       PIC X(4)
                                               VALUE SPACES.
               10  WK01-PM-FLAG-SY00-Z              PIC X(1)
                                               VALUE SPACE.
               10  WK01-PM-FLAG-SY00-F              PIC X(1)
                                               VALUE SPACE.
               10  WK01-PM-FLAG-SY00-A              PIC X(1)
                                               VALUE SPACE.
               10  WK01-PM-FLAG-SY00-V              PIC X(1)
                                               VALUE SPACE.
               10  WK01-PM-FLAG-SY00-O              PIC X(1)
                                               VALUE SPACE.
               10  WK01-PM-FLAG-SY00       PIC X(1)
                                               VALUE SPACES.
               10  WK01-USER-ID-Z              PIC X(1)
                                               VALUE SPACE.
               10  WK01-USER-ID-F              PIC X(1)
                                               VALUE SPACE.
               10  WK01-USER-ID-A              PIC X(1)
                                               VALUE SPACE.
               10  WK01-USER-ID-V              PIC X(1)
                                               VALUE SPACE.
               10  WK01-USER-ID-O              PIC X(1)
                                               VALUE SPACE.
               10  WK01-USER-ID       PIC X(32)
                                               VALUE SPACES.
               10  WK01-RSPNS-ID-SY00-Z              PIC X(1)
                                               VALUE SPACE.
               10  WK01-RSPNS-ID-SY00-F              PIC X(1)
                                               VALUE SPACE.
               10  WK01-RSPNS-ID-SY00-A              PIC X(1)
                                               VALUE SPACE.
               10  WK01-RSPNS-ID-SY00-V              PIC X(1)
                                               VALUE SPACE.
               10  WK01-RSPNS-ID-SY00-O              PIC X(1)
                                               VALUE SPACE.
               10  WK01-RSPNS-ID-SY00       PIC X(8)
                                               VALUE SPACES.
               10  WK01-FUNC-DESCRIPTION-Z              PIC X(1)
                                               VALUE SPACE.
               10  WK01-FUNC-DESCRIPTION-F              PIC X(1)
                                               VALUE SPACE.
               10  WK01-FUNC-DESCRIPTION-A              PIC X(1)
                                               VALUE SPACE.
               10  WK01-FUNC-DESCRIPTION-V              PIC X(1)
                                               VALUE SPACE.
               10  WK01-FUNC-DESCRIPTION-O              PIC X(1)
                                               VALUE SPACE.
               10  WK01-FUNC-DESCRIPTION       PIC X(28)
                                               VALUE SPACES.
               10  WK01-STATUS-CODE-SY00-Z              PIC X(1)
                                               VALUE SPACE.
               10  WK01-STATUS-CODE-SY00-F              PIC X(1)
                                               VALUE SPACE.
               10  WK01-STATUS-CODE-SY00-A              PIC X(1)
                                               VALUE SPACE.
               10  WK01-STATUS-CODE-SY00-V              PIC X(1)
                                               VALUE SPACE.
               10  WK01-STATUS-CODE-SY00-O              PIC X(1)
                                               VALUE SPACE.
               10  WK01-STATUS-CODE-SY00       PIC X(1)
                                               VALUE SPACES.
               10  WK01-ID-LAST-NINE-EX25-Z              PIC X(1)
                                               VALUE SPACE.
               10  WK01-ID-LAST-NINE-EX25-F              PIC X(1)
                                               VALUE SPACE.
               10  WK01-ID-LAST-NINE-EX25-A              PIC X(1)
                                               VALUE SPACE.
               10  WK01-ID-LAST-NINE-EX25-V              PIC X(1)
                                               VALUE SPACE.
               10  WK01-ID-LAST-NINE-EX25-O              PIC X(1)
                                               VALUE SPACE.
               10  WK01-ID-LAST-NINE-EX25       PIC X(9)
                                               VALUE SPACES.
               10  WK01-NAME-EX25-Z              PIC X(1)
                                               VALUE SPACE.
               10  WK01-NAME-EX25-F              PIC X(1)
                                               VALUE SPACE.
               10  WK01-NAME-EX25-A              PIC X(1)
                                               VALUE SPACE.
               10  WK01-NAME-EX25-V              PIC X(1)
                                               VALUE SPACE.
               10  WK01-NAME-EX25-O              PIC X(1)
                                               VALUE SPACE.
               10  WK01-NAME-EX25       PIC X(35)
                                               VALUE SPACES.
               10  WK01-CODE-EX251-Z              PIC X(1)
                                               VALUE SPACE.
               10  WK01-CODE-EX251-F              PIC X(1)
                                               VALUE SPACE.
               10  WK01-CODE-EX251-A              PIC X(1)
                                               VALUE SPACE.
               10  WK01-CODE-EX251-V              PIC X(1)
                                               VALUE SPACE.
               10  WK01-CODE-EX251-O              PIC X(1)
                                               VALUE SPACE.
               10  WK01-CODE-EX251       PIC X(1)
                                               VALUE SPACES.
               10  WK01-CODE-EX2A1-Z              PIC X(1)
                                               VALUE SPACE.
               10  WK01-CODE-EX2A1-F              PIC X(1)
                                               VALUE SPACE.
               10  WK01-CODE-EX2A1-A              PIC X(1)
                                               VALUE SPACE.
               10  WK01-CODE-EX2A1-V              PIC X(1)
                                               VALUE SPACE.
               10  WK01-CODE-EX2A1-O              PIC X(1)
                                               VALUE SPACE.
               10  WK01-CODE-EX2A1       PIC X(8)
                                               VALUE SPACES.
               10  WK01-DESC-EX251-Z              PIC X(1)
                                               VALUE SPACE.
               10  WK01-DESC-EX251-F              PIC X(1)
                                               VALUE SPACE.
               10  WK01-DESC-EX251-A              PIC X(1)
                                               VALUE SPACE.
               10  WK01-DESC-EX251-V              PIC X(1)
                                               VALUE SPACE.
               10  WK01-DESC-EX251-O              PIC X(1)
                                               VALUE SPACE.
               10  WK01-DESC-EX251       PIC X(35)
                                               VALUE SPACES.
               10  WK01-CODE-EX2B1-Z              PIC X(1)
                                               VALUE SPACE.
               10  WK01-CODE-EX2B1-F              PIC X(1)
                                               VALUE SPACE.
               10  WK01-CODE-EX2B1-A              PIC X(1)
                                               VALUE SPACE.
               10  WK01-CODE-EX2B1-V              PIC X(1)
                                               VALUE SPACE.
               10  WK01-CODE-EX2B1-O              PIC X(1)
                                               VALUE SPACE.
               10  WK01-CODE-EX2B1       PIC X(6)
                                               VALUE SPACES.
               10  WK01-CODE-TITLE-EX251-Z              PIC X(1)
                                               VALUE SPACE.
               10  WK01-CODE-TITLE-EX251-F              PIC X(1)
                                               VALUE SPACE.
               10  WK01-CODE-TITLE-EX251-A              PIC X(1)
                                               VALUE SPACE.
               10  WK01-CODE-TITLE-EX251-V              PIC X(1)
                                               VALUE SPACE.
               10  WK01-CODE-TITLE-EX251-O              PIC X(1)
                                               VALUE SPACE.
               10  WK01-CODE-TITLE-EX251       PIC X(35)
                                               VALUE SPACES.
               10  WK01-TYPE-CODE-EX251-Z              PIC X(1)
                                               VALUE SPACE.
               10  WK01-TYPE-CODE-EX251-F              PIC X(1)
                                               VALUE SPACE.
               10  WK01-TYPE-CODE-EX251-A              PIC X(1)
                                               VALUE SPACE.
               10  WK01-TYPE-CODE-EX251-V              PIC X(1)
                                               VALUE SPACE.
               10  WK01-TYPE-CODE-EX251-O              PIC X(1)
                                               VALUE SPACE.
               10  WK01-TYPE-CODE-EX251       PIC X(2)
                                               VALUE SPACES.
               10  WK01-IND-EX251-Z              PIC X(1)
                                               VALUE SPACE.
               10  WK01-IND-EX251-F              PIC X(1)
                                               VALUE SPACE.
               10  WK01-IND-EX251-A              PIC X(1)
                                               VALUE SPACE.
               10  WK01-IND-EX251-V              PIC X(1)
                                               VALUE SPACE.
               10  WK01-IND-EX251-O              PIC X(1)
                                               VALUE SPACE.
               10  WK01-IND-EX251       PIC X(1)
                                               VALUE SPACES.
               10  WK01-CODE-EX252-Z              PIC X(1)
                                               VALUE SPACE.
               10  WK01-CODE-EX252-F              PIC X(1)
                                               VALUE SPACE.
               10  WK01-CODE-EX252-A              PIC X(1)
                                               VALUE SPACE.
               10  WK01-CODE-EX252-V              PIC X(1)
                                               VALUE SPACE.
               10  WK01-CODE-EX252-O              PIC X(1)
                                               VALUE SPACE.
               10  WK01-CODE-EX252       PIC X(1)
                                               VALUE SPACES.
               10  WK01-CODE-EX2A2-Z              PIC X(1)
                                               VALUE SPACE.
               10  WK01-CODE-EX2A2-F              PIC X(1)
                                               VALUE SPACE.
               10  WK01-CODE-EX2A2-A              PIC X(1)
                                               VALUE SPACE.
               10  WK01-CODE-EX2A2-V              PIC X(1)
                                               VALUE SPACE.
               10  WK01-CODE-EX2A2-O              PIC X(1)
                                               VALUE SPACE.
               10  WK01-CODE-EX2A2       PIC X(8)
                                               VALUE SPACES.
               10  WK01-DESC-EX252-Z              PIC X(1)
                                               VALUE SPACE.
               10  WK01-DESC-EX252-F              PIC X(1)
                                               VALUE SPACE.
               10  WK01-DESC-EX252-A              PIC X(1)
                                               VALUE SPACE.
               10  WK01-DESC-EX252-V              PIC X(1)
                                               VALUE SPACE.
               10  WK01-DESC-EX252-O              PIC X(1)
                                               VALUE SPACE.
               10  WK01-DESC-EX252       PIC X(35)
                                               VALUE SPACES.
               10  WK01-CODE-EX2B2-Z              PIC X(1)
                                               VALUE SPACE.
               10  WK01-CODE-EX2B2-F              PIC X(1)
                                               VALUE SPACE.
               10  WK01-CODE-EX2B2-A              PIC X(1)
                                               VALUE SPACE.
               10  WK01-CODE-EX2B2-V              PIC X(1)
                                               VALUE SPACE.
               10  WK01-CODE-EX2B2-O              PIC X(1)
                                               VALUE SPACE.
               10  WK01-CODE-EX2B2       PIC X(6)
                                               VALUE SPACES.
               10  WK01-CODE-TITLE-EX252-Z              PIC X(1)
                                               VALUE SPACE.
               10  WK01-CODE-TITLE-EX252-F              PIC X(1)
                                               VALUE SPACE.
               10  WK01-CODE-TITLE-EX252-A              PIC X(1)
                                               VALUE SPACE.
               10  WK01-CODE-TITLE-EX252-V              PIC X(1)
                                               VALUE SPACE.
               10  WK01-CODE-TITLE-EX252-O              PIC X(1)
                                               VALUE SPACE.
               10  WK01-CODE-TITLE-EX252       PIC X(35)
                                               VALUE SPACES.
               10  WK01-TYPE-CODE-EX252-Z              PIC X(1)
                                               VALUE SPACE.
               10  WK01-TYPE-CODE-EX252-F              PIC X(1)
                                               VALUE SPACE.
               10  WK01-TYPE-CODE-EX252-A              PIC X(1)
                                               VALUE SPACE.
               10  WK01-TYPE-CODE-EX252-V              PIC X(1)
                                               VALUE SPACE.
               10  WK01-TYPE-CODE-EX252-O              PIC X(1)
                                               VALUE SPACE.
               10  WK01-TYPE-CODE-EX252       PIC X(2)
                                               VALUE SPACES.
               10  WK01-IND-EX252-Z              PIC X(1)
                                               VALUE SPACE.
               10  WK01-IND-EX252-F              PIC X(1)
                                               VALUE SPACE.
               10  WK01-IND-EX252-A              PIC X(1)
                                               VALUE SPACE.
               10  WK01-IND-EX252-V              PIC X(1)
                                               VALUE SPACE.
               10  WK01-IND-EX252-O              PIC X(1)
                                               VALUE SPACE.
               10  WK01-IND-EX252       PIC X(1)
                                               VALUE SPACES.
               10  WK01-CODE-EX253-Z              PIC X(1)
                                               VALUE SPACE.
               10  WK01-CODE-EX253-F              PIC X(1)
                                               VALUE SPACE.
               10  WK01-CODE-EX253-A              PIC X(1)
                                               VALUE SPACE.
               10  WK01-CODE-EX253-V              PIC X(1)
                                               VALUE SPACE.
               10  WK01-CODE-EX253-O              PIC X(1)
                                               VALUE SPACE.
               10  WK01-CODE-EX253       PIC X(1)
                                               VALUE SPACES.
               10  WK01-CODE-EX2A3-Z              PIC X(1)
                                               VALUE SPACE.
               10  WK01-CODE-EX2A3-F              PIC X(1)
                                               VALUE SPACE.
               10  WK01-CODE-EX2A3-A              PIC X(1)
                                               VALUE SPACE.
               10  WK01-CODE-EX2A3-V              PIC X(1)
                                               VALUE SPACE.
               10  WK01-CODE-EX2A3-O              PIC X(1)
                                               VALUE SPACE.
               10  WK01-CODE-EX2A3       PIC X(8)
                                               VALUE SPACES.
               10  WK01-DESC-EX253-Z              PIC X(1)
                                               VALUE SPACE.
               10  WK01-DESC-EX253-F              PIC X(1)
                                               VALUE SPACE.
               10  WK01-DESC-EX253-A              PIC X(1)
                                               VALUE SPACE.
               10  WK01-DESC-EX253-V              PIC X(1)
                                               VALUE SPACE.
               10  WK01-DESC-EX253-O              PIC X(1)
                                               VALUE SPACE.
               10  WK01-DESC-EX253       PIC X(35)
                                               VALUE SPACES.
               10  WK01-CODE-EX2B3-Z              PIC X(1)
                                               VALUE SPACE.
               10  WK01-CODE-EX2B3-F              PIC X(1)
                                               VALUE SPACE.
               10  WK01-CODE-EX2B3-A              PIC X(1)
                                               VALUE SPACE.
               10  WK01-CODE-EX2B3-V              PIC X(1)
                                               VALUE SPACE.
               10  WK01-CODE-EX2B3-O              PIC X(1)
                                               VALUE SPACE.
               10  WK01-CODE-EX2B3       PIC X(6)
                                               VALUE SPACES.
               10  WK01-CODE-TITLE-EX253-Z              PIC X(1)
                                               VALUE SPACE.
               10  WK01-CODE-TITLE-EX253-F              PIC X(1)
                                               VALUE SPACE.
               10  WK01-CODE-TITLE-EX253-A              PIC X(1)
                                               VALUE SPACE.
               10  WK01-CODE-TITLE-EX253-V              PIC X(1)
                                               VALUE SPACE.
               10  WK01-CODE-TITLE-EX253-O              PIC X(1)
                                               VALUE SPACE.
               10  WK01-CODE-TITLE-EX253       PIC X(35)
                                               VALUE SPACES.
               10  WK01-TYPE-CODE-EX253-Z              PIC X(1)
                                               VALUE SPACE.
               10  WK01-TYPE-CODE-EX253-F              PIC X(1)
                                               VALUE SPACE.
               10  WK01-TYPE-CODE-EX253-A              PIC X(1)
                                               VALUE SPACE.
               10  WK01-TYPE-CODE-EX253-V              PIC X(1)
                                               VALUE SPACE.
               10  WK01-TYPE-CODE-EX253-O              PIC X(1)
                                               VALUE SPACE.
               10  WK01-TYPE-CODE-EX253       PIC X(2)
                                               VALUE SPACES.
               10  WK01-IND-EX253-Z              PIC X(1)
                                               VALUE SPACE.
               10  WK01-IND-EX253-F              PIC X(1)
                                               VALUE SPACE.
               10  WK01-IND-EX253-A              PIC X(1)
                                               VALUE SPACE.
               10  WK01-IND-EX253-V              PIC X(1)
                                               VALUE SPACE.
               10  WK01-IND-EX253-O              PIC X(1)
                                               VALUE SPACE.
               10  WK01-IND-EX253       PIC X(1)
                                               VALUE SPACES.
               10  WK01-CODE-EX254-Z              PIC X(1)
                                               VALUE SPACE.
               10  WK01-CODE-EX254-F              PIC X(1)
                                               VALUE SPACE.
               10  WK01-CODE-EX254-A              PIC X(1)
                                               VALUE SPACE.
               10  WK01-CODE-EX254-V              PIC X(1)
                                               VALUE SPACE.
               10  WK01-CODE-EX254-O              PIC X(1)
                                               VALUE SPACE.
               10  WK01-CODE-EX254       PIC X(1)
                                               VALUE SPACES.
               10  WK01-CODE-EX2A4-Z              PIC X(1)
                                               VALUE SPACE.
               10  WK01-CODE-EX2A4-F              PIC X(1)
                                               VALUE SPACE.
               10  WK01-CODE-EX2A4-A              PIC X(1)
                                               VALUE SPACE.
               10  WK01-CODE-EX2A4-V              PIC X(1)
                                               VALUE SPACE.
               10  WK01-CODE-EX2A4-O              PIC X(1)
                                               VALUE SPACE.
               10  WK01-CODE-EX2A4       PIC X(8)
                                               VALUE SPACES.
               10  WK01-DESC-EX254-Z              PIC X(1)
                                               VALUE SPACE.
               10  WK01-DESC-EX254-F              PIC X(1)
                                               VALUE SPACE.
               10  WK01-DESC-EX254-A              PIC X(1)
                                               VALUE SPACE.
               10  WK01-DESC-EX254-V              PIC X(1)
                                               VALUE SPACE.
               10  WK01-DESC-EX254-O              PIC X(1)
                                               VALUE SPACE.
               10  WK01-DESC-EX254       PIC X(35)
                                               VALUE SPACES.
               10  WK01-CODE-EX2B4-Z              PIC X(1)
                                               VALUE SPACE.
               10  WK01-CODE-EX2B4-F              PIC X(1)
                                               VALUE SPACE.
               10  WK01-CODE-EX2B4-A              PIC X(1)
                                               VALUE SPACE.
               10  WK01-CODE-EX2B4-V              PIC X(1)
                                               VALUE SPACE.
               10  WK01-CODE-EX2B4-O              PIC X(1)
                                               VALUE SPACE.
               10  WK01-CODE-EX2B4       PIC X(6)
                                               VALUE SPACES.
               10  WK01-CODE-TITLE-EX254-Z              PIC X(1)
                                               VALUE SPACE.
               10  WK01-CODE-TITLE-EX254-F              PIC X(1)
                                               VALUE SPACE.
               10  WK01-CODE-TITLE-EX254-A              PIC X(1)
                                               VALUE SPACE.
               10  WK01-CODE-TITLE-EX254-V              PIC X(1)
                                               VALUE SPACE.
               10  WK01-CODE-TITLE-EX254-O              PIC X(1)
                                               VALUE SPACE.
               10  WK01-CODE-TITLE-EX254       PIC X(35)
                                               VALUE SPACES.
               10  WK01-TYPE-CODE-EX254-Z              PIC X(1)
                                               VALUE SPACE.
               10  WK01-TYPE-CODE-EX254-F              PIC X(1)
                                               VALUE SPACE.
               10  WK01-TYPE-CODE-EX254-A              PIC X(1)
                                               VALUE SPACE.
               10  WK01-TYPE-CODE-EX254-V              PIC X(1)
                                               VALUE SPACE.
               10  WK01-TYPE-CODE-EX254-O              PIC X(1)
                                               VALUE SPACE.
               10  WK01-TYPE-CODE-EX254       PIC X(2)
                                               VALUE SPACES.
               10  WK01-IND-EX254-Z              PIC X(1)
                                               VALUE SPACE.
               10  WK01-IND-EX254-F              PIC X(1)
                                               VALUE SPACE.
               10  WK01-IND-EX254-A              PIC X(1)
                                               VALUE SPACE.
               10  WK01-IND-EX254-V              PIC X(1)
                                               VALUE SPACE.
               10  WK01-IND-EX254-O              PIC X(1)
                                               VALUE SPACE.
               10  WK01-IND-EX254       PIC X(1)
                                               VALUE SPACES.
               10  WK01-CODE-EX255-Z              PIC X(1)
                                               VALUE SPACE.
               10  WK01-CODE-EX255-F              PIC X(1)
                                               VALUE SPACE.
               10  WK01-CODE-EX255-A              PIC X(1)
                                               VALUE SPACE.
               10  WK01-CODE-EX255-V              PIC X(1)
                                               VALUE SPACE.
               10  WK01-CODE-EX255-O              PIC X(1)
                                               VALUE SPACE.
               10  WK01-CODE-EX255       PIC X(1)
                                               VALUE SPACES.
               10  WK01-CODE-EX2A5-Z              PIC X(1)
                                               VALUE SPACE.
               10  WK01-CODE-EX2A5-F              PIC X(1)
                                               VALUE SPACE.
               10  WK01-CODE-EX2A5-A              PIC X(1)
                                               VALUE SPACE.
               10  WK01-CODE-EX2A5-V              PIC X(1)
                                               VALUE SPACE.
               10  WK01-CODE-EX2A5-O              PIC X(1)
                                               VALUE SPACE.
               10  WK01-CODE-EX2A5       PIC X(8)
                                               VALUE SPACES.
               10  WK01-DESC-EX255-Z              PIC X(1)
                                               VALUE SPACE.
               10  WK01-DESC-EX255-F              PIC X(1)
                                               VALUE SPACE.
               10  WK01-DESC-EX255-A              PIC X(1)
                                               VALUE SPACE.
               10  WK01-DESC-EX255-V              PIC X(1)
                                               VALUE SPACE.
               10  WK01-DESC-EX255-O              PIC X(1)
                                               VALUE SPACE.
               10  WK01-DESC-EX255       PIC X(35)
                                               VALUE SPACES.
               10  WK01-CODE-EX2B5-Z              PIC X(1)
                                               VALUE SPACE.
               10  WK01-CODE-EX2B5-F              PIC X(1)
                                               VALUE SPACE.
               10  WK01-CODE-EX2B5-A              PIC X(1)
                                               VALUE SPACE.
               10  WK01-CODE-EX2B5-V              PIC X(1)
                                               VALUE SPACE.
               10  WK01-CODE-EX2B5-O              PIC X(1)
                                               VALUE SPACE.
               10  WK01-CODE-EX2B5       PIC X(6)
                                               VALUE SPACES.
               10  WK01-CODE-TITLE-EX255-Z              PIC X(1)
                                               VALUE SPACE.
               10  WK01-CODE-TITLE-EX255-F              PIC X(1)
                                               VALUE SPACE.
               10  WK01-CODE-TITLE-EX255-A              PIC X(1)
                                               VALUE SPACE.
               10  WK01-CODE-TITLE-EX255-V              PIC X(1)
                                               VALUE SPACE.
               10  WK01-CODE-TITLE-EX255-O              PIC X(1)
                                               VALUE SPACE.
               10  WK01-CODE-TITLE-EX255       PIC X(35)
                                               VALUE SPACES.
               10  WK01-TYPE-CODE-EX255-Z              PIC X(1)
                                               VALUE SPACE.
               10  WK01-TYPE-CODE-EX255-F              PIC X(1)
                                               VALUE SPACE.
               10  WK01-TYPE-CODE-EX255-A              PIC X(1)
                                               VALUE SPACE.
               10  WK01-TYPE-CODE-EX255-V              PIC X(1)
                                               VALUE SPACE.
               10  WK01-TYPE-CODE-EX255-O              PIC X(1)
                                               VALUE SPACE.
               10  WK01-TYPE-CODE-EX255       PIC X(2)
                                               VALUE SPACES.
               10  WK01-IND-EX255-Z              PIC X(1)
                                               VALUE SPACE.
               10  WK01-IND-EX255-F              PIC X(1)
                                               VALUE SPACE.
               10  WK01-IND-EX255-A              PIC X(1)
                                               VALUE SPACE.
               10  WK01-IND-EX255-V              PIC X(1)
                                               VALUE SPACE.
               10  WK01-IND-EX255-O              PIC X(1)
                                               VALUE SPACE.
               10  WK01-IND-EX255       PIC X(1)
                                               VALUE SPACES.
               10  WK01-CODE-EX256-Z              PIC X(1)
                                               VALUE SPACE.
               10  WK01-CODE-EX256-F              PIC X(1)
                                               VALUE SPACE.
               10  WK01-CODE-EX256-A              PIC X(1)
                                               VALUE SPACE.
               10  WK01-CODE-EX256-V              PIC X(1)
                                               VALUE SPACE.
               10  WK01-CODE-EX256-O              PIC X(1)
                                               VALUE SPACE.
               10  WK01-CODE-EX256       PIC X(1)
                                               VALUE SPACES.
               10  WK01-CODE-EX2A6-Z              PIC X(1)
                                               VALUE SPACE.
               10  WK01-CODE-EX2A6-F              PIC X(1)
                                               VALUE SPACE.
               10  WK01-CODE-EX2A6-A              PIC X(1)
                                               VALUE SPACE.
               10  WK01-CODE-EX2A6-V              PIC X(1)
                                               VALUE SPACE.
               10  WK01-CODE-EX2A6-O              PIC X(1)
                                               VALUE SPACE.
               10  WK01-CODE-EX2A6       PIC X(8)
                                               VALUE SPACES.
               10  WK01-DESC-EX256-Z              PIC X(1)
                                               VALUE SPACE.
               10  WK01-DESC-EX256-F              PIC X(1)
                                               VALUE SPACE.
               10  WK01-DESC-EX256-A              PIC X(1)
                                               VALUE SPACE.
               10  WK01-DESC-EX256-V              PIC X(1)
                                               VALUE SPACE.
               10  WK01-DESC-EX256-O              PIC X(1)
                                               VALUE SPACE.
               10  WK01-DESC-EX256       PIC X(35)
                                               VALUE SPACES.
               10  WK01-CODE-EX2B6-Z              PIC X(1)
                                               VALUE SPACE.
               10  WK01-CODE-EX2B6-F              PIC X(1)
                                               VALUE SPACE.
               10  WK01-CODE-EX2B6-A              PIC X(1)
                                               VALUE SPACE.
               10  WK01-CODE-EX2B6-V              PIC X(1)
                                               VALUE SPACE.
               10  WK01-CODE-EX2B6-O              PIC X(1)
                                               VALUE SPACE.
               10  WK01-CODE-EX2B6       PIC X(6)
                                               VALUE SPACES.
               10  WK01-CODE-TITLE-EX256-Z              PIC X(1)
                                               VALUE SPACE.
               10  WK01-CODE-TITLE-EX256-F              PIC X(1)
                                               VALUE SPACE.
               10  WK01-CODE-TITLE-EX256-A              PIC X(1)
                                               VALUE SPACE.
               10  WK01-CODE-TITLE-EX256-V              PIC X(1)
                                               VALUE SPACE.
               10  WK01-CODE-TITLE-EX256-O              PIC X(1)
                                               VALUE SPACE.
               10  WK01-CODE-TITLE-EX256       PIC X(35)
                                               VALUE SPACES.
               10  WK01-TYPE-CODE-EX256-Z              PIC X(1)
                                               VALUE SPACE.
               10  WK01-TYPE-CODE-EX256-F              PIC X(1)
                                               VALUE SPACE.
               10  WK01-TYPE-CODE-EX256-A              PIC X(1)
                                               VALUE SPACE.
               10  WK01-TYPE-CODE-EX256-V              PIC X(1)
                                               VALUE SPACE.
               10  WK01-TYPE-CODE-EX256-O              PIC X(1)
                                               VALUE SPACE.
               10  WK01-TYPE-CODE-EX256       PIC X(2)
                                               VALUE SPACES.
               10  WK01-IND-EX256-Z              PIC X(1)
                                               VALUE SPACE.
               10  WK01-IND-EX256-F              PIC X(1)
                                               VALUE SPACE.
               10  WK01-IND-EX256-A              PIC X(1)
                                               VALUE SPACE.
               10  WK01-IND-EX256-V              PIC X(1)
                                               VALUE SPACE.
               10  WK01-IND-EX256-O              PIC X(1)
                                               VALUE SPACE.
               10  WK01-IND-EX256       PIC X(1)
                                               VALUE SPACES.
               10  WK01-CODE-EX257-Z              PIC X(1)
                                               VALUE SPACE.
               10  WK01-CODE-EX257-F              PIC X(1)
                                               VALUE SPACE.
               10  WK01-CODE-EX257-A              PIC X(1)
                                               VALUE SPACE.
               10  WK01-CODE-EX257-V              PIC X(1)
                                               VALUE SPACE.
               10  WK01-CODE-EX257-O              PIC X(1)
                                               VALUE SPACE.
               10  WK01-CODE-EX257       PIC X(1)
                                               VALUE SPACES.
               10  WK01-CODE-EX2A7-Z              PIC X(1)
                                               VALUE SPACE.
               10  WK01-CODE-EX2A7-F              PIC X(1)
                                               VALUE SPACE.
               10  WK01-CODE-EX2A7-A              PIC X(1)
                                               VALUE SPACE.
               10  WK01-CODE-EX2A7-V              PIC X(1)
                                               VALUE SPACE.
               10  WK01-CODE-EX2A7-O              PIC X(1)
                                               VALUE SPACE.
               10  WK01-CODE-EX2A7       PIC X(8)
                                               VALUE SPACES.
               10  WK01-DESC-EX257-Z              PIC X(1)
                                               VALUE SPACE.
               10  WK01-DESC-EX257-F              PIC X(1)
                                               VALUE SPACE.
               10  WK01-DESC-EX257-A              PIC X(1)
                                               VALUE SPACE.
               10  WK01-DESC-EX257-V              PIC X(1)
                                               VALUE SPACE.
               10  WK01-DESC-EX257-O              PIC X(1)
                                               VALUE SPACE.
               10  WK01-DESC-EX257       PIC X(35)
                                               VALUE SPACES.
               10  WK01-CODE-EX2B7-Z              PIC X(1)
                                               VALUE SPACE.
               10  WK01-CODE-EX2B7-F              PIC X(1)
                                               VALUE SPACE.
               10  WK01-CODE-EX2B7-A              PIC X(1)
                                               VALUE SPACE.
               10  WK01-CODE-EX2B7-V              PIC X(1)
                                               VALUE SPACE.
               10  WK01-CODE-EX2B7-O              PIC X(1)
                                               VALUE SPACE.
               10  WK01-CODE-EX2B7       PIC X(6)
                                               VALUE SPACES.
               10  WK01-CODE-TITLE-EX257-Z              PIC X(1)
                                               VALUE SPACE.
               10  WK01-CODE-TITLE-EX257-F              PIC X(1)
                                               VALUE SPACE.
               10  WK01-CODE-TITLE-EX257-A              PIC X(1)
                                               VALUE SPACE.
               10  WK01-CODE-TITLE-EX257-V              PIC X(1)
                                               VALUE SPACE.
               10  WK01-CODE-TITLE-EX257-O              PIC X(1)
                                               VALUE SPACE.
               10  WK01-CODE-TITLE-EX257       PIC X(35)
                                               VALUE SPACES.
               10  WK01-TYPE-CODE-EX257-Z              PIC X(1)
                                               VALUE SPACE.
               10  WK01-TYPE-CODE-EX257-F              PIC X(1)
                                               VALUE SPACE.
               10  WK01-TYPE-CODE-EX257-A              PIC X(1)
                                               VALUE SPACE.
               10  WK01-TYPE-CODE-EX257-V              PIC X(1)
                                               VALUE SPACE.
               10  WK01-TYPE-CODE-EX257-O              PIC X(1)
                                               VALUE SPACE.
               10  WK01-TYPE-CODE-EX257       PIC X(2)
                                               VALUE SPACES.
               10  WK01-IND-EX257-Z              PIC X(1)
                                               VALUE SPACE.
               10  WK01-IND-EX257-F              PIC X(1)
                                               VALUE SPACE.
               10  WK01-IND-EX257-A              PIC X(1)
                                               VALUE SPACE.
               10  WK01-IND-EX257-V              PIC X(1)
                                               VALUE SPACE.
               10  WK01-IND-EX257-O              PIC X(1)
                                               VALUE SPACE.
               10  WK01-IND-EX257       PIC X(1)
                                               VALUE SPACES.
               10  WK01-CODE-EX258-Z              PIC X(1)
                                               VALUE SPACE.
               10  WK01-CODE-EX258-F              PIC X(1)
                                               VALUE SPACE.
               10  WK01-CODE-EX258-A              PIC X(1)
                                               VALUE SPACE.
               10  WK01-CODE-EX258-V              PIC X(1)
                                               VALUE SPACE.
               10  WK01-CODE-EX258-O              PIC X(1)
                                               VALUE SPACE.
               10  WK01-CODE-EX258       PIC X(1)
                                               VALUE SPACES.
               10  WK01-CODE-EX2A8-Z              PIC X(1)
                                               VALUE SPACE.
               10  WK01-CODE-EX2A8-F              PIC X(1)
                                               VALUE SPACE.
               10  WK01-CODE-EX2A8-A              PIC X(1)
                                               VALUE SPACE.
               10  WK01-CODE-EX2A8-V              PIC X(1)
                                               VALUE SPACE.
               10  WK01-CODE-EX2A8-O              PIC X(1)
                                               VALUE SPACE.
               10  WK01-CODE-EX2A8       PIC X(8)
                                               VALUE SPACES.
               10  WK01-DESC-EX258-Z              PIC X(1)
                                               VALUE SPACE.
               10  WK01-DESC-EX258-F              PIC X(1)
                                               VALUE SPACE.
               10  WK01-DESC-EX258-A              PIC X(1)
                                               VALUE SPACE.
               10  WK01-DESC-EX258-V              PIC X(1)
                                               VALUE SPACE.
               10  WK01-DESC-EX258-O              PIC X(1)
                                               VALUE SPACE.
               10  WK01-DESC-EX258       PIC X(35)
                                               VALUE SPACES.
               10  WK01-CODE-EX2B8-Z              PIC X(1)
                                               VALUE SPACE.
               10  WK01-CODE-EX2B8-F              PIC X(1)
                                               VALUE SPACE.
               10  WK01-CODE-EX2B8-A              PIC X(1)
                                               VALUE SPACE.
               10  WK01-CODE-EX2B8-V              PIC X(1)
                                               VALUE SPACE.
               10  WK01-CODE-EX2B8-O              PIC X(1)
                                               VALUE SPACE.
               10  WK01-CODE-EX2B8       PIC X(6)
                                               VALUE SPACES.
               10  WK01-CODE-TITLE-EX258-Z              PIC X(1)
                                               VALUE SPACE.
               10  WK01-CODE-TITLE-EX258-F              PIC X(1)
                                               VALUE SPACE.
               10  WK01-CODE-TITLE-EX258-A              PIC X(1)
                                               VALUE SPACE.
               10  WK01-CODE-TITLE-EX258-V              PIC X(1)
                                               VALUE SPACE.
               10  WK01-CODE-TITLE-EX258-O              PIC X(1)
                                               VALUE SPACE.
               10  WK01-CODE-TITLE-EX258       PIC X(35)
                                               VALUE SPACES.
               10  WK01-TYPE-CODE-EX258-Z              PIC X(1)
                                               VALUE SPACE.
               10  WK01-TYPE-CODE-EX258-F              PIC X(1)
                                               VALUE SPACE.
               10  WK01-TYPE-CODE-EX258-A              PIC X(1)
                                               VALUE SPACE.
               10  WK01-TYPE-CODE-EX258-V              PIC X(1)
                                               VALUE SPACE.
               10  WK01-TYPE-CODE-EX258-O              PIC X(1)
                                               VALUE SPACE.
               10  WK01-TYPE-CODE-EX258       PIC X(2)
                                               VALUE SPACES.
               10  WK01-IND-EX258-Z              PIC X(1)
                                               VALUE SPACE.
               10  WK01-IND-EX258-F              PIC X(1)
                                               VALUE SPACE.
               10  WK01-IND-EX258-A              PIC X(1)
                                               VALUE SPACE.
               10  WK01-IND-EX258-V              PIC X(1)
                                               VALUE SPACE.
               10  WK01-IND-EX258-O              PIC X(1)
                                               VALUE SPACE.
               10  WK01-IND-EX258       PIC X(1)
                                               VALUE SPACES.
               10  WK01-CODE-EX259-Z              PIC X(1)
                                               VALUE SPACE.
               10  WK01-CODE-EX259-F              PIC X(1)
                                               VALUE SPACE.
               10  WK01-CODE-EX259-A              PIC X(1)
                                               VALUE SPACE.
               10  WK01-CODE-EX259-V              PIC X(1)
                                               VALUE SPACE.
               10  WK01-CODE-EX259-O              PIC X(1)
                                               VALUE SPACE.
               10  WK01-CODE-EX259       PIC X(1)
                                               VALUE SPACES.
               10  WK01-CODE-EX2A9-Z              PIC X(1)
                                               VALUE SPACE.
               10  WK01-CODE-EX2A9-F              PIC X(1)
                                               VALUE SPACE.
               10  WK01-CODE-EX2A9-A              PIC X(1)
                                               VALUE SPACE.
               10  WK01-CODE-EX2A9-V              PIC X(1)
                                               VALUE SPACE.
               10  WK01-CODE-EX2A9-O              PIC X(1)
                                               VALUE SPACE.
               10  WK01-CODE-EX2A9       PIC X(8)
                                               VALUE SPACES.
               10  WK01-DESC-EX259-Z              PIC X(1)
                                               VALUE SPACE.
               10  WK01-DESC-EX259-F              PIC X(1)
                                               VALUE SPACE.
               10  WK01-DESC-EX259-A              PIC X(1)
                                               VALUE SPACE.
               10  WK01-DESC-EX259-V              PIC X(1)
                                               VALUE SPACE.
               10  WK01-DESC-EX259-O              PIC X(1)
                                               VALUE SPACE.
               10  WK01-DESC-EX259       PIC X(35)
                                               VALUE SPACES.
               10  WK01-CODE-EX2B9-Z              PIC X(1)
                                               VALUE SPACE.
               10  WK01-CODE-EX2B9-F              PIC X(1)
                                               VALUE SPACE.
               10  WK01-CODE-EX2B9-A              PIC X(1)
                                               VALUE SPACE.
               10  WK01-CODE-EX2B9-V              PIC X(1)
                                               VALUE SPACE.
               10  WK01-CODE-EX2B9-O              PIC X(1)
                                               VALUE SPACE.
               10  WK01-CODE-EX2B9       PIC X(6)
                                               VALUE SPACES.
               10  WK01-CODE-TITLE-EX259-Z              PIC X(1)
                                               VALUE SPACE.
               10  WK01-CODE-TITLE-EX259-F              PIC X(1)
                                               VALUE SPACE.
               10  WK01-CODE-TITLE-EX259-A              PIC X(1)
                                               VALUE SPACE.
               10  WK01-CODE-TITLE-EX259-V              PIC X(1)
                                               VALUE SPACE.
               10  WK01-CODE-TITLE-EX259-O              PIC X(1)
                                               VALUE SPACE.
               10  WK01-CODE-TITLE-EX259       PIC X(35)
                                               VALUE SPACES.
               10  WK01-TYPE-CODE-EX259-Z              PIC X(1)
                                               VALUE SPACE.
               10  WK01-TYPE-CODE-EX259-F              PIC X(1)
                                               VALUE SPACE.
               10  WK01-TYPE-CODE-EX259-A              PIC X(1)
                                               VALUE SPACE.
               10  WK01-TYPE-CODE-EX259-V              PIC X(1)
                                               VALUE SPACE.
               10  WK01-TYPE-CODE-EX259-O              PIC X(1)
                                               VALUE SPACE.
               10  WK01-TYPE-CODE-EX259       PIC X(2)
                                               VALUE SPACES.
               10  WK01-IND-EX259-Z              PIC X(1)
                                               VALUE SPACE.
               10  WK01-IND-EX259-F              PIC X(1)
                                               VALUE SPACE.
               10  WK01-IND-EX259-A              PIC X(1)
                                               VALUE SPACE.
               10  WK01-IND-EX259-V              PIC X(1)
                                               VALUE SPACE.
               10  WK01-IND-EX259-O              PIC X(1)
                                               VALUE SPACE.
               10  WK01-IND-EX259       PIC X(1)
                                               VALUE SPACES.
               10  WK01-CODE-EX2510-Z              PIC X(1)
                                               VALUE SPACE.
               10  WK01-CODE-EX2510-F              PIC X(1)
                                               VALUE SPACE.
               10  WK01-CODE-EX2510-A              PIC X(1)
                                               VALUE SPACE.
               10  WK01-CODE-EX2510-V              PIC X(1)
                                               VALUE SPACE.
               10  WK01-CODE-EX2510-O              PIC X(1)
                                               VALUE SPACE.
               10  WK01-CODE-EX2510       PIC X(1)
                                               VALUE SPACES.
               10  WK01-CODE-EX2A10-Z              PIC X(1)
                                               VALUE SPACE.
               10  WK01-CODE-EX2A10-F              PIC X(1)
                                               VALUE SPACE.
               10  WK01-CODE-EX2A10-A              PIC X(1)
                                               VALUE SPACE.
               10  WK01-CODE-EX2A10-V              PIC X(1)
                                               VALUE SPACE.
               10  WK01-CODE-EX2A10-O              PIC X(1)
                                               VALUE SPACE.
               10  WK01-CODE-EX2A10       PIC X(8)
                                               VALUE SPACES.
               10  WK01-DESC-EX2510-Z              PIC X(1)
                                               VALUE SPACE.
               10  WK01-DESC-EX2510-F              PIC X(1)
                                               VALUE SPACE.
               10  WK01-DESC-EX2510-A              PIC X(1)
                                               VALUE SPACE.
               10  WK01-DESC-EX2510-V              PIC X(1)
                                               VALUE SPACE.
               10  WK01-DESC-EX2510-O              PIC X(1)
                                               VALUE SPACE.
               10  WK01-DESC-EX2510       PIC X(35)
                                               VALUE SPACES.
               10  WK01-CODE-EX2B10-Z              PIC X(1)
                                               VALUE SPACE.
               10  WK01-CODE-EX2B10-F              PIC X(1)
                                               VALUE SPACE.
               10  WK01-CODE-EX2B10-A              PIC X(1)
                                               VALUE SPACE.
               10  WK01-CODE-EX2B10-V              PIC X(1)
                                               VALUE SPACE.
               10  WK01-CODE-EX2B10-O              PIC X(1)
                                               VALUE SPACE.
               10  WK01-CODE-EX2B10       PIC X(6)
                                               VALUE SPACES.
               10  WK01-CODE-TITLE-EX2510-Z              PIC X(1)
                                               VALUE SPACE.
               10  WK01-CODE-TITLE-EX2510-F              PIC X(1)
                                               VALUE SPACE.
               10  WK01-CODE-TITLE-EX2510-A              PIC X(1)
                                               VALUE SPACE.
               10  WK01-CODE-TITLE-EX2510-V              PIC X(1)
                                               VALUE SPACE.
               10  WK01-CODE-TITLE-EX2510-O              PIC X(1)
                                               VALUE SPACE.
               10  WK01-CODE-TITLE-EX2510       PIC X(35)
                                               VALUE SPACES.
               10  WK01-TYPE-CODE-EX2510-Z              PIC X(1)
                                               VALUE SPACE.
               10  WK01-TYPE-CODE-EX2510-F              PIC X(1)
                                               VALUE SPACE.
               10  WK01-TYPE-CODE-EX2510-A              PIC X(1)
                                               VALUE SPACE.
               10  WK01-TYPE-CODE-EX2510-V              PIC X(1)
                                               VALUE SPACE.
               10  WK01-TYPE-CODE-EX2510-O              PIC X(1)
                                               VALUE SPACE.
               10  WK01-TYPE-CODE-EX2510       PIC X(2)
                                               VALUE SPACES.
               10  WK01-IND-EX2510-Z              PIC X(1)
                                               VALUE SPACE.
               10  WK01-IND-EX2510-F              PIC X(1)
                                               VALUE SPACE.
               10  WK01-IND-EX2510-A              PIC X(1)
                                               VALUE SPACE.
               10  WK01-IND-EX2510-V              PIC X(1)
                                               VALUE SPACE.
               10  WK01-IND-EX2510-O              PIC X(1)
                                               VALUE SPACE.
               10  WK01-IND-EX2510       PIC X(1)
                                               VALUE SPACES.
               10  WK01-ZZMESSAGE-Z              PIC X(1)
                                               VALUE SPACE.
               10  WK01-ZZMESSAGE-F              PIC X(1)
                                               VALUE SPACE.
               10  WK01-ZZMESSAGE-A              PIC X(1)
                                               VALUE SPACE.
               10  WK01-ZZMESSAGE-V              PIC X(1)
                                               VALUE SPACE.
               10  WK01-ZZMESSAGE-O              PIC X(1)
                                               VALUE SPACE.
               10  WK01-ZZMESSAGE       PIC X(160)
                                               VALUE SPACES.
               10  WK01-PASSED-ONE-Z              PIC X(1)
                                               VALUE SPACE.
               10  WK01-PASSED-ONE-F              PIC X(1)
                                               VALUE SPACE.
               10  WK01-PASSED-ONE-A              PIC X(1)
                                               VALUE SPACE.
               10  WK01-PASSED-ONE-V              PIC X(1)
                                               VALUE SPACE.
               10  WK01-PASSED-ONE-O              PIC X(1)
                                               VALUE SPACE.
               10  WK01-PASSED-ONE       PIC X(32)
                                               VALUE SPACES.
               10  WK01-MAP-RESPONSE-Z              PIC X(1)
                                               VALUE SPACE.
               10  WK01-MAP-RESPONSE-F              PIC X(1)
                                               VALUE SPACE.
               10  WK01-MAP-RESPONSE-A              PIC X(1)
                                               VALUE SPACE.
               10  WK01-MAP-RESPONSE-V              PIC X(1)
                                               VALUE SPACE.
               10  WK01-MAP-RESPONSE-O              PIC X(1)
                                               VALUE SPACE.
               10  WK01-MAP-RESPONSE       PIC X(8)
                                               VALUE SPACES.
               10  WK01-TEXT-SY00-Z              PIC X(1)
                                               VALUE SPACE.
               10  WK01-TEXT-SY00-F              PIC X(1)
                                               VALUE SPACE.
               10  WK01-TEXT-SY00-A              PIC X(1)
                                               VALUE SPACE.
               10  WK01-TEXT-SY00-V              PIC X(1)
                                               VALUE SPACE.
               10  WK01-TEXT-SY00-O              PIC X(1)
                                               VALUE SPACE.
               10  WK01-TEXT-SY00       PIC X(14)
                                               VALUE SPACES.
           04  WK01-SUBSCRIPTED-WORK-AREA.
               05  FILLER                      PIC X(1).
               05  WK01-CODE-EX25-F             PIC X(1)
                                               OCCURS 10.
               05  WK01-CODE-EX2A-F             PIC X(1)
                                               OCCURS 10.
               05  WK01-DESC-EX25-F             PIC X(1)
                                               OCCURS 10.
               05  WK01-CODE-EX2B-F             PIC X(1)
                                               OCCURS 10.
               05  WK01-CODE-TITLE-EX25-F             PIC X(1)
                                               OCCURS 10.
               05  WK01-TYPE-CODE-EX25-F             PIC X(1)
                                               OCCURS 10.
               05  WK01-IND-EX25-F             PIC X(1)
                                               OCCURS 10.
