       01  MAP-CONTROL.

    ***Created by Convert/DC version V8R03 on 11/20/00 at 11:00***

           02  FGAMU40-MAP-CONTROL.
           03  FGAMU40T.
           04  WK01-DCXMAPL-PARMS.
               10  WK01-MAPNAME                  PIC X(8)
                                                 VALUE 'FGAMU40I'.
               10  WK01-IKE-LENGTH               PIC S9(8)  COMP
                                                 VALUE 26277.
               10  WK01-TINA-LENGTH              PIC S9(4)  COMP
                                                 VALUE 1529.
           05  WK01-ATTRIBUTES                   PIC X(60)
                                                 VALUE SPACE.
           05  WK01-ATTRIBUTES-ERROR             PIC X(60) VALUE
               'U  BIF'.
           05  WK01-CURSOR-DFLD                  PIC X(36)
                                                 VALUE SPACES.
           05  WK01-CURSOR-DFLD-QUAL             PIC X(30)
                                                 VALUE SPACES.
           05  WK01-ROW                          PIC S9(4) COMP
                                                 VALUE ZERO.
           05  WK01-COLUMN                       PIC S9(4) COMP
                                                 VALUE ZERO.
           05  WK01-ERROR-MSG                    PIC X(80)
                                                 VALUE SPACES.
           05  WK01-MAP-DATA-LEN                 PIC S9(6)
                                                 VALUE ZERO.
           05  WK01-1ST-FLAG                     PIC X(1)
                                                 VALUE 'Y'.
           05  WK01-FLAG-OUTPUT-DATA             PIC X(1)
                                                 VALUE 'Y'.
      *    05  WK01-STATUS-RETURN-FLAG           PIC X(1)
      *                                          VALUE SPACES.
           05  WK01-ALL-BUT-FLAG                 PIC X(1)
                                                 VALUE SPACES.
           05  WK01-FLAG-ALL-FIELDS-CHANGED      PIC X(1)  VALUE 'Y'.
           05  WK01-FLAG-ANY-FIELDS-CHANGED      PIC X(1)  VALUE 'N'.
           05  WK01-FLAG-ALL-FIELDS-ERROR        PIC X(1)  VALUE 'Y'.
           05  WK01-FLAG-ANY-FIELDS-ERROR        PIC X(1)  VALUE 'N'.
           05  WK01-FLAG-ALL-FIELDS-ERASE        PIC X(1)  VALUE 'Y'.
           05  WK01-FLAG-ANY-FIELDS-ERASE        PIC X(1)  VALUE 'Y'.

           05  WK01-VARDATA                      PIC X(11880)
                                                 VALUE SPACES.
           05  FILLER                            PIC X(100)
                                                 VALUE SPACES.
           04  WK01-ELEMENT-AREA.

               10  WK01-ID-SY00-Z              PIC X(1)
                                               VALUE SPACE.
               10  WK01-ID-SY00-F              PIC X(1)
                                               VALUE SPACE.
               10  WK01-ID-SY00-A              PIC X(1)
                                               VALUE SPACE.
               10  WK01-ID-SY00-V              PIC X(1)
                                               VALUE SPACE.
               10  WK01-ID-SY00-O              PIC X(1)
                                               VALUE SPACE.
               10  WK01-ID-SY00       PIC X(8)
                                               VALUE SPACES.
               10  WK01-NAME-6001-SY00-Z              PIC X(1)
                                               VALUE SPACE.
               10  WK01-NAME-6001-SY00-F              PIC X(1)
                                               VALUE SPACE.
               10  WK01-NAME-6001-SY00-A              PIC X(1)
                                               VALUE SPACE.
               10  WK01-NAME-6001-SY00-V              PIC X(1)
                                               VALUE SPACE.
               10  WK01-NAME-6001-SY00-O              PIC X(1)
                                               VALUE SPACE.
               10  WK01-NAME-6001-SY00       PIC X(35)
                                               VALUE SPACES.
               10  WK01-DATE-Z              PIC X(1)
                                               VALUE SPACE.
               10  WK01-DATE-F              PIC X(1)
                                               VALUE SPACE.
               10  WK01-DATE-A              PIC X(1)
                                               VALUE SPACE.
               10  WK01-DATE-V              PIC X(1)
                                               VALUE SPACE.
               10  WK01-DATE-O              PIC X(1)
                                               VALUE SPACE.
               10  WK01-DATE       PIC X(8)
                                               VALUE SPACES.
               10  WK01-HH-MM-TIME-SY00-Z              PIC X(1)
                                               VALUE SPACE.
               10  WK01-HH-MM-TIME-SY00-F              PIC X(1)
                                               VALUE SPACE.
               10  WK01-HH-MM-TIME-SY00-A              PIC X(1)
                                               VALUE SPACE.
               10  WK01-HH-MM-TIME-SY00-V              PIC X(1)
                                               VALUE SPACE.
               10  WK01-HH-MM-TIME-SY00-O              PIC X(1)
                                               VALUE SPACE.
               10  WK01-HH-MM-TIME-SY00       PIC X(4)
                                               VALUE SPACES.
               10  WK01-PM-FLAG-SY00-Z              PIC X(1)
                                               VALUE SPACE.
               10  WK01-PM-FLAG-SY00-F              PIC X(1)
                                               VALUE SPACE.
               10  WK01-PM-FLAG-SY00-A              PIC X(1)
                                               VALUE SPACE.
               10  WK01-PM-FLAG-SY00-V              PIC X(1)
                                               VALUE SPACE.
               10  WK01-PM-FLAG-SY00-O              PIC X(1)
                                               VALUE SPACE.
               10  WK01-PM-FLAG-SY00       PIC X(1)
                                               VALUE SPACES.
               10  WK01-USER-ID-Z              PIC X(1)
                                               VALUE SPACE.
               10  WK01-USER-ID-F              PIC X(1)
                                               VALUE SPACE.
               10  WK01-USER-ID-A              PIC X(1)
                                               VALUE SPACE.
               10  WK01-USER-ID-V              PIC X(1)
                                               VALUE SPACE.
               10  WK01-USER-ID-O              PIC X(1)
                                               VALUE SPACE.
               10  WK01-USER-ID       PIC X(32)
                                               VALUE SPACES.
               10  WK01-RSPNS-ID-SY00-Z              PIC X(1)
                                               VALUE SPACE.
               10  WK01-RSPNS-ID-SY00-F              PIC X(1)
                                               VALUE SPACE.
               10  WK01-RSPNS-ID-SY00-A              PIC X(1)
                                               VALUE SPACE.
               10  WK01-RSPNS-ID-SY00-V              PIC X(1)
                                               VALUE SPACE.
               10  WK01-RSPNS-ID-SY00-O              PIC X(1)
                                               VALUE SPACE.
               10  WK01-RSPNS-ID-SY00       PIC X(8)
                                               VALUE SPACES.
               10  WK01-FUNC-DESCRIPTION-Z              PIC X(1)
                                               VALUE SPACE.
               10  WK01-FUNC-DESCRIPTION-F              PIC X(1)
                                               VALUE SPACE.
               10  WK01-FUNC-DESCRIPTION-A              PIC X(1)
                                               VALUE SPACE.
               10  WK01-FUNC-DESCRIPTION-V              PIC X(1)
                                               VALUE SPACE.
               10  WK01-FUNC-DESCRIPTION-O              PIC X(1)
                                               VALUE SPACE.
               10  WK01-FUNC-DESCRIPTION       PIC X(28)
                                               VALUE SPACES.
               10  WK01-STATUS-CODE-SY00-Z              PIC X(1)
                                               VALUE SPACE.
               10  WK01-STATUS-CODE-SY00-F              PIC X(1)
                                               VALUE SPACE.
               10  WK01-STATUS-CODE-SY00-A              PIC X(1)
                                               VALUE SPACE.
               10  WK01-STATUS-CODE-SY00-V              PIC X(1)
                                               VALUE SPACE.
               10  WK01-STATUS-CODE-SY00-O              PIC X(1)
                                               VALUE SPACE.
               10  WK01-STATUS-CODE-SY00       PIC X(1)
                                               VALUE SPACES.
               10  WK01-COA-CODE-GA4A-Z          PIC X(1)
                                               VALUE SPACE.
               10  WK01-COA-CODE-GA4A-F          PIC X(1)
                                               VALUE SPACE.
               10  WK01-COA-CODE-GA4A-A          PIC X(1)
                                               VALUE SPACE.
               10  WK01-COA-CODE-GA4A-V          PIC X(1)
                                               VALUE SPACE.
               10  WK01-COA-CODE-GA4A-O          PIC X(1)
                                               VALUE SPACE.
               10  WK01-COA-CODE-GA4A   PIC X(1)
                                               VALUE SPACES.
               10  WK01-CODE-GA4B-Z              PIC X(1)
                                               VALUE SPACE.
               10  WK01-CODE-GA4B-F              PIC X(1)
                                               VALUE SPACE.
               10  WK01-CODE-GA4B-A              PIC X(1)
                                               VALUE SPACE.
               10  WK01-CODE-GA4B-V              PIC X(1)
                                               VALUE SPACE.
               10  WK01-CODE-GA4B-O              PIC X(1)
                                               VALUE SPACE.
               10  WK01-CODE-GA4B       PIC X(6)
                                               VALUE SPACES.
               10  WK01-TITLE-4005-GA40-Z              PIC X(1)
                                               VALUE SPACE.
               10  WK01-TITLE-4005-GA40-F              PIC X(1)
                                               VALUE SPACE.
               10  WK01-TITLE-4005-GA40-A              PIC X(1)
                                               VALUE SPACE.
               10  WK01-TITLE-4005-GA40-V              PIC X(1)
                                               VALUE SPACE.
               10  WK01-TITLE-4005-GA40-O              PIC X(1)
                                               VALUE SPACE.
               10  WK01-TITLE-4005-GA40       PIC X(35)
                                               VALUE SPACES.
               10  WK01-ALL-FLAG-GA40-Z              PIC X(1)
                                               VALUE SPACE.
               10  WK01-ALL-FLAG-GA40-F              PIC X(1)
                                               VALUE SPACE.
               10  WK01-ALL-FLAG-GA40-A              PIC X(1)
                                               VALUE SPACE.
               10  WK01-ALL-FLAG-GA40-V              PIC X(1)
                                               VALUE SPACE.
               10  WK01-ALL-FLAG-GA40-O              PIC X(1)
                                               VALUE SPACE.
               10  WK01-ALL-FLAG-GA40       PIC X(1)
                                               VALUE SPACES.
               10  WK01-FROM-FUND-CODE-GA40-Z              PIC X(1)
                                               VALUE SPACE.
               10  WK01-FROM-FUND-CODE-GA40-F              PIC X(1)
                                               VALUE SPACE.
               10  WK01-FROM-FUND-CODE-GA40-A              PIC X(1)
                                               VALUE SPACE.
               10  WK01-FROM-FUND-CODE-GA40-V              PIC X(1)
                                               VALUE SPACE.
               10  WK01-FROM-FUND-CODE-GA40-O              PIC X(1)
                                               VALUE SPACE.
               10  WK01-FROM-FUND-CODE-GA40       PIC X(6)
                                               VALUE SPACES.
               10  WK01-FROM-FUND-TITLE-GA40-Z              PIC X(1)
                                               VALUE SPACE.
               10  WK01-FROM-FUND-TITLE-GA40-F              PIC X(1)
                                               VALUE SPACE.
               10  WK01-FROM-FUND-TITLE-GA40-A              PIC X(1)
                                               VALUE SPACE.
               10  WK01-FROM-FUND-TITLE-GA40-V              PIC X(1)
                                               VALUE SPACE.
               10  WK01-FROM-FUND-TITLE-GA40-O              PIC X(1)
                                               VALUE SPACE.
               10  WK01-FROM-FUND-TITLE-GA40       PIC X(35)
                                               VALUE SPACES.
               10  WK01-LIT-GA40-Z              PIC X(1)
                                               VALUE SPACE.
               10  WK01-LIT-GA40-F              PIC X(1)
                                               VALUE SPACE.
               10  WK01-LIT-GA40-A              PIC X(1)
                                               VALUE SPACE.
               10  WK01-LIT-GA40-V              PIC X(1)
                                               VALUE SPACE.
               10  WK01-LIT-GA40-O              PIC X(1)
                                               VALUE SPACE.
               10  WK01-LIT-GA40       PIC X(10)
                                               VALUE SPACES.
               10  WK01-DELETE-GA40-Z              PIC X(1)
                                               VALUE SPACE.
               10  WK01-DELETE-GA40-F              PIC X(1)
                                               VALUE SPACE.
               10  WK01-DELETE-GA40-A              PIC X(1)
                                               VALUE SPACE.
               10  WK01-DELETE-GA40-V              PIC X(1)
                                               VALUE SPACE.
               10  WK01-DELETE-GA40-O              PIC X(1)
                                               VALUE SPACE.
               10  WK01-DELETE-GA40       PIC X(1)
                                               VALUE SPACES.
               10  WK01-CODE-GA4A1-Z              PIC X(1)
                                               VALUE SPACE.
               10  WK01-CODE-GA4A1-F              PIC X(1)
                                               VALUE SPACE.
               10  WK01-CODE-GA4A1-A              PIC X(1)
                                               VALUE SPACE.
               10  WK01-CODE-GA4A1-V              PIC X(1)
                                               VALUE SPACE.
               10  WK01-CODE-GA4A1-O              PIC X(1)
                                               VALUE SPACE.
               10  WK01-CODE-GA4A1       PIC X(1)
                                               VALUE SPACES.
               10  WK01-STATUS-GA401-Z              PIC X(1)
                                               VALUE SPACE.
               10  WK01-STATUS-GA401-F              PIC X(1)
                                               VALUE SPACE.
               10  WK01-STATUS-GA401-A              PIC X(1)
                                               VALUE SPACE.
               10  WK01-STATUS-GA401-V              PIC X(1)
                                               VALUE SPACE.
               10  WK01-STATUS-GA401-O              PIC X(1)
                                               VALUE SPACE.
               10  WK01-STATUS-GA401       PIC X(1)
                                               VALUE SPACES.
               10  WK01-CODE-GA401-Z              PIC X(1)
                                               VALUE SPACE.
               10  WK01-CODE-GA401-F              PIC X(1)
                                               VALUE SPACE.
               10  WK01-CODE-GA401-A              PIC X(1)
                                               VALUE SPACE.
               10  WK01-CODE-GA401-V              PIC X(1)
                                               VALUE SPACE.
               10  WK01-CODE-GA401-O              PIC X(1)
                                               VALUE SPACE.
               10  WK01-CODE-GA401       PIC X(6)
                                               VALUE SPACES.
               10  WK01-CODE-TITLE-4034-GA401-Z              PIC X(1)
                                               VALUE SPACE.
               10  WK01-CODE-TITLE-4034-GA401-F              PIC X(1)
                                               VALUE SPACE.
               10  WK01-CODE-TITLE-4034-GA401-A              PIC X(1)
                                               VALUE SPACE.
               10  WK01-CODE-TITLE-4034-GA401-V              PIC X(1)
                                               VALUE SPACE.
               10  WK01-CODE-TITLE-4034-GA401-O              PIC X(1)
                                               VALUE SPACE.
               10  WK01-CODE-TITLE-4034-GA401       PIC X(35)
                                               VALUE SPACES.
               10  WK01-ACTVY-DATE-GA401-Z              PIC X(1)
                                               VALUE SPACE.
               10  WK01-ACTVY-DATE-GA401-F              PIC X(1)
                                               VALUE SPACE.
               10  WK01-ACTVY-DATE-GA401-A              PIC X(1)
                                               VALUE SPACE.
               10  WK01-ACTVY-DATE-GA401-V              PIC X(1)
                                               VALUE SPACE.
               10  WK01-ACTVY-DATE-GA401-O              PIC X(1)
                                               VALUE SPACE.
               10  WK01-ACTVY-DATE-GA401       PIC X(6)
                                               VALUE SPACES.
               10  WK01-STAMP-GA401-Z              PIC X(1)
                                               VALUE SPACE.
               10  WK01-STAMP-GA401-F              PIC X(1)
                                               VALUE SPACE.
               10  WK01-STAMP-GA401-A              PIC X(1)
                                               VALUE SPACE.
               10  WK01-STAMP-GA401-V              PIC X(1)
                                               VALUE SPACE.
               10  WK01-STAMP-GA401-O              PIC X(1)
                                               VALUE SPACE.
               10  WK01-STAMP-GA401       PIC X(4)
                                               VALUE SPACES.
               10  WK01-PM-FLAG-GA401-Z              PIC X(1)
                                               VALUE SPACE.
               10  WK01-PM-FLAG-GA401-F              PIC X(1)
                                               VALUE SPACE.
               10  WK01-PM-FLAG-GA401-A              PIC X(1)
                                               VALUE SPACE.
               10  WK01-PM-FLAG-GA401-V              PIC X(1)
                                               VALUE SPACE.
               10  WK01-PM-FLAG-GA401-O              PIC X(1)
                                               VALUE SPACE.
               10  WK01-PM-FLAG-GA401       PIC X(1)
                                               VALUE SPACES.
               10  WK01-CODE-GA4A2-Z              PIC X(1)
                                               VALUE SPACE.
               10  WK01-CODE-GA4A2-F              PIC X(1)
                                               VALUE SPACE.
               10  WK01-CODE-GA4A2-A              PIC X(1)
                                               VALUE SPACE.
               10  WK01-CODE-GA4A2-V              PIC X(1)
                                               VALUE SPACE.
               10  WK01-CODE-GA4A2-O              PIC X(1)
                                               VALUE SPACE.
               10  WK01-CODE-GA4A2       PIC X(1)
                                               VALUE SPACES.
               10  WK01-STATUS-GA402-Z              PIC X(1)
                                               VALUE SPACE.
               10  WK01-STATUS-GA402-F              PIC X(1)
                                               VALUE SPACE.
               10  WK01-STATUS-GA402-A              PIC X(1)
                                               VALUE SPACE.
               10  WK01-STATUS-GA402-V              PIC X(1)
                                               VALUE SPACE.
               10  WK01-STATUS-GA402-O              PIC X(1)
                                               VALUE SPACE.
               10  WK01-STATUS-GA402       PIC X(1)
                                               VALUE SPACES.
               10  WK01-CODE-GA402-Z              PIC X(1)
                                               VALUE SPACE.
               10  WK01-CODE-GA402-F              PIC X(1)
                                               VALUE SPACE.
               10  WK01-CODE-GA402-A              PIC X(1)
                                               VALUE SPACE.
               10  WK01-CODE-GA402-V              PIC X(1)
                                               VALUE SPACE.
               10  WK01-CODE-GA402-O              PIC X(1)
                                               VALUE SPACE.
               10  WK01-CODE-GA402       PIC X(6)
                                               VALUE SPACES.
               10  WK01-CODE-TITLE-4034-GA402-Z              PIC X(1)
                                               VALUE SPACE.
               10  WK01-CODE-TITLE-4034-GA402-F              PIC X(1)
                                               VALUE SPACE.
               10  WK01-CODE-TITLE-4034-GA402-A              PIC X(1)
                                               VALUE SPACE.
               10  WK01-CODE-TITLE-4034-GA402-V              PIC X(1)
                                               VALUE SPACE.
               10  WK01-CODE-TITLE-4034-GA402-O              PIC X(1)
                                               VALUE SPACE.
               10  WK01-CODE-TITLE-4034-GA402       PIC X(35)
                                               VALUE SPACES.
               10  WK01-ACTVY-DATE-GA402-Z              PIC X(1)
                                               VALUE SPACE.
               10  WK01-ACTVY-DATE-GA402-F              PIC X(1)
                                               VALUE SPACE.
               10  WK01-ACTVY-DATE-GA402-A              PIC X(1)
                                               VALUE SPACE.
               10  WK01-ACTVY-DATE-GA402-V              PIC X(1)
                                               VALUE SPACE.
               10  WK01-ACTVY-DATE-GA402-O              PIC X(1)
                                               VALUE SPACE.
               10  WK01-ACTVY-DATE-GA402       PIC X(6)
                                               VALUE SPACES.
               10  WK01-STAMP-GA402-Z              PIC X(1)
                                               VALUE SPACE.
               10  WK01-STAMP-GA402-F              PIC X(1)
                                               VALUE SPACE.
               10  WK01-STAMP-GA402-A              PIC X(1)
                                               VALUE SPACE.
               10  WK01-STAMP-GA402-V              PIC X(1)
                                               VALUE SPACE.
               10  WK01-STAMP-GA402-O              PIC X(1)
                                               VALUE SPACE.
               10  WK01-STAMP-GA402       PIC X(4)
                                               VALUE SPACES.
               10  WK01-PM-FLAG-GA402-Z              PIC X(1)
                                               VALUE SPACE.
               10  WK01-PM-FLAG-GA402-F              PIC X(1)
                                               VALUE SPACE.
               10  WK01-PM-FLAG-GA402-A              PIC X(1)
                                               VALUE SPACE.
               10  WK01-PM-FLAG-GA402-V              PIC X(1)
                                               VALUE SPACE.
               10  WK01-PM-FLAG-GA402-O              PIC X(1)
                                               VALUE SPACE.
               10  WK01-PM-FLAG-GA402       PIC X(1)
                                               VALUE SPACES.
               10  WK01-CODE-GA4A3-Z              PIC X(1)
                                               VALUE SPACE.
               10  WK01-CODE-GA4A3-F              PIC X(1)
                                               VALUE SPACE.
               10  WK01-CODE-GA4A3-A              PIC X(1)
                                               VALUE SPACE.
               10  WK01-CODE-GA4A3-V              PIC X(1)
                                               VALUE SPACE.
               10  WK01-CODE-GA4A3-O              PIC X(1)
                                               VALUE SPACE.
               10  WK01-CODE-GA4A3       PIC X(1)
                                               VALUE SPACES.
               10  WK01-STATUS-GA403-Z              PIC X(1)
                                               VALUE SPACE.
               10  WK01-STATUS-GA403-F              PIC X(1)
                                               VALUE SPACE.
               10  WK01-STATUS-GA403-A              PIC X(1)
                                               VALUE SPACE.
               10  WK01-STATUS-GA403-V              PIC X(1)
                                               VALUE SPACE.
               10  WK01-STATUS-GA403-O              PIC X(1)
                                               VALUE SPACE.
               10  WK01-STATUS-GA403       PIC X(1)
                                               VALUE SPACES.
               10  WK01-CODE-GA403-Z              PIC X(1)
                                               VALUE SPACE.
               10  WK01-CODE-GA403-F              PIC X(1)
                                               VALUE SPACE.
               10  WK01-CODE-GA403-A              PIC X(1)
                                               VALUE SPACE.
               10  WK01-CODE-GA403-V              PIC X(1)
                                               VALUE SPACE.
               10  WK01-CODE-GA403-O              PIC X(1)
                                               VALUE SPACE.
               10  WK01-CODE-GA403       PIC X(6)
                                               VALUE SPACES.
               10  WK01-CODE-TITLE-4034-GA403-Z              PIC X(1)
                                               VALUE SPACE.
               10  WK01-CODE-TITLE-4034-GA403-F              PIC X(1)
                                               VALUE SPACE.
               10  WK01-CODE-TITLE-4034-GA403-A              PIC X(1)
                                               VALUE SPACE.
               10  WK01-CODE-TITLE-4034-GA403-V              PIC X(1)
                                               VALUE SPACE.
               10  WK01-CODE-TITLE-4034-GA403-O              PIC X(1)
                                               VALUE SPACE.
               10  WK01-CODE-TITLE-4034-GA403       PIC X(35)
                                               VALUE SPACES.
               10  WK01-ACTVY-DATE-GA403-Z              PIC X(1)
                                               VALUE SPACE.
               10  WK01-ACTVY-DATE-GA403-F              PIC X(1)
                                               VALUE SPACE.
               10  WK01-ACTVY-DATE-GA403-A              PIC X(1)
                                               VALUE SPACE.
               10  WK01-ACTVY-DATE-GA403-V              PIC X(1)
                                               VALUE SPACE.
               10  WK01-ACTVY-DATE-GA403-O              PIC X(1)
                                               VALUE SPACE.
               10  WK01-ACTVY-DATE-GA403       PIC X(6)
                                               VALUE SPACES.
               10  WK01-STAMP-GA403-Z              PIC X(1)
                                               VALUE SPACE.
               10  WK01-STAMP-GA403-F              PIC X(1)
                                               VALUE SPACE.
               10  WK01-STAMP-GA403-A              PIC X(1)
                                               VALUE SPACE.
               10  WK01-STAMP-GA403-V              PIC X(1)
                                               VALUE SPACE.
               10  WK01-STAMP-GA403-O              PIC X(1)
                                               VALUE SPACE.
               10  WK01-STAMP-GA403       PIC X(4)
                                               VALUE SPACES.
               10  WK01-PM-FLAG-GA403-Z              PIC X(1)
                                               VALUE SPACE.
               10  WK01-PM-FLAG-GA403-F              PIC X(1)
                                               VALUE SPACE.
               10  WK01-PM-FLAG-GA403-A              PIC X(1)
                                               VALUE SPACE.
               10  WK01-PM-FLAG-GA403-V              PIC X(1)
                                               VALUE SPACE.
               10  WK01-PM-FLAG-GA403-O              PIC X(1)
                                               VALUE SPACE.
               10  WK01-PM-FLAG-GA403       PIC X(1)
                                               VALUE SPACES.
               10  WK01-CODE-GA4A4-Z              PIC X(1)
                                               VALUE SPACE.
               10  WK01-CODE-GA4A4-F              PIC X(1)
                                               VALUE SPACE.
               10  WK01-CODE-GA4A4-A              PIC X(1)
                                               VALUE SPACE.
               10  WK01-CODE-GA4A4-V              PIC X(1)
                                               VALUE SPACE.
               10  WK01-CODE-GA4A4-O              PIC X(1)
                                               VALUE SPACE.
               10  WK01-CODE-GA4A4       PIC X(1)
                                               VALUE SPACES.
               10  WK01-STATUS-GA404-Z              PIC X(1)
                                               VALUE SPACE.
               10  WK01-STATUS-GA404-F              PIC X(1)
                                               VALUE SPACE.
               10  WK01-STATUS-GA404-A              PIC X(1)
                                               VALUE SPACE.
               10  WK01-STATUS-GA404-V              PIC X(1)
                                               VALUE SPACE.
               10  WK01-STATUS-GA404-O              PIC X(1)
                                               VALUE SPACE.
               10  WK01-STATUS-GA404       PIC X(1)
                                               VALUE SPACES.
               10  WK01-CODE-GA404-Z              PIC X(1)
                                               VALUE SPACE.
               10  WK01-CODE-GA404-F              PIC X(1)
                                               VALUE SPACE.
               10  WK01-CODE-GA404-A              PIC X(1)
                                               VALUE SPACE.
               10  WK01-CODE-GA404-V              PIC X(1)
                                               VALUE SPACE.
               10  WK01-CODE-GA404-O              PIC X(1)
                                               VALUE SPACE.
               10  WK01-CODE-GA404       PIC X(6)
                                               VALUE SPACES.
               10  WK01-CODE-TITLE-4034-GA404-Z              PIC X(1)
                                               VALUE SPACE.
               10  WK01-CODE-TITLE-4034-GA404-F              PIC X(1)
                                               VALUE SPACE.
               10  WK01-CODE-TITLE-4034-GA404-A              PIC X(1)
                                               VALUE SPACE.
               10  WK01-CODE-TITLE-4034-GA404-V              PIC X(1)
                                               VALUE SPACE.
               10  WK01-CODE-TITLE-4034-GA404-O              PIC X(1)
                                               VALUE SPACE.
               10  WK01-CODE-TITLE-4034-GA404       PIC X(35)
                                               VALUE SPACES.
               10  WK01-ACTVY-DATE-GA404-Z              PIC X(1)
                                               VALUE SPACE.
               10  WK01-ACTVY-DATE-GA404-F              PIC X(1)
                                               VALUE SPACE.
               10  WK01-ACTVY-DATE-GA404-A              PIC X(1)
                                               VALUE SPACE.
               10  WK01-ACTVY-DATE-GA404-V              PIC X(1)
                                               VALUE SPACE.
               10  WK01-ACTVY-DATE-GA404-O              PIC X(1)
                                               VALUE SPACE.
               10  WK01-ACTVY-DATE-GA404       PIC X(6)
                                               VALUE SPACES.
               10  WK01-STAMP-GA404-Z              PIC X(1)
                                               VALUE SPACE.
               10  WK01-STAMP-GA404-F              PIC X(1)
                                               VALUE SPACE.
               10  WK01-STAMP-GA404-A              PIC X(1)
                                               VALUE SPACE.
               10  WK01-STAMP-GA404-V              PIC X(1)
                                               VALUE SPACE.
               10  WK01-STAMP-GA404-O              PIC X(1)
                                               VALUE SPACE.
               10  WK01-STAMP-GA404       PIC X(4)
                                               VALUE SPACES.
               10  WK01-PM-FLAG-GA404-Z              PIC X(1)
                                               VALUE SPACE.
               10  WK01-PM-FLAG-GA404-F              PIC X(1)
                                               VALUE SPACE.
               10  WK01-PM-FLAG-GA404-A              PIC X(1)
                                               VALUE SPACE.
               10  WK01-PM-FLAG-GA404-V              PIC X(1)
                                               VALUE SPACE.
               10  WK01-PM-FLAG-GA404-O              PIC X(1)
                                               VALUE SPACE.
               10  WK01-PM-FLAG-GA404       PIC X(1)
                                               VALUE SPACES.
               10  WK01-CODE-GA4A5-Z              PIC X(1)
                                               VALUE SPACE.
               10  WK01-CODE-GA4A5-F              PIC X(1)
                                               VALUE SPACE.
               10  WK01-CODE-GA4A5-A              PIC X(1)
                                               VALUE SPACE.
               10  WK01-CODE-GA4A5-V              PIC X(1)
                                               VALUE SPACE.
               10  WK01-CODE-GA4A5-O              PIC X(1)
                                               VALUE SPACE.
               10  WK01-CODE-GA4A5       PIC X(1)
                                               VALUE SPACES.
               10  WK01-STATUS-GA405-Z              PIC X(1)
                                               VALUE SPACE.
               10  WK01-STATUS-GA405-F              PIC X(1)
                                               VALUE SPACE.
               10  WK01-STATUS-GA405-A              PIC X(1)
                                               VALUE SPACE.
               10  WK01-STATUS-GA405-V              PIC X(1)
                                               VALUE SPACE.
               10  WK01-STATUS-GA405-O              PIC X(1)
                                               VALUE SPACE.
               10  WK01-STATUS-GA405       PIC X(1)
                                               VALUE SPACES.
               10  WK01-CODE-GA405-Z              PIC X(1)
                                               VALUE SPACE.
               10  WK01-CODE-GA405-F              PIC X(1)
                                               VALUE SPACE.
               10  WK01-CODE-GA405-A              PIC X(1)
                                               VALUE SPACE.
               10  WK01-CODE-GA405-V              PIC X(1)
                                               VALUE SPACE.
               10  WK01-CODE-GA405-O              PIC X(1)
                                               VALUE SPACE.
               10  WK01-CODE-GA405       PIC X(6)
                                               VALUE SPACES.
               10  WK01-CODE-TITLE-4034-GA405-Z              PIC X(1)
                                               VALUE SPACE.
               10  WK01-CODE-TITLE-4034-GA405-F              PIC X(1)
                                               VALUE SPACE.
               10  WK01-CODE-TITLE-4034-GA405-A              PIC X(1)
                                               VALUE SPACE.
               10  WK01-CODE-TITLE-4034-GA405-V              PIC X(1)
                                               VALUE SPACE.
               10  WK01-CODE-TITLE-4034-GA405-O              PIC X(1)
                                               VALUE SPACE.
               10  WK01-CODE-TITLE-4034-GA405       PIC X(35)
                                               VALUE SPACES.
               10  WK01-ACTVY-DATE-GA405-Z              PIC X(1)
                                               VALUE SPACE.
               10  WK01-ACTVY-DATE-GA405-F              PIC X(1)
                                               VALUE SPACE.
               10  WK01-ACTVY-DATE-GA405-A              PIC X(1)
                                               VALUE SPACE.
               10  WK01-ACTVY-DATE-GA405-V              PIC X(1)
                                               VALUE SPACE.
               10  WK01-ACTVY-DATE-GA405-O              PIC X(1)
                                               VALUE SPACE.
               10  WK01-ACTVY-DATE-GA405       PIC X(6)
                                               VALUE SPACES.
               10  WK01-STAMP-GA405-Z              PIC X(1)
                                               VALUE SPACE.
               10  WK01-STAMP-GA405-F              PIC X(1)
                                               VALUE SPACE.
               10  WK01-STAMP-GA405-A              PIC X(1)
                                               VALUE SPACE.
               10  WK01-STAMP-GA405-V              PIC X(1)
                                               VALUE SPACE.
               10  WK01-STAMP-GA405-O              PIC X(1)
                                               VALUE SPACE.
               10  WK01-STAMP-GA405       PIC X(4)
                                               VALUE SPACES.
               10  WK01-PM-FLAG-GA405-Z              PIC X(1)
                                               VALUE SPACE.
               10  WK01-PM-FLAG-GA405-F              PIC X(1)
                                               VALUE SPACE.
               10  WK01-PM-FLAG-GA405-A              PIC X(1)
                                               VALUE SPACE.
               10  WK01-PM-FLAG-GA405-V              PIC X(1)
                                               VALUE SPACE.
               10  WK01-PM-FLAG-GA405-O              PIC X(1)
                                               VALUE SPACE.
               10  WK01-PM-FLAG-GA405       PIC X(1)
                                               VALUE SPACES.
               10  WK01-CODE-GA4A6-Z              PIC X(1)
                                               VALUE SPACE.
               10  WK01-CODE-GA4A6-F              PIC X(1)
                                               VALUE SPACE.
               10  WK01-CODE-GA4A6-A              PIC X(1)
                                               VALUE SPACE.
               10  WK01-CODE-GA4A6-V              PIC X(1)
                                               VALUE SPACE.
               10  WK01-CODE-GA4A6-O              PIC X(1)
                                               VALUE SPACE.
               10  WK01-CODE-GA4A6       PIC X(1)
                                               VALUE SPACES.
               10  WK01-STATUS-GA406-Z              PIC X(1)
                                               VALUE SPACE.
               10  WK01-STATUS-GA406-F              PIC X(1)
                                               VALUE SPACE.
               10  WK01-STATUS-GA406-A              PIC X(1)
                                               VALUE SPACE.
               10  WK01-STATUS-GA406-V              PIC X(1)
                                               VALUE SPACE.
               10  WK01-STATUS-GA406-O              PIC X(1)
                                               VALUE SPACE.
               10  WK01-STATUS-GA406       PIC X(1)
                                               VALUE SPACES.
               10  WK01-CODE-GA406-Z              PIC X(1)
                                               VALUE SPACE.
               10  WK01-CODE-GA406-F              PIC X(1)
                                               VALUE SPACE.
               10  WK01-CODE-GA406-A              PIC X(1)
                                               VALUE SPACE.
               10  WK01-CODE-GA406-V              PIC X(1)
                                               VALUE SPACE.
               10  WK01-CODE-GA406-O              PIC X(1)
                                               VALUE SPACE.
               10  WK01-CODE-GA406       PIC X(6)
                                               VALUE SPACES.
               10  WK01-CODE-TITLE-4034-GA406-Z              PIC X(1)
                                               VALUE SPACE.
               10  WK01-CODE-TITLE-4034-GA406-F              PIC X(1)
                                               VALUE SPACE.
               10  WK01-CODE-TITLE-4034-GA406-A              PIC X(1)
                                               VALUE SPACE.
               10  WK01-CODE-TITLE-4034-GA406-V              PIC X(1)
                                               VALUE SPACE.
               10  WK01-CODE-TITLE-4034-GA406-O              PIC X(1)
                                               VALUE SPACE.
               10  WK01-CODE-TITLE-4034-GA406       PIC X(35)
                                               VALUE SPACES.
               10  WK01-ACTVY-DATE-GA406-Z              PIC X(1)
                                               VALUE SPACE.
               10  WK01-ACTVY-DATE-GA406-F              PIC X(1)
                                               VALUE SPACE.
               10  WK01-ACTVY-DATE-GA406-A              PIC X(1)
                                               VALUE SPACE.
               10  WK01-ACTVY-DATE-GA406-V              PIC X(1)
                                               VALUE SPACE.
               10  WK01-ACTVY-DATE-GA406-O              PIC X(1)
                                               VALUE SPACE.
               10  WK01-ACTVY-DATE-GA406       PIC X(6)
                                               VALUE SPACES.
               10  WK01-STAMP-GA406-Z              PIC X(1)
                                               VALUE SPACE.
               10  WK01-STAMP-GA406-F              PIC X(1)
                                               VALUE SPACE.
               10  WK01-STAMP-GA406-A              PIC X(1)
                                               VALUE SPACE.
               10  WK01-STAMP-GA406-V              PIC X(1)
                                               VALUE SPACE.
               10  WK01-STAMP-GA406-O              PIC X(1)
                                               VALUE SPACE.
               10  WK01-STAMP-GA406       PIC X(4)
                                               VALUE SPACES.
               10  WK01-PM-FLAG-GA406-Z              PIC X(1)
                                               VALUE SPACE.
               10  WK01-PM-FLAG-GA406-F              PIC X(1)
                                               VALUE SPACE.
               10  WK01-PM-FLAG-GA406-A              PIC X(1)
                                               VALUE SPACE.
               10  WK01-PM-FLAG-GA406-V              PIC X(1)
                                               VALUE SPACE.
               10  WK01-PM-FLAG-GA406-O              PIC X(1)
                                               VALUE SPACE.
               10  WK01-PM-FLAG-GA406       PIC X(1)
                                               VALUE SPACES.
               10  WK01-CODE-GA4A7-Z              PIC X(1)
                                               VALUE SPACE.
               10  WK01-CODE-GA4A7-F              PIC X(1)
                                               VALUE SPACE.
               10  WK01-CODE-GA4A7-A              PIC X(1)
                                               VALUE SPACE.
               10  WK01-CODE-GA4A7-V              PIC X(1)
                                               VALUE SPACE.
               10  WK01-CODE-GA4A7-O              PIC X(1)
                                               VALUE SPACE.
               10  WK01-CODE-GA4A7       PIC X(1)
                                               VALUE SPACES.
               10  WK01-STATUS-GA407-Z              PIC X(1)
                                               VALUE SPACE.
               10  WK01-STATUS-GA407-F              PIC X(1)
                                               VALUE SPACE.
               10  WK01-STATUS-GA407-A              PIC X(1)
                                               VALUE SPACE.
               10  WK01-STATUS-GA407-V              PIC X(1)
                                               VALUE SPACE.
               10  WK01-STATUS-GA407-O              PIC X(1)
                                               VALUE SPACE.
               10  WK01-STATUS-GA407       PIC X(1)
                                               VALUE SPACES.
               10  WK01-CODE-GA407-Z              PIC X(1)
                                               VALUE SPACE.
               10  WK01-CODE-GA407-F              PIC X(1)
                                               VALUE SPACE.
               10  WK01-CODE-GA407-A              PIC X(1)
                                               VALUE SPACE.
               10  WK01-CODE-GA407-V              PIC X(1)
                                               VALUE SPACE.
               10  WK01-CODE-GA407-O              PIC X(1)
                                               VALUE SPACE.
               10  WK01-CODE-GA407       PIC X(6)
                                               VALUE SPACES.
               10  WK01-CODE-TITLE-4034-GA407-Z              PIC X(1)
                                               VALUE SPACE.
               10  WK01-CODE-TITLE-4034-GA407-F              PIC X(1)
                                               VALUE SPACE.
               10  WK01-CODE-TITLE-4034-GA407-A              PIC X(1)
                                               VALUE SPACE.
               10  WK01-CODE-TITLE-4034-GA407-V              PIC X(1)
                                               VALUE SPACE.
               10  WK01-CODE-TITLE-4034-GA407-O              PIC X(1)
                                               VALUE SPACE.
               10  WK01-CODE-TITLE-4034-GA407       PIC X(35)
                                               VALUE SPACES.
               10  WK01-ACTVY-DATE-GA407-Z              PIC X(1)
                                               VALUE SPACE.
               10  WK01-ACTVY-DATE-GA407-F              PIC X(1)
                                               VALUE SPACE.
               10  WK01-ACTVY-DATE-GA407-A              PIC X(1)
                                               VALUE SPACE.
               10  WK01-ACTVY-DATE-GA407-V              PIC X(1)
                                               VALUE SPACE.
               10  WK01-ACTVY-DATE-GA407-O              PIC X(1)
                                               VALUE SPACE.
               10  WK01-ACTVY-DATE-GA407       PIC X(6)
                                               VALUE SPACES.
               10  WK01-STAMP-GA407-Z              PIC X(1)
                                               VALUE SPACE.
               10  WK01-STAMP-GA407-F              PIC X(1)
                                               VALUE SPACE.
               10  WK01-STAMP-GA407-A              PIC X(1)
                                               VALUE SPACE.
               10  WK01-STAMP-GA407-V              PIC X(1)
                                               VALUE SPACE.
               10  WK01-STAMP-GA407-O              PIC X(1)
                                               VALUE SPACE.
               10  WK01-STAMP-GA407       PIC X(4)
                                               VALUE SPACES.
               10  WK01-PM-FLAG-GA407-Z              PIC X(1)
                                               VALUE SPACE.
               10  WK01-PM-FLAG-GA407-F              PIC X(1)
                                               VALUE SPACE.
               10  WK01-PM-FLAG-GA407-A              PIC X(1)
                                               VALUE SPACE.
               10  WK01-PM-FLAG-GA407-V              PIC X(1)
                                               VALUE SPACE.
               10  WK01-PM-FLAG-GA407-O              PIC X(1)
                                               VALUE SPACE.
               10  WK01-PM-FLAG-GA407       PIC X(1)
                                               VALUE SPACES.
               10  WK01-CODE-GA4A8-Z              PIC X(1)
                                               VALUE SPACE.
               10  WK01-CODE-GA4A8-F              PIC X(1)
                                               VALUE SPACE.
               10  WK01-CODE-GA4A8-A              PIC X(1)
                                               VALUE SPACE.
               10  WK01-CODE-GA4A8-V              PIC X(1)
                                               VALUE SPACE.
               10  WK01-CODE-GA4A8-O              PIC X(1)
                                               VALUE SPACE.
               10  WK01-CODE-GA4A8       PIC X(1)
                                               VALUE SPACES.
               10  WK01-STATUS-GA408-Z              PIC X(1)
                                               VALUE SPACE.
               10  WK01-STATUS-GA408-F              PIC X(1)
                                               VALUE SPACE.
               10  WK01-STATUS-GA408-A              PIC X(1)
                                               VALUE SPACE.
               10  WK01-STATUS-GA408-V              PIC X(1)
                                               VALUE SPACE.
               10  WK01-STATUS-GA408-O              PIC X(1)
                                               VALUE SPACE.
               10  WK01-STATUS-GA408       PIC X(1)
                                               VALUE SPACES.
               10  WK01-CODE-GA408-Z              PIC X(1)
                                               VALUE SPACE.
               10  WK01-CODE-GA408-F              PIC X(1)
                                               VALUE SPACE.
               10  WK01-CODE-GA408-A              PIC X(1)
                                               VALUE SPACE.
               10  WK01-CODE-GA408-V              PIC X(1)
                                               VALUE SPACE.
               10  WK01-CODE-GA408-O              PIC X(1)
                                               VALUE SPACE.
               10  WK01-CODE-GA408       PIC X(6)
                                               VALUE SPACES.
               10  WK01-CODE-TITLE-4034-GA408-Z              PIC X(1)
                                               VALUE SPACE.
               10  WK01-CODE-TITLE-4034-GA408-F              PIC X(1)
                                               VALUE SPACE.
               10  WK01-CODE-TITLE-4034-GA408-A              PIC X(1)
                                               VALUE SPACE.
               10  WK01-CODE-TITLE-4034-GA408-V              PIC X(1)
                                               VALUE SPACE.
               10  WK01-CODE-TITLE-4034-GA408-O              PIC X(1)
                                               VALUE SPACE.
               10  WK01-CODE-TITLE-4034-GA408       PIC X(35)
                                               VALUE SPACES.
               10  WK01-ACTVY-DATE-GA408-Z              PIC X(1)
                                               VALUE SPACE.
               10  WK01-ACTVY-DATE-GA408-F              PIC X(1)
                                               VALUE SPACE.
               10  WK01-ACTVY-DATE-GA408-A              PIC X(1)
                                               VALUE SPACE.
               10  WK01-ACTVY-DATE-GA408-V              PIC X(1)
                                               VALUE SPACE.
               10  WK01-ACTVY-DATE-GA408-O              PIC X(1)
                                               VALUE SPACE.
               10  WK01-ACTVY-DATE-GA408       PIC X(6)
                                               VALUE SPACES.
               10  WK01-STAMP-GA408-Z              PIC X(1)
                                               VALUE SPACE.
               10  WK01-STAMP-GA408-F              PIC X(1)
                                               VALUE SPACE.
               10  WK01-STAMP-GA408-A              PIC X(1)
                                               VALUE SPACE.
               10  WK01-STAMP-GA408-V              PIC X(1)
                                               VALUE SPACE.
               10  WK01-STAMP-GA408-O              PIC X(1)
                                               VALUE SPACE.
               10  WK01-STAMP-GA408       PIC X(4)
                                               VALUE SPACES.
               10  WK01-PM-FLAG-GA408-Z              PIC X(1)
                                               VALUE SPACE.
               10  WK01-PM-FLAG-GA408-F              PIC X(1)
                                               VALUE SPACE.
               10  WK01-PM-FLAG-GA408-A              PIC X(1)
                                               VALUE SPACE.
               10  WK01-PM-FLAG-GA408-V              PIC X(1)
                                               VALUE SPACE.
               10  WK01-PM-FLAG-GA408-O              PIC X(1)
                                               VALUE SPACE.
               10  WK01-PM-FLAG-GA408       PIC X(1)
                                               VALUE SPACES.
               10  WK01-CODE-GA4A9-Z              PIC X(1)
                                               VALUE SPACE.
               10  WK01-CODE-GA4A9-F              PIC X(1)
                                               VALUE SPACE.
               10  WK01-CODE-GA4A9-A              PIC X(1)
                                               VALUE SPACE.
               10  WK01-CODE-GA4A9-V              PIC X(1)
                                               VALUE SPACE.
               10  WK01-CODE-GA4A9-O              PIC X(1)
                                               VALUE SPACE.
               10  WK01-CODE-GA4A9       PIC X(1)
                                               VALUE SPACES.
               10  WK01-STATUS-GA409-Z              PIC X(1)
                                               VALUE SPACE.
               10  WK01-STATUS-GA409-F              PIC X(1)
                                               VALUE SPACE.
               10  WK01-STATUS-GA409-A              PIC X(1)
                                               VALUE SPACE.
               10  WK01-STATUS-GA409-V              PIC X(1)
                                               VALUE SPACE.
               10  WK01-STATUS-GA409-O              PIC X(1)
                                               VALUE SPACE.
               10  WK01-STATUS-GA409       PIC X(1)
                                               VALUE SPACES.
               10  WK01-CODE-GA409-Z              PIC X(1)
                                               VALUE SPACE.
               10  WK01-CODE-GA409-F              PIC X(1)
                                               VALUE SPACE.
               10  WK01-CODE-GA409-A              PIC X(1)
                                               VALUE SPACE.
               10  WK01-CODE-GA409-V              PIC X(1)
                                               VALUE SPACE.
               10  WK01-CODE-GA409-O              PIC X(1)
                                               VALUE SPACE.
               10  WK01-CODE-GA409       PIC X(6)
                                               VALUE SPACES.
               10  WK01-CODE-TITLE-4034-GA409-Z              PIC X(1)
                                               VALUE SPACE.
               10  WK01-CODE-TITLE-4034-GA409-F              PIC X(1)
                                               VALUE SPACE.
               10  WK01-CODE-TITLE-4034-GA409-A              PIC X(1)
                                               VALUE SPACE.
               10  WK01-CODE-TITLE-4034-GA409-V              PIC X(1)
                                               VALUE SPACE.
               10  WK01-CODE-TITLE-4034-GA409-O              PIC X(1)
                                               VALUE SPACE.
               10  WK01-CODE-TITLE-4034-GA409       PIC X(35)
                                               VALUE SPACES.
               10  WK01-ACTVY-DATE-GA409-Z              PIC X(1)
                                               VALUE SPACE.
               10  WK01-ACTVY-DATE-GA409-F              PIC X(1)
                                               VALUE SPACE.
               10  WK01-ACTVY-DATE-GA409-A              PIC X(1)
                                               VALUE SPACE.
               10  WK01-ACTVY-DATE-GA409-V              PIC X(1)
                                               VALUE SPACE.
               10  WK01-ACTVY-DATE-GA409-O              PIC X(1)
                                               VALUE SPACE.
               10  WK01-ACTVY-DATE-GA409       PIC X(6)
                                               VALUE SPACES.
               10  WK01-STAMP-GA409-Z              PIC X(1)
                                               VALUE SPACE.
               10  WK01-STAMP-GA409-F              PIC X(1)
                                               VALUE SPACE.
               10  WK01-STAMP-GA409-A              PIC X(1)
                                               VALUE SPACE.
               10  WK01-STAMP-GA409-V              PIC X(1)
                                               VALUE SPACE.
               10  WK01-STAMP-GA409-O              PIC X(1)
                                               VALUE SPACE.
               10  WK01-STAMP-GA409       PIC X(4)
                                               VALUE SPACES.
               10  WK01-PM-FLAG-GA409-Z              PIC X(1)
                                               VALUE SPACE.
               10  WK01-PM-FLAG-GA409-F              PIC X(1)
                                               VALUE SPACE.
               10  WK01-PM-FLAG-GA409-A              PIC X(1)
                                               VALUE SPACE.
               10  WK01-PM-FLAG-GA409-V              PIC X(1)
                                               VALUE SPACE.
               10  WK01-PM-FLAG-GA409-O              PIC X(1)
                                               VALUE SPACE.
               10  WK01-PM-FLAG-GA409       PIC X(1)
                                               VALUE SPACES.
               10  WK01-CODE-GA4A10-Z              PIC X(1)
                                               VALUE SPACE.
               10  WK01-CODE-GA4A10-F              PIC X(1)
                                               VALUE SPACE.
               10  WK01-CODE-GA4A10-A              PIC X(1)
                                               VALUE SPACE.
               10  WK01-CODE-GA4A10-V              PIC X(1)
                                               VALUE SPACE.
               10  WK01-CODE-GA4A10-O              PIC X(1)
                                               VALUE SPACE.
               10  WK01-CODE-GA4A10       PIC X(1)
                                               VALUE SPACES.
               10  WK01-STATUS-GA4010-Z              PIC X(1)
                                               VALUE SPACE.
               10  WK01-STATUS-GA4010-F              PIC X(1)
                                               VALUE SPACE.
               10  WK01-STATUS-GA4010-A              PIC X(1)
                                               VALUE SPACE.
               10  WK01-STATUS-GA4010-V              PIC X(1)
                                               VALUE SPACE.
               10  WK01-STATUS-GA4010-O              PIC X(1)
                                               VALUE SPACE.
               10  WK01-STATUS-GA4010       PIC X(1)
                                               VALUE SPACES.
               10  WK01-CODE-GA4010-Z              PIC X(1)
                                               VALUE SPACE.
               10  WK01-CODE-GA4010-F              PIC X(1)
                                               VALUE SPACE.
               10  WK01-CODE-GA4010-A              PIC X(1)
                                               VALUE SPACE.
               10  WK01-CODE-GA4010-V              PIC X(1)
                                               VALUE SPACE.
               10  WK01-CODE-GA4010-O              PIC X(1)
                                               VALUE SPACE.
               10  WK01-CODE-GA4010       PIC X(6)
                                               VALUE SPACES.
               10  WK01-CODE-TITLE-4034-GA4010-Z              PIC X(1)
                                               VALUE SPACE.
               10  WK01-CODE-TITLE-4034-GA4010-F              PIC X(1)
                                               VALUE SPACE.
               10  WK01-CODE-TITLE-4034-GA4010-A              PIC X(1)
                                               VALUE SPACE.
               10  WK01-CODE-TITLE-4034-GA4010-V              PIC X(1)
                                               VALUE SPACE.
               10  WK01-CODE-TITLE-4034-GA4010-O              PIC X(1)
                                               VALUE SPACE.
               10  WK01-CODE-TITLE-4034-GA4010       PIC X(35)
                                               VALUE SPACES.
               10  WK01-ACTVY-DATE-GA4010-Z              PIC X(1)
                                               VALUE SPACE.
               10  WK01-ACTVY-DATE-GA4010-F              PIC X(1)
                                               VALUE SPACE.
               10  WK01-ACTVY-DATE-GA4010-A              PIC X(1)
                                               VALUE SPACE.
               10  WK01-ACTVY-DATE-GA4010-V              PIC X(1)
                                               VALUE SPACE.
               10  WK01-ACTVY-DATE-GA4010-O              PIC X(1)
                                               VALUE SPACE.
               10  WK01-ACTVY-DATE-GA4010       PIC X(6)
                                               VALUE SPACES.
               10  WK01-STAMP-GA4010-Z              PIC X(1)
                                               VALUE SPACE.
               10  WK01-STAMP-GA4010-F              PIC X(1)
                                               VALUE SPACE.
               10  WK01-STAMP-GA4010-A              PIC X(1)
                                               VALUE SPACE.
               10  WK01-STAMP-GA4010-V              PIC X(1)
                                               VALUE SPACE.
               10  WK01-STAMP-GA4010-O              PIC X(1)
                                               VALUE SPACE.
               10  WK01-STAMP-GA4010       PIC X(4)
                                               VALUE SPACES.
               10  WK01-PM-FLAG-GA4010-Z              PIC X(1)
                                               VALUE SPACE.
               10  WK01-PM-FLAG-GA4010-F              PIC X(1)
                                               VALUE SPACE.
               10  WK01-PM-FLAG-GA4010-A              PIC X(1)
                                               VALUE SPACE.
               10  WK01-PM-FLAG-GA4010-V              PIC X(1)
                                               VALUE SPACE.
               10  WK01-PM-FLAG-GA4010-O              PIC X(1)
                                               VALUE SPACE.
               10  WK01-PM-FLAG-GA4010       PIC X(1)
                                               VALUE SPACES.
               10  WK01-CODE-GA4A11-Z              PIC X(1)
                                               VALUE SPACE.
               10  WK01-CODE-GA4A11-F              PIC X(1)
                                               VALUE SPACE.
               10  WK01-CODE-GA4A11-A              PIC X(1)
                                               VALUE SPACE.
               10  WK01-CODE-GA4A11-V              PIC X(1)
                                               VALUE SPACE.
               10  WK01-CODE-GA4A11-O              PIC X(1)
                                               VALUE SPACE.
               10  WK01-CODE-GA4A11       PIC X(1)
                                               VALUE SPACES.
               10  WK01-STATUS-GA4011-Z              PIC X(1)
                                               VALUE SPACE.
               10  WK01-STATUS-GA4011-F              PIC X(1)
                                               VALUE SPACE.
               10  WK01-STATUS-GA4011-A              PIC X(1)
                                               VALUE SPACE.
               10  WK01-STATUS-GA4011-V              PIC X(1)
                                               VALUE SPACE.
               10  WK01-STATUS-GA4011-O              PIC X(1)
                                               VALUE SPACE.
               10  WK01-STATUS-GA4011       PIC X(1)
                                               VALUE SPACES.
               10  WK01-CODE-GA4011-Z              PIC X(1)
                                               VALUE SPACE.
               10  WK01-CODE-GA4011-F              PIC X(1)
                                               VALUE SPACE.
               10  WK01-CODE-GA4011-A              PIC X(1)
                                               VALUE SPACE.
               10  WK01-CODE-GA4011-V              PIC X(1)
                                               VALUE SPACE.
               10  WK01-CODE-GA4011-O              PIC X(1)
                                               VALUE SPACE.
               10  WK01-CODE-GA4011       PIC X(6)
                                               VALUE SPACES.
               10  WK01-CODE-TITLE-4034-GA4011-Z              PIC X(1)
                                               VALUE SPACE.
               10  WK01-CODE-TITLE-4034-GA4011-F              PIC X(1)
                                               VALUE SPACE.
               10  WK01-CODE-TITLE-4034-GA4011-A              PIC X(1)
                                               VALUE SPACE.
               10  WK01-CODE-TITLE-4034-GA4011-V              PIC X(1)
                                               VALUE SPACE.
               10  WK01-CODE-TITLE-4034-GA4011-O              PIC X(1)
                                               VALUE SPACE.
               10  WK01-CODE-TITLE-4034-GA4011       PIC X(35)
                                               VALUE SPACES.
               10  WK01-ACTVY-DATE-GA4011-Z              PIC X(1)
                                               VALUE SPACE.
               10  WK01-ACTVY-DATE-GA4011-F              PIC X(1)
                                               VALUE SPACE.
               10  WK01-ACTVY-DATE-GA4011-A              PIC X(1)
                                               VALUE SPACE.
               10  WK01-ACTVY-DATE-GA4011-V              PIC X(1)
                                               VALUE SPACE.
               10  WK01-ACTVY-DATE-GA4011-O              PIC X(1)
                                               VALUE SPACE.
               10  WK01-ACTVY-DATE-GA4011       PIC X(6)
                                               VALUE SPACES.
               10  WK01-STAMP-GA4011-Z              PIC X(1)
                                               VALUE SPACE.
               10  WK01-STAMP-GA4011-F              PIC X(1)
                                               VALUE SPACE.
               10  WK01-STAMP-GA4011-A              PIC X(1)
                                               VALUE SPACE.
               10  WK01-STAMP-GA4011-V              PIC X(1)
                                               VALUE SPACE.
               10  WK01-STAMP-GA4011-O              PIC X(1)
                                               VALUE SPACE.
               10  WK01-STAMP-GA4011       PIC X(4)
                                               VALUE SPACES.
               10  WK01-PM-FLAG-GA4011-Z              PIC X(1)
                                               VALUE SPACE.
               10  WK01-PM-FLAG-GA4011-F              PIC X(1)
                                               VALUE SPACE.
               10  WK01-PM-FLAG-GA4011-A              PIC X(1)
                                               VALUE SPACE.
               10  WK01-PM-FLAG-GA4011-V              PIC X(1)
                                               VALUE SPACE.
               10  WK01-PM-FLAG-GA4011-O              PIC X(1)
                                               VALUE SPACE.
               10  WK01-PM-FLAG-GA4011       PIC X(1)
                                               VALUE SPACES.
               10  WK01-ACCT-CODE-GA40-Z              PIC X(1)
                                               VALUE SPACE.
               10  WK01-ACCT-CODE-GA40-F              PIC X(1)
                                               VALUE SPACE.
               10  WK01-ACCT-CODE-GA40-A              PIC X(1)
                                               VALUE SPACE.
               10  WK01-ACCT-CODE-GA40-V              PIC X(1)
                                               VALUE SPACE.
               10  WK01-ACCT-CODE-GA40-O              PIC X(1)
                                               VALUE SPACE.
               10  WK01-ACCT-CODE-GA40       PIC X(6)
                                               VALUE SPACES.
               10  WK01-ZZMESSAGE-Z              PIC X(1)
                                               VALUE SPACE.
               10  WK01-ZZMESSAGE-F              PIC X(1)
                                               VALUE SPACE.
               10  WK01-ZZMESSAGE-A              PIC X(1)
                                               VALUE SPACE.
               10  WK01-ZZMESSAGE-V              PIC X(1)
                                               VALUE SPACE.
               10  WK01-ZZMESSAGE-O              PIC X(1)
                                               VALUE SPACE.
               10  WK01-ZZMESSAGE       PIC X(160)
                                               VALUE SPACES.
               10  WK01-PASSED-ONE-Z              PIC X(1)
                                               VALUE SPACE.
               10  WK01-PASSED-ONE-F              PIC X(1)
                                               VALUE SPACE.
               10  WK01-PASSED-ONE-A              PIC X(1)
                                               VALUE SPACE.
               10  WK01-PASSED-ONE-V              PIC X(1)
                                               VALUE SPACE.
               10  WK01-PASSED-ONE-O              PIC X(1)
                                               VALUE SPACE.
               10  WK01-PASSED-ONE       PIC X(32)
                                               VALUE SPACES.
               10  WK01-MAP-RESPONSE-Z              PIC X(1)
                                               VALUE SPACE.
               10  WK01-MAP-RESPONSE-F              PIC X(1)
                                               VALUE SPACE.
               10  WK01-MAP-RESPONSE-A              PIC X(1)
                                               VALUE SPACE.
               10  WK01-MAP-RESPONSE-V              PIC X(1)
                                               VALUE SPACE.
               10  WK01-MAP-RESPONSE-O              PIC X(1)
                                               VALUE SPACE.
               10  WK01-MAP-RESPONSE       PIC X(8)
                                               VALUE SPACES.
               10  WK01-TEXT-SY00-Z              PIC X(1)
                                               VALUE SPACE.
               10  WK01-TEXT-SY00-F              PIC X(1)
                                               VALUE SPACE.
               10  WK01-TEXT-SY00-A              PIC X(1)
                                               VALUE SPACE.
               10  WK01-TEXT-SY00-V              PIC X(1)
                                               VALUE SPACE.
               10  WK01-TEXT-SY00-O              PIC X(1)
                                               VALUE SPACE.
               10  WK01-TEXT-SY00       PIC X(14)
                                               VALUE SPACES.
           04  WK01-SUBSCRIPTED-WORK-AREA.
               05  FILLER                      PIC X(1).
               05  WK01-CODE-TITLE-4034-GA40-F             PIC X(1)
                                               OCCURS 11.
               05  WK01-STATUS-GA40-F             PIC X(1)
                                               OCCURS 11.
               05  WK01-CODE-GA40-F             PIC X(1)
                                               OCCURS 11.
               05  WK01-CODE-GA4A-F             PIC X(1)
                                               OCCURS 11.
               05  WK01-ACTVY-DATE-GA40-F             PIC X(1)
                                               OCCURS 11.
               05  WK01-STAMP-GA40-F             PIC X(1)
                                               OCCURS 11.
               05  WK01-PM-FLAG-GA40-F             PIC X(1)
                                               OCCURS 11.
