       01  MAP-CONTROL.

    ***Created by Convert/DC version V8R03 on 11/09/00 at 15:00***

           02  FGAMI31-MAP-CONTROL.
           03  FGAMI31T.
           04  WK01-DCXMAPL-PARMS.
               10  WK01-MAPNAME                  PIC X(8)
                                                 VALUE 'FGAMI31I'.
               10  WK01-IKE-LENGTH               PIC S9(8)  COMP
                                                 VALUE 18124.
               10  WK01-TINA-LENGTH              PIC S9(4)  COMP
                                                 VALUE 1203.
           05  WK01-ATTRIBUTES                   PIC X(60)
                                                 VALUE SPACE.
           05  WK01-ATTRIBUTES-ERROR             PIC X(60) VALUE
               'U  BIF'.
           05  WK01-CURSOR-DFLD                  PIC X(36)
                                                 VALUE SPACES.
           05  WK01-CURSOR-DFLD-QUAL             PIC X(30)
                                                 VALUE SPACES.
           05  WK01-ROW                          PIC S9(4) COMP
                                                 VALUE ZERO.
           05  WK01-COLUMN                       PIC S9(4) COMP
                                                 VALUE ZERO.
           05  WK01-ERROR-MSG                    PIC X(80)
                                                 VALUE SPACES.
           05  WK01-MAP-DATA-LEN                 PIC S9(6)
                                                 VALUE ZERO.
           05  WK01-1ST-FLAG                     PIC X(1)
                                                 VALUE 'Y'.
           05  WK01-FLAG-OUTPUT-DATA             PIC X(1)
                                                 VALUE 'Y'.
      *    05  WK01-STATUS-RETURN-FLAG           PIC X(1)
      *                                          VALUE SPACES.
           05  WK01-ALL-BUT-FLAG                 PIC X(1)
                                                 VALUE SPACES.
           05  WK01-FLAG-ALL-FIELDS-CHANGED      PIC X(1)  VALUE 'Y'.
           05  WK01-FLAG-ANY-FIELDS-CHANGED      PIC X(1)  VALUE 'N'.
           05  WK01-FLAG-ALL-FIELDS-ERROR        PIC X(1)  VALUE 'Y'.
           05  WK01-FLAG-ANY-FIELDS-ERROR        PIC X(1)  VALUE 'N'.
           05  WK01-FLAG-ALL-FIELDS-ERASE        PIC X(1)  VALUE 'Y'.
           05  WK01-FLAG-ANY-FIELDS-ERASE        PIC X(1)  VALUE 'Y'.

           05  WK01-VARDATA                      PIC X(11880)
                                                 VALUE SPACES.
           05  FILLER                            PIC X(100)
                                                 VALUE SPACES.
           04  WK01-ELEMENT-AREA.

               10  WK01-ID-SY00-Z              PIC X(1)
                                               VALUE SPACE.
               10  WK01-ID-SY00-F              PIC X(1)
                                               VALUE SPACE.
               10  WK01-ID-SY00-A              PIC X(1)
                                               VALUE SPACE.
               10  WK01-ID-SY00-V              PIC X(1)
                                               VALUE SPACE.
               10  WK01-ID-SY00-O              PIC X(1)
                                               VALUE SPACE.
               10  WK01-ID-SY00       PIC X(8)
                                               VALUE SPACES.
               10  WK01-NAME-6001-SY00-Z              PIC X(1)
                                               VALUE SPACE.
               10  WK01-NAME-6001-SY00-F              PIC X(1)
                                               VALUE SPACE.
               10  WK01-NAME-6001-SY00-A              PIC X(1)
                                               VALUE SPACE.
               10  WK01-NAME-6001-SY00-V              PIC X(1)
                                               VALUE SPACE.
               10  WK01-NAME-6001-SY00-O              PIC X(1)
                                               VALUE SPACE.
               10  WK01-NAME-6001-SY00       PIC X(35)
                                               VALUE SPACES.
               10  WK01-DATE-Z              PIC X(1)
                                               VALUE SPACE.
               10  WK01-DATE-F              PIC X(1)
                                               VALUE SPACE.
               10  WK01-DATE-A              PIC X(1)
                                               VALUE SPACE.
               10  WK01-DATE-V              PIC X(1)
                                               VALUE SPACE.
               10  WK01-DATE-O              PIC X(1)
                                               VALUE SPACE.
               10  WK01-DATE       PIC X(8)
                                               VALUE SPACES.
               10  WK01-HH-MM-TIME-SY00-Z              PIC X(1)
                                               VALUE SPACE.
               10  WK01-HH-MM-TIME-SY00-F              PIC X(1)
                                               VALUE SPACE.
               10  WK01-HH-MM-TIME-SY00-A              PIC X(1)
                                               VALUE SPACE.
               10  WK01-HH-MM-TIME-SY00-V              PIC X(1)
                                               VALUE SPACE.
               10  WK01-HH-MM-TIME-SY00-O              PIC X(1)
                                               VALUE SPACE.
               10  WK01-HH-MM-TIME-SY00       PIC X(4)
                                               VALUE SPACES.
               10  WK01-PM-FLAG-SY00-Z              PIC X(1)
                                               VALUE SPACE.
               10  WK01-PM-FLAG-SY00-F              PIC X(1)
                                               VALUE SPACE.
               10  WK01-PM-FLAG-SY00-A              PIC X(1)
                                               VALUE SPACE.
               10  WK01-PM-FLAG-SY00-V              PIC X(1)
                                               VALUE SPACE.
               10  WK01-PM-FLAG-SY00-O              PIC X(1)
                                               VALUE SPACE.
               10  WK01-PM-FLAG-SY00       PIC X(1)
                                               VALUE SPACES.
               10  WK01-USER-ID-Z              PIC X(1)
                                               VALUE SPACE.
               10  WK01-USER-ID-F              PIC X(1)
                                               VALUE SPACE.
               10  WK01-USER-ID-A              PIC X(1)
                                               VALUE SPACE.
               10  WK01-USER-ID-V              PIC X(1)
                                               VALUE SPACE.
               10  WK01-USER-ID-O              PIC X(1)
                                               VALUE SPACE.
               10  WK01-USER-ID       PIC X(32)
                                               VALUE SPACES.
               10  WK01-RSPNS-ID-SY00-Z              PIC X(1)
                                               VALUE SPACE.
               10  WK01-RSPNS-ID-SY00-F              PIC X(1)
                                               VALUE SPACE.
               10  WK01-RSPNS-ID-SY00-A              PIC X(1)
                                               VALUE SPACE.
               10  WK01-RSPNS-ID-SY00-V              PIC X(1)
                                               VALUE SPACE.
               10  WK01-RSPNS-ID-SY00-O              PIC X(1)
                                               VALUE SPACE.
               10  WK01-RSPNS-ID-SY00       PIC X(8)
                                               VALUE SPACES.
               10  WK01-FUNC-DESCRIPTION-Z              PIC X(1)
                                               VALUE SPACE.
               10  WK01-FUNC-DESCRIPTION-F              PIC X(1)
                                               VALUE SPACE.
               10  WK01-FUNC-DESCRIPTION-A              PIC X(1)
                                               VALUE SPACE.
               10  WK01-FUNC-DESCRIPTION-V              PIC X(1)
                                               VALUE SPACE.
               10  WK01-FUNC-DESCRIPTION-O              PIC X(1)
                                               VALUE SPACE.
               10  WK01-FUNC-DESCRIPTION       PIC X(28)
                                               VALUE SPACES.
               10  WK01-STATUS-CODE-SY00-Z              PIC X(1)
                                               VALUE SPACE.
               10  WK01-STATUS-CODE-SY00-F              PIC X(1)
                                               VALUE SPACE.
               10  WK01-STATUS-CODE-SY00-A              PIC X(1)
                                               VALUE SPACE.
               10  WK01-STATUS-CODE-SY00-V              PIC X(1)
                                               VALUE SPACE.
               10  WK01-STATUS-CODE-SY00-O              PIC X(1)
                                               VALUE SPACE.
               10  WK01-STATUS-CODE-SY00       PIC X(1)
                                               VALUE SPACES.
               10  WK01-CODE-GA311-Z              PIC X(1)
                                               VALUE SPACE.
               10  WK01-CODE-GA311-F              PIC X(1)
                                               VALUE SPACE.
               10  WK01-CODE-GA311-A              PIC X(1)
                                               VALUE SPACE.
               10  WK01-CODE-GA311-V              PIC X(1)
                                               VALUE SPACE.
               10  WK01-CODE-GA311-O              PIC X(1)
                                               VALUE SPACE.
               10  WK01-CODE-GA311       PIC X(1)
                                               VALUE SPACES.
               10  WK01-NMBR-GA311-Z              PIC X(1)
                                               VALUE SPACE.
               10  WK01-NMBR-GA311-F              PIC X(1)
                                               VALUE SPACE.
               10  WK01-NMBR-GA311-A              PIC X(1)
                                               VALUE SPACE.
               10  WK01-NMBR-GA311-V              PIC X(1)
                                               VALUE SPACE.
               10  WK01-NMBR-GA311-O              PIC X(1)
                                               VALUE SPACE.
               10  WK01-NMBR-GA311       PIC X(8)
                                               VALUE SPACES.
               10  WK01-AMT-GA311-Z              PIC X(1)
                                               VALUE SPACE.
               10  WK01-AMT-GA311-F              PIC X(1)
                                               VALUE SPACE.
               10  WK01-AMT-GA311-A              PIC X(1)
                                               VALUE SPACE.
               10  WK01-AMT-GA311-V              PIC X(1)
                                               VALUE SPACE.
               10  WK01-AMT-GA311-O              PIC X(1)
                                               VALUE SPACE.
               10  WK01-AMT-GA311       PIC S9(10)V9(2)
                                               VALUE ZEROS.
               10  WK01-DATE-GA311-Z              PIC X(1)
                                               VALUE SPACE.
               10  WK01-DATE-GA311-F              PIC X(1)
                                               VALUE SPACE.
               10  WK01-DATE-GA311-A              PIC X(1)
                                               VALUE SPACE.
               10  WK01-DATE-GA311-V              PIC X(1)
                                               VALUE SPACE.
               10  WK01-DATE-GA311-O              PIC X(1)
                                               VALUE SPACE.
               10  WK01-DATE-GA311       PIC S9(8)
                                               VALUE ZEROS.
               10  WK01-STATUS-IND-GA311-Z              PIC X(1)
                                               VALUE SPACE.
               10  WK01-STATUS-IND-GA311-F              PIC X(1)
                                               VALUE SPACE.
               10  WK01-STATUS-IND-GA311-A              PIC X(1)
                                               VALUE SPACE.
               10  WK01-STATUS-IND-GA311-V              PIC X(1)
                                               VALUE SPACE.
               10  WK01-STATUS-IND-GA311-O              PIC X(1)
                                               VALUE SPACE.
               10  WK01-STATUS-IND-GA311       PIC X(1)
                                               VALUE SPACES.
               10  WK01-STATUS-GA311-Z              PIC X(1)
                                               VALUE SPACE.
               10  WK01-STATUS-GA311-F              PIC X(1)
                                               VALUE SPACE.
               10  WK01-STATUS-GA311-A              PIC X(1)
                                               VALUE SPACE.
               10  WK01-STATUS-GA311-V              PIC X(1)
                                               VALUE SPACE.
               10  WK01-STATUS-GA311-O              PIC X(1)
                                               VALUE SPACE.
               10  WK01-STATUS-GA311       PIC X(10)
                                               VALUE SPACES.
               10  WK01-STATUS-IND-GA3A1-Z              PIC X(1)
                                               VALUE SPACE.
               10  WK01-STATUS-IND-GA3A1-F              PIC X(1)
                                               VALUE SPACE.
               10  WK01-STATUS-IND-GA3A1-A              PIC X(1)
                                               VALUE SPACE.
               10  WK01-STATUS-IND-GA3A1-V              PIC X(1)
                                               VALUE SPACE.
               10  WK01-STATUS-IND-GA3A1-O              PIC X(1)
                                               VALUE SPACE.
               10  WK01-STATUS-IND-GA3A1       PIC X(1)
                                               VALUE SPACES.
               10  WK01-STATUS-GA3A1-Z              PIC X(1)
                                               VALUE SPACE.
               10  WK01-STATUS-GA3A1-F              PIC X(1)
                                               VALUE SPACE.
               10  WK01-STATUS-GA3A1-A              PIC X(1)
                                               VALUE SPACE.
               10  WK01-STATUS-GA3A1-V              PIC X(1)
                                               VALUE SPACE.
               10  WK01-STATUS-GA3A1-O              PIC X(1)
                                               VALUE SPACE.
               10  WK01-STATUS-GA3A1       PIC X(10)
                                               VALUE SPACES.
               10  WK01-DESC-GA311-Z              PIC X(1)
                                               VALUE SPACE.
               10  WK01-DESC-GA311-F              PIC X(1)
                                               VALUE SPACE.
               10  WK01-DESC-GA311-A              PIC X(1)
                                               VALUE SPACE.
               10  WK01-DESC-GA311-V              PIC X(1)
                                               VALUE SPACE.
               10  WK01-DESC-GA311-O              PIC X(1)
                                               VALUE SPACE.
               10  WK01-DESC-GA311       PIC X(35)
                                               VALUE SPACES.
               10  WK01-CODE-GA312-Z              PIC X(1)
                                               VALUE SPACE.
               10  WK01-CODE-GA312-F              PIC X(1)
                                               VALUE SPACE.
               10  WK01-CODE-GA312-A              PIC X(1)
                                               VALUE SPACE.
               10  WK01-CODE-GA312-V              PIC X(1)
                                               VALUE SPACE.
               10  WK01-CODE-GA312-O              PIC X(1)
                                               VALUE SPACE.
               10  WK01-CODE-GA312       PIC X(1)
                                               VALUE SPACES.
               10  WK01-NMBR-GA312-Z              PIC X(1)
                                               VALUE SPACE.
               10  WK01-NMBR-GA312-F              PIC X(1)
                                               VALUE SPACE.
               10  WK01-NMBR-GA312-A              PIC X(1)
                                               VALUE SPACE.
               10  WK01-NMBR-GA312-V              PIC X(1)
                                               VALUE SPACE.
               10  WK01-NMBR-GA312-O              PIC X(1)
                                               VALUE SPACE.
               10  WK01-NMBR-GA312       PIC X(8)
                                               VALUE SPACES.
               10  WK01-AMT-GA312-Z              PIC X(1)
                                               VALUE SPACE.
               10  WK01-AMT-GA312-F              PIC X(1)
                                               VALUE SPACE.
               10  WK01-AMT-GA312-A              PIC X(1)
                                               VALUE SPACE.
               10  WK01-AMT-GA312-V              PIC X(1)
                                               VALUE SPACE.
               10  WK01-AMT-GA312-O              PIC X(1)
                                               VALUE SPACE.
               10  WK01-AMT-GA312       PIC S9(10)V9(2)
                                               VALUE ZEROS.
               10  WK01-DATE-GA312-Z              PIC X(1)
                                               VALUE SPACE.
               10  WK01-DATE-GA312-F              PIC X(1)
                                               VALUE SPACE.
               10  WK01-DATE-GA312-A              PIC X(1)
                                               VALUE SPACE.
               10  WK01-DATE-GA312-V              PIC X(1)
                                               VALUE SPACE.
               10  WK01-DATE-GA312-O              PIC X(1)
                                               VALUE SPACE.
               10  WK01-DATE-GA312       PIC S9(8)
                                               VALUE ZEROS.
               10  WK01-STATUS-IND-GA312-Z              PIC X(1)
                                               VALUE SPACE.
               10  WK01-STATUS-IND-GA312-F              PIC X(1)
                                               VALUE SPACE.
               10  WK01-STATUS-IND-GA312-A              PIC X(1)
                                               VALUE SPACE.
               10  WK01-STATUS-IND-GA312-V              PIC X(1)
                                               VALUE SPACE.
               10  WK01-STATUS-IND-GA312-O              PIC X(1)
                                               VALUE SPACE.
               10  WK01-STATUS-IND-GA312       PIC X(1)
                                               VALUE SPACES.
               10  WK01-STATUS-GA312-Z              PIC X(1)
                                               VALUE SPACE.
               10  WK01-STATUS-GA312-F              PIC X(1)
                                               VALUE SPACE.
               10  WK01-STATUS-GA312-A              PIC X(1)
                                               VALUE SPACE.
               10  WK01-STATUS-GA312-V              PIC X(1)
                                               VALUE SPACE.
               10  WK01-STATUS-GA312-O              PIC X(1)
                                               VALUE SPACE.
               10  WK01-STATUS-GA312       PIC X(10)
                                               VALUE SPACES.
               10  WK01-STATUS-IND-GA3A2-Z              PIC X(1)
                                               VALUE SPACE.
               10  WK01-STATUS-IND-GA3A2-F              PIC X(1)
                                               VALUE SPACE.
               10  WK01-STATUS-IND-GA3A2-A              PIC X(1)
                                               VALUE SPACE.
               10  WK01-STATUS-IND-GA3A2-V              PIC X(1)
                                               VALUE SPACE.
               10  WK01-STATUS-IND-GA3A2-O              PIC X(1)
                                               VALUE SPACE.
               10  WK01-STATUS-IND-GA3A2       PIC X(1)
                                               VALUE SPACES.
               10  WK01-STATUS-GA3A2-Z              PIC X(1)
                                               VALUE SPACE.
               10  WK01-STATUS-GA3A2-F              PIC X(1)
                                               VALUE SPACE.
               10  WK01-STATUS-GA3A2-A              PIC X(1)
                                               VALUE SPACE.
               10  WK01-STATUS-GA3A2-V              PIC X(1)
                                               VALUE SPACE.
               10  WK01-STATUS-GA3A2-O              PIC X(1)
                                               VALUE SPACE.
               10  WK01-STATUS-GA3A2       PIC X(10)
                                               VALUE SPACES.
               10  WK01-DESC-GA312-Z              PIC X(1)
                                               VALUE SPACE.
               10  WK01-DESC-GA312-F              PIC X(1)
                                               VALUE SPACE.
               10  WK01-DESC-GA312-A              PIC X(1)
                                               VALUE SPACE.
               10  WK01-DESC-GA312-V              PIC X(1)
                                               VALUE SPACE.
               10  WK01-DESC-GA312-O              PIC X(1)
                                               VALUE SPACE.
               10  WK01-DESC-GA312       PIC X(35)
                                               VALUE SPACES.
               10  WK01-CODE-GA313-Z              PIC X(1)
                                               VALUE SPACE.
               10  WK01-CODE-GA313-F              PIC X(1)
                                               VALUE SPACE.
               10  WK01-CODE-GA313-A              PIC X(1)
                                               VALUE SPACE.
               10  WK01-CODE-GA313-V              PIC X(1)
                                               VALUE SPACE.
               10  WK01-CODE-GA313-O              PIC X(1)
                                               VALUE SPACE.
               10  WK01-CODE-GA313       PIC X(1)
                                               VALUE SPACES.
               10  WK01-NMBR-GA313-Z              PIC X(1)
                                               VALUE SPACE.
               10  WK01-NMBR-GA313-F              PIC X(1)
                                               VALUE SPACE.
               10  WK01-NMBR-GA313-A              PIC X(1)
                                               VALUE SPACE.
               10  WK01-NMBR-GA313-V              PIC X(1)
                                               VALUE SPACE.
               10  WK01-NMBR-GA313-O              PIC X(1)
                                               VALUE SPACE.
               10  WK01-NMBR-GA313       PIC X(8)
                                               VALUE SPACES.
               10  WK01-AMT-GA313-Z              PIC X(1)
                                               VALUE SPACE.
               10  WK01-AMT-GA313-F              PIC X(1)
                                               VALUE SPACE.
               10  WK01-AMT-GA313-A              PIC X(1)
                                               VALUE SPACE.
               10  WK01-AMT-GA313-V              PIC X(1)
                                               VALUE SPACE.
               10  WK01-AMT-GA313-O              PIC X(1)
                                               VALUE SPACE.
               10  WK01-AMT-GA313       PIC S9(10)V9(2)
                                               VALUE ZEROS.
               10  WK01-DATE-GA313-Z              PIC X(1)
                                               VALUE SPACE.
               10  WK01-DATE-GA313-F              PIC X(1)
                                               VALUE SPACE.
               10  WK01-DATE-GA313-A              PIC X(1)
                                               VALUE SPACE.
               10  WK01-DATE-GA313-V              PIC X(1)
                                               VALUE SPACE.
               10  WK01-DATE-GA313-O              PIC X(1)
                                               VALUE SPACE.
               10  WK01-DATE-GA313       PIC S9(8)
                                               VALUE ZEROS.
               10  WK01-STATUS-IND-GA313-Z              PIC X(1)
                                               VALUE SPACE.
               10  WK01-STATUS-IND-GA313-F              PIC X(1)
                                               VALUE SPACE.
               10  WK01-STATUS-IND-GA313-A              PIC X(1)
                                               VALUE SPACE.
               10  WK01-STATUS-IND-GA313-V              PIC X(1)
                                               VALUE SPACE.
               10  WK01-STATUS-IND-GA313-O              PIC X(1)
                                               VALUE SPACE.
               10  WK01-STATUS-IND-GA313       PIC X(1)
                                               VALUE SPACES.
               10  WK01-STATUS-GA313-Z              PIC X(1)
                                               VALUE SPACE.
               10  WK01-STATUS-GA313-F              PIC X(1)
                                               VALUE SPACE.
               10  WK01-STATUS-GA313-A              PIC X(1)
                                               VALUE SPACE.
               10  WK01-STATUS-GA313-V              PIC X(1)
                                               VALUE SPACE.
               10  WK01-STATUS-GA313-O              PIC X(1)
                                               VALUE SPACE.
               10  WK01-STATUS-GA313       PIC X(10)
                                               VALUE SPACES.
               10  WK01-STATUS-IND-GA3A3-Z              PIC X(1)
                                               VALUE SPACE.
               10  WK01-STATUS-IND-GA3A3-F              PIC X(1)
                                               VALUE SPACE.
               10  WK01-STATUS-IND-GA3A3-A              PIC X(1)
                                               VALUE SPACE.
               10  WK01-STATUS-IND-GA3A3-V              PIC X(1)
                                               VALUE SPACE.
               10  WK01-STATUS-IND-GA3A3-O              PIC X(1)
                                               VALUE SPACE.
               10  WK01-STATUS-IND-GA3A3       PIC X(1)
                                               VALUE SPACES.
               10  WK01-STATUS-GA3A3-Z              PIC X(1)
                                               VALUE SPACE.
               10  WK01-STATUS-GA3A3-F              PIC X(1)
                                               VALUE SPACE.
               10  WK01-STATUS-GA3A3-A              PIC X(1)
                                               VALUE SPACE.
               10  WK01-STATUS-GA3A3-V              PIC X(1)
                                               VALUE SPACE.
               10  WK01-STATUS-GA3A3-O              PIC X(1)
                                               VALUE SPACE.
               10  WK01-STATUS-GA3A3       PIC X(10)
                                               VALUE SPACES.
               10  WK01-DESC-GA313-Z              PIC X(1)
                                               VALUE SPACE.
               10  WK01-DESC-GA313-F              PIC X(1)
                                               VALUE SPACE.
               10  WK01-DESC-GA313-A              PIC X(1)
                                               VALUE SPACE.
               10  WK01-DESC-GA313-V              PIC X(1)
                                               VALUE SPACE.
               10  WK01-DESC-GA313-O              PIC X(1)
                                               VALUE SPACE.
               10  WK01-DESC-GA313       PIC X(35)
                                               VALUE SPACES.
               10  WK01-CODE-GA314-Z              PIC X(1)
                                               VALUE SPACE.
               10  WK01-CODE-GA314-F              PIC X(1)
                                               VALUE SPACE.
               10  WK01-CODE-GA314-A              PIC X(1)
                                               VALUE SPACE.
               10  WK01-CODE-GA314-V              PIC X(1)
                                               VALUE SPACE.
               10  WK01-CODE-GA314-O              PIC X(1)
                                               VALUE SPACE.
               10  WK01-CODE-GA314       PIC X(1)
                                               VALUE SPACES.
               10  WK01-NMBR-GA314-Z              PIC X(1)
                                               VALUE SPACE.
               10  WK01-NMBR-GA314-F              PIC X(1)
                                               VALUE SPACE.
               10  WK01-NMBR-GA314-A              PIC X(1)
                                               VALUE SPACE.
               10  WK01-NMBR-GA314-V              PIC X(1)
                                               VALUE SPACE.
               10  WK01-NMBR-GA314-O              PIC X(1)
                                               VALUE SPACE.
               10  WK01-NMBR-GA314       PIC X(8)
                                               VALUE SPACES.
               10  WK01-AMT-GA314-Z              PIC X(1)
                                               VALUE SPACE.
               10  WK01-AMT-GA314-F              PIC X(1)
                                               VALUE SPACE.
               10  WK01-AMT-GA314-A              PIC X(1)
                                               VALUE SPACE.
               10  WK01-AMT-GA314-V              PIC X(1)
                                               VALUE SPACE.
               10  WK01-AMT-GA314-O              PIC X(1)
                                               VALUE SPACE.
               10  WK01-AMT-GA314       PIC S9(10)V9(2)
                                               VALUE ZEROS.
               10  WK01-DATE-GA314-Z              PIC X(1)
                                               VALUE SPACE.
               10  WK01-DATE-GA314-F              PIC X(1)
                                               VALUE SPACE.
               10  WK01-DATE-GA314-A              PIC X(1)
                                               VALUE SPACE.
               10  WK01-DATE-GA314-V              PIC X(1)
                                               VALUE SPACE.
               10  WK01-DATE-GA314-O              PIC X(1)
                                               VALUE SPACE.
               10  WK01-DATE-GA314       PIC S9(8)
                                               VALUE ZEROS.
               10  WK01-STATUS-IND-GA314-Z              PIC X(1)
                                               VALUE SPACE.
               10  WK01-STATUS-IND-GA314-F              PIC X(1)
                                               VALUE SPACE.
               10  WK01-STATUS-IND-GA314-A              PIC X(1)
                                               VALUE SPACE.
               10  WK01-STATUS-IND-GA314-V              PIC X(1)
                                               VALUE SPACE.
               10  WK01-STATUS-IND-GA314-O              PIC X(1)
                                               VALUE SPACE.
               10  WK01-STATUS-IND-GA314       PIC X(1)
                                               VALUE SPACES.
               10  WK01-STATUS-GA314-Z              PIC X(1)
                                               VALUE SPACE.
               10  WK01-STATUS-GA314-F              PIC X(1)
                                               VALUE SPACE.
               10  WK01-STATUS-GA314-A              PIC X(1)
                                               VALUE SPACE.
               10  WK01-STATUS-GA314-V              PIC X(1)
                                               VALUE SPACE.
               10  WK01-STATUS-GA314-O              PIC X(1)
                                               VALUE SPACE.
               10  WK01-STATUS-GA314       PIC X(10)
                                               VALUE SPACES.
               10  WK01-STATUS-IND-GA3A4-Z              PIC X(1)
                                               VALUE SPACE.
               10  WK01-STATUS-IND-GA3A4-F              PIC X(1)
                                               VALUE SPACE.
               10  WK01-STATUS-IND-GA3A4-A              PIC X(1)
                                               VALUE SPACE.
               10  WK01-STATUS-IND-GA3A4-V              PIC X(1)
                                               VALUE SPACE.
               10  WK01-STATUS-IND-GA3A4-O              PIC X(1)
                                               VALUE SPACE.
               10  WK01-STATUS-IND-GA3A4       PIC X(1)
                                               VALUE SPACES.
               10  WK01-STATUS-GA3A4-Z              PIC X(1)
                                               VALUE SPACE.
               10  WK01-STATUS-GA3A4-F              PIC X(1)
                                               VALUE SPACE.
               10  WK01-STATUS-GA3A4-A              PIC X(1)
                                               VALUE SPACE.
               10  WK01-STATUS-GA3A4-V              PIC X(1)
                                               VALUE SPACE.
               10  WK01-STATUS-GA3A4-O              PIC X(1)
                                               VALUE SPACE.
               10  WK01-STATUS-GA3A4       PIC X(10)
                                               VALUE SPACES.
               10  WK01-DESC-GA314-Z              PIC X(1)
                                               VALUE SPACE.
               10  WK01-DESC-GA314-F              PIC X(1)
                                               VALUE SPACE.
               10  WK01-DESC-GA314-A              PIC X(1)
                                               VALUE SPACE.
               10  WK01-DESC-GA314-V              PIC X(1)
                                               VALUE SPACE.
               10  WK01-DESC-GA314-O              PIC X(1)
                                               VALUE SPACE.
               10  WK01-DESC-GA314       PIC X(35)
                                               VALUE SPACES.
               10  WK01-CODE-GA315-Z              PIC X(1)
                                               VALUE SPACE.
               10  WK01-CODE-GA315-F              PIC X(1)
                                               VALUE SPACE.
               10  WK01-CODE-GA315-A              PIC X(1)
                                               VALUE SPACE.
               10  WK01-CODE-GA315-V              PIC X(1)
                                               VALUE SPACE.
               10  WK01-CODE-GA315-O              PIC X(1)
                                               VALUE SPACE.
               10  WK01-CODE-GA315       PIC X(1)
                                               VALUE SPACES.
               10  WK01-NMBR-GA315-Z              PIC X(1)
                                               VALUE SPACE.
               10  WK01-NMBR-GA315-F              PIC X(1)
                                               VALUE SPACE.
               10  WK01-NMBR-GA315-A              PIC X(1)
                                               VALUE SPACE.
               10  WK01-NMBR-GA315-V              PIC X(1)
                                               VALUE SPACE.
               10  WK01-NMBR-GA315-O              PIC X(1)
                                               VALUE SPACE.
               10  WK01-NMBR-GA315       PIC X(8)
                                               VALUE SPACES.
               10  WK01-AMT-GA315-Z              PIC X(1)
                                               VALUE SPACE.
               10  WK01-AMT-GA315-F              PIC X(1)
                                               VALUE SPACE.
               10  WK01-AMT-GA315-A              PIC X(1)
                                               VALUE SPACE.
               10  WK01-AMT-GA315-V              PIC X(1)
                                               VALUE SPACE.
               10  WK01-AMT-GA315-O              PIC X(1)
                                               VALUE SPACE.
               10  WK01-AMT-GA315       PIC S9(10)V9(2)
                                               VALUE ZEROS.
               10  WK01-DATE-GA315-Z              PIC X(1)
                                               VALUE SPACE.
               10  WK01-DATE-GA315-F              PIC X(1)
                                               VALUE SPACE.
               10  WK01-DATE-GA315-A              PIC X(1)
                                               VALUE SPACE.
               10  WK01-DATE-GA315-V              PIC X(1)
                                               VALUE SPACE.
               10  WK01-DATE-GA315-O              PIC X(1)
                                               VALUE SPACE.
               10  WK01-DATE-GA315       PIC S9(8)
                                               VALUE ZEROS.
               10  WK01-STATUS-IND-GA315-Z              PIC X(1)
                                               VALUE SPACE.
               10  WK01-STATUS-IND-GA315-F              PIC X(1)
                                               VALUE SPACE.
               10  WK01-STATUS-IND-GA315-A              PIC X(1)
                                               VALUE SPACE.
               10  WK01-STATUS-IND-GA315-V              PIC X(1)
                                               VALUE SPACE.
               10  WK01-STATUS-IND-GA315-O              PIC X(1)
                                               VALUE SPACE.
               10  WK01-STATUS-IND-GA315       PIC X(1)
                                               VALUE SPACES.
               10  WK01-STATUS-GA315-Z              PIC X(1)
                                               VALUE SPACE.
               10  WK01-STATUS-GA315-F              PIC X(1)
                                               VALUE SPACE.
               10  WK01-STATUS-GA315-A              PIC X(1)
                                               VALUE SPACE.
               10  WK01-STATUS-GA315-V              PIC X(1)
                                               VALUE SPACE.
               10  WK01-STATUS-GA315-O              PIC X(1)
                                               VALUE SPACE.
               10  WK01-STATUS-GA315       PIC X(10)
                                               VALUE SPACES.
               10  WK01-STATUS-IND-GA3A5-Z              PIC X(1)
                                               VALUE SPACE.
               10  WK01-STATUS-IND-GA3A5-F              PIC X(1)
                                               VALUE SPACE.
               10  WK01-STATUS-IND-GA3A5-A              PIC X(1)
                                               VALUE SPACE.
               10  WK01-STATUS-IND-GA3A5-V              PIC X(1)
                                               VALUE SPACE.
               10  WK01-STATUS-IND-GA3A5-O              PIC X(1)
                                               VALUE SPACE.
               10  WK01-STATUS-IND-GA3A5       PIC X(1)
                                               VALUE SPACES.
               10  WK01-STATUS-GA3A5-Z              PIC X(1)
                                               VALUE SPACE.
               10  WK01-STATUS-GA3A5-F              PIC X(1)
                                               VALUE SPACE.
               10  WK01-STATUS-GA3A5-A              PIC X(1)
                                               VALUE SPACE.
               10  WK01-STATUS-GA3A5-V              PIC X(1)
                                               VALUE SPACE.
               10  WK01-STATUS-GA3A5-O              PIC X(1)
                                               VALUE SPACE.
               10  WK01-STATUS-GA3A5       PIC X(10)
                                               VALUE SPACES.
               10  WK01-DESC-GA315-Z              PIC X(1)
                                               VALUE SPACE.
               10  WK01-DESC-GA315-F              PIC X(1)
                                               VALUE SPACE.
               10  WK01-DESC-GA315-A              PIC X(1)
                                               VALUE SPACE.
               10  WK01-DESC-GA315-V              PIC X(1)
                                               VALUE SPACE.
               10  WK01-DESC-GA315-O              PIC X(1)
                                               VALUE SPACE.
               10  WK01-DESC-GA315       PIC X(35)
                                               VALUE SPACES.
               10  WK01-CODE-GA316-Z              PIC X(1)
                                               VALUE SPACE.
               10  WK01-CODE-GA316-F              PIC X(1)
                                               VALUE SPACE.
               10  WK01-CODE-GA316-A              PIC X(1)
                                               VALUE SPACE.
               10  WK01-CODE-GA316-V              PIC X(1)
                                               VALUE SPACE.
               10  WK01-CODE-GA316-O              PIC X(1)
                                               VALUE SPACE.
               10  WK01-CODE-GA316       PIC X(1)
                                               VALUE SPACES.
               10  WK01-NMBR-GA316-Z              PIC X(1)
                                               VALUE SPACE.
               10  WK01-NMBR-GA316-F              PIC X(1)
                                               VALUE SPACE.
               10  WK01-NMBR-GA316-A              PIC X(1)
                                               VALUE SPACE.
               10  WK01-NMBR-GA316-V              PIC X(1)
                                               VALUE SPACE.
               10  WK01-NMBR-GA316-O              PIC X(1)
                                               VALUE SPACE.
               10  WK01-NMBR-GA316       PIC X(8)
                                               VALUE SPACES.
               10  WK01-AMT-GA316-Z              PIC X(1)
                                               VALUE SPACE.
               10  WK01-AMT-GA316-F              PIC X(1)
                                               VALUE SPACE.
               10  WK01-AMT-GA316-A              PIC X(1)
                                               VALUE SPACE.
               10  WK01-AMT-GA316-V              PIC X(1)
                                               VALUE SPACE.
               10  WK01-AMT-GA316-O              PIC X(1)
                                               VALUE SPACE.
               10  WK01-AMT-GA316       PIC S9(10)V9(2)
                                               VALUE ZEROS.
               10  WK01-DATE-GA316-Z              PIC X(1)
                                               VALUE SPACE.
               10  WK01-DATE-GA316-F              PIC X(1)
                                               VALUE SPACE.
               10  WK01-DATE-GA316-A              PIC X(1)
                                               VALUE SPACE.
               10  WK01-DATE-GA316-V              PIC X(1)
                                               VALUE SPACE.
               10  WK01-DATE-GA316-O              PIC X(1)
                                               VALUE SPACE.
               10  WK01-DATE-GA316       PIC S9(8)
                                               VALUE ZEROS.
               10  WK01-STATUS-IND-GA316-Z              PIC X(1)
                                               VALUE SPACE.
               10  WK01-STATUS-IND-GA316-F              PIC X(1)
                                               VALUE SPACE.
               10  WK01-STATUS-IND-GA316-A              PIC X(1)
                                               VALUE SPACE.
               10  WK01-STATUS-IND-GA316-V              PIC X(1)
                                               VALUE SPACE.
               10  WK01-STATUS-IND-GA316-O              PIC X(1)
                                               VALUE SPACE.
               10  WK01-STATUS-IND-GA316       PIC X(1)
                                               VALUE SPACES.
               10  WK01-STATUS-GA316-Z              PIC X(1)
                                               VALUE SPACE.
               10  WK01-STATUS-GA316-F              PIC X(1)
                                               VALUE SPACE.
               10  WK01-STATUS-GA316-A              PIC X(1)
                                               VALUE SPACE.
               10  WK01-STATUS-GA316-V              PIC X(1)
                                               VALUE SPACE.
               10  WK01-STATUS-GA316-O              PIC X(1)
                                               VALUE SPACE.
               10  WK01-STATUS-GA316       PIC X(10)
                                               VALUE SPACES.
               10  WK01-STATUS-IND-GA3A6-Z              PIC X(1)
                                               VALUE SPACE.
               10  WK01-STATUS-IND-GA3A6-F              PIC X(1)
                                               VALUE SPACE.
               10  WK01-STATUS-IND-GA3A6-A              PIC X(1)
                                               VALUE SPACE.
               10  WK01-STATUS-IND-GA3A6-V              PIC X(1)
                                               VALUE SPACE.
               10  WK01-STATUS-IND-GA3A6-O              PIC X(1)
                                               VALUE SPACE.
               10  WK01-STATUS-IND-GA3A6       PIC X(1)
                                               VALUE SPACES.
               10  WK01-STATUS-GA3A6-Z              PIC X(1)
                                               VALUE SPACE.
               10  WK01-STATUS-GA3A6-F              PIC X(1)
                                               VALUE SPACE.
               10  WK01-STATUS-GA3A6-A              PIC X(1)
                                               VALUE SPACE.
               10  WK01-STATUS-GA3A6-V              PIC X(1)
                                               VALUE SPACE.
               10  WK01-STATUS-GA3A6-O              PIC X(1)
                                               VALUE SPACE.
               10  WK01-STATUS-GA3A6       PIC X(10)
                                               VALUE SPACES.
               10  WK01-DESC-GA316-Z              PIC X(1)
                                               VALUE SPACE.
               10  WK01-DESC-GA316-F              PIC X(1)
                                               VALUE SPACE.
               10  WK01-DESC-GA316-A              PIC X(1)
                                               VALUE SPACE.
               10  WK01-DESC-GA316-V              PIC X(1)
                                               VALUE SPACE.
               10  WK01-DESC-GA316-O              PIC X(1)
                                               VALUE SPACE.
               10  WK01-DESC-GA316       PIC X(35)
                                               VALUE SPACES.
               10  WK01-DCMNT-NMBR-GA31-Z              PIC X(1)
                                               VALUE SPACE.
               10  WK01-DCMNT-NMBR-GA31-F              PIC X(1)
                                               VALUE SPACE.
               10  WK01-DCMNT-NMBR-GA31-A              PIC X(1)
                                               VALUE SPACE.
               10  WK01-DCMNT-NMBR-GA31-V              PIC X(1)
                                               VALUE SPACE.
               10  WK01-DCMNT-NMBR-GA31-O              PIC X(1)
                                               VALUE SPACE.
               10  WK01-DCMNT-NMBR-GA31       PIC X(8)
                                               VALUE SPACES.
               10  WK01-ZZMESSAGE-Z              PIC X(1)
                                               VALUE SPACE.
               10  WK01-ZZMESSAGE-F              PIC X(1)
                                               VALUE SPACE.
               10  WK01-ZZMESSAGE-A              PIC X(1)
                                               VALUE SPACE.
               10  WK01-ZZMESSAGE-V              PIC X(1)
                                               VALUE SPACE.
               10  WK01-ZZMESSAGE-O              PIC X(1)
                                               VALUE SPACE.
               10  WK01-ZZMESSAGE       PIC X(160)
                                               VALUE SPACES.
               10  WK01-PASSED-ONE-Z              PIC X(1)
                                               VALUE SPACE.
               10  WK01-PASSED-ONE-F              PIC X(1)
                                               VALUE SPACE.
               10  WK01-PASSED-ONE-A              PIC X(1)
                                               VALUE SPACE.
               10  WK01-PASSED-ONE-V              PIC X(1)
                                               VALUE SPACE.
               10  WK01-PASSED-ONE-O              PIC X(1)
                                               VALUE SPACE.
               10  WK01-PASSED-ONE       PIC X(32)
                                               VALUE SPACES.
               10  WK01-MAP-RESPONSE-Z              PIC X(1)
                                               VALUE SPACE.
               10  WK01-MAP-RESPONSE-F              PIC X(1)
                                               VALUE SPACE.
               10  WK01-MAP-RESPONSE-A              PIC X(1)
                                               VALUE SPACE.
               10  WK01-MAP-RESPONSE-V              PIC X(1)
                                               VALUE SPACE.
               10  WK01-MAP-RESPONSE-O              PIC X(1)
                                               VALUE SPACE.
               10  WK01-MAP-RESPONSE       PIC X(8)
                                               VALUE SPACES.
               10  WK01-TEXT-SY00-Z              PIC X(1)
                                               VALUE SPACE.
               10  WK01-TEXT-SY00-F              PIC X(1)
                                               VALUE SPACE.
               10  WK01-TEXT-SY00-A              PIC X(1)
                                               VALUE SPACE.
               10  WK01-TEXT-SY00-V              PIC X(1)
                                               VALUE SPACE.
               10  WK01-TEXT-SY00-O              PIC X(1)
                                               VALUE SPACE.
               10  WK01-TEXT-SY00       PIC X(14)
                                               VALUE SPACES.
           04  WK01-SUBSCRIPTED-WORK-AREA.
               05  FILLER                      PIC X(1).
               05  WK01-CODE-GA31-F             PIC X(1)
                                               OCCURS 6.
               05  WK01-NMBR-GA31-F             PIC X(1)
                                               OCCURS 6.
               05  WK01-DESC-GA31-F             PIC X(1)
                                               OCCURS 6.
               05  WK01-AMT-GA31-F             PIC X(1)
                                               OCCURS 6.
               05  WK01-DATE-GA31-F             PIC X(1)
                                               OCCURS 6.
               05  WK01-STATUS-IND-GA31-F             PIC X(1)
                                               OCCURS 6.
               05  WK01-STATUS-GA31-F             PIC X(1)
                                               OCCURS 6.
               05  WK01-STATUS-IND-GA3A-F             PIC X(1)
                                               OCCURS 6.
               05  WK01-STATUS-GA3A-F             PIC X(1)
                                               OCCURS 6.
