       01  MAP-CONTROL.

    ***Created by Convert/DC version V8R03 on 11/09/00 at 16:00***

           02  FGAMI05-MAP-CONTROL.
           03  FGAMI05T.
           04  WK01-DCXMAPL-PARMS.
               10  WK01-MAPNAME                  PIC X(8)
                                                 VALUE 'FGAMI05I'.
               10  WK01-IKE-LENGTH               PIC S9(8)  COMP
                                                 VALUE 22858.
               10  WK01-TINA-LENGTH              PIC S9(4)  COMP
                                                 VALUE 1685.
           05  WK01-ATTRIBUTES                   PIC X(60)
                                                 VALUE SPACE.
           05  WK01-ATTRIBUTES-ERROR             PIC X(60) VALUE
               'U  BIF'.
           05  WK01-CURSOR-DFLD                  PIC X(36)
                                                 VALUE SPACES.
           05  WK01-CURSOR-DFLD-QUAL             PIC X(30)
                                                 VALUE SPACES.
           05  WK01-ROW                          PIC S9(4) COMP
                                                 VALUE ZERO.
           05  WK01-COLUMN                       PIC S9(4) COMP
                                                 VALUE ZERO.
           05  WK01-ERROR-MSG                    PIC X(80)
                                                 VALUE SPACES.
           05  WK01-MAP-DATA-LEN                 PIC S9(6)
                                                 VALUE ZERO.
           05  WK01-1ST-FLAG                     PIC X(1)
                                                 VALUE 'Y'.
           05  WK01-FLAG-OUTPUT-DATA             PIC X(1)
                                                 VALUE 'Y'.
      *    05  WK01-STATUS-RETURN-FLAG           PIC X(1)
      *                                          VALUE SPACES.
           05  WK01-ALL-BUT-FLAG                 PIC X(1)
                                                 VALUE SPACES.
           05  WK01-FLAG-ALL-FIELDS-CHANGED      PIC X(1)  VALUE 'Y'.
           05  WK01-FLAG-ANY-FIELDS-CHANGED      PIC X(1)  VALUE 'N'.
           05  WK01-FLAG-ALL-FIELDS-ERROR        PIC X(1)  VALUE 'Y'.
           05  WK01-FLAG-ANY-FIELDS-ERROR        PIC X(1)  VALUE 'N'.
           05  WK01-FLAG-ALL-FIELDS-ERASE        PIC X(1)  VALUE 'Y'.
           05  WK01-FLAG-ANY-FIELDS-ERASE        PIC X(1)  VALUE 'Y'.

           05  WK01-VARDATA                      PIC X(11880)
                                                 VALUE SPACES.
           05  FILLER                            PIC X(100)
                                                 VALUE SPACES.
           04  WK01-ELEMENT-AREA.

               10  WK01-ID-SY00-Z              PIC X(1)
                                               VALUE SPACE.
               10  WK01-ID-SY00-F              PIC X(1)
                                               VALUE SPACE.
               10  WK01-ID-SY00-A              PIC X(1)
                                               VALUE SPACE.
               10  WK01-ID-SY00-V              PIC X(1)
                                               VALUE SPACE.
               10  WK01-ID-SY00-O              PIC X(1)
                                               VALUE SPACE.
               10  WK01-ID-SY00       PIC X(8)
                                               VALUE SPACES.
               10  WK01-NAME-6001-SY00-Z              PIC X(1)
                                               VALUE SPACE.
               10  WK01-NAME-6001-SY00-F              PIC X(1)
                                               VALUE SPACE.
               10  WK01-NAME-6001-SY00-A              PIC X(1)
                                               VALUE SPACE.
               10  WK01-NAME-6001-SY00-V              PIC X(1)
                                               VALUE SPACE.
               10  WK01-NAME-6001-SY00-O              PIC X(1)
                                               VALUE SPACE.
               10  WK01-NAME-6001-SY00       PIC X(35)
                                               VALUE SPACES.
               10  WK01-DATE-Z              PIC X(1)
                                               VALUE SPACE.
               10  WK01-DATE-F              PIC X(1)
                                               VALUE SPACE.
               10  WK01-DATE-A              PIC X(1)
                                               VALUE SPACE.
               10  WK01-DATE-V              PIC X(1)
                                               VALUE SPACE.
               10  WK01-DATE-O              PIC X(1)
                                               VALUE SPACE.
               10  WK01-DATE       PIC X(8)
                                               VALUE SPACES.
               10  WK01-HH-MM-TIME-SY00-Z              PIC X(1)
                                               VALUE SPACE.
               10  WK01-HH-MM-TIME-SY00-F              PIC X(1)
                                               VALUE SPACE.
               10  WK01-HH-MM-TIME-SY00-A              PIC X(1)
                                               VALUE SPACE.
               10  WK01-HH-MM-TIME-SY00-V              PIC X(1)
                                               VALUE SPACE.
               10  WK01-HH-MM-TIME-SY00-O              PIC X(1)
                                               VALUE SPACE.
               10  WK01-HH-MM-TIME-SY00       PIC X(4)
                                               VALUE SPACES.
               10  WK01-PM-FLAG-SY00-Z              PIC X(1)
                                               VALUE SPACE.
               10  WK01-PM-FLAG-SY00-F              PIC X(1)
                                               VALUE SPACE.
               10  WK01-PM-FLAG-SY00-A              PIC X(1)
                                               VALUE SPACE.
               10  WK01-PM-FLAG-SY00-V              PIC X(1)
                                               VALUE SPACE.
               10  WK01-PM-FLAG-SY00-O              PIC X(1)
                                               VALUE SPACE.
               10  WK01-PM-FLAG-SY00       PIC X(1)
                                               VALUE SPACES.
               10  WK01-USER-ID-Z              PIC X(1)
                                               VALUE SPACE.
               10  WK01-USER-ID-F              PIC X(1)
                                               VALUE SPACE.
               10  WK01-USER-ID-A              PIC X(1)
                                               VALUE SPACE.
               10  WK01-USER-ID-V              PIC X(1)
                                               VALUE SPACE.
               10  WK01-USER-ID-O              PIC X(1)
                                               VALUE SPACE.
               10  WK01-USER-ID       PIC X(32)
                                               VALUE SPACES.
               10  WK01-RSPNS-ID-SY00-Z              PIC X(1)
                                               VALUE SPACE.
               10  WK01-RSPNS-ID-SY00-F              PIC X(1)
                                               VALUE SPACE.
               10  WK01-RSPNS-ID-SY00-A              PIC X(1)
                                               VALUE SPACE.
               10  WK01-RSPNS-ID-SY00-V              PIC X(1)
                                               VALUE SPACE.
               10  WK01-RSPNS-ID-SY00-O              PIC X(1)
                                               VALUE SPACE.
               10  WK01-RSPNS-ID-SY00       PIC X(8)
                                               VALUE SPACES.
               10  WK01-FUNC-DESCRIPTION-Z              PIC X(1)
                                               VALUE SPACE.
               10  WK01-FUNC-DESCRIPTION-F              PIC X(1)
                                               VALUE SPACE.
               10  WK01-FUNC-DESCRIPTION-A              PIC X(1)
                                               VALUE SPACE.
               10  WK01-FUNC-DESCRIPTION-V              PIC X(1)
                                               VALUE SPACE.
               10  WK01-FUNC-DESCRIPTION-O              PIC X(1)
                                               VALUE SPACE.
               10  WK01-FUNC-DESCRIPTION       PIC X(28)
                                               VALUE SPACES.
               10  WK01-STATUS-CODE-SY00-Z              PIC X(1)
                                               VALUE SPACE.
               10  WK01-STATUS-CODE-SY00-F              PIC X(1)
                                               VALUE SPACE.
               10  WK01-STATUS-CODE-SY00-A              PIC X(1)
                                               VALUE SPACE.
               10  WK01-STATUS-CODE-SY00-V              PIC X(1)
                                               VALUE SPACE.
               10  WK01-STATUS-CODE-SY00-O              PIC X(1)
                                               VALUE SPACE.
               10  WK01-STATUS-CODE-SY00       PIC X(1)
                                               VALUE SPACES.
               10  WK01-CODE-GA05-Z              PIC X(1)
                                               VALUE SPACE.
               10  WK01-CODE-GA05-F              PIC X(1)
                                               VALUE SPACE.
               10  WK01-CODE-GA05-A              PIC X(1)
                                               VALUE SPACE.
               10  WK01-CODE-GA05-V              PIC X(1)
                                               VALUE SPACE.
               10  WK01-CODE-GA05-O              PIC X(1)
                                               VALUE SPACE.
               10  WK01-CODE-GA05       PIC X(1)
                                               VALUE SPACES.
               10  WK01-YR-GA05-Z              PIC X(1)
                                               VALUE SPACE.
               10  WK01-YR-GA05-F              PIC X(1)
                                               VALUE SPACE.
               10  WK01-YR-GA05-A              PIC X(1)
                                               VALUE SPACE.
               10  WK01-YR-GA05-V              PIC X(1)
                                               VALUE SPACE.
               10  WK01-YR-GA05-O              PIC X(1)
                                               VALUE SPACE.
               10  WK01-YR-GA05       PIC X(2)
                                               VALUE SPACES.
               10  WK01-PRD-GA05-Z              PIC X(1)
                                               VALUE SPACE.
               10  WK01-PRD-GA05-F              PIC X(1)
                                               VALUE SPACE.
               10  WK01-PRD-GA05-A              PIC X(1)
                                               VALUE SPACE.
               10  WK01-PRD-GA05-V              PIC X(1)
                                               VALUE SPACE.
               10  WK01-PRD-GA05-O              PIC X(1)
                                               VALUE SPACE.
               10  WK01-PRD-GA05       PIC X(2)
                                               VALUE SPACES.
               10  WK01-START-DATE-4024-GA05-Z              PIC X(1)
                                               VALUE SPACE.
               10  WK01-START-DATE-4024-GA05-F              PIC X(1)
                                               VALUE SPACE.
               10  WK01-START-DATE-4024-GA05-A              PIC X(1)
                                               VALUE SPACE.
               10  WK01-START-DATE-4024-GA05-V              PIC X(1)
                                               VALUE SPACE.
               10  WK01-START-DATE-4024-GA05-O              PIC X(1)
                                               VALUE SPACE.
               10  WK01-START-DATE-4024-GA05       PIC X(6)
                                               VALUE SPACES.
               10  WK01-END-DATE-4024-GA05-Z              PIC X(1)
                                               VALUE SPACE.
               10  WK01-END-DATE-4024-GA05-F              PIC X(1)
                                               VALUE SPACE.
               10  WK01-END-DATE-4024-GA05-A              PIC X(1)
                                               VALUE SPACE.
               10  WK01-END-DATE-4024-GA05-V              PIC X(1)
                                               VALUE SPACE.
               10  WK01-END-DATE-4024-GA05-O              PIC X(1)
                                               VALUE SPACE.
               10  WK01-END-DATE-4024-GA05       PIC X(6)
                                               VALUE SPACES.
               10  WK01-CODE-GA0A-Z              PIC X(1)
                                               VALUE SPACE.
               10  WK01-CODE-GA0A-F              PIC X(1)
                                               VALUE SPACE.
               10  WK01-CODE-GA0A-A              PIC X(1)
                                               VALUE SPACE.
               10  WK01-CODE-GA0A-V              PIC X(1)
                                               VALUE SPACE.
               10  WK01-CODE-GA0A-O              PIC X(1)
                                               VALUE SPACE.
               10  WK01-CODE-GA0A       PIC X(6)
                                               VALUE SPACES.
               10  WK01-TITLE-4005-GA05-Z              PIC X(1)
                                               VALUE SPACE.
               10  WK01-TITLE-4005-GA05-F              PIC X(1)
                                               VALUE SPACE.
               10  WK01-TITLE-4005-GA05-A              PIC X(1)
                                               VALUE SPACE.
               10  WK01-TITLE-4005-GA05-V              PIC X(1)
                                               VALUE SPACE.
               10  WK01-TITLE-4005-GA05-O              PIC X(1)
                                               VALUE SPACE.
               10  WK01-TITLE-4005-GA05       PIC X(35)
                                               VALUE SPACES.
               10  WK01-CODE-4003-GA05-Z              PIC X(1)
                                               VALUE SPACE.
               10  WK01-CODE-4003-GA05-F              PIC X(1)
                                               VALUE SPACE.
               10  WK01-CODE-4003-GA05-A              PIC X(1)
                                               VALUE SPACE.
               10  WK01-CODE-4003-GA05-V              PIC X(1)
                                               VALUE SPACE.
               10  WK01-CODE-4003-GA05-O              PIC X(1)
                                               VALUE SPACE.
               10  WK01-CODE-4003-GA05       PIC X(6)
                                               VALUE SPACES.
               10  WK01-ACCT-CODE-4003-GA051-Z              PIC X(1)
                                               VALUE SPACE.
               10  WK01-ACCT-CODE-4003-GA051-F              PIC X(1)
                                               VALUE SPACE.
               10  WK01-ACCT-CODE-4003-GA051-A              PIC X(1)
                                               VALUE SPACE.
               10  WK01-ACCT-CODE-4003-GA051-V              PIC X(1)
                                               VALUE SPACE.
               10  WK01-ACCT-CODE-4003-GA051-O              PIC X(1)
                                               VALUE SPACE.
               10  WK01-ACCT-CODE-4003-GA051       PIC X(6)
                                               VALUE SPACES.
               10  WK01-CODE-TITLE-4034-GA051-Z              PIC X(1)
                                               VALUE SPACE.
               10  WK01-CODE-TITLE-4034-GA051-F              PIC X(1)
                                               VALUE SPACE.
               10  WK01-CODE-TITLE-4034-GA051-A              PIC X(1)
                                               VALUE SPACE.
               10  WK01-CODE-TITLE-4034-GA051-V              PIC X(1)
                                               VALUE SPACE.
               10  WK01-CODE-TITLE-4034-GA051-O              PIC X(1)
                                               VALUE SPACE.
               10  WK01-CODE-TITLE-4034-GA051       PIC X(35)
                                               VALUE SPACES.
               10  WK01-BAL-AMT-GA051-Z              PIC X(1)
                                               VALUE SPACE.
               10  WK01-BAL-AMT-GA051-F              PIC X(1)
                                               VALUE SPACE.
               10  WK01-BAL-AMT-GA051-A              PIC X(1)
                                               VALUE SPACE.
               10  WK01-BAL-AMT-GA051-V              PIC X(1)
                                               VALUE SPACE.
               10  WK01-BAL-AMT-GA051-O              PIC X(1)
                                               VALUE SPACE.
               10  WK01-BAL-AMT-GA051       PIC X(16)
                                               VALUE SPACES.
               10  WK01-BAL-DC-IND-GA051-Z              PIC X(1)
                                               VALUE SPACE.
               10  WK01-BAL-DC-IND-GA051-F              PIC X(1)
                                               VALUE SPACE.
               10  WK01-BAL-DC-IND-GA051-A              PIC X(1)
                                               VALUE SPACE.
               10  WK01-BAL-DC-IND-GA051-V              PIC X(1)
                                               VALUE SPACE.
               10  WK01-BAL-DC-IND-GA051-O              PIC X(1)
                                               VALUE SPACE.
               10  WK01-BAL-DC-IND-GA051       PIC X(2)
                                               VALUE SPACES.
               10  WK01-BAL-AMT-GA0A1-Z              PIC X(1)
                                               VALUE SPACE.
               10  WK01-BAL-AMT-GA0A1-F              PIC X(1)
                                               VALUE SPACE.
               10  WK01-BAL-AMT-GA0A1-A              PIC X(1)
                                               VALUE SPACE.
               10  WK01-BAL-AMT-GA0A1-V              PIC X(1)
                                               VALUE SPACE.
               10  WK01-BAL-AMT-GA0A1-O              PIC X(1)
                                               VALUE SPACE.
               10  WK01-BAL-AMT-GA0A1       PIC X(17)
                                               VALUE SPACES.
               10  WK01-BAL-DC-IND-GA0A1-Z              PIC X(1)
                                               VALUE SPACE.
               10  WK01-BAL-DC-IND-GA0A1-F              PIC X(1)
                                               VALUE SPACE.
               10  WK01-BAL-DC-IND-GA0A1-A              PIC X(1)
                                               VALUE SPACE.
               10  WK01-BAL-DC-IND-GA0A1-V              PIC X(1)
                                               VALUE SPACE.
               10  WK01-BAL-DC-IND-GA0A1-O              PIC X(1)
                                               VALUE SPACE.
               10  WK01-BAL-DC-IND-GA0A1       PIC X(2)
                                               VALUE SPACES.
               10  WK01-ACCT-CODE-4003-GA052-Z              PIC X(1)
                                               VALUE SPACE.
               10  WK01-ACCT-CODE-4003-GA052-F              PIC X(1)
                                               VALUE SPACE.
               10  WK01-ACCT-CODE-4003-GA052-A              PIC X(1)
                                               VALUE SPACE.
               10  WK01-ACCT-CODE-4003-GA052-V              PIC X(1)
                                               VALUE SPACE.
               10  WK01-ACCT-CODE-4003-GA052-O              PIC X(1)
                                               VALUE SPACE.
               10  WK01-ACCT-CODE-4003-GA052       PIC X(6)
                                               VALUE SPACES.
               10  WK01-CODE-TITLE-4034-GA052-Z              PIC X(1)
                                               VALUE SPACE.
               10  WK01-CODE-TITLE-4034-GA052-F              PIC X(1)
                                               VALUE SPACE.
               10  WK01-CODE-TITLE-4034-GA052-A              PIC X(1)
                                               VALUE SPACE.
               10  WK01-CODE-TITLE-4034-GA052-V              PIC X(1)
                                               VALUE SPACE.
               10  WK01-CODE-TITLE-4034-GA052-O              PIC X(1)
                                               VALUE SPACE.
               10  WK01-CODE-TITLE-4034-GA052       PIC X(35)
                                               VALUE SPACES.
               10  WK01-BAL-AMT-GA052-Z              PIC X(1)
                                               VALUE SPACE.
               10  WK01-BAL-AMT-GA052-F              PIC X(1)
                                               VALUE SPACE.
               10  WK01-BAL-AMT-GA052-A              PIC X(1)
                                               VALUE SPACE.
               10  WK01-BAL-AMT-GA052-V              PIC X(1)
                                               VALUE SPACE.
               10  WK01-BAL-AMT-GA052-O              PIC X(1)
                                               VALUE SPACE.
               10  WK01-BAL-AMT-GA052       PIC X(16)
                                               VALUE SPACES.
               10  WK01-BAL-DC-IND-GA052-Z              PIC X(1)
                                               VALUE SPACE.
               10  WK01-BAL-DC-IND-GA052-F              PIC X(1)
                                               VALUE SPACE.
               10  WK01-BAL-DC-IND-GA052-A              PIC X(1)
                                               VALUE SPACE.
               10  WK01-BAL-DC-IND-GA052-V              PIC X(1)
                                               VALUE SPACE.
               10  WK01-BAL-DC-IND-GA052-O              PIC X(1)
                                               VALUE SPACE.
               10  WK01-BAL-DC-IND-GA052       PIC X(2)
                                               VALUE SPACES.
               10  WK01-BAL-AMT-GA0A2-Z              PIC X(1)
                                               VALUE SPACE.
               10  WK01-BAL-AMT-GA0A2-F              PIC X(1)
                                               VALUE SPACE.
               10  WK01-BAL-AMT-GA0A2-A              PIC X(1)
                                               VALUE SPACE.
               10  WK01-BAL-AMT-GA0A2-V              PIC X(1)
                                               VALUE SPACE.
               10  WK01-BAL-AMT-GA0A2-O              PIC X(1)
                                               VALUE SPACE.
               10  WK01-BAL-AMT-GA0A2       PIC X(17)
                                               VALUE SPACES.
               10  WK01-BAL-DC-IND-GA0A2-Z              PIC X(1)
                                               VALUE SPACE.
               10  WK01-BAL-DC-IND-GA0A2-F              PIC X(1)
                                               VALUE SPACE.
               10  WK01-BAL-DC-IND-GA0A2-A              PIC X(1)
                                               VALUE SPACE.
               10  WK01-BAL-DC-IND-GA0A2-V              PIC X(1)
                                               VALUE SPACE.
               10  WK01-BAL-DC-IND-GA0A2-O              PIC X(1)
                                               VALUE SPACE.
               10  WK01-BAL-DC-IND-GA0A2       PIC X(2)
                                               VALUE SPACES.
               10  WK01-ACCT-CODE-4003-GA053-Z              PIC X(1)
                                               VALUE SPACE.
               10  WK01-ACCT-CODE-4003-GA053-F              PIC X(1)
                                               VALUE SPACE.
               10  WK01-ACCT-CODE-4003-GA053-A              PIC X(1)
                                               VALUE SPACE.
               10  WK01-ACCT-CODE-4003-GA053-V              PIC X(1)
                                               VALUE SPACE.
               10  WK01-ACCT-CODE-4003-GA053-O              PIC X(1)
                                               VALUE SPACE.
               10  WK01-ACCT-CODE-4003-GA053       PIC X(6)
                                               VALUE SPACES.
               10  WK01-CODE-TITLE-4034-GA053-Z              PIC X(1)
                                               VALUE SPACE.
               10  WK01-CODE-TITLE-4034-GA053-F              PIC X(1)
                                               VALUE SPACE.
               10  WK01-CODE-TITLE-4034-GA053-A              PIC X(1)
                                               VALUE SPACE.
               10  WK01-CODE-TITLE-4034-GA053-V              PIC X(1)
                                               VALUE SPACE.
               10  WK01-CODE-TITLE-4034-GA053-O              PIC X(1)
                                               VALUE SPACE.
               10  WK01-CODE-TITLE-4034-GA053       PIC X(35)
                                               VALUE SPACES.
               10  WK01-BAL-AMT-GA053-Z              PIC X(1)
                                               VALUE SPACE.
               10  WK01-BAL-AMT-GA053-F              PIC X(1)
                                               VALUE SPACE.
               10  WK01-BAL-AMT-GA053-A              PIC X(1)
                                               VALUE SPACE.
               10  WK01-BAL-AMT-GA053-V              PIC X(1)
                                               VALUE SPACE.
               10  WK01-BAL-AMT-GA053-O              PIC X(1)
                                               VALUE SPACE.
               10  WK01-BAL-AMT-GA053       PIC X(16)
                                               VALUE SPACES.
               10  WK01-BAL-DC-IND-GA053-Z              PIC X(1)
                                               VALUE SPACE.
               10  WK01-BAL-DC-IND-GA053-F              PIC X(1)
                                               VALUE SPACE.
               10  WK01-BAL-DC-IND-GA053-A              PIC X(1)
                                               VALUE SPACE.
               10  WK01-BAL-DC-IND-GA053-V              PIC X(1)
                                               VALUE SPACE.
               10  WK01-BAL-DC-IND-GA053-O              PIC X(1)
                                               VALUE SPACE.
               10  WK01-BAL-DC-IND-GA053       PIC X(2)
                                               VALUE SPACES.
               10  WK01-BAL-AMT-GA0A3-Z              PIC X(1)
                                               VALUE SPACE.
               10  WK01-BAL-AMT-GA0A3-F              PIC X(1)
                                               VALUE SPACE.
               10  WK01-BAL-AMT-GA0A3-A              PIC X(1)
                                               VALUE SPACE.
               10  WK01-BAL-AMT-GA0A3-V              PIC X(1)
                                               VALUE SPACE.
               10  WK01-BAL-AMT-GA0A3-O              PIC X(1)
                                               VALUE SPACE.
               10  WK01-BAL-AMT-GA0A3       PIC X(17)
                                               VALUE SPACES.
               10  WK01-BAL-DC-IND-GA0A3-Z              PIC X(1)
                                               VALUE SPACE.
               10  WK01-BAL-DC-IND-GA0A3-F              PIC X(1)
                                               VALUE SPACE.
               10  WK01-BAL-DC-IND-GA0A3-A              PIC X(1)
                                               VALUE SPACE.
               10  WK01-BAL-DC-IND-GA0A3-V              PIC X(1)
                                               VALUE SPACE.
               10  WK01-BAL-DC-IND-GA0A3-O              PIC X(1)
                                               VALUE SPACE.
               10  WK01-BAL-DC-IND-GA0A3       PIC X(2)
                                               VALUE SPACES.
               10  WK01-ACCT-CODE-4003-GA054-Z              PIC X(1)
                                               VALUE SPACE.
               10  WK01-ACCT-CODE-4003-GA054-F              PIC X(1)
                                               VALUE SPACE.
               10  WK01-ACCT-CODE-4003-GA054-A              PIC X(1)
                                               VALUE SPACE.
               10  WK01-ACCT-CODE-4003-GA054-V              PIC X(1)
                                               VALUE SPACE.
               10  WK01-ACCT-CODE-4003-GA054-O              PIC X(1)
                                               VALUE SPACE.
               10  WK01-ACCT-CODE-4003-GA054       PIC X(6)
                                               VALUE SPACES.
               10  WK01-CODE-TITLE-4034-GA054-Z              PIC X(1)
                                               VALUE SPACE.
               10  WK01-CODE-TITLE-4034-GA054-F              PIC X(1)
                                               VALUE SPACE.
               10  WK01-CODE-TITLE-4034-GA054-A              PIC X(1)
                                               VALUE SPACE.
               10  WK01-CODE-TITLE-4034-GA054-V              PIC X(1)
                                               VALUE SPACE.
               10  WK01-CODE-TITLE-4034-GA054-O              PIC X(1)
                                               VALUE SPACE.
               10  WK01-CODE-TITLE-4034-GA054       PIC X(35)
                                               VALUE SPACES.
               10  WK01-BAL-AMT-GA054-Z              PIC X(1)
                                               VALUE SPACE.
               10  WK01-BAL-AMT-GA054-F              PIC X(1)
                                               VALUE SPACE.
               10  WK01-BAL-AMT-GA054-A              PIC X(1)
                                               VALUE SPACE.
               10  WK01-BAL-AMT-GA054-V              PIC X(1)
                                               VALUE SPACE.
               10  WK01-BAL-AMT-GA054-O              PIC X(1)
                                               VALUE SPACE.
               10  WK01-BAL-AMT-GA054       PIC X(16)
                                               VALUE SPACES.
               10  WK01-BAL-DC-IND-GA054-Z              PIC X(1)
                                               VALUE SPACE.
               10  WK01-BAL-DC-IND-GA054-F              PIC X(1)
                                               VALUE SPACE.
               10  WK01-BAL-DC-IND-GA054-A              PIC X(1)
                                               VALUE SPACE.
               10  WK01-BAL-DC-IND-GA054-V              PIC X(1)
                                               VALUE SPACE.
               10  WK01-BAL-DC-IND-GA054-O              PIC X(1)
                                               VALUE SPACE.
               10  WK01-BAL-DC-IND-GA054       PIC X(2)
                                               VALUE SPACES.
               10  WK01-BAL-AMT-GA0A4-Z              PIC X(1)
                                               VALUE SPACE.
               10  WK01-BAL-AMT-GA0A4-F              PIC X(1)
                                               VALUE SPACE.
               10  WK01-BAL-AMT-GA0A4-A              PIC X(1)
                                               VALUE SPACE.
               10  WK01-BAL-AMT-GA0A4-V              PIC X(1)
                                               VALUE SPACE.
               10  WK01-BAL-AMT-GA0A4-O              PIC X(1)
                                               VALUE SPACE.
               10  WK01-BAL-AMT-GA0A4       PIC X(17)
                                               VALUE SPACES.
               10  WK01-BAL-DC-IND-GA0A4-Z              PIC X(1)
                                               VALUE SPACE.
               10  WK01-BAL-DC-IND-GA0A4-F              PIC X(1)
                                               VALUE SPACE.
               10  WK01-BAL-DC-IND-GA0A4-A              PIC X(1)
                                               VALUE SPACE.
               10  WK01-BAL-DC-IND-GA0A4-V              PIC X(1)
                                               VALUE SPACE.
               10  WK01-BAL-DC-IND-GA0A4-O              PIC X(1)
                                               VALUE SPACE.
               10  WK01-BAL-DC-IND-GA0A4       PIC X(2)
                                               VALUE SPACES.
               10  WK01-ACCT-CODE-4003-GA055-Z              PIC X(1)
                                               VALUE SPACE.
               10  WK01-ACCT-CODE-4003-GA055-F              PIC X(1)
                                               VALUE SPACE.
               10  WK01-ACCT-CODE-4003-GA055-A              PIC X(1)
                                               VALUE SPACE.
               10  WK01-ACCT-CODE-4003-GA055-V              PIC X(1)
                                               VALUE SPACE.
               10  WK01-ACCT-CODE-4003-GA055-O              PIC X(1)
                                               VALUE SPACE.
               10  WK01-ACCT-CODE-4003-GA055       PIC X(6)
                                               VALUE SPACES.
               10  WK01-CODE-TITLE-4034-GA055-Z              PIC X(1)
                                               VALUE SPACE.
               10  WK01-CODE-TITLE-4034-GA055-F              PIC X(1)
                                               VALUE SPACE.
               10  WK01-CODE-TITLE-4034-GA055-A              PIC X(1)
                                               VALUE SPACE.
               10  WK01-CODE-TITLE-4034-GA055-V              PIC X(1)
                                               VALUE SPACE.
               10  WK01-CODE-TITLE-4034-GA055-O              PIC X(1)
                                               VALUE SPACE.
               10  WK01-CODE-TITLE-4034-GA055       PIC X(35)
                                               VALUE SPACES.
               10  WK01-BAL-AMT-GA055-Z              PIC X(1)
                                               VALUE SPACE.
               10  WK01-BAL-AMT-GA055-F              PIC X(1)
                                               VALUE SPACE.
               10  WK01-BAL-AMT-GA055-A              PIC X(1)
                                               VALUE SPACE.
               10  WK01-BAL-AMT-GA055-V              PIC X(1)
                                               VALUE SPACE.
               10  WK01-BAL-AMT-GA055-O              PIC X(1)
                                               VALUE SPACE.
               10  WK01-BAL-AMT-GA055       PIC X(16)
                                               VALUE SPACES.
               10  WK01-BAL-DC-IND-GA055-Z              PIC X(1)
                                               VALUE SPACE.
               10  WK01-BAL-DC-IND-GA055-F              PIC X(1)
                                               VALUE SPACE.
               10  WK01-BAL-DC-IND-GA055-A              PIC X(1)
                                               VALUE SPACE.
               10  WK01-BAL-DC-IND-GA055-V              PIC X(1)
                                               VALUE SPACE.
               10  WK01-BAL-DC-IND-GA055-O              PIC X(1)
                                               VALUE SPACE.
               10  WK01-BAL-DC-IND-GA055       PIC X(2)
                                               VALUE SPACES.
               10  WK01-BAL-AMT-GA0A5-Z              PIC X(1)
                                               VALUE SPACE.
               10  WK01-BAL-AMT-GA0A5-F              PIC X(1)
                                               VALUE SPACE.
               10  WK01-BAL-AMT-GA0A5-A              PIC X(1)
                                               VALUE SPACE.
               10  WK01-BAL-AMT-GA0A5-V              PIC X(1)
                                               VALUE SPACE.
               10  WK01-BAL-AMT-GA0A5-O              PIC X(1)
                                               VALUE SPACE.
               10  WK01-BAL-AMT-GA0A5       PIC X(17)
                                               VALUE SPACES.
               10  WK01-BAL-DC-IND-GA0A5-Z              PIC X(1)
                                               VALUE SPACE.
               10  WK01-BAL-DC-IND-GA0A5-F              PIC X(1)
                                               VALUE SPACE.
               10  WK01-BAL-DC-IND-GA0A5-A              PIC X(1)
                                               VALUE SPACE.
               10  WK01-BAL-DC-IND-GA0A5-V              PIC X(1)
                                               VALUE SPACE.
               10  WK01-BAL-DC-IND-GA0A5-O              PIC X(1)
                                               VALUE SPACE.
               10  WK01-BAL-DC-IND-GA0A5       PIC X(2)
                                               VALUE SPACES.
               10  WK01-ACCT-CODE-4003-GA056-Z              PIC X(1)
                                               VALUE SPACE.
               10  WK01-ACCT-CODE-4003-GA056-F              PIC X(1)
                                               VALUE SPACE.
               10  WK01-ACCT-CODE-4003-GA056-A              PIC X(1)
                                               VALUE SPACE.
               10  WK01-ACCT-CODE-4003-GA056-V              PIC X(1)
                                               VALUE SPACE.
               10  WK01-ACCT-CODE-4003-GA056-O              PIC X(1)
                                               VALUE SPACE.
               10  WK01-ACCT-CODE-4003-GA056       PIC X(6)
                                               VALUE SPACES.
               10  WK01-CODE-TITLE-4034-GA056-Z              PIC X(1)
                                               VALUE SPACE.
               10  WK01-CODE-TITLE-4034-GA056-F              PIC X(1)
                                               VALUE SPACE.
               10  WK01-CODE-TITLE-4034-GA056-A              PIC X(1)
                                               VALUE SPACE.
               10  WK01-CODE-TITLE-4034-GA056-V              PIC X(1)
                                               VALUE SPACE.
               10  WK01-CODE-TITLE-4034-GA056-O              PIC X(1)
                                               VALUE SPACE.
               10  WK01-CODE-TITLE-4034-GA056       PIC X(35)
                                               VALUE SPACES.
               10  WK01-BAL-AMT-GA056-Z              PIC X(1)
                                               VALUE SPACE.
               10  WK01-BAL-AMT-GA056-F              PIC X(1)
                                               VALUE SPACE.
               10  WK01-BAL-AMT-GA056-A              PIC X(1)
                                               VALUE SPACE.
               10  WK01-BAL-AMT-GA056-V              PIC X(1)
                                               VALUE SPACE.
               10  WK01-BAL-AMT-GA056-O              PIC X(1)
                                               VALUE SPACE.
               10  WK01-BAL-AMT-GA056       PIC X(16)
                                               VALUE SPACES.
               10  WK01-BAL-DC-IND-GA056-Z              PIC X(1)
                                               VALUE SPACE.
               10  WK01-BAL-DC-IND-GA056-F              PIC X(1)
                                               VALUE SPACE.
               10  WK01-BAL-DC-IND-GA056-A              PIC X(1)
                                               VALUE SPACE.
               10  WK01-BAL-DC-IND-GA056-V              PIC X(1)
                                               VALUE SPACE.
               10  WK01-BAL-DC-IND-GA056-O              PIC X(1)
                                               VALUE SPACE.
               10  WK01-BAL-DC-IND-GA056       PIC X(2)
                                               VALUE SPACES.
               10  WK01-BAL-AMT-GA0A6-Z              PIC X(1)
                                               VALUE SPACE.
               10  WK01-BAL-AMT-GA0A6-F              PIC X(1)
                                               VALUE SPACE.
               10  WK01-BAL-AMT-GA0A6-A              PIC X(1)
                                               VALUE SPACE.
               10  WK01-BAL-AMT-GA0A6-V              PIC X(1)
                                               VALUE SPACE.
               10  WK01-BAL-AMT-GA0A6-O              PIC X(1)
                                               VALUE SPACE.
               10  WK01-BAL-AMT-GA0A6       PIC X(17)
                                               VALUE SPACES.
               10  WK01-BAL-DC-IND-GA0A6-Z              PIC X(1)
                                               VALUE SPACE.
               10  WK01-BAL-DC-IND-GA0A6-F              PIC X(1)
                                               VALUE SPACE.
               10  WK01-BAL-DC-IND-GA0A6-A              PIC X(1)
                                               VALUE SPACE.
               10  WK01-BAL-DC-IND-GA0A6-V              PIC X(1)
                                               VALUE SPACE.
               10  WK01-BAL-DC-IND-GA0A6-O              PIC X(1)
                                               VALUE SPACE.
               10  WK01-BAL-DC-IND-GA0A6       PIC X(2)
                                               VALUE SPACES.
               10  WK01-ACCT-CODE-4003-GA057-Z              PIC X(1)
                                               VALUE SPACE.
               10  WK01-ACCT-CODE-4003-GA057-F              PIC X(1)
                                               VALUE SPACE.
               10  WK01-ACCT-CODE-4003-GA057-A              PIC X(1)
                                               VALUE SPACE.
               10  WK01-ACCT-CODE-4003-GA057-V              PIC X(1)
                                               VALUE SPACE.
               10  WK01-ACCT-CODE-4003-GA057-O              PIC X(1)
                                               VALUE SPACE.
               10  WK01-ACCT-CODE-4003-GA057       PIC X(6)
                                               VALUE SPACES.
               10  WK01-CODE-TITLE-4034-GA057-Z              PIC X(1)
                                               VALUE SPACE.
               10  WK01-CODE-TITLE-4034-GA057-F              PIC X(1)
                                               VALUE SPACE.
               10  WK01-CODE-TITLE-4034-GA057-A              PIC X(1)
                                               VALUE SPACE.
               10  WK01-CODE-TITLE-4034-GA057-V              PIC X(1)
                                               VALUE SPACE.
               10  WK01-CODE-TITLE-4034-GA057-O              PIC X(1)
                                               VALUE SPACE.
               10  WK01-CODE-TITLE-4034-GA057       PIC X(35)
                                               VALUE SPACES.
               10  WK01-BAL-AMT-GA057-Z              PIC X(1)
                                               VALUE SPACE.
               10  WK01-BAL-AMT-GA057-F              PIC X(1)
                                               VALUE SPACE.
               10  WK01-BAL-AMT-GA057-A              PIC X(1)
                                               VALUE SPACE.
               10  WK01-BAL-AMT-GA057-V              PIC X(1)
                                               VALUE SPACE.
               10  WK01-BAL-AMT-GA057-O              PIC X(1)
                                               VALUE SPACE.
               10  WK01-BAL-AMT-GA057       PIC X(16)
                                               VALUE SPACES.
               10  WK01-BAL-DC-IND-GA057-Z              PIC X(1)
                                               VALUE SPACE.
               10  WK01-BAL-DC-IND-GA057-F              PIC X(1)
                                               VALUE SPACE.
               10  WK01-BAL-DC-IND-GA057-A              PIC X(1)
                                               VALUE SPACE.
               10  WK01-BAL-DC-IND-GA057-V              PIC X(1)
                                               VALUE SPACE.
               10  WK01-BAL-DC-IND-GA057-O              PIC X(1)
                                               VALUE SPACE.
               10  WK01-BAL-DC-IND-GA057       PIC X(2)
                                               VALUE SPACES.
               10  WK01-BAL-AMT-GA0A7-Z              PIC X(1)
                                               VALUE SPACE.
               10  WK01-BAL-AMT-GA0A7-F              PIC X(1)
                                               VALUE SPACE.
               10  WK01-BAL-AMT-GA0A7-A              PIC X(1)
                                               VALUE SPACE.
               10  WK01-BAL-AMT-GA0A7-V              PIC X(1)
                                               VALUE SPACE.
               10  WK01-BAL-AMT-GA0A7-O              PIC X(1)
                                               VALUE SPACE.
               10  WK01-BAL-AMT-GA0A7       PIC X(17)
                                               VALUE SPACES.
               10  WK01-BAL-DC-IND-GA0A7-Z              PIC X(1)
                                               VALUE SPACE.
               10  WK01-BAL-DC-IND-GA0A7-F              PIC X(1)
                                               VALUE SPACE.
               10  WK01-BAL-DC-IND-GA0A7-A              PIC X(1)
                                               VALUE SPACE.
               10  WK01-BAL-DC-IND-GA0A7-V              PIC X(1)
                                               VALUE SPACE.
               10  WK01-BAL-DC-IND-GA0A7-O              PIC X(1)
                                               VALUE SPACE.
               10  WK01-BAL-DC-IND-GA0A7       PIC X(2)
                                               VALUE SPACES.
               10  WK01-ACCT-CODE-4003-GA058-Z              PIC X(1)
                                               VALUE SPACE.
               10  WK01-ACCT-CODE-4003-GA058-F              PIC X(1)
                                               VALUE SPACE.
               10  WK01-ACCT-CODE-4003-GA058-A              PIC X(1)
                                               VALUE SPACE.
               10  WK01-ACCT-CODE-4003-GA058-V              PIC X(1)
                                               VALUE SPACE.
               10  WK01-ACCT-CODE-4003-GA058-O              PIC X(1)
                                               VALUE SPACE.
               10  WK01-ACCT-CODE-4003-GA058       PIC X(6)
                                               VALUE SPACES.
               10  WK01-CODE-TITLE-4034-GA058-Z              PIC X(1)
                                               VALUE SPACE.
               10  WK01-CODE-TITLE-4034-GA058-F              PIC X(1)
                                               VALUE SPACE.
               10  WK01-CODE-TITLE-4034-GA058-A              PIC X(1)
                                               VALUE SPACE.
               10  WK01-CODE-TITLE-4034-GA058-V              PIC X(1)
                                               VALUE SPACE.
               10  WK01-CODE-TITLE-4034-GA058-O              PIC X(1)
                                               VALUE SPACE.
               10  WK01-CODE-TITLE-4034-GA058       PIC X(35)
                                               VALUE SPACES.
               10  WK01-BAL-AMT-GA058-Z              PIC X(1)
                                               VALUE SPACE.
               10  WK01-BAL-AMT-GA058-F              PIC X(1)
                                               VALUE SPACE.
               10  WK01-BAL-AMT-GA058-A              PIC X(1)
                                               VALUE SPACE.
               10  WK01-BAL-AMT-GA058-V              PIC X(1)
                                               VALUE SPACE.
               10  WK01-BAL-AMT-GA058-O              PIC X(1)
                                               VALUE SPACE.
               10  WK01-BAL-AMT-GA058       PIC X(16)
                                               VALUE SPACES.
               10  WK01-BAL-DC-IND-GA058-Z              PIC X(1)
                                               VALUE SPACE.
               10  WK01-BAL-DC-IND-GA058-F              PIC X(1)
                                               VALUE SPACE.
               10  WK01-BAL-DC-IND-GA058-A              PIC X(1)
                                               VALUE SPACE.
               10  WK01-BAL-DC-IND-GA058-V              PIC X(1)
                                               VALUE SPACE.
               10  WK01-BAL-DC-IND-GA058-O              PIC X(1)
                                               VALUE SPACE.
               10  WK01-BAL-DC-IND-GA058       PIC X(2)
                                               VALUE SPACES.
               10  WK01-BAL-AMT-GA0A8-Z              PIC X(1)
                                               VALUE SPACE.
               10  WK01-BAL-AMT-GA0A8-F              PIC X(1)
                                               VALUE SPACE.
               10  WK01-BAL-AMT-GA0A8-A              PIC X(1)
                                               VALUE SPACE.
               10  WK01-BAL-AMT-GA0A8-V              PIC X(1)
                                               VALUE SPACE.
               10  WK01-BAL-AMT-GA0A8-O              PIC X(1)
                                               VALUE SPACE.
               10  WK01-BAL-AMT-GA0A8       PIC X(17)
                                               VALUE SPACES.
               10  WK01-BAL-DC-IND-GA0A8-Z              PIC X(1)
                                               VALUE SPACE.
               10  WK01-BAL-DC-IND-GA0A8-F              PIC X(1)
                                               VALUE SPACE.
               10  WK01-BAL-DC-IND-GA0A8-A              PIC X(1)
                                               VALUE SPACE.
               10  WK01-BAL-DC-IND-GA0A8-V              PIC X(1)
                                               VALUE SPACE.
               10  WK01-BAL-DC-IND-GA0A8-O              PIC X(1)
                                               VALUE SPACE.
               10  WK01-BAL-DC-IND-GA0A8       PIC X(2)
                                               VALUE SPACES.
               10  WK01-ACCT-CODE-4003-GA059-Z              PIC X(1)
                                               VALUE SPACE.
               10  WK01-ACCT-CODE-4003-GA059-F              PIC X(1)
                                               VALUE SPACE.
               10  WK01-ACCT-CODE-4003-GA059-A              PIC X(1)
                                               VALUE SPACE.
               10  WK01-ACCT-CODE-4003-GA059-V              PIC X(1)
                                               VALUE SPACE.
               10  WK01-ACCT-CODE-4003-GA059-O              PIC X(1)
                                               VALUE SPACE.
               10  WK01-ACCT-CODE-4003-GA059       PIC X(6)
                                               VALUE SPACES.
               10  WK01-CODE-TITLE-4034-GA059-Z              PIC X(1)
                                               VALUE SPACE.
               10  WK01-CODE-TITLE-4034-GA059-F              PIC X(1)
                                               VALUE SPACE.
               10  WK01-CODE-TITLE-4034-GA059-A              PIC X(1)
                                               VALUE SPACE.
               10  WK01-CODE-TITLE-4034-GA059-V              PIC X(1)
                                               VALUE SPACE.
               10  WK01-CODE-TITLE-4034-GA059-O              PIC X(1)
                                               VALUE SPACE.
               10  WK01-CODE-TITLE-4034-GA059       PIC X(35)
                                               VALUE SPACES.
               10  WK01-BAL-AMT-GA059-Z              PIC X(1)
                                               VALUE SPACE.
               10  WK01-BAL-AMT-GA059-F              PIC X(1)
                                               VALUE SPACE.
               10  WK01-BAL-AMT-GA059-A              PIC X(1)
                                               VALUE SPACE.
               10  WK01-BAL-AMT-GA059-V              PIC X(1)
                                               VALUE SPACE.
               10  WK01-BAL-AMT-GA059-O              PIC X(1)
                                               VALUE SPACE.
               10  WK01-BAL-AMT-GA059       PIC X(16)
                                               VALUE SPACES.
               10  WK01-BAL-DC-IND-GA059-Z              PIC X(1)
                                               VALUE SPACE.
               10  WK01-BAL-DC-IND-GA059-F              PIC X(1)
                                               VALUE SPACE.
               10  WK01-BAL-DC-IND-GA059-A              PIC X(1)
                                               VALUE SPACE.
               10  WK01-BAL-DC-IND-GA059-V              PIC X(1)
                                               VALUE SPACE.
               10  WK01-BAL-DC-IND-GA059-O              PIC X(1)
                                               VALUE SPACE.
               10  WK01-BAL-DC-IND-GA059       PIC X(2)
                                               VALUE SPACES.
               10  WK01-BAL-AMT-GA0A9-Z              PIC X(1)
                                               VALUE SPACE.
               10  WK01-BAL-AMT-GA0A9-F              PIC X(1)
                                               VALUE SPACE.
               10  WK01-BAL-AMT-GA0A9-A              PIC X(1)
                                               VALUE SPACE.
               10  WK01-BAL-AMT-GA0A9-V              PIC X(1)
                                               VALUE SPACE.
               10  WK01-BAL-AMT-GA0A9-O              PIC X(1)
                                               VALUE SPACE.
               10  WK01-BAL-AMT-GA0A9       PIC X(17)
                                               VALUE SPACES.
               10  WK01-BAL-DC-IND-GA0A9-Z              PIC X(1)
                                               VALUE SPACE.
               10  WK01-BAL-DC-IND-GA0A9-F              PIC X(1)
                                               VALUE SPACE.
               10  WK01-BAL-DC-IND-GA0A9-A              PIC X(1)
                                               VALUE SPACE.
               10  WK01-BAL-DC-IND-GA0A9-V              PIC X(1)
                                               VALUE SPACE.
               10  WK01-BAL-DC-IND-GA0A9-O              PIC X(1)
                                               VALUE SPACE.
               10  WK01-BAL-DC-IND-GA0A9       PIC X(2)
                                               VALUE SPACES.
               10  WK01-ACCT-CODE-4003-GA0510-Z              PIC X(1)
                                               VALUE SPACE.
               10  WK01-ACCT-CODE-4003-GA0510-F              PIC X(1)
                                               VALUE SPACE.
               10  WK01-ACCT-CODE-4003-GA0510-A              PIC X(1)
                                               VALUE SPACE.
               10  WK01-ACCT-CODE-4003-GA0510-V              PIC X(1)
                                               VALUE SPACE.
               10  WK01-ACCT-CODE-4003-GA0510-O              PIC X(1)
                                               VALUE SPACE.
               10  WK01-ACCT-CODE-4003-GA0510       PIC X(6)
                                               VALUE SPACES.
               10  WK01-CODE-TITLE-4034-GA0510-Z              PIC X(1)
                                               VALUE SPACE.
               10  WK01-CODE-TITLE-4034-GA0510-F              PIC X(1)
                                               VALUE SPACE.
               10  WK01-CODE-TITLE-4034-GA0510-A              PIC X(1)
                                               VALUE SPACE.
               10  WK01-CODE-TITLE-4034-GA0510-V              PIC X(1)
                                               VALUE SPACE.
               10  WK01-CODE-TITLE-4034-GA0510-O              PIC X(1)
                                               VALUE SPACE.
               10  WK01-CODE-TITLE-4034-GA0510       PIC X(35)
                                               VALUE SPACES.
               10  WK01-BAL-AMT-GA0510-Z              PIC X(1)
                                               VALUE SPACE.
               10  WK01-BAL-AMT-GA0510-F              PIC X(1)
                                               VALUE SPACE.
               10  WK01-BAL-AMT-GA0510-A              PIC X(1)
                                               VALUE SPACE.
               10  WK01-BAL-AMT-GA0510-V              PIC X(1)
                                               VALUE SPACE.
               10  WK01-BAL-AMT-GA0510-O              PIC X(1)
                                               VALUE SPACE.
               10  WK01-BAL-AMT-GA0510       PIC X(16)
                                               VALUE SPACES.
               10  WK01-BAL-DC-IND-GA0510-Z              PIC X(1)
                                               VALUE SPACE.
               10  WK01-BAL-DC-IND-GA0510-F              PIC X(1)
                                               VALUE SPACE.
               10  WK01-BAL-DC-IND-GA0510-A              PIC X(1)
                                               VALUE SPACE.
               10  WK01-BAL-DC-IND-GA0510-V              PIC X(1)
                                               VALUE SPACE.
               10  WK01-BAL-DC-IND-GA0510-O              PIC X(1)
                                               VALUE SPACE.
               10  WK01-BAL-DC-IND-GA0510       PIC X(2)
                                               VALUE SPACES.
               10  WK01-BAL-AMT-GA0A10-Z              PIC X(1)
                                               VALUE SPACE.
               10  WK01-BAL-AMT-GA0A10-F              PIC X(1)
                                               VALUE SPACE.
               10  WK01-BAL-AMT-GA0A10-A              PIC X(1)
                                               VALUE SPACE.
               10  WK01-BAL-AMT-GA0A10-V              PIC X(1)
                                               VALUE SPACE.
               10  WK01-BAL-AMT-GA0A10-O              PIC X(1)
                                               VALUE SPACE.
               10  WK01-BAL-AMT-GA0A10       PIC X(17)
                                               VALUE SPACES.
               10  WK01-BAL-DC-IND-GA0A10-Z              PIC X(1)
                                               VALUE SPACE.
               10  WK01-BAL-DC-IND-GA0A10-F              PIC X(1)
                                               VALUE SPACE.
               10  WK01-BAL-DC-IND-GA0A10-A              PIC X(1)
                                               VALUE SPACE.
               10  WK01-BAL-DC-IND-GA0A10-V              PIC X(1)
                                               VALUE SPACE.
               10  WK01-BAL-DC-IND-GA0A10-O              PIC X(1)
                                               VALUE SPACE.
               10  WK01-BAL-DC-IND-GA0A10       PIC X(2)
                                               VALUE SPACES.
               10  WK01-DESC-GA05-Z              PIC X(1)
                                               VALUE SPACE.
               10  WK01-DESC-GA05-F              PIC X(1)
                                               VALUE SPACE.
               10  WK01-DESC-GA05-A              PIC X(1)
                                               VALUE SPACE.
               10  WK01-DESC-GA05-V              PIC X(1)
                                               VALUE SPACE.
               10  WK01-DESC-GA05-O              PIC X(1)
                                               VALUE SPACE.
               10  WK01-DESC-GA05       PIC X(35)
                                               VALUE SPACES.
               10  WK01-BEG-BAL-AMT-GA05-Z              PIC X(1)
                                               VALUE SPACE.
               10  WK01-BEG-BAL-AMT-GA05-F              PIC X(1)
                                               VALUE SPACE.
               10  WK01-BEG-BAL-AMT-GA05-A              PIC X(1)
                                               VALUE SPACE.
               10  WK01-BEG-BAL-AMT-GA05-V              PIC X(1)
                                               VALUE SPACE.
               10  WK01-BEG-BAL-AMT-GA05-O              PIC X(1)
                                               VALUE SPACE.
               10  WK01-BEG-BAL-AMT-GA05       PIC X(16)
                                               VALUE SPACES.
               10  WK01-TOT-DC-IND-GA05-Z              PIC X(1)
                                               VALUE SPACE.
               10  WK01-TOT-DC-IND-GA05-F              PIC X(1)
                                               VALUE SPACE.
               10  WK01-TOT-DC-IND-GA05-A              PIC X(1)
                                               VALUE SPACE.
               10  WK01-TOT-DC-IND-GA05-V              PIC X(1)
                                               VALUE SPACE.
               10  WK01-TOT-DC-IND-GA05-O              PIC X(1)
                                               VALUE SPACE.
               10  WK01-TOT-DC-IND-GA05       PIC X(2)
                                               VALUE SPACES.
               10  WK01-CRD-BAL-AMT-GA05-Z              PIC X(1)
                                               VALUE SPACE.
               10  WK01-CRD-BAL-AMT-GA05-F              PIC X(1)
                                               VALUE SPACE.
               10  WK01-CRD-BAL-AMT-GA05-A              PIC X(1)
                                               VALUE SPACE.
               10  WK01-CRD-BAL-AMT-GA05-V              PIC X(1)
                                               VALUE SPACE.
               10  WK01-CRD-BAL-AMT-GA05-O              PIC X(1)
                                               VALUE SPACE.
               10  WK01-CRD-BAL-AMT-GA05       PIC X(17)
                                               VALUE SPACES.
               10  WK01-TOT-DC-IND-GA0A-Z              PIC X(1)
                                               VALUE SPACE.
               10  WK01-TOT-DC-IND-GA0A-F              PIC X(1)
                                               VALUE SPACE.
               10  WK01-TOT-DC-IND-GA0A-A              PIC X(1)
                                               VALUE SPACE.
               10  WK01-TOT-DC-IND-GA0A-V              PIC X(1)
                                               VALUE SPACE.
               10  WK01-TOT-DC-IND-GA0A-O              PIC X(1)
                                               VALUE SPACE.
               10  WK01-TOT-DC-IND-GA0A       PIC X(2)
                                               VALUE SPACES.
               10  WK01-ZZMESSAGE-Z              PIC X(1)
                                               VALUE SPACE.
               10  WK01-ZZMESSAGE-F              PIC X(1)
                                               VALUE SPACE.
               10  WK01-ZZMESSAGE-A              PIC X(1)
                                               VALUE SPACE.
               10  WK01-ZZMESSAGE-V              PIC X(1)
                                               VALUE SPACE.
               10  WK01-ZZMESSAGE-O              PIC X(1)
                                               VALUE SPACE.
               10  WK01-ZZMESSAGE       PIC X(160)
                                               VALUE SPACES.
               10  WK01-PASSED-ONE-Z              PIC X(1)
                                               VALUE SPACE.
               10  WK01-PASSED-ONE-F              PIC X(1)
                                               VALUE SPACE.
               10  WK01-PASSED-ONE-A              PIC X(1)
                                               VALUE SPACE.
               10  WK01-PASSED-ONE-V              PIC X(1)
                                               VALUE SPACE.
               10  WK01-PASSED-ONE-O              PIC X(1)
                                               VALUE SPACE.
               10  WK01-PASSED-ONE       PIC X(32)
                                               VALUE SPACES.
               10  WK01-MAP-RESPONSE-Z              PIC X(1)
                                               VALUE SPACE.
               10  WK01-MAP-RESPONSE-F              PIC X(1)
                                               VALUE SPACE.
               10  WK01-MAP-RESPONSE-A              PIC X(1)
                                               VALUE SPACE.
               10  WK01-MAP-RESPONSE-V              PIC X(1)
                                               VALUE SPACE.
               10  WK01-MAP-RESPONSE-O              PIC X(1)
                                               VALUE SPACE.
               10  WK01-MAP-RESPONSE       PIC X(8)
                                               VALUE SPACES.
               10  WK01-TEXT-SY00-Z              PIC X(1)
                                               VALUE SPACE.
               10  WK01-TEXT-SY00-F              PIC X(1)
                                               VALUE SPACE.
               10  WK01-TEXT-SY00-A              PIC X(1)
                                               VALUE SPACE.
               10  WK01-TEXT-SY00-V              PIC X(1)
                                               VALUE SPACE.
               10  WK01-TEXT-SY00-O              PIC X(1)
                                               VALUE SPACE.
               10  WK01-TEXT-SY00       PIC X(14)
                                               VALUE SPACES.
           04  WK01-SUBSCRIPTED-WORK-AREA.
               05  FILLER                      PIC X(1).
               05  WK01-ACCT-CODE-4003-GA05-F             PIC X(1)
                                               OCCURS 10.
               05  WK01-CODE-TITLE-4034-GA05-F             PIC X(1)
                                               OCCURS 10.
               05  WK01-BAL-AMT-GA05-F             PIC X(1)
                                               OCCURS 10.
               05  WK01-BAL-AMT-GA0A-F             PIC X(1)
                                               OCCURS 10.
               05  WK01-BAL-DC-IND-GA05-F             PIC X(1)
                                               OCCURS 10.
               05  WK01-BAL-DC-IND-GA0A-F             PIC X(1)
                                               OCCURS 10.
