       01  MAP-CONTROL.

    ***Created by Convert/DC version V8R03 on 12/14/00 at 12:00***

           02  FPEMI40-MAP-CONTROL.
           03  FPEMI40T.
           04  WK01-DCXMAPL-PARMS.
               10  WK01-MAPNAME                  PIC X(8)
                                                 VALUE 'FPEMI40I'.
               10  WK01-IKE-LENGTH               PIC S9(8)  COMP
                                                 VALUE 27066.
               10  WK01-TINA-LENGTH              PIC S9(4)  COMP
                                                 VALUE 1869.
           05  WK01-ATTRIBUTES                   PIC X(60)
                                                 VALUE SPACE.
           05  WK01-ATTRIBUTES-ERROR             PIC X(60) VALUE
               'U  BIF'.
           05  WK01-CURSOR-DFLD                  PIC X(36)
                                                 VALUE SPACES.
           05  WK01-CURSOR-DFLD-QUAL             PIC X(30)
                                                 VALUE SPACES.
           05  WK01-ROW                          PIC S9(4) COMP
                                                 VALUE ZERO.
           05  WK01-COLUMN                       PIC S9(4) COMP
                                                 VALUE ZERO.
           05  WK01-ERROR-MSG                    PIC X(80)
                                                 VALUE SPACES.
           05  WK01-MAP-DATA-LEN                 PIC S9(6)
                                                 VALUE ZERO.
           05  WK01-1ST-FLAG                     PIC X(1)
                                                 VALUE 'Y'.
           05  WK01-FLAG-OUTPUT-DATA             PIC X(1)
                                                 VALUE 'Y'.
      *    05  WK01-STATUS-RETURN-FLAG           PIC X(1)
      *                                          VALUE SPACES.
           05  WK01-ALL-BUT-FLAG                 PIC X(1)
                                                 VALUE SPACES.
           05  WK01-FLAG-ALL-FIELDS-CHANGED      PIC X(1)  VALUE 'Y'.
           05  WK01-FLAG-ANY-FIELDS-CHANGED      PIC X(1)  VALUE 'N'.
           05  WK01-FLAG-ALL-FIELDS-ERROR        PIC X(1)  VALUE 'Y'.
           05  WK01-FLAG-ANY-FIELDS-ERROR        PIC X(1)  VALUE 'N'.
           05  WK01-FLAG-ALL-FIELDS-ERASE        PIC X(1)  VALUE 'Y'.
           05  WK01-FLAG-ANY-FIELDS-ERASE        PIC X(1)  VALUE 'Y'.

           05  WK01-VARDATA                      PIC X(11880)
                                                 VALUE SPACES.
           05  FILLER                            PIC X(100)
                                                 VALUE SPACES.
           04  WK01-ELEMENT-AREA.

               10  WK01-ID-SY00-Z              PIC X(1)
                                               VALUE SPACE.
               10  WK01-ID-SY00-F              PIC X(1)
                                               VALUE SPACE.
               10  WK01-ID-SY00-A              PIC X(1)
                                               VALUE SPACE.
               10  WK01-ID-SY00-V              PIC X(1)
                                               VALUE SPACE.
               10  WK01-ID-SY00-O              PIC X(1)
                                               VALUE SPACE.
               10  WK01-ID-SY00       PIC X(8)
                                               VALUE SPACES.
               10  WK01-NAME-6001-SY00-Z              PIC X(1)
                                               VALUE SPACE.
               10  WK01-NAME-6001-SY00-F              PIC X(1)
                                               VALUE SPACE.
               10  WK01-NAME-6001-SY00-A              PIC X(1)
                                               VALUE SPACE.
               10  WK01-NAME-6001-SY00-V              PIC X(1)
                                               VALUE SPACE.
               10  WK01-NAME-6001-SY00-O              PIC X(1)
                                               VALUE SPACE.
               10  WK01-NAME-6001-SY00       PIC X(35)
                                               VALUE SPACES.
               10  WK01-DATE-Z              PIC X(1)
                                               VALUE SPACE.
               10  WK01-DATE-F              PIC X(1)
                                               VALUE SPACE.
               10  WK01-DATE-A              PIC X(1)
                                               VALUE SPACE.
               10  WK01-DATE-V              PIC X(1)
                                               VALUE SPACE.
               10  WK01-DATE-O              PIC X(1)
                                               VALUE SPACE.
               10  WK01-DATE       PIC X(8)
                                               VALUE SPACES.
               10  WK01-HH-MM-TIME-SY00-Z              PIC X(1)
                                               VALUE SPACE.
               10  WK01-HH-MM-TIME-SY00-F              PIC X(1)
                                               VALUE SPACE.
               10  WK01-HH-MM-TIME-SY00-A              PIC X(1)
                                               VALUE SPACE.
               10  WK01-HH-MM-TIME-SY00-V              PIC X(1)
                                               VALUE SPACE.
               10  WK01-HH-MM-TIME-SY00-O              PIC X(1)
                                               VALUE SPACE.
               10  WK01-HH-MM-TIME-SY00       PIC X(4)
                                               VALUE SPACES.
               10  WK01-PM-FLAG-SY00-Z              PIC X(1)
                                               VALUE SPACE.
               10  WK01-PM-FLAG-SY00-F              PIC X(1)
                                               VALUE SPACE.
               10  WK01-PM-FLAG-SY00-A              PIC X(1)
                                               VALUE SPACE.
               10  WK01-PM-FLAG-SY00-V              PIC X(1)
                                               VALUE SPACE.
               10  WK01-PM-FLAG-SY00-O              PIC X(1)
                                               VALUE SPACE.
               10  WK01-PM-FLAG-SY00       PIC X(1)
                                               VALUE SPACES.
               10  WK01-USER-ID-Z              PIC X(1)
                                               VALUE SPACE.
               10  WK01-USER-ID-F              PIC X(1)
                                               VALUE SPACE.
               10  WK01-USER-ID-A              PIC X(1)
                                               VALUE SPACE.
               10  WK01-USER-ID-V              PIC X(1)
                                               VALUE SPACE.
               10  WK01-USER-ID-O              PIC X(1)
                                               VALUE SPACE.
               10  WK01-USER-ID       PIC X(32)
                                               VALUE SPACES.
               10  WK01-RSPNS-ID-SY00-Z              PIC X(1)
                                               VALUE SPACE.
               10  WK01-RSPNS-ID-SY00-F              PIC X(1)
                                               VALUE SPACE.
               10  WK01-RSPNS-ID-SY00-A              PIC X(1)
                                               VALUE SPACE.
               10  WK01-RSPNS-ID-SY00-V              PIC X(1)
                                               VALUE SPACE.
               10  WK01-RSPNS-ID-SY00-O              PIC X(1)
                                               VALUE SPACE.
               10  WK01-RSPNS-ID-SY00       PIC X(8)
                                               VALUE SPACES.
               10  WK01-FUNC-DESCRIPTION-Z              PIC X(1)
                                               VALUE SPACE.
               10  WK01-FUNC-DESCRIPTION-F              PIC X(1)
                                               VALUE SPACE.
               10  WK01-FUNC-DESCRIPTION-A              PIC X(1)
                                               VALUE SPACE.
               10  WK01-FUNC-DESCRIPTION-V              PIC X(1)
                                               VALUE SPACE.
               10  WK01-FUNC-DESCRIPTION-O              PIC X(1)
                                               VALUE SPACE.
               10  WK01-FUNC-DESCRIPTION       PIC X(28)
                                               VALUE SPACES.
               10  WK01-STATUS-CODE-SY00-Z              PIC X(1)
                                               VALUE SPACE.
               10  WK01-STATUS-CODE-SY00-F              PIC X(1)
                                               VALUE SPACE.
               10  WK01-STATUS-CODE-SY00-A              PIC X(1)
                                               VALUE SPACE.
               10  WK01-STATUS-CODE-SY00-V              PIC X(1)
                                               VALUE SPACE.
               10  WK01-STATUS-CODE-SY00-O              PIC X(1)
                                               VALUE SPACE.
               10  WK01-STATUS-CODE-SY00       PIC X(1)
                                               VALUE SPACES.
               10  WK01-KEY-PE40-Z              PIC X(1)
                                               VALUE SPACE.
               10  WK01-KEY-PE40-F              PIC X(1)
                                               VALUE SPACE.
               10  WK01-KEY-PE40-A              PIC X(1)
                                               VALUE SPACE.
               10  WK01-KEY-PE40-V              PIC X(1)
                                               VALUE SPACE.
               10  WK01-KEY-PE40-O              PIC X(1)
                                               VALUE SPACE.
               10  WK01-KEY-PE40       PIC X(35)
                                               VALUE SPACES.
               10  WK01-FLAG-PE40-Z              PIC X(1)
                                               VALUE SPACE.
               10  WK01-FLAG-PE40-F              PIC X(1)
                                               VALUE SPACE.
               10  WK01-FLAG-PE40-A              PIC X(1)
                                               VALUE SPACE.
               10  WK01-FLAG-PE40-V              PIC X(1)
                                               VALUE SPACE.
               10  WK01-FLAG-PE40-O              PIC X(1)
                                               VALUE SPACE.
               10  WK01-FLAG-PE40       PIC X(1)
                                               VALUE SPACES.
               10  WK01-DESC-PE40-Z              PIC X(1)
                                               VALUE SPACE.
               10  WK01-DESC-PE40-F              PIC X(1)
                                               VALUE SPACE.
               10  WK01-DESC-PE40-A              PIC X(1)
                                               VALUE SPACE.
               10  WK01-DESC-PE40-V              PIC X(1)
                                               VALUE SPACE.
               10  WK01-DESC-PE40-O              PIC X(1)
                                               VALUE SPACE.
               10  WK01-DESC-PE40       PIC X(15)
                                               VALUE SPACES.
               10  WK01-TITLE-1-PE40-Z              PIC X(1)
                                               VALUE SPACE.
               10  WK01-TITLE-1-PE40-F              PIC X(1)
                                               VALUE SPACE.
               10  WK01-TITLE-1-PE40-A              PIC X(1)
                                               VALUE SPACE.
               10  WK01-TITLE-1-PE40-V              PIC X(1)
                                               VALUE SPACE.
               10  WK01-TITLE-1-PE40-O              PIC X(1)
                                               VALUE SPACE.
               10  WK01-TITLE-1-PE40       PIC X(14)
                                               VALUE SPACES.
               10  WK01-TITLE-2-PE40-Z              PIC X(1)
                                               VALUE SPACE.
               10  WK01-TITLE-2-PE40-F              PIC X(1)
                                               VALUE SPACE.
               10  WK01-TITLE-2-PE40-A              PIC X(1)
                                               VALUE SPACE.
               10  WK01-TITLE-2-PE40-V              PIC X(1)
                                               VALUE SPACE.
               10  WK01-TITLE-2-PE40-O              PIC X(1)
                                               VALUE SPACE.
               10  WK01-TITLE-2-PE40       PIC X(14)
                                               VALUE SPACES.
               10  WK01-CODE-PE401-Z              PIC X(1)
                                               VALUE SPACE.
               10  WK01-CODE-PE401-F              PIC X(1)
                                               VALUE SPACE.
               10  WK01-CODE-PE401-A              PIC X(1)
                                               VALUE SPACE.
               10  WK01-CODE-PE401-V              PIC X(1)
                                               VALUE SPACE.
               10  WK01-CODE-PE401-O              PIC X(1)
                                               VALUE SPACE.
               10  WK01-CODE-PE401       PIC X(1)
                                               VALUE SPACES.
               10  WK01-PRSN-ID-ONE-PE401-Z              PIC X(1)
                                               VALUE SPACE.
               10  WK01-PRSN-ID-ONE-PE401-F              PIC X(1)
                                               VALUE SPACE.
               10  WK01-PRSN-ID-ONE-PE401-A              PIC X(1)
                                               VALUE SPACE.
               10  WK01-PRSN-ID-ONE-PE401-V              PIC X(1)
                                               VALUE SPACE.
               10  WK01-PRSN-ID-ONE-PE401-O              PIC X(1)
                                               VALUE SPACE.
               10  WK01-PRSN-ID-ONE-PE401       PIC X(3)
                                               VALUE SPACES.
               10  WK01-PRSN-ID-TWO-PE401-Z              PIC X(1)
                                               VALUE SPACE.
               10  WK01-PRSN-ID-TWO-PE401-F              PIC X(1)
                                               VALUE SPACE.
               10  WK01-PRSN-ID-TWO-PE401-A              PIC X(1)
                                               VALUE SPACE.
               10  WK01-PRSN-ID-TWO-PE401-V              PIC X(1)
                                               VALUE SPACE.
               10  WK01-PRSN-ID-TWO-PE401-O              PIC X(1)
                                               VALUE SPACE.
               10  WK01-PRSN-ID-TWO-PE401       PIC X(2)
                                               VALUE SPACES.
               10  WK01-PRSN-ID-THREE-PE401-Z              PIC X(1)
                                               VALUE SPACE.
               10  WK01-PRSN-ID-THREE-PE401-F              PIC X(1)
                                               VALUE SPACE.
               10  WK01-PRSN-ID-THREE-PE401-A              PIC X(1)
                                               VALUE SPACE.
               10  WK01-PRSN-ID-THREE-PE401-V              PIC X(1)
                                               VALUE SPACE.
               10  WK01-PRSN-ID-THREE-PE401-O              PIC X(1)
                                               VALUE SPACE.
               10  WK01-PRSN-ID-THREE-PE401       PIC X(4)
                                               VALUE SPACES.
               10  WK01-KEY-6156-PE401-Z              PIC X(1)
                                               VALUE SPACE.
               10  WK01-KEY-6156-PE401-F              PIC X(1)
                                               VALUE SPACE.
               10  WK01-KEY-6156-PE401-A              PIC X(1)
                                               VALUE SPACE.
               10  WK01-KEY-6156-PE401-V              PIC X(1)
                                               VALUE SPACE.
               10  WK01-KEY-6156-PE401-O              PIC X(1)
                                               VALUE SPACE.
               10  WK01-KEY-6156-PE401       PIC X(35)
                                               VALUE SPACES.
               10  WK01-AREA-PE401-Z              PIC X(1)
                                               VALUE SPACE.
               10  WK01-AREA-PE401-F              PIC X(1)
                                               VALUE SPACE.
               10  WK01-AREA-PE401-A              PIC X(1)
                                               VALUE SPACE.
               10  WK01-AREA-PE401-V              PIC X(1)
                                               VALUE SPACE.
               10  WK01-AREA-PE401-O              PIC X(1)
                                               VALUE SPACE.
               10  WK01-AREA-PE401       PIC X(28)
                                               VALUE SPACES.
               10  WK01-CODE-PE402-Z              PIC X(1)
                                               VALUE SPACE.
               10  WK01-CODE-PE402-F              PIC X(1)
                                               VALUE SPACE.
               10  WK01-CODE-PE402-A              PIC X(1)
                                               VALUE SPACE.
               10  WK01-CODE-PE402-V              PIC X(1)
                                               VALUE SPACE.
               10  WK01-CODE-PE402-O              PIC X(1)
                                               VALUE SPACE.
               10  WK01-CODE-PE402       PIC X(1)
                                               VALUE SPACES.
               10  WK01-PRSN-ID-ONE-PE402-Z              PIC X(1)
                                               VALUE SPACE.
               10  WK01-PRSN-ID-ONE-PE402-F              PIC X(1)
                                               VALUE SPACE.
               10  WK01-PRSN-ID-ONE-PE402-A              PIC X(1)
                                               VALUE SPACE.
               10  WK01-PRSN-ID-ONE-PE402-V              PIC X(1)
                                               VALUE SPACE.
               10  WK01-PRSN-ID-ONE-PE402-O              PIC X(1)
                                               VALUE SPACE.
               10  WK01-PRSN-ID-ONE-PE402       PIC X(3)
                                               VALUE SPACES.
               10  WK01-PRSN-ID-TWO-PE402-Z              PIC X(1)
                                               VALUE SPACE.
               10  WK01-PRSN-ID-TWO-PE402-F              PIC X(1)
                                               VALUE SPACE.
               10  WK01-PRSN-ID-TWO-PE402-A              PIC X(1)
                                               VALUE SPACE.
               10  WK01-PRSN-ID-TWO-PE402-V              PIC X(1)
                                               VALUE SPACE.
               10  WK01-PRSN-ID-TWO-PE402-O              PIC X(1)
                                               VALUE SPACE.
               10  WK01-PRSN-ID-TWO-PE402       PIC X(2)
                                               VALUE SPACES.
               10  WK01-PRSN-ID-THREE-PE402-Z              PIC X(1)
                                               VALUE SPACE.
               10  WK01-PRSN-ID-THREE-PE402-F              PIC X(1)
                                               VALUE SPACE.
               10  WK01-PRSN-ID-THREE-PE402-A              PIC X(1)
                                               VALUE SPACE.
               10  WK01-PRSN-ID-THREE-PE402-V              PIC X(1)
                                               VALUE SPACE.
               10  WK01-PRSN-ID-THREE-PE402-O              PIC X(1)
                                               VALUE SPACE.
               10  WK01-PRSN-ID-THREE-PE402       PIC X(4)
                                               VALUE SPACES.
               10  WK01-KEY-6156-PE402-Z              PIC X(1)
                                               VALUE SPACE.
               10  WK01-KEY-6156-PE402-F              PIC X(1)
                                               VALUE SPACE.
               10  WK01-KEY-6156-PE402-A              PIC X(1)
                                               VALUE SPACE.
               10  WK01-KEY-6156-PE402-V              PIC X(1)
                                               VALUE SPACE.
               10  WK01-KEY-6156-PE402-O              PIC X(1)
                                               VALUE SPACE.
               10  WK01-KEY-6156-PE402       PIC X(35)
                                               VALUE SPACES.
               10  WK01-AREA-PE402-Z              PIC X(1)
                                               VALUE SPACE.
               10  WK01-AREA-PE402-F              PIC X(1)
                                               VALUE SPACE.
               10  WK01-AREA-PE402-A              PIC X(1)
                                               VALUE SPACE.
               10  WK01-AREA-PE402-V              PIC X(1)
                                               VALUE SPACE.
               10  WK01-AREA-PE402-O              PIC X(1)
                                               VALUE SPACE.
               10  WK01-AREA-PE402       PIC X(28)
                                               VALUE SPACES.
               10  WK01-CODE-PE403-Z              PIC X(1)
                                               VALUE SPACE.
               10  WK01-CODE-PE403-F              PIC X(1)
                                               VALUE SPACE.
               10  WK01-CODE-PE403-A              PIC X(1)
                                               VALUE SPACE.
               10  WK01-CODE-PE403-V              PIC X(1)
                                               VALUE SPACE.
               10  WK01-CODE-PE403-O              PIC X(1)
                                               VALUE SPACE.
               10  WK01-CODE-PE403       PIC X(1)
                                               VALUE SPACES.
               10  WK01-PRSN-ID-ONE-PE403-Z              PIC X(1)
                                               VALUE SPACE.
               10  WK01-PRSN-ID-ONE-PE403-F              PIC X(1)
                                               VALUE SPACE.
               10  WK01-PRSN-ID-ONE-PE403-A              PIC X(1)
                                               VALUE SPACE.
               10  WK01-PRSN-ID-ONE-PE403-V              PIC X(1)
                                               VALUE SPACE.
               10  WK01-PRSN-ID-ONE-PE403-O              PIC X(1)
                                               VALUE SPACE.
               10  WK01-PRSN-ID-ONE-PE403       PIC X(3)
                                               VALUE SPACES.
               10  WK01-PRSN-ID-TWO-PE403-Z              PIC X(1)
                                               VALUE SPACE.
               10  WK01-PRSN-ID-TWO-PE403-F              PIC X(1)
                                               VALUE SPACE.
               10  WK01-PRSN-ID-TWO-PE403-A              PIC X(1)
                                               VALUE SPACE.
               10  WK01-PRSN-ID-TWO-PE403-V              PIC X(1)
                                               VALUE SPACE.
               10  WK01-PRSN-ID-TWO-PE403-O              PIC X(1)
                                               VALUE SPACE.
               10  WK01-PRSN-ID-TWO-PE403       PIC X(2)
                                               VALUE SPACES.
               10  WK01-PRSN-ID-THREE-PE403-Z              PIC X(1)
                                               VALUE SPACE.
               10  WK01-PRSN-ID-THREE-PE403-F              PIC X(1)
                                               VALUE SPACE.
               10  WK01-PRSN-ID-THREE-PE403-A              PIC X(1)
                                               VALUE SPACE.
               10  WK01-PRSN-ID-THREE-PE403-V              PIC X(1)
                                               VALUE SPACE.
               10  WK01-PRSN-ID-THREE-PE403-O              PIC X(1)
                                               VALUE SPACE.
               10  WK01-PRSN-ID-THREE-PE403       PIC X(4)
                                               VALUE SPACES.
               10  WK01-KEY-6156-PE403-Z              PIC X(1)
                                               VALUE SPACE.
               10  WK01-KEY-6156-PE403-F              PIC X(1)
                                               VALUE SPACE.
               10  WK01-KEY-6156-PE403-A              PIC X(1)
                                               VALUE SPACE.
               10  WK01-KEY-6156-PE403-V              PIC X(1)
                                               VALUE SPACE.
               10  WK01-KEY-6156-PE403-O              PIC X(1)
                                               VALUE SPACE.
               10  WK01-KEY-6156-PE403       PIC X(35)
                                               VALUE SPACES.
               10  WK01-AREA-PE403-Z              PIC X(1)
                                               VALUE SPACE.
               10  WK01-AREA-PE403-F              PIC X(1)
                                               VALUE SPACE.
               10  WK01-AREA-PE403-A              PIC X(1)
                                               VALUE SPACE.
               10  WK01-AREA-PE403-V              PIC X(1)
                                               VALUE SPACE.
               10  WK01-AREA-PE403-O              PIC X(1)
                                               VALUE SPACE.
               10  WK01-AREA-PE403       PIC X(28)
                                               VALUE SPACES.
               10  WK01-CODE-PE404-Z              PIC X(1)
                                               VALUE SPACE.
               10  WK01-CODE-PE404-F              PIC X(1)
                                               VALUE SPACE.
               10  WK01-CODE-PE404-A              PIC X(1)
                                               VALUE SPACE.
               10  WK01-CODE-PE404-V              PIC X(1)
                                               VALUE SPACE.
               10  WK01-CODE-PE404-O              PIC X(1)
                                               VALUE SPACE.
               10  WK01-CODE-PE404       PIC X(1)
                                               VALUE SPACES.
               10  WK01-PRSN-ID-ONE-PE404-Z              PIC X(1)
                                               VALUE SPACE.
               10  WK01-PRSN-ID-ONE-PE404-F              PIC X(1)
                                               VALUE SPACE.
               10  WK01-PRSN-ID-ONE-PE404-A              PIC X(1)
                                               VALUE SPACE.
               10  WK01-PRSN-ID-ONE-PE404-V              PIC X(1)
                                               VALUE SPACE.
               10  WK01-PRSN-ID-ONE-PE404-O              PIC X(1)
                                               VALUE SPACE.
               10  WK01-PRSN-ID-ONE-PE404       PIC X(3)
                                               VALUE SPACES.
               10  WK01-PRSN-ID-TWO-PE404-Z              PIC X(1)
                                               VALUE SPACE.
               10  WK01-PRSN-ID-TWO-PE404-F              PIC X(1)
                                               VALUE SPACE.
               10  WK01-PRSN-ID-TWO-PE404-A              PIC X(1)
                                               VALUE SPACE.
               10  WK01-PRSN-ID-TWO-PE404-V              PIC X(1)
                                               VALUE SPACE.
               10  WK01-PRSN-ID-TWO-PE404-O              PIC X(1)
                                               VALUE SPACE.
               10  WK01-PRSN-ID-TWO-PE404       PIC X(2)
                                               VALUE SPACES.
               10  WK01-PRSN-ID-THREE-PE404-Z              PIC X(1)
                                               VALUE SPACE.
               10  WK01-PRSN-ID-THREE-PE404-F              PIC X(1)
                                               VALUE SPACE.
               10  WK01-PRSN-ID-THREE-PE404-A              PIC X(1)
                                               VALUE SPACE.
               10  WK01-PRSN-ID-THREE-PE404-V              PIC X(1)
                                               VALUE SPACE.
               10  WK01-PRSN-ID-THREE-PE404-O              PIC X(1)
                                               VALUE SPACE.
               10  WK01-PRSN-ID-THREE-PE404       PIC X(4)
                                               VALUE SPACES.
               10  WK01-KEY-6156-PE404-Z              PIC X(1)
                                               VALUE SPACE.
               10  WK01-KEY-6156-PE404-F              PIC X(1)
                                               VALUE SPACE.
               10  WK01-KEY-6156-PE404-A              PIC X(1)
                                               VALUE SPACE.
               10  WK01-KEY-6156-PE404-V              PIC X(1)
                                               VALUE SPACE.
               10  WK01-KEY-6156-PE404-O              PIC X(1)
                                               VALUE SPACE.
               10  WK01-KEY-6156-PE404       PIC X(35)
                                               VALUE SPACES.
               10  WK01-AREA-PE404-Z              PIC X(1)
                                               VALUE SPACE.
               10  WK01-AREA-PE404-F              PIC X(1)
                                               VALUE SPACE.
               10  WK01-AREA-PE404-A              PIC X(1)
                                               VALUE SPACE.
               10  WK01-AREA-PE404-V              PIC X(1)
                                               VALUE SPACE.
               10  WK01-AREA-PE404-O              PIC X(1)
                                               VALUE SPACE.
               10  WK01-AREA-PE404       PIC X(28)
                                               VALUE SPACES.
               10  WK01-CODE-PE405-Z              PIC X(1)
                                               VALUE SPACE.
               10  WK01-CODE-PE405-F              PIC X(1)
                                               VALUE SPACE.
               10  WK01-CODE-PE405-A              PIC X(1)
                                               VALUE SPACE.
               10  WK01-CODE-PE405-V              PIC X(1)
                                               VALUE SPACE.
               10  WK01-CODE-PE405-O              PIC X(1)
                                               VALUE SPACE.
               10  WK01-CODE-PE405       PIC X(1)
                                               VALUE SPACES.
               10  WK01-PRSN-ID-ONE-PE405-Z              PIC X(1)
                                               VALUE SPACE.
               10  WK01-PRSN-ID-ONE-PE405-F              PIC X(1)
                                               VALUE SPACE.
               10  WK01-PRSN-ID-ONE-PE405-A              PIC X(1)
                                               VALUE SPACE.
               10  WK01-PRSN-ID-ONE-PE405-V              PIC X(1)
                                               VALUE SPACE.
               10  WK01-PRSN-ID-ONE-PE405-O              PIC X(1)
                                               VALUE SPACE.
               10  WK01-PRSN-ID-ONE-PE405       PIC X(3)
                                               VALUE SPACES.
               10  WK01-PRSN-ID-TWO-PE405-Z              PIC X(1)
                                               VALUE SPACE.
               10  WK01-PRSN-ID-TWO-PE405-F              PIC X(1)
                                               VALUE SPACE.
               10  WK01-PRSN-ID-TWO-PE405-A              PIC X(1)
                                               VALUE SPACE.
               10  WK01-PRSN-ID-TWO-PE405-V              PIC X(1)
                                               VALUE SPACE.
               10  WK01-PRSN-ID-TWO-PE405-O              PIC X(1)
                                               VALUE SPACE.
               10  WK01-PRSN-ID-TWO-PE405       PIC X(2)
                                               VALUE SPACES.
               10  WK01-PRSN-ID-THREE-PE405-Z              PIC X(1)
                                               VALUE SPACE.
               10  WK01-PRSN-ID-THREE-PE405-F              PIC X(1)
                                               VALUE SPACE.
               10  WK01-PRSN-ID-THREE-PE405-A              PIC X(1)
                                               VALUE SPACE.
               10  WK01-PRSN-ID-THREE-PE405-V              PIC X(1)
                                               VALUE SPACE.
               10  WK01-PRSN-ID-THREE-PE405-O              PIC X(1)
                                               VALUE SPACE.
               10  WK01-PRSN-ID-THREE-PE405       PIC X(4)
                                               VALUE SPACES.
               10  WK01-KEY-6156-PE405-Z              PIC X(1)
                                               VALUE SPACE.
               10  WK01-KEY-6156-PE405-F              PIC X(1)
                                               VALUE SPACE.
               10  WK01-KEY-6156-PE405-A              PIC X(1)
                                               VALUE SPACE.
               10  WK01-KEY-6156-PE405-V              PIC X(1)
                                               VALUE SPACE.
               10  WK01-KEY-6156-PE405-O              PIC X(1)
                                               VALUE SPACE.
               10  WK01-KEY-6156-PE405       PIC X(35)
                                               VALUE SPACES.
               10  WK01-AREA-PE405-Z              PIC X(1)
                                               VALUE SPACE.
               10  WK01-AREA-PE405-F              PIC X(1)
                                               VALUE SPACE.
               10  WK01-AREA-PE405-A              PIC X(1)
                                               VALUE SPACE.
               10  WK01-AREA-PE405-V              PIC X(1)
                                               VALUE SPACE.
               10  WK01-AREA-PE405-O              PIC X(1)
                                               VALUE SPACE.
               10  WK01-AREA-PE405       PIC X(28)
                                               VALUE SPACES.
               10  WK01-CODE-PE406-Z              PIC X(1)
                                               VALUE SPACE.
               10  WK01-CODE-PE406-F              PIC X(1)
                                               VALUE SPACE.
               10  WK01-CODE-PE406-A              PIC X(1)
                                               VALUE SPACE.
               10  WK01-CODE-PE406-V              PIC X(1)
                                               VALUE SPACE.
               10  WK01-CODE-PE406-O              PIC X(1)
                                               VALUE SPACE.
               10  WK01-CODE-PE406       PIC X(1)
                                               VALUE SPACES.
               10  WK01-PRSN-ID-ONE-PE406-Z              PIC X(1)
                                               VALUE SPACE.
               10  WK01-PRSN-ID-ONE-PE406-F              PIC X(1)
                                               VALUE SPACE.
               10  WK01-PRSN-ID-ONE-PE406-A              PIC X(1)
                                               VALUE SPACE.
               10  WK01-PRSN-ID-ONE-PE406-V              PIC X(1)
                                               VALUE SPACE.
               10  WK01-PRSN-ID-ONE-PE406-O              PIC X(1)
                                               VALUE SPACE.
               10  WK01-PRSN-ID-ONE-PE406       PIC X(3)
                                               VALUE SPACES.
               10  WK01-PRSN-ID-TWO-PE406-Z              PIC X(1)
                                               VALUE SPACE.
               10  WK01-PRSN-ID-TWO-PE406-F              PIC X(1)
                                               VALUE SPACE.
               10  WK01-PRSN-ID-TWO-PE406-A              PIC X(1)
                                               VALUE SPACE.
               10  WK01-PRSN-ID-TWO-PE406-V              PIC X(1)
                                               VALUE SPACE.
               10  WK01-PRSN-ID-TWO-PE406-O              PIC X(1)
                                               VALUE SPACE.
               10  WK01-PRSN-ID-TWO-PE406       PIC X(2)
                                               VALUE SPACES.
               10  WK01-PRSN-ID-THREE-PE406-Z              PIC X(1)
                                               VALUE SPACE.
               10  WK01-PRSN-ID-THREE-PE406-F              PIC X(1)
                                               VALUE SPACE.
               10  WK01-PRSN-ID-THREE-PE406-A              PIC X(1)
                                               VALUE SPACE.
               10  WK01-PRSN-ID-THREE-PE406-V              PIC X(1)
                                               VALUE SPACE.
               10  WK01-PRSN-ID-THREE-PE406-O              PIC X(1)
                                               VALUE SPACE.
               10  WK01-PRSN-ID-THREE-PE406       PIC X(4)
                                               VALUE SPACES.
               10  WK01-KEY-6156-PE406-Z              PIC X(1)
                                               VALUE SPACE.
               10  WK01-KEY-6156-PE406-F              PIC X(1)
                                               VALUE SPACE.
               10  WK01-KEY-6156-PE406-A              PIC X(1)
                                               VALUE SPACE.
               10  WK01-KEY-6156-PE406-V              PIC X(1)
                                               VALUE SPACE.
               10  WK01-KEY-6156-PE406-O              PIC X(1)
                                               VALUE SPACE.
               10  WK01-KEY-6156-PE406       PIC X(35)
                                               VALUE SPACES.
               10  WK01-AREA-PE406-Z              PIC X(1)
                                               VALUE SPACE.
               10  WK01-AREA-PE406-F              PIC X(1)
                                               VALUE SPACE.
               10  WK01-AREA-PE406-A              PIC X(1)
                                               VALUE SPACE.
               10  WK01-AREA-PE406-V              PIC X(1)
                                               VALUE SPACE.
               10  WK01-AREA-PE406-O              PIC X(1)
                                               VALUE SPACE.
               10  WK01-AREA-PE406       PIC X(28)
                                               VALUE SPACES.
               10  WK01-CODE-PE407-Z              PIC X(1)
                                               VALUE SPACE.
               10  WK01-CODE-PE407-F              PIC X(1)
                                               VALUE SPACE.
               10  WK01-CODE-PE407-A              PIC X(1)
                                               VALUE SPACE.
               10  WK01-CODE-PE407-V              PIC X(1)
                                               VALUE SPACE.
               10  WK01-CODE-PE407-O              PIC X(1)
                                               VALUE SPACE.
               10  WK01-CODE-PE407       PIC X(1)
                                               VALUE SPACES.
               10  WK01-PRSN-ID-ONE-PE407-Z              PIC X(1)
                                               VALUE SPACE.
               10  WK01-PRSN-ID-ONE-PE407-F              PIC X(1)
                                               VALUE SPACE.
               10  WK01-PRSN-ID-ONE-PE407-A              PIC X(1)
                                               VALUE SPACE.
               10  WK01-PRSN-ID-ONE-PE407-V              PIC X(1)
                                               VALUE SPACE.
               10  WK01-PRSN-ID-ONE-PE407-O              PIC X(1)
                                               VALUE SPACE.
               10  WK01-PRSN-ID-ONE-PE407       PIC X(3)
                                               VALUE SPACES.
               10  WK01-PRSN-ID-TWO-PE407-Z              PIC X(1)
                                               VALUE SPACE.
               10  WK01-PRSN-ID-TWO-PE407-F              PIC X(1)
                                               VALUE SPACE.
               10  WK01-PRSN-ID-TWO-PE407-A              PIC X(1)
                                               VALUE SPACE.
               10  WK01-PRSN-ID-TWO-PE407-V              PIC X(1)
                                               VALUE SPACE.
               10  WK01-PRSN-ID-TWO-PE407-O              PIC X(1)
                                               VALUE SPACE.
               10  WK01-PRSN-ID-TWO-PE407       PIC X(2)
                                               VALUE SPACES.
               10  WK01-PRSN-ID-THREE-PE407-Z              PIC X(1)
                                               VALUE SPACE.
               10  WK01-PRSN-ID-THREE-PE407-F              PIC X(1)
                                               VALUE SPACE.
               10  WK01-PRSN-ID-THREE-PE407-A              PIC X(1)
                                               VALUE SPACE.
               10  WK01-PRSN-ID-THREE-PE407-V              PIC X(1)
                                               VALUE SPACE.
               10  WK01-PRSN-ID-THREE-PE407-O              PIC X(1)
                                               VALUE SPACE.
               10  WK01-PRSN-ID-THREE-PE407       PIC X(4)
                                               VALUE SPACES.
               10  WK01-KEY-6156-PE407-Z              PIC X(1)
                                               VALUE SPACE.
               10  WK01-KEY-6156-PE407-F              PIC X(1)
                                               VALUE SPACE.
               10  WK01-KEY-6156-PE407-A              PIC X(1)
                                               VALUE SPACE.
               10  WK01-KEY-6156-PE407-V              PIC X(1)
                                               VALUE SPACE.
               10  WK01-KEY-6156-PE407-O              PIC X(1)
                                               VALUE SPACE.
               10  WK01-KEY-6156-PE407       PIC X(35)
                                               VALUE SPACES.
               10  WK01-AREA-PE407-Z              PIC X(1)
                                               VALUE SPACE.
               10  WK01-AREA-PE407-F              PIC X(1)
                                               VALUE SPACE.
               10  WK01-AREA-PE407-A              PIC X(1)
                                               VALUE SPACE.
               10  WK01-AREA-PE407-V              PIC X(1)
                                               VALUE SPACE.
               10  WK01-AREA-PE407-O              PIC X(1)
                                               VALUE SPACE.
               10  WK01-AREA-PE407       PIC X(28)
                                               VALUE SPACES.
               10  WK01-CODE-PE408-Z              PIC X(1)
                                               VALUE SPACE.
               10  WK01-CODE-PE408-F              PIC X(1)
                                               VALUE SPACE.
               10  WK01-CODE-PE408-A              PIC X(1)
                                               VALUE SPACE.
               10  WK01-CODE-PE408-V              PIC X(1)
                                               VALUE SPACE.
               10  WK01-CODE-PE408-O              PIC X(1)
                                               VALUE SPACE.
               10  WK01-CODE-PE408       PIC X(1)
                                               VALUE SPACES.
               10  WK01-PRSN-ID-ONE-PE408-Z              PIC X(1)
                                               VALUE SPACE.
               10  WK01-PRSN-ID-ONE-PE408-F              PIC X(1)
                                               VALUE SPACE.
               10  WK01-PRSN-ID-ONE-PE408-A              PIC X(1)
                                               VALUE SPACE.
               10  WK01-PRSN-ID-ONE-PE408-V              PIC X(1)
                                               VALUE SPACE.
               10  WK01-PRSN-ID-ONE-PE408-O              PIC X(1)
                                               VALUE SPACE.
               10  WK01-PRSN-ID-ONE-PE408       PIC X(3)
                                               VALUE SPACES.
               10  WK01-PRSN-ID-TWO-PE408-Z              PIC X(1)
                                               VALUE SPACE.
               10  WK01-PRSN-ID-TWO-PE408-F              PIC X(1)
                                               VALUE SPACE.
               10  WK01-PRSN-ID-TWO-PE408-A              PIC X(1)
                                               VALUE SPACE.
               10  WK01-PRSN-ID-TWO-PE408-V              PIC X(1)
                                               VALUE SPACE.
               10  WK01-PRSN-ID-TWO-PE408-O              PIC X(1)
                                               VALUE SPACE.
               10  WK01-PRSN-ID-TWO-PE408       PIC X(2)
                                               VALUE SPACES.
               10  WK01-PRSN-ID-THREE-PE408-Z              PIC X(1)
                                               VALUE SPACE.
               10  WK01-PRSN-ID-THREE-PE408-F              PIC X(1)
                                               VALUE SPACE.
               10  WK01-PRSN-ID-THREE-PE408-A              PIC X(1)
                                               VALUE SPACE.
               10  WK01-PRSN-ID-THREE-PE408-V              PIC X(1)
                                               VALUE SPACE.
               10  WK01-PRSN-ID-THREE-PE408-O              PIC X(1)
                                               VALUE SPACE.
               10  WK01-PRSN-ID-THREE-PE408       PIC X(4)
                                               VALUE SPACES.
               10  WK01-KEY-6156-PE408-Z              PIC X(1)
                                               VALUE SPACE.
               10  WK01-KEY-6156-PE408-F              PIC X(1)
                                               VALUE SPACE.
               10  WK01-KEY-6156-PE408-A              PIC X(1)
                                               VALUE SPACE.
               10  WK01-KEY-6156-PE408-V              PIC X(1)
                                               VALUE SPACE.
               10  WK01-KEY-6156-PE408-O              PIC X(1)
                                               VALUE SPACE.
               10  WK01-KEY-6156-PE408       PIC X(35)
                                               VALUE SPACES.
               10  WK01-AREA-PE408-Z              PIC X(1)
                                               VALUE SPACE.
               10  WK01-AREA-PE408-F              PIC X(1)
                                               VALUE SPACE.
               10  WK01-AREA-PE408-A              PIC X(1)
                                               VALUE SPACE.
               10  WK01-AREA-PE408-V              PIC X(1)
                                               VALUE SPACE.
               10  WK01-AREA-PE408-O              PIC X(1)
                                               VALUE SPACE.
               10  WK01-AREA-PE408       PIC X(28)
                                               VALUE SPACES.
               10  WK01-CODE-PE409-Z              PIC X(1)
                                               VALUE SPACE.
               10  WK01-CODE-PE409-F              PIC X(1)
                                               VALUE SPACE.
               10  WK01-CODE-PE409-A              PIC X(1)
                                               VALUE SPACE.
               10  WK01-CODE-PE409-V              PIC X(1)
                                               VALUE SPACE.
               10  WK01-CODE-PE409-O              PIC X(1)
                                               VALUE SPACE.
               10  WK01-CODE-PE409       PIC X(1)
                                               VALUE SPACES.
               10  WK01-PRSN-ID-ONE-PE409-Z              PIC X(1)
                                               VALUE SPACE.
               10  WK01-PRSN-ID-ONE-PE409-F              PIC X(1)
                                               VALUE SPACE.
               10  WK01-PRSN-ID-ONE-PE409-A              PIC X(1)
                                               VALUE SPACE.
               10  WK01-PRSN-ID-ONE-PE409-V              PIC X(1)
                                               VALUE SPACE.
               10  WK01-PRSN-ID-ONE-PE409-O              PIC X(1)
                                               VALUE SPACE.
               10  WK01-PRSN-ID-ONE-PE409       PIC X(3)
                                               VALUE SPACES.
               10  WK01-PRSN-ID-TWO-PE409-Z              PIC X(1)
                                               VALUE SPACE.
               10  WK01-PRSN-ID-TWO-PE409-F              PIC X(1)
                                               VALUE SPACE.
               10  WK01-PRSN-ID-TWO-PE409-A              PIC X(1)
                                               VALUE SPACE.
               10  WK01-PRSN-ID-TWO-PE409-V              PIC X(1)
                                               VALUE SPACE.
               10  WK01-PRSN-ID-TWO-PE409-O              PIC X(1)
                                               VALUE SPACE.
               10  WK01-PRSN-ID-TWO-PE409       PIC X(2)
                                               VALUE SPACES.
               10  WK01-PRSN-ID-THREE-PE409-Z              PIC X(1)
                                               VALUE SPACE.
               10  WK01-PRSN-ID-THREE-PE409-F              PIC X(1)
                                               VALUE SPACE.
               10  WK01-PRSN-ID-THREE-PE409-A              PIC X(1)
                                               VALUE SPACE.
               10  WK01-PRSN-ID-THREE-PE409-V              PIC X(1)
                                               VALUE SPACE.
               10  WK01-PRSN-ID-THREE-PE409-O              PIC X(1)
                                               VALUE SPACE.
               10  WK01-PRSN-ID-THREE-PE409       PIC X(4)
                                               VALUE SPACES.
               10  WK01-KEY-6156-PE409-Z              PIC X(1)
                                               VALUE SPACE.
               10  WK01-KEY-6156-PE409-F              PIC X(1)
                                               VALUE SPACE.
               10  WK01-KEY-6156-PE409-A              PIC X(1)
                                               VALUE SPACE.
               10  WK01-KEY-6156-PE409-V              PIC X(1)
                                               VALUE SPACE.
               10  WK01-KEY-6156-PE409-O              PIC X(1)
                                               VALUE SPACE.
               10  WK01-KEY-6156-PE409       PIC X(35)
                                               VALUE SPACES.
               10  WK01-AREA-PE409-Z              PIC X(1)
                                               VALUE SPACE.
               10  WK01-AREA-PE409-F              PIC X(1)
                                               VALUE SPACE.
               10  WK01-AREA-PE409-A              PIC X(1)
                                               VALUE SPACE.
               10  WK01-AREA-PE409-V              PIC X(1)
                                               VALUE SPACE.
               10  WK01-AREA-PE409-O              PIC X(1)
                                               VALUE SPACE.
               10  WK01-AREA-PE409       PIC X(28)
                                               VALUE SPACES.
               10  WK01-CODE-PE4010-Z              PIC X(1)
                                               VALUE SPACE.
               10  WK01-CODE-PE4010-F              PIC X(1)
                                               VALUE SPACE.
               10  WK01-CODE-PE4010-A              PIC X(1)
                                               VALUE SPACE.
               10  WK01-CODE-PE4010-V              PIC X(1)
                                               VALUE SPACE.
               10  WK01-CODE-PE4010-O              PIC X(1)
                                               VALUE SPACE.
               10  WK01-CODE-PE4010       PIC X(1)
                                               VALUE SPACES.
               10  WK01-PRSN-ID-ONE-PE4010-Z              PIC X(1)
                                               VALUE SPACE.
               10  WK01-PRSN-ID-ONE-PE4010-F              PIC X(1)
                                               VALUE SPACE.
               10  WK01-PRSN-ID-ONE-PE4010-A              PIC X(1)
                                               VALUE SPACE.
               10  WK01-PRSN-ID-ONE-PE4010-V              PIC X(1)
                                               VALUE SPACE.
               10  WK01-PRSN-ID-ONE-PE4010-O              PIC X(1)
                                               VALUE SPACE.
               10  WK01-PRSN-ID-ONE-PE4010       PIC X(3)
                                               VALUE SPACES.
               10  WK01-PRSN-ID-TWO-PE4010-Z              PIC X(1)
                                               VALUE SPACE.
               10  WK01-PRSN-ID-TWO-PE4010-F              PIC X(1)
                                               VALUE SPACE.
               10  WK01-PRSN-ID-TWO-PE4010-A              PIC X(1)
                                               VALUE SPACE.
               10  WK01-PRSN-ID-TWO-PE4010-V              PIC X(1)
                                               VALUE SPACE.
               10  WK01-PRSN-ID-TWO-PE4010-O              PIC X(1)
                                               VALUE SPACE.
               10  WK01-PRSN-ID-TWO-PE4010       PIC X(2)
                                               VALUE SPACES.
               10  WK01-PRSN-ID-THREE-PE4010-Z              PIC X(1)
                                               VALUE SPACE.
               10  WK01-PRSN-ID-THREE-PE4010-F              PIC X(1)
                                               VALUE SPACE.
               10  WK01-PRSN-ID-THREE-PE4010-A              PIC X(1)
                                               VALUE SPACE.
               10  WK01-PRSN-ID-THREE-PE4010-V              PIC X(1)
                                               VALUE SPACE.
               10  WK01-PRSN-ID-THREE-PE4010-O              PIC X(1)
                                               VALUE SPACE.
               10  WK01-PRSN-ID-THREE-PE4010       PIC X(4)
                                               VALUE SPACES.
               10  WK01-KEY-6156-PE4010-Z              PIC X(1)
                                               VALUE SPACE.
               10  WK01-KEY-6156-PE4010-F              PIC X(1)
                                               VALUE SPACE.
               10  WK01-KEY-6156-PE4010-A              PIC X(1)
                                               VALUE SPACE.
               10  WK01-KEY-6156-PE4010-V              PIC X(1)
                                               VALUE SPACE.
               10  WK01-KEY-6156-PE4010-O              PIC X(1)
                                               VALUE SPACE.
               10  WK01-KEY-6156-PE4010       PIC X(35)
                                               VALUE SPACES.
               10  WK01-AREA-PE4010-Z              PIC X(1)
                                               VALUE SPACE.
               10  WK01-AREA-PE4010-F              PIC X(1)
                                               VALUE SPACE.
               10  WK01-AREA-PE4010-A              PIC X(1)
                                               VALUE SPACE.
               10  WK01-AREA-PE4010-V              PIC X(1)
                                               VALUE SPACE.
               10  WK01-AREA-PE4010-O              PIC X(1)
                                               VALUE SPACE.
               10  WK01-AREA-PE4010       PIC X(28)
                                               VALUE SPACES.
               10  WK01-CODE-PE4011-Z              PIC X(1)
                                               VALUE SPACE.
               10  WK01-CODE-PE4011-F              PIC X(1)
                                               VALUE SPACE.
               10  WK01-CODE-PE4011-A              PIC X(1)
                                               VALUE SPACE.
               10  WK01-CODE-PE4011-V              PIC X(1)
                                               VALUE SPACE.
               10  WK01-CODE-PE4011-O              PIC X(1)
                                               VALUE SPACE.
               10  WK01-CODE-PE4011       PIC X(1)
                                               VALUE SPACES.
               10  WK01-PRSN-ID-ONE-PE4011-Z              PIC X(1)
                                               VALUE SPACE.
               10  WK01-PRSN-ID-ONE-PE4011-F              PIC X(1)
                                               VALUE SPACE.
               10  WK01-PRSN-ID-ONE-PE4011-A              PIC X(1)
                                               VALUE SPACE.
               10  WK01-PRSN-ID-ONE-PE4011-V              PIC X(1)
                                               VALUE SPACE.
               10  WK01-PRSN-ID-ONE-PE4011-O              PIC X(1)
                                               VALUE SPACE.
               10  WK01-PRSN-ID-ONE-PE4011       PIC X(3)
                                               VALUE SPACES.
               10  WK01-PRSN-ID-TWO-PE4011-Z              PIC X(1)
                                               VALUE SPACE.
               10  WK01-PRSN-ID-TWO-PE4011-F              PIC X(1)
                                               VALUE SPACE.
               10  WK01-PRSN-ID-TWO-PE4011-A              PIC X(1)
                                               VALUE SPACE.
               10  WK01-PRSN-ID-TWO-PE4011-V              PIC X(1)
                                               VALUE SPACE.
               10  WK01-PRSN-ID-TWO-PE4011-O              PIC X(1)
                                               VALUE SPACE.
               10  WK01-PRSN-ID-TWO-PE4011       PIC X(2)
                                               VALUE SPACES.
               10  WK01-PRSN-ID-THREE-PE4011-Z              PIC X(1)
                                               VALUE SPACE.
               10  WK01-PRSN-ID-THREE-PE4011-F              PIC X(1)
                                               VALUE SPACE.
               10  WK01-PRSN-ID-THREE-PE4011-A              PIC X(1)
                                               VALUE SPACE.
               10  WK01-PRSN-ID-THREE-PE4011-V              PIC X(1)
                                               VALUE SPACE.
               10  WK01-PRSN-ID-THREE-PE4011-O              PIC X(1)
                                               VALUE SPACE.
               10  WK01-PRSN-ID-THREE-PE4011       PIC X(4)
                                               VALUE SPACES.
               10  WK01-KEY-6156-PE4011-Z              PIC X(1)
                                               VALUE SPACE.
               10  WK01-KEY-6156-PE4011-F              PIC X(1)
                                               VALUE SPACE.
               10  WK01-KEY-6156-PE4011-A              PIC X(1)
                                               VALUE SPACE.
               10  WK01-KEY-6156-PE4011-V              PIC X(1)
                                               VALUE SPACE.
               10  WK01-KEY-6156-PE4011-O              PIC X(1)
                                               VALUE SPACE.
               10  WK01-KEY-6156-PE4011       PIC X(35)
                                               VALUE SPACES.
               10  WK01-AREA-PE4011-Z              PIC X(1)
                                               VALUE SPACE.
               10  WK01-AREA-PE4011-F              PIC X(1)
                                               VALUE SPACE.
               10  WK01-AREA-PE4011-A              PIC X(1)
                                               VALUE SPACE.
               10  WK01-AREA-PE4011-V              PIC X(1)
                                               VALUE SPACE.
               10  WK01-AREA-PE4011-O              PIC X(1)
                                               VALUE SPACE.
               10  WK01-AREA-PE4011       PIC X(28)
                                               VALUE SPACES.
               10  WK01-CODE-PE4012-Z              PIC X(1)
                                               VALUE SPACE.
               10  WK01-CODE-PE4012-F              PIC X(1)
                                               VALUE SPACE.
               10  WK01-CODE-PE4012-A              PIC X(1)
                                               VALUE SPACE.
               10  WK01-CODE-PE4012-V              PIC X(1)
                                               VALUE SPACE.
               10  WK01-CODE-PE4012-O              PIC X(1)
                                               VALUE SPACE.
               10  WK01-CODE-PE4012       PIC X(1)
                                               VALUE SPACES.
               10  WK01-PRSN-ID-ONE-PE4012-Z              PIC X(1)
                                               VALUE SPACE.
               10  WK01-PRSN-ID-ONE-PE4012-F              PIC X(1)
                                               VALUE SPACE.
               10  WK01-PRSN-ID-ONE-PE4012-A              PIC X(1)
                                               VALUE SPACE.
               10  WK01-PRSN-ID-ONE-PE4012-V              PIC X(1)
                                               VALUE SPACE.
               10  WK01-PRSN-ID-ONE-PE4012-O              PIC X(1)
                                               VALUE SPACE.
               10  WK01-PRSN-ID-ONE-PE4012       PIC X(3)
                                               VALUE SPACES.
               10  WK01-PRSN-ID-TWO-PE4012-Z              PIC X(1)
                                               VALUE SPACE.
               10  WK01-PRSN-ID-TWO-PE4012-F              PIC X(1)
                                               VALUE SPACE.
               10  WK01-PRSN-ID-TWO-PE4012-A              PIC X(1)
                                               VALUE SPACE.
               10  WK01-PRSN-ID-TWO-PE4012-V              PIC X(1)
                                               VALUE SPACE.
               10  WK01-PRSN-ID-TWO-PE4012-O              PIC X(1)
                                               VALUE SPACE.
               10  WK01-PRSN-ID-TWO-PE4012       PIC X(2)
                                               VALUE SPACES.
               10  WK01-PRSN-ID-THREE-PE4012-Z              PIC X(1)
                                               VALUE SPACE.
               10  WK01-PRSN-ID-THREE-PE4012-F              PIC X(1)
                                               VALUE SPACE.
               10  WK01-PRSN-ID-THREE-PE4012-A              PIC X(1)
                                               VALUE SPACE.
               10  WK01-PRSN-ID-THREE-PE4012-V              PIC X(1)
                                               VALUE SPACE.
               10  WK01-PRSN-ID-THREE-PE4012-O              PIC X(1)
                                               VALUE SPACE.
               10  WK01-PRSN-ID-THREE-PE4012       PIC X(4)
                                               VALUE SPACES.
               10  WK01-KEY-6156-PE4012-Z              PIC X(1)
                                               VALUE SPACE.
               10  WK01-KEY-6156-PE4012-F              PIC X(1)
                                               VALUE SPACE.
               10  WK01-KEY-6156-PE4012-A              PIC X(1)
                                               VALUE SPACE.
               10  WK01-KEY-6156-PE4012-V              PIC X(1)
                                               VALUE SPACE.
               10  WK01-KEY-6156-PE4012-O              PIC X(1)
                                               VALUE SPACE.
               10  WK01-KEY-6156-PE4012       PIC X(35)
                                               VALUE SPACES.
               10  WK01-AREA-PE4012-Z              PIC X(1)
                                               VALUE SPACE.
               10  WK01-AREA-PE4012-F              PIC X(1)
                                               VALUE SPACE.
               10  WK01-AREA-PE4012-A              PIC X(1)
                                               VALUE SPACE.
               10  WK01-AREA-PE4012-V              PIC X(1)
                                               VALUE SPACE.
               10  WK01-AREA-PE4012-O              PIC X(1)
                                               VALUE SPACE.
               10  WK01-AREA-PE4012       PIC X(28)
                                               VALUE SPACES.
               10  WK01-CODE-PE4013-Z              PIC X(1)
                                               VALUE SPACE.
               10  WK01-CODE-PE4013-F              PIC X(1)
                                               VALUE SPACE.
               10  WK01-CODE-PE4013-A              PIC X(1)
                                               VALUE SPACE.
               10  WK01-CODE-PE4013-V              PIC X(1)
                                               VALUE SPACE.
               10  WK01-CODE-PE4013-O              PIC X(1)
                                               VALUE SPACE.
               10  WK01-CODE-PE4013       PIC X(1)
                                               VALUE SPACES.
               10  WK01-PRSN-ID-ONE-PE4013-Z              PIC X(1)
                                               VALUE SPACE.
               10  WK01-PRSN-ID-ONE-PE4013-F              PIC X(1)
                                               VALUE SPACE.
               10  WK01-PRSN-ID-ONE-PE4013-A              PIC X(1)
                                               VALUE SPACE.
               10  WK01-PRSN-ID-ONE-PE4013-V              PIC X(1)
                                               VALUE SPACE.
               10  WK01-PRSN-ID-ONE-PE4013-O              PIC X(1)
                                               VALUE SPACE.
               10  WK01-PRSN-ID-ONE-PE4013       PIC X(3)
                                               VALUE SPACES.
               10  WK01-PRSN-ID-TWO-PE4013-Z              PIC X(1)
                                               VALUE SPACE.
               10  WK01-PRSN-ID-TWO-PE4013-F              PIC X(1)
                                               VALUE SPACE.
               10  WK01-PRSN-ID-TWO-PE4013-A              PIC X(1)
                                               VALUE SPACE.
               10  WK01-PRSN-ID-TWO-PE4013-V              PIC X(1)
                                               VALUE SPACE.
               10  WK01-PRSN-ID-TWO-PE4013-O              PIC X(1)
                                               VALUE SPACE.
               10  WK01-PRSN-ID-TWO-PE4013       PIC X(2)
                                               VALUE SPACES.
               10  WK01-PRSN-ID-THREE-PE4013-Z              PIC X(1)
                                               VALUE SPACE.
               10  WK01-PRSN-ID-THREE-PE4013-F              PIC X(1)
                                               VALUE SPACE.
               10  WK01-PRSN-ID-THREE-PE4013-A              PIC X(1)
                                               VALUE SPACE.
               10  WK01-PRSN-ID-THREE-PE4013-V              PIC X(1)
                                               VALUE SPACE.
               10  WK01-PRSN-ID-THREE-PE4013-O              PIC X(1)
                                               VALUE SPACE.
               10  WK01-PRSN-ID-THREE-PE4013       PIC X(4)
                                               VALUE SPACES.
               10  WK01-KEY-6156-PE4013-Z              PIC X(1)
                                               VALUE SPACE.
               10  WK01-KEY-6156-PE4013-F              PIC X(1)
                                               VALUE SPACE.
               10  WK01-KEY-6156-PE4013-A              PIC X(1)
                                               VALUE SPACE.
               10  WK01-KEY-6156-PE4013-V              PIC X(1)
                                               VALUE SPACE.
               10  WK01-KEY-6156-PE4013-O              PIC X(1)
                                               VALUE SPACE.
               10  WK01-KEY-6156-PE4013       PIC X(35)
                                               VALUE SPACES.
               10  WK01-AREA-PE4013-Z              PIC X(1)
                                               VALUE SPACE.
               10  WK01-AREA-PE4013-F              PIC X(1)
                                               VALUE SPACE.
               10  WK01-AREA-PE4013-A              PIC X(1)
                                               VALUE SPACE.
               10  WK01-AREA-PE4013-V              PIC X(1)
                                               VALUE SPACE.
               10  WK01-AREA-PE4013-O              PIC X(1)
                                               VALUE SPACE.
               10  WK01-AREA-PE4013       PIC X(28)
                                               VALUE SPACES.
               10  WK01-CODE-PE4014-Z              PIC X(1)
                                               VALUE SPACE.
               10  WK01-CODE-PE4014-F              PIC X(1)
                                               VALUE SPACE.
               10  WK01-CODE-PE4014-A              PIC X(1)
                                               VALUE SPACE.
               10  WK01-CODE-PE4014-V              PIC X(1)
                                               VALUE SPACE.
               10  WK01-CODE-PE4014-O              PIC X(1)
                                               VALUE SPACE.
               10  WK01-CODE-PE4014       PIC X(1)
                                               VALUE SPACES.
               10  WK01-PRSN-ID-ONE-PE4014-Z              PIC X(1)
                                               VALUE SPACE.
               10  WK01-PRSN-ID-ONE-PE4014-F              PIC X(1)
                                               VALUE SPACE.
               10  WK01-PRSN-ID-ONE-PE4014-A              PIC X(1)
                                               VALUE SPACE.
               10  WK01-PRSN-ID-ONE-PE4014-V              PIC X(1)
                                               VALUE SPACE.
               10  WK01-PRSN-ID-ONE-PE4014-O              PIC X(1)
                                               VALUE SPACE.
               10  WK01-PRSN-ID-ONE-PE4014       PIC X(3)
                                               VALUE SPACES.
               10  WK01-PRSN-ID-TWO-PE4014-Z              PIC X(1)
                                               VALUE SPACE.
               10  WK01-PRSN-ID-TWO-PE4014-F              PIC X(1)
                                               VALUE SPACE.
               10  WK01-PRSN-ID-TWO-PE4014-A              PIC X(1)
                                               VALUE SPACE.
               10  WK01-PRSN-ID-TWO-PE4014-V              PIC X(1)
                                               VALUE SPACE.
               10  WK01-PRSN-ID-TWO-PE4014-O              PIC X(1)
                                               VALUE SPACE.
               10  WK01-PRSN-ID-TWO-PE4014       PIC X(2)
                                               VALUE SPACES.
               10  WK01-PRSN-ID-THREE-PE4014-Z              PIC X(1)
                                               VALUE SPACE.
               10  WK01-PRSN-ID-THREE-PE4014-F              PIC X(1)
                                               VALUE SPACE.
               10  WK01-PRSN-ID-THREE-PE4014-A              PIC X(1)
                                               VALUE SPACE.
               10  WK01-PRSN-ID-THREE-PE4014-V              PIC X(1)
                                               VALUE SPACE.
               10  WK01-PRSN-ID-THREE-PE4014-O              PIC X(1)
                                               VALUE SPACE.
               10  WK01-PRSN-ID-THREE-PE4014       PIC X(4)
                                               VALUE SPACES.
               10  WK01-KEY-6156-PE4014-Z              PIC X(1)
                                               VALUE SPACE.
               10  WK01-KEY-6156-PE4014-F              PIC X(1)
                                               VALUE SPACE.
               10  WK01-KEY-6156-PE4014-A              PIC X(1)
                                               VALUE SPACE.
               10  WK01-KEY-6156-PE4014-V              PIC X(1)
                                               VALUE SPACE.
               10  WK01-KEY-6156-PE4014-O              PIC X(1)
                                               VALUE SPACE.
               10  WK01-KEY-6156-PE4014       PIC X(35)
                                               VALUE SPACES.
               10  WK01-AREA-PE4014-Z              PIC X(1)
                                               VALUE SPACE.
               10  WK01-AREA-PE4014-F              PIC X(1)
                                               VALUE SPACE.
               10  WK01-AREA-PE4014-A              PIC X(1)
                                               VALUE SPACE.
               10  WK01-AREA-PE4014-V              PIC X(1)
                                               VALUE SPACE.
               10  WK01-AREA-PE4014-O              PIC X(1)
                                               VALUE SPACE.
               10  WK01-AREA-PE4014       PIC X(28)
                                               VALUE SPACES.
               10  WK01-ZZMESSAGE-Z              PIC X(1)
                                               VALUE SPACE.
               10  WK01-ZZMESSAGE-F              PIC X(1)
                                               VALUE SPACE.
               10  WK01-ZZMESSAGE-A              PIC X(1)
                                               VALUE SPACE.
               10  WK01-ZZMESSAGE-V              PIC X(1)
                                               VALUE SPACE.
               10  WK01-ZZMESSAGE-O              PIC X(1)
                                               VALUE SPACE.
               10  WK01-ZZMESSAGE       PIC X(79)
                                               VALUE SPACES.
               10  WK01-PASSED-ONE-Z              PIC X(1)
                                               VALUE SPACE.
               10  WK01-PASSED-ONE-F              PIC X(1)
                                               VALUE SPACE.
               10  WK01-PASSED-ONE-A              PIC X(1)
                                               VALUE SPACE.
               10  WK01-PASSED-ONE-V              PIC X(1)
                                               VALUE SPACE.
               10  WK01-PASSED-ONE-O              PIC X(1)
                                               VALUE SPACE.
               10  WK01-PASSED-ONE       PIC X(32)
                                               VALUE SPACES.
               10  WK01-MAP-RESPONSE-Z              PIC X(1)
                                               VALUE SPACE.
               10  WK01-MAP-RESPONSE-F              PIC X(1)
                                               VALUE SPACE.
               10  WK01-MAP-RESPONSE-A              PIC X(1)
                                               VALUE SPACE.
               10  WK01-MAP-RESPONSE-V              PIC X(1)
                                               VALUE SPACE.
               10  WK01-MAP-RESPONSE-O              PIC X(1)
                                               VALUE SPACE.
               10  WK01-MAP-RESPONSE       PIC X(8)
                                               VALUE SPACES.
               10  WK01-TEXT-SY00-Z              PIC X(1)
                                               VALUE SPACE.
               10  WK01-TEXT-SY00-F              PIC X(1)
                                               VALUE SPACE.
               10  WK01-TEXT-SY00-A              PIC X(1)
                                               VALUE SPACE.
               10  WK01-TEXT-SY00-V              PIC X(1)
                                               VALUE SPACE.
               10  WK01-TEXT-SY00-O              PIC X(1)
                                               VALUE SPACE.
               10  WK01-TEXT-SY00       PIC X(14)
                                               VALUE SPACES.
           04  WK01-SUBSCRIPTED-WORK-AREA.
               05  FILLER                      PIC X(1).
               05  WK01-CODE-PE40-F             PIC X(1)
                                               OCCURS 14.
               05  WK01-PRSN-ID-TWO-PE40-F             PIC X(1)
                                               OCCURS 14.
               05  WK01-KEY-6156-PE40-F             PIC X(1)
                                               OCCURS 14.
               05  WK01-PRSN-ID-THREE-PE40-F             PIC X(1)
                                               OCCURS 14.
               05  WK01-AREA-PE40-F             PIC X(1)
                                               OCCURS 14.
               05  WK01-PRSN-ID-ONE-PE40-F             PIC X(1)
                                               OCCURS 14.
