      *---------------------------------------------------------------*
      *                                                               *
      *  RECORD FPEWK08                              04/24/00  12:34  *
      *                                                               *
      *---------------------------------------------------------------*
       01  FPEWK08.
           02  ENTY-ID-LAST-NINE-6186-PE08              PIC X(9).
           02  RQST-ADR-TYPE-CODE-6185-PE08             PIC X(2).
