      *---------------------------------------------------------------*
      *                                                               *
      *  RECORD FPEWK23                              04/24/00  12:34  *
      *                                                               *
      *---------------------------------------------------------------*
       01  FPEWK23.
           02  RQST-STATE-CODE-PE23                     PIC X(2).
           02  CNTRY-CODE-6153-PE23                     PIC X(2).
