      *---------------------------------------------------------------*
      *                                                               *
      *  RECORD FPEWK36                              04/24/00  12:36  *
      *                                                               *
      *---------------------------------------------------------------*
       01  FPEWK36.
           02  WORK-PRSN-ID-6157-PE36.
               03  WORK-PRSN-ID-ONE-6157-PE36           PIC X(3).
               03  WORK-PRSN-ID-TWO-6157-PE36           PIC X(2).
               03  WORK-PRSN-ID-THREE-6157-PE36         PIC X(4).
