      *---------------------------------------------------------------*
      *                                                               *
      *  RECORD FPEWD08                              04/24/00  13:09  *
      *                                                               *
      *---------------------------------------------------------------*
       01  FPEWD08.
           02  SAVE-DBKEY-ID-6185-PE08
                                     COMP   OCCURS 10   PIC S9(8).
           02  ACTN-FLAG-PE08                           PIC X(1).
