      *---------------------------------------------------------------*
      *                                                               *
      *  RECORD FPEWD40B                             04/24/00  13:09  *
      *                                                               *
      *---------------------------------------------------------------*
       01  FPEWD40B.
           02  LINE-ADR-PE40                            PIC X(22).
           02  FILLER01                                 PIC X.
           02  ZIP-CODE-PE40                            PIC X(5).
