       01  MAP-CONTROL.

    ***Created by Convert/DC version V8R03 on 12/04/00 at 10:00***

           02  FPUMU12-MAP-CONTROL.
           03  FPUMU12T.
           04  WK01-DCXMAPL-PARMS.
               10  WK01-MAPNAME                  PIC X(8)
                                                 VALUE 'FPUMU12I'.
               10  WK01-IKE-LENGTH               PIC S9(8)  COMP
001MLJ                                           VALUE 15757.
               10  WK01-TINA-LENGTH              PIC S9(4)  COMP
001MLJ                                           VALUE 1229.
           05  WK01-ATTRIBUTES                   PIC X(60)
                                                 VALUE SPACE.
           05  WK01-ATTRIBUTES-ERROR             PIC X(60) VALUE
               'U  BIF'.
           05  WK01-CURSOR-DFLD                  PIC X(36)
                                                 VALUE SPACES.
           05  WK01-CURSOR-DFLD-QUAL             PIC X(30)
                                                 VALUE SPACES.
           05  WK01-ROW                          PIC S9(4) COMP
                                                 VALUE ZERO.
           05  WK01-COLUMN                       PIC S9(4) COMP
                                                 VALUE ZERO.
           05  WK01-ERROR-MSG                    PIC X(80)
                                                 VALUE SPACES.
           05  WK01-MAP-DATA-LEN                 PIC S9(6)
                                                 VALUE ZERO.
           05  WK01-1ST-FLAG                     PIC X(1)
                                                 VALUE 'Y'.
           05  WK01-FLAG-OUTPUT-DATA             PIC X(1)
                                                 VALUE 'Y'.
      *    05  WK01-STATUS-RETURN-FLAG           PIC X(1)
      *                                          VALUE SPACES.
           05  WK01-ALL-BUT-FLAG                 PIC X(1)
                                                 VALUE SPACES.
           05  WK01-FLAG-ALL-FIELDS-CHANGED      PIC X(1)  VALUE 'Y'.
           05  WK01-FLAG-ANY-FIELDS-CHANGED      PIC X(1)  VALUE 'N'.
           05  WK01-FLAG-ALL-FIELDS-ERROR        PIC X(1)  VALUE 'Y'.
           05  WK01-FLAG-ANY-FIELDS-ERROR        PIC X(1)  VALUE 'N'.
           05  WK01-FLAG-ALL-FIELDS-ERASE        PIC X(1)  VALUE 'Y'.
           05  WK01-FLAG-ANY-FIELDS-ERASE        PIC X(1)  VALUE 'Y'.

           05  WK01-VARDATA                      PIC X(11880)
                                                 VALUE SPACES.
           05  FILLER                            PIC X(100)
                                                 VALUE SPACES.
           04  WK01-ELEMENT-AREA.

               10  WK01-ID-SY00-Z              PIC X(1)
                                               VALUE SPACE.
               10  WK01-ID-SY00-F              PIC X(1)
                                               VALUE SPACE.
               10  WK01-ID-SY00-A              PIC X(1)
                                               VALUE SPACE.
               10  WK01-ID-SY00-V              PIC X(1)
                                               VALUE SPACE.
               10  WK01-ID-SY00-O              PIC X(1)
                                               VALUE SPACE.
               10  WK01-ID-SY00       PIC X(8)
                                               VALUE SPACES.
               10  WK01-NAME-6001-SY00-Z              PIC X(1)
                                               VALUE SPACE.
               10  WK01-NAME-6001-SY00-F              PIC X(1)
                                               VALUE SPACE.
               10  WK01-NAME-6001-SY00-A              PIC X(1)
                                               VALUE SPACE.
               10  WK01-NAME-6001-SY00-V              PIC X(1)
                                               VALUE SPACE.
               10  WK01-NAME-6001-SY00-O              PIC X(1)
                                               VALUE SPACE.
               10  WK01-NAME-6001-SY00       PIC X(35)
                                               VALUE SPACES.
               10  WK01-DATE-Z              PIC X(1)
                                               VALUE SPACE.
               10  WK01-DATE-F              PIC X(1)
                                               VALUE SPACE.
               10  WK01-DATE-A              PIC X(1)
                                               VALUE SPACE.
               10  WK01-DATE-V              PIC X(1)
                                               VALUE SPACE.
               10  WK01-DATE-O              PIC X(1)
                                               VALUE SPACE.
               10  WK01-DATE       PIC X(8)
                                               VALUE SPACES.
               10  WK01-HH-MM-TIME-SY00-Z              PIC X(1)
                                               VALUE SPACE.
               10  WK01-HH-MM-TIME-SY00-F              PIC X(1)
                                               VALUE SPACE.
               10  WK01-HH-MM-TIME-SY00-A              PIC X(1)
                                               VALUE SPACE.
               10  WK01-HH-MM-TIME-SY00-V              PIC X(1)
                                               VALUE SPACE.
               10  WK01-HH-MM-TIME-SY00-O              PIC X(1)
                                               VALUE SPACE.
               10  WK01-HH-MM-TIME-SY00       PIC X(4)
                                               VALUE SPACES.
               10  WK01-PM-FLAG-SY00-Z              PIC X(1)
                                               VALUE SPACE.
               10  WK01-PM-FLAG-SY00-F              PIC X(1)
                                               VALUE SPACE.
               10  WK01-PM-FLAG-SY00-A              PIC X(1)
                                               VALUE SPACE.
               10  WK01-PM-FLAG-SY00-V              PIC X(1)
                                               VALUE SPACE.
               10  WK01-PM-FLAG-SY00-O              PIC X(1)
                                               VALUE SPACE.
               10  WK01-PM-FLAG-SY00       PIC X(1)
                                               VALUE SPACES.
               10  WK01-USER-ID-Z              PIC X(1)
                                               VALUE SPACE.
               10  WK01-USER-ID-F              PIC X(1)
                                               VALUE SPACE.
               10  WK01-USER-ID-A              PIC X(1)
                                               VALUE SPACE.
               10  WK01-USER-ID-V              PIC X(1)
                                               VALUE SPACE.
               10  WK01-USER-ID-O              PIC X(1)
                                               VALUE SPACE.
               10  WK01-USER-ID       PIC X(32)
                                               VALUE SPACES.
               10  WK01-RSPNS-ID-SY00-Z              PIC X(1)
                                               VALUE SPACE.
               10  WK01-RSPNS-ID-SY00-F              PIC X(1)
                                               VALUE SPACE.
               10  WK01-RSPNS-ID-SY00-A              PIC X(1)
                                               VALUE SPACE.
               10  WK01-RSPNS-ID-SY00-V              PIC X(1)
                                               VALUE SPACE.
               10  WK01-RSPNS-ID-SY00-O              PIC X(1)
                                               VALUE SPACE.
               10  WK01-RSPNS-ID-SY00       PIC X(8)
                                               VALUE SPACES.
               10  WK01-FUNC-DESCRIPTION-Z              PIC X(1)
                                               VALUE SPACE.
               10  WK01-FUNC-DESCRIPTION-F              PIC X(1)
                                               VALUE SPACE.
               10  WK01-FUNC-DESCRIPTION-A              PIC X(1)
                                               VALUE SPACE.
               10  WK01-FUNC-DESCRIPTION-V              PIC X(1)
                                               VALUE SPACE.
               10  WK01-FUNC-DESCRIPTION-O              PIC X(1)
                                               VALUE SPACE.
               10  WK01-FUNC-DESCRIPTION       PIC X(28)
                                               VALUE SPACES.
               10  WK01-STATUS-CODE-SY00-Z              PIC X(1)
                                               VALUE SPACE.
               10  WK01-STATUS-CODE-SY00-F              PIC X(1)
                                               VALUE SPACE.
               10  WK01-STATUS-CODE-SY00-A              PIC X(1)
                                               VALUE SPACE.
               10  WK01-STATUS-CODE-SY00-V              PIC X(1)
                                               VALUE SPACE.
               10  WK01-STATUS-CODE-SY00-O              PIC X(1)
                                               VALUE SPACE.
               10  WK01-STATUS-CODE-SY00       PIC X(1)
                                               VALUE SPACES.
               10  WK01-NMBR-4083-PU12-Z              PIC X(1)
                                               VALUE SPACE.
               10  WK01-NMBR-4083-PU12-F              PIC X(1)
                                               VALUE SPACE.
               10  WK01-NMBR-4083-PU12-A              PIC X(1)
                                               VALUE SPACE.
               10  WK01-NMBR-4083-PU12-V              PIC X(1)
                                               VALUE SPACE.
               10  WK01-NMBR-4083-PU12-O              PIC X(1)
                                               VALUE SPACE.
               10  WK01-NMBR-4083-PU12       PIC X(8)
                                               VALUE SPACES.
               10  WK01-SEQ-NMBR-4096-PU12-Z              PIC X(1)
                                               VALUE SPACE.
               10  WK01-SEQ-NMBR-4096-PU12-F              PIC X(1)
                                               VALUE SPACE.
               10  WK01-SEQ-NMBR-4096-PU12-A              PIC X(1)
                                               VALUE SPACE.
               10  WK01-SEQ-NMBR-4096-PU12-V              PIC X(1)
                                               VALUE SPACE.
               10  WK01-SEQ-NMBR-4096-PU12-O              PIC X(1)
                                               VALUE SPACE.
               10  WK01-SEQ-NMBR-4096-PU12       PIC X(3)
                                               VALUE SPACES.
               10  WK01-C-O-PU12-Z              PIC X(1)
                                               VALUE SPACE.
               10  WK01-C-O-PU12-F              PIC X(1)
                                               VALUE SPACE.
               10  WK01-C-O-PU12-A              PIC X(1)
                                               VALUE SPACE.
               10  WK01-C-O-PU12-V              PIC X(1)
                                               VALUE SPACE.
               10  WK01-C-O-PU12-O              PIC X(1)
                                               VALUE SPACE.
               10  WK01-C-O-PU12       PIC X(3)
                                               VALUE SPACES.
               10  WK01-ID-LAST-NINE-4073-PU12-Z              PIC X(1)
                                               VALUE SPACE.
               10  WK01-ID-LAST-NINE-4073-PU12-F              PIC X(1)
                                               VALUE SPACE.
               10  WK01-ID-LAST-NINE-4073-PU12-A              PIC X(1)
                                               VALUE SPACE.
               10  WK01-ID-LAST-NINE-4073-PU12-V              PIC X(1)
                                               VALUE SPACE.
               10  WK01-ID-LAST-NINE-4073-PU12-O              PIC X(1)
                                               VALUE SPACE.
               10  WK01-ID-LAST-NINE-4073-PU12       PIC X(9)
                                               VALUE SPACES.
               10  WK01-KEY-6311-PU12-Z              PIC X(1)
                                               VALUE SPACE.
               10  WK01-KEY-6311-PU12-F              PIC X(1)
                                               VALUE SPACE.
               10  WK01-KEY-6311-PU12-A              PIC X(1)
                                               VALUE SPACE.
               10  WK01-KEY-6311-PU12-V              PIC X(1)
                                               VALUE SPACE.
               10  WK01-KEY-6311-PU12-O              PIC X(1)
                                               VALUE SPACE.
               10  WK01-KEY-6311-PU12       PIC X(35)
                                               VALUE SPACES.
               10  WK01-DATE-4096-PU12-Z              PIC X(1)
                                               VALUE SPACE.
               10  WK01-DATE-4096-PU12-F              PIC X(1)
                                               VALUE SPACE.
               10  WK01-DATE-4096-PU12-A              PIC X(1)
                                               VALUE SPACE.
               10  WK01-DATE-4096-PU12-V              PIC X(1)
                                               VALUE SPACE.
               10  WK01-DATE-4096-PU12-O              PIC X(1)
                                               VALUE SPACE.
               10  WK01-DATE-4096-PU12       PIC X(6)
                                               VALUE SPACES.
               10  WK01-CODE-PU12-Z              PIC X(1)
                                               VALUE SPACE.
               10  WK01-CODE-PU12-F              PIC X(1)
                                               VALUE SPACE.
               10  WK01-CODE-PU12-A              PIC X(1)
                                               VALUE SPACE.
               10  WK01-CODE-PU12-V              PIC X(1)
                                               VALUE SPACE.
               10  WK01-CODE-PU12-O              PIC X(1)
                                               VALUE SPACE.
               10  WK01-CODE-PU12       PIC X(1)
                                               VALUE SPACES.
               10  WK01-CNTCT-NAME-PU12-Z              PIC X(1)
                                               VALUE SPACE.
               10  WK01-CNTCT-NAME-PU12-F              PIC X(1)
                                               VALUE SPACE.
               10  WK01-CNTCT-NAME-PU12-A              PIC X(1)
                                               VALUE SPACE.
               10  WK01-CNTCT-NAME-PU12-V              PIC X(1)
                                               VALUE SPACE.
               10  WK01-CNTCT-NAME-PU12-O              PIC X(1)
                                               VALUE SPACE.
               10  WK01-CNTCT-NAME-PU12       PIC X(35)
                                               VALUE SPACES.
               10  WK01-AMT-4096-PU12-Z              PIC X(1)
                                               VALUE SPACE.
               10  WK01-AMT-4096-PU12-F              PIC X(1)
                                               VALUE SPACE.
               10  WK01-AMT-4096-PU12-A              PIC X(1)
                                               VALUE SPACE.
               10  WK01-AMT-4096-PU12-V              PIC X(1)
                                               VALUE SPACE.
               10  WK01-AMT-4096-PU12-O              PIC X(1)
                                               VALUE SPACE.
               10  WK01-AMT-4096-PU12       PIC X(14)
                                               VALUE SPACES.
               10  WK01-RATE-CODE-4083-PU12-Z              PIC X(1)
                                               VALUE SPACE.
               10  WK01-RATE-CODE-4083-PU12-F              PIC X(1)
                                               VALUE SPACE.
               10  WK01-RATE-CODE-4083-PU12-A              PIC X(1)
                                               VALUE SPACE.
               10  WK01-RATE-CODE-4083-PU12-V              PIC X(1)
                                               VALUE SPACE.
               10  WK01-RATE-CODE-4083-PU12-O              PIC X(1)
                                               VALUE SPACE.
               10  WK01-RATE-CODE-4083-PU12       PIC X(3)
                                               VALUE SPACES.
               10  WK01-RATE-DESC-4154-PU12-Z              PIC X(1)
                                               VALUE SPACE.
               10  WK01-RATE-DESC-4154-PU12-F              PIC X(1)
                                               VALUE SPACE.
               10  WK01-RATE-DESC-4154-PU12-A              PIC X(1)
                                               VALUE SPACE.
               10  WK01-RATE-DESC-4154-PU12-V              PIC X(1)
                                               VALUE SPACE.
               10  WK01-RATE-DESC-4154-PU12-O              PIC X(1)
                                               VALUE SPACE.
               10  WK01-RATE-DESC-4154-PU12       PIC X(35)
                                               VALUE SPACES.
               10  WK01-AMT-4096-PU1A-Z              PIC X(1)
                                               VALUE SPACE.
               10  WK01-AMT-4096-PU1A-F              PIC X(1)
                                               VALUE SPACE.
               10  WK01-AMT-4096-PU1A-A              PIC X(1)
                                               VALUE SPACE.
               10  WK01-AMT-4096-PU1A-V              PIC X(1)
                                               VALUE SPACE.
               10  WK01-AMT-4096-PU1A-O              PIC X(1)
                                               VALUE SPACE.
               10  WK01-AMT-4096-PU1A       PIC X(14)
                                               VALUE SPACES.
               10  WK01-CODE-4083-PU12-Z              PIC X(1)
                                               VALUE SPACE.
               10  WK01-CODE-4083-PU12-F              PIC X(1)
                                               VALUE SPACE.
               10  WK01-CODE-4083-PU12-A              PIC X(1)
                                               VALUE SPACE.
               10  WK01-CODE-4083-PU12-V              PIC X(1)
                                               VALUE SPACE.
               10  WK01-CODE-4083-PU12-O              PIC X(1)
                                               VALUE SPACE.
               10  WK01-CODE-4083-PU12       PIC X(2)
                                               VALUE SPACES.
               10  WK01-DESC-4172-PU12-Z              PIC X(1)
                                               VALUE SPACE.
               10  WK01-DESC-4172-PU12-F              PIC X(1)
                                               VALUE SPACE.
               10  WK01-DESC-4172-PU12-A              PIC X(1)
                                               VALUE SPACE.
               10  WK01-DESC-4172-PU12-V              PIC X(1)
                                               VALUE SPACE.
               10  WK01-DESC-4172-PU12-O              PIC X(1)
                                               VALUE SPACE.
               10  WK01-DESC-4172-PU12       PIC X(35)
                                               VALUE SPACES.
               10  WK01-AMT-4096-PU1B-Z              PIC X(1)
                                               VALUE SPACE.
               10  WK01-AMT-4096-PU1B-F              PIC X(1)
                                               VALUE SPACE.
               10  WK01-AMT-4096-PU1B-A              PIC X(1)
                                               VALUE SPACE.
               10  WK01-AMT-4096-PU1B-V              PIC X(1)
                                               VALUE SPACE.
               10  WK01-AMT-4096-PU1B-O              PIC X(1)
                                               VALUE SPACE.
               10  WK01-AMT-4096-PU1B       PIC X(14)
                                               VALUE SPACES.
               10  WK01-PCT-PU12-Z              PIC X(1)
                                               VALUE SPACE.
               10  WK01-PCT-PU12-F              PIC X(1)
                                               VALUE SPACE.
               10  WK01-PCT-PU12-A              PIC X(1)
                                               VALUE SPACE.
               10  WK01-PCT-PU12-V              PIC X(1)
                                               VALUE SPACE.
               10  WK01-PCT-PU12-O              PIC X(1)
                                               VALUE SPACE.
               10  WK01-PCT-PU12       PIC X(7)
                                               VALUE SPACES.
               10  WK01-BEFORE-TAX-IND-PU12-Z              PIC X(1)
                                               VALUE SPACE.
               10  WK01-BEFORE-TAX-IND-PU12-F              PIC X(1)
                                               VALUE SPACE.
               10  WK01-BEFORE-TAX-IND-PU12-A              PIC X(1)
                                               VALUE SPACE.
               10  WK01-BEFORE-TAX-IND-PU12-V              PIC X(1)
                                               VALUE SPACE.
               10  WK01-BEFORE-TAX-IND-PU12-O              PIC X(1)
                                               VALUE SPACE.
               10  WK01-BEFORE-TAX-IND-PU12       PIC X(1)
                                               VALUE SPACES.
               10  WK01-AMT-PU1A-Z              PIC X(1)
                                               VALUE SPACE.
               10  WK01-AMT-PU1A-F              PIC X(1)
                                               VALUE SPACE.
               10  WK01-AMT-PU1A-A              PIC X(1)
                                               VALUE SPACE.
               10  WK01-AMT-PU1A-V              PIC X(1)
                                               VALUE SPACE.
               10  WK01-AMT-PU1A-O              PIC X(1)
                                               VALUE SPACE.
               10  WK01-AMT-PU1A       PIC X(14)
                                               VALUE SPACES.
               10  WK01-CODE-4083-PU1A-Z              PIC X(1)
                                               VALUE SPACE.
               10  WK01-CODE-4083-PU1A-F              PIC X(1)
                                               VALUE SPACE.
               10  WK01-CODE-4083-PU1A-A              PIC X(1)
                                               VALUE SPACE.
               10  WK01-CODE-4083-PU1A-V              PIC X(1)
                                               VALUE SPACE.
               10  WK01-CODE-4083-PU1A-O              PIC X(1)
                                               VALUE SPACE.
               10  WK01-CODE-4083-PU1A       PIC X(2)
                                               VALUE SPACES.
               10  WK01-DESC-4078-PU12-Z              PIC X(1)
                                               VALUE SPACE.
               10  WK01-DESC-4078-PU12-F              PIC X(1)
                                               VALUE SPACE.
               10  WK01-DESC-4078-PU12-A              PIC X(1)
                                               VALUE SPACE.
               10  WK01-DESC-4078-PU12-V              PIC X(1)
                                               VALUE SPACE.
               10  WK01-DESC-4078-PU12-O              PIC X(1)
                                               VALUE SPACE.
               10  WK01-DESC-4078-PU12       PIC X(35)
                                               VALUE SPACES.
               10  WK01-AMT-PU12-Z              PIC X(1)
                                               VALUE SPACE.
               10  WK01-AMT-PU12-F              PIC X(1)
                                               VALUE SPACE.
               10  WK01-AMT-PU12-A              PIC X(1)
                                               VALUE SPACE.
               10  WK01-AMT-PU12-V              PIC X(1)
                                               VALUE SPACE.
               10  WK01-AMT-PU12-O              PIC X(1)
                                               VALUE SPACE.
               10  WK01-AMT-PU12       PIC X(14)
                                               VALUE SPACES.
               10  WK01-TO-CODE-4083-PU12-Z              PIC X(1)
                                               VALUE SPACE.
               10  WK01-TO-CODE-4083-PU12-F              PIC X(1)
                                               VALUE SPACE.
               10  WK01-TO-CODE-4083-PU12-A              PIC X(1)
                                               VALUE SPACE.
               10  WK01-TO-CODE-4083-PU12-V              PIC X(1)
                                               VALUE SPACE.
               10  WK01-TO-CODE-4083-PU12-O              PIC X(1)
                                               VALUE SPACE.
               10  WK01-TO-CODE-4083-PU12       PIC X(6)
                                               VALUE SPACES.
               10  WK01-BY-DATE-PU12-Z              PIC X(1)
                                               VALUE SPACE.
               10  WK01-BY-DATE-PU12-F              PIC X(1)
                                               VALUE SPACE.
               10  WK01-BY-DATE-PU12-A              PIC X(1)
                                               VALUE SPACE.
               10  WK01-BY-DATE-PU12-V              PIC X(1)
                                               VALUE SPACE.
               10  WK01-BY-DATE-PU12-O              PIC X(1)
                                               VALUE SPACE.
               10  WK01-BY-DATE-PU12       PIC X(6)
                                               VALUE SPACES.
               10  WK01-PU12-Z              PIC X(1)
                                               VALUE SPACE.
               10  WK01-PU12-F              PIC X(1)
                                               VALUE SPACE.
               10  WK01-PU12-A              PIC X(1)
                                               VALUE SPACE.
               10  WK01-PU12-V              PIC X(1)
                                               VALUE SPACE.
               10  WK01-PU12-O              PIC X(1)
                                               VALUE SPACE.
               10  WK01-PU12       PIC X(6)
                                               VALUE SPACES.
               10  WK01-NAME-4086-PU12-Z              PIC X(1)
                                               VALUE SPACE.
               10  WK01-NAME-4086-PU12-F              PIC X(1)
                                               VALUE SPACE.
               10  WK01-NAME-4086-PU12-A              PIC X(1)
                                               VALUE SPACE.
               10  WK01-NAME-4086-PU12-V              PIC X(1)
                                               VALUE SPACE.
               10  WK01-NAME-4086-PU12-O              PIC X(1)
                                               VALUE SPACE.
               10  WK01-NAME-4086-PU12       PIC X(35)
                                               VALUE SPACES.
               10  WK01-AREA-CODE-4086-PU12-Z              PIC X(1)
                                               VALUE SPACE.
               10  WK01-AREA-CODE-4086-PU12-F              PIC X(1)
                                               VALUE SPACE.
               10  WK01-AREA-CODE-4086-PU12-A              PIC X(1)
                                               VALUE SPACE.
               10  WK01-AREA-CODE-4086-PU12-V              PIC X(1)
                                               VALUE SPACE.
               10  WK01-AREA-CODE-4086-PU12-O              PIC X(1)
                                               VALUE SPACE.
               10  WK01-AREA-CODE-4086-PU12       PIC X(3)
                                               VALUE SPACES.
               10  WK01-XCHNG-ID-4086-PU12-Z              PIC X(1)
                                               VALUE SPACE.
               10  WK01-XCHNG-ID-4086-PU12-F              PIC X(1)
                                               VALUE SPACE.
               10  WK01-XCHNG-ID-4086-PU12-A              PIC X(1)
                                               VALUE SPACE.
               10  WK01-XCHNG-ID-4086-PU12-V              PIC X(1)
                                               VALUE SPACE.
               10  WK01-XCHNG-ID-4086-PU12-O              PIC X(1)
                                               VALUE SPACE.
               10  WK01-XCHNG-ID-4086-PU12       PIC X(3)
                                               VALUE SPACES.
               10  WK01-SEQ-ID-4086-PU12-Z              PIC X(1)
                                               VALUE SPACE.
               10  WK01-SEQ-ID-4086-PU12-F              PIC X(1)
                                               VALUE SPACE.
               10  WK01-SEQ-ID-4086-PU12-A              PIC X(1)
                                               VALUE SPACE.
               10  WK01-SEQ-ID-4086-PU12-V              PIC X(1)
                                               VALUE SPACE.
               10  WK01-SEQ-ID-4086-PU12-O              PIC X(1)
                                               VALUE SPACE.
               10  WK01-SEQ-ID-4086-PU12       PIC X(4)
                                               VALUE SPACES.
               10  WK01-XTNSN-ID-4086-PU12-Z              PIC X(1)
                                               VALUE SPACE.
               10  WK01-XTNSN-ID-4086-PU12-F              PIC X(1)
                                               VALUE SPACE.
               10  WK01-XTNSN-ID-4086-PU12-A              PIC X(1)
                                               VALUE SPACE.
               10  WK01-XTNSN-ID-4086-PU12-V              PIC X(1)
                                               VALUE SPACE.
               10  WK01-XTNSN-ID-4086-PU12-O              PIC X(1)
                                               VALUE SPACE.
               10  WK01-XTNSN-ID-4086-PU12       PIC X(4)
                                               VALUE SPACES.
               10  WK01-1-4086-PU12-Z              PIC X(1)
                                               VALUE SPACE.
               10  WK01-1-4086-PU12-F              PIC X(1)
                                               VALUE SPACE.
               10  WK01-1-4086-PU12-A              PIC X(1)
                                               VALUE SPACE.
               10  WK01-1-4086-PU12-V              PIC X(1)
                                               VALUE SPACE.
               10  WK01-1-4086-PU12-O              PIC X(1)
                                               VALUE SPACE.
               10  WK01-1-4086-PU12       PIC X(35)
                                               VALUE SPACES.
               10  WK01-2-4086-PU12-Z              PIC X(1)
                                               VALUE SPACE.
               10  WK01-2-4086-PU12-F              PIC X(1)
                                               VALUE SPACE.
               10  WK01-2-4086-PU12-A              PIC X(1)
                                               VALUE SPACE.
               10  WK01-2-4086-PU12-V              PIC X(1)
                                               VALUE SPACE.
               10  WK01-2-4086-PU12-O              PIC X(1)
                                               VALUE SPACE.
               10  WK01-2-4086-PU12       PIC X(35)
                                               VALUE SPACES.
               10  WK01-3-4086-PU12-Z              PIC X(1)
                                               VALUE SPACE.
               10  WK01-3-4086-PU12-F              PIC X(1)
                                               VALUE SPACE.
               10  WK01-3-4086-PU12-A              PIC X(1)
                                               VALUE SPACE.
               10  WK01-3-4086-PU12-V              PIC X(1)
                                               VALUE SPACE.
               10  WK01-3-4086-PU12-O              PIC X(1)
                                               VALUE SPACE.
               10  WK01-3-4086-PU12       PIC X(35)
                                               VALUE SPACES.
               10  WK01-4-4086-PU12-Z              PIC X(1)
                                               VALUE SPACE.
               10  WK01-4-4086-PU12-F              PIC X(1)
                                               VALUE SPACE.
               10  WK01-4-4086-PU12-A              PIC X(1)
                                               VALUE SPACE.
               10  WK01-4-4086-PU12-V              PIC X(1)
                                               VALUE SPACE.
               10  WK01-4-4086-PU12-O              PIC X(1)
                                               VALUE SPACE.
               10  WK01-4-4086-PU12       PIC X(35)
                                               VALUE SPACES.
               10  WK01-NAME-4086-PU1A-Z              PIC X(1)
                                               VALUE SPACE.
               10  WK01-NAME-4086-PU1A-F              PIC X(1)
                                               VALUE SPACE.
               10  WK01-NAME-4086-PU1A-A              PIC X(1)
                                               VALUE SPACE.
               10  WK01-NAME-4086-PU1A-V              PIC X(1)
                                               VALUE SPACE.
               10  WK01-NAME-4086-PU1A-O              PIC X(1)
                                               VALUE SPACE.
               10  WK01-NAME-4086-PU1A       PIC X(18)
                                               VALUE SPACES.
               10  WK01-CODE-4086-PU12-Z              PIC X(1)
                                               VALUE SPACE.
               10  WK01-CODE-4086-PU12-F              PIC X(1)
                                               VALUE SPACE.
               10  WK01-CODE-4086-PU12-A              PIC X(1)
                                               VALUE SPACE.
               10  WK01-CODE-4086-PU12-V              PIC X(1)
                                               VALUE SPACE.
               10  WK01-CODE-4086-PU12-O              PIC X(1)
                                               VALUE SPACE.
               10  WK01-CODE-4086-PU12       PIC X(2)
                                               VALUE SPACES.
               10  WK01-CODE-4086-PU1A-Z              PIC X(1)
                                               VALUE SPACE.
               10  WK01-CODE-4086-PU1A-F              PIC X(1)
                                               VALUE SPACE.
               10  WK01-CODE-4086-PU1A-A              PIC X(1)
                                               VALUE SPACE.
               10  WK01-CODE-4086-PU1A-V              PIC X(1)
                                               VALUE SPACE.
               10  WK01-CODE-4086-PU1A-O              PIC X(1)
                                               VALUE SPACE.
               10  WK01-CODE-4086-PU1A       PIC X(10)
                                               VALUE SPACES.
001MLJ         10  WK01-FAX-AREA-CODE-PU12-Z          PIC X(1)
                                               VALUE SPACE.
               10  WK01-FAX-AREA-CODE-PU12-F          PIC X(1)
                                               VALUE SPACE.
               10  WK01-FAX-AREA-CODE-PU12-A          PIC X(1)
                                               VALUE SPACE.
               10  WK01-FAX-AREA-CODE-PU12-V          PIC X(1)
                                               VALUE SPACE.
               10  WK01-FAX-AREA-CODE-PU12-O          PIC X(1)
                                               VALUE SPACE.
               10  WK01-FAX-AREA-CODE-PU12   PIC X(3)
                                               VALUE SPACES.
               10  WK01-FAX-XCHNG-ID-PU12-Z          PIC X(1)
                                               VALUE SPACE.
               10  WK01-FAX-XCHNG-ID-PU12-F          PIC X(1)
                                               VALUE SPACE.
               10  WK01-FAX-XCHNG-ID-PU12-A          PIC X(1)
                                               VALUE SPACE.
               10  WK01-FAX-XCHNG-ID-PU12-V          PIC X(1)
                                               VALUE SPACE.
               10  WK01-FAX-XCHNG-ID-PU12-O          PIC X(1)
                                               VALUE SPACE.
               10  WK01-FAX-XCHNG-ID-PU12   PIC X(3)
                                               VALUE SPACES.
               10  WK01-FAX-SEQ-ID-PU12-Z          PIC X(1)
                                               VALUE SPACE.
               10  WK01-FAX-SEQ-ID-PU12-F          PIC X(1)
                                               VALUE SPACE.
               10  WK01-FAX-SEQ-ID-PU12-A          PIC X(1)
                                               VALUE SPACE.
               10  WK01-FAX-SEQ-ID-PU12-V          PIC X(1)
                                               VALUE SPACE.
               10  WK01-FAX-SEQ-ID-PU12-O          PIC X(1)
                                               VALUE SPACE.
               10  WK01-FAX-SEQ-ID-PU12   PIC X(4)
                                               VALUE SPACES.
               10  WK01-VDR-EMAIL-ADR-PU12-Z          PIC X(1)
                                               VALUE SPACE.
               10  WK01-VDR-EMAIL-ADR-PU12-F          PIC X(1)
                                               VALUE SPACE.
               10  WK01-VDR-EMAIL-ADR-PU12-A          PIC X(1)
                                               VALUE SPACE.
               10  WK01-VDR-EMAIL-ADR-PU12-V          PIC X(1)
                                               VALUE SPACE.
               10  WK01-VDR-EMAIL-ADR-PU12-O          PIC X(1)
                                               VALUE SPACE.
               10  WK01-VDR-EMAIL-ADR-PU12            PIC X(37)
001MLJ                                         VALUE SPACES.
               10  WK01-RISK-CODE-4083-PU12-Z              PIC X(1)
                                               VALUE SPACE.
               10  WK01-RISK-CODE-4083-PU12-F              PIC X(1)
                                               VALUE SPACE.
               10  WK01-RISK-CODE-4083-PU12-A              PIC X(1)
                                               VALUE SPACE.
               10  WK01-RISK-CODE-4083-PU12-V              PIC X(1)
                                               VALUE SPACE.
               10  WK01-RISK-CODE-4083-PU12-O              PIC X(1)
                                               VALUE SPACE.
               10  WK01-RISK-CODE-4083-PU12       PIC X(2)
                                               VALUE SPACES.
               10  WK01-RISK-DESC-4102-PU12-Z              PIC X(1)
                                               VALUE SPACE.
               10  WK01-RISK-DESC-4102-PU12-F              PIC X(1)
                                               VALUE SPACE.
               10  WK01-RISK-DESC-4102-PU12-A              PIC X(1)
                                               VALUE SPACE.
               10  WK01-RISK-DESC-4102-PU12-V              PIC X(1)
                                               VALUE SPACE.
               10  WK01-RISK-DESC-4102-PU12-O              PIC X(1)
                                               VALUE SPACE.
               10  WK01-RISK-DESC-4102-PU12       PIC X(35)
                                               VALUE SPACES.
               10  WK01-FLAG-PU12-Z              PIC X(1)
                                               VALUE SPACE.
               10  WK01-FLAG-PU12-F              PIC X(1)
                                               VALUE SPACE.
               10  WK01-FLAG-PU12-A              PIC X(1)
                                               VALUE SPACE.
               10  WK01-FLAG-PU12-V              PIC X(1)
                                               VALUE SPACE.
               10  WK01-FLAG-PU12-O              PIC X(1)
                                               VALUE SPACE.
               10  WK01-FLAG-PU12       PIC X(1)
                                               VALUE SPACES.
               10  WK01-IND-4083-PU12-Z              PIC X(1)
                                               VALUE SPACE.
               10  WK01-IND-4083-PU12-F              PIC X(1)
                                               VALUE SPACE.
               10  WK01-IND-4083-PU12-A              PIC X(1)
                                               VALUE SPACE.
               10  WK01-IND-4083-PU12-V              PIC X(1)
                                               VALUE SPACE.
               10  WK01-IND-4083-PU12-O              PIC X(1)
                                               VALUE SPACE.
               10  WK01-IND-4083-PU12       PIC X(1)
                                               VALUE SPACES.
               10  WK01-DATE-4096-PU1A-Z              PIC X(1)
                                               VALUE SPACE.
               10  WK01-DATE-4096-PU1A-F              PIC X(1)
                                               VALUE SPACE.
               10  WK01-DATE-4096-PU1A-A              PIC X(1)
                                               VALUE SPACE.
               10  WK01-DATE-4096-PU1A-V              PIC X(1)
                                               VALUE SPACE.
               10  WK01-DATE-4096-PU1A-O              PIC X(1)
                                               VALUE SPACE.
               10  WK01-DATE-4096-PU1A       PIC X(6)
                                               VALUE SPACES.
               10  WK01-FAX-EXISTS-IND-PU12-Z              PIC X(1)
                                               VALUE SPACE.
               10  WK01-FAX-EXISTS-IND-PU12-F              PIC X(1)
                                               VALUE SPACE.
               10  WK01-FAX-EXISTS-IND-PU12-A              PIC X(1)
                                               VALUE SPACE.
               10  WK01-FAX-EXISTS-IND-PU12-V              PIC X(1)
                                               VALUE SPACE.
               10  WK01-FAX-EXISTS-IND-PU12-O              PIC X(1)
                                               VALUE SPACE.
               10  WK01-FAX-EXISTS-IND-PU12       PIC X(1)
                                               VALUE SPACES.
               10  WK01-ZZMESSAGE-Z              PIC X(1)
                                               VALUE SPACE.
               10  WK01-ZZMESSAGE-F              PIC X(1)
                                               VALUE SPACE.
               10  WK01-ZZMESSAGE-A              PIC X(1)
                                               VALUE SPACE.
               10  WK01-ZZMESSAGE-V              PIC X(1)
                                               VALUE SPACE.
               10  WK01-ZZMESSAGE-O              PIC X(1)
                                               VALUE SPACE.
               10  WK01-ZZMESSAGE       PIC X(160)
                                               VALUE SPACES.
               10  WK01-PASSED-ONE-Z              PIC X(1)
                                               VALUE SPACE.
               10  WK01-PASSED-ONE-F              PIC X(1)
                                               VALUE SPACE.
               10  WK01-PASSED-ONE-A              PIC X(1)
                                               VALUE SPACE.
               10  WK01-PASSED-ONE-V              PIC X(1)
                                               VALUE SPACE.
               10  WK01-PASSED-ONE-O              PIC X(1)
                                               VALUE SPACE.
               10  WK01-PASSED-ONE       PIC X(32)
                                               VALUE SPACES.
               10  WK01-MAP-RESPONSE-Z              PIC X(1)
                                               VALUE SPACE.
               10  WK01-MAP-RESPONSE-F              PIC X(1)
                                               VALUE SPACE.
               10  WK01-MAP-RESPONSE-A              PIC X(1)
                                               VALUE SPACE.
               10  WK01-MAP-RESPONSE-V              PIC X(1)
                                               VALUE SPACE.
               10  WK01-MAP-RESPONSE-O              PIC X(1)
                                               VALUE SPACE.
               10  WK01-MAP-RESPONSE       PIC X(8)
                                               VALUE SPACES.
               10  WK01-TEXT-SY00-Z              PIC X(1)
                                               VALUE SPACE.
               10  WK01-TEXT-SY00-F              PIC X(1)
                                               VALUE SPACE.
               10  WK01-TEXT-SY00-A              PIC X(1)
                                               VALUE SPACE.
               10  WK01-TEXT-SY00-V              PIC X(1)
                                               VALUE SPACE.
               10  WK01-TEXT-SY00-O              PIC X(1)
                                               VALUE SPACE.
               10  WK01-TEXT-SY00       PIC X(14)
                                               VALUE SPACES.
