       01  MAP-CONTROL.

    ***Created by Convert/DC version V8R03 on 11/21/00 at 11:00***

           02  FPUMU04-MAP-CONTROL.
           03  FPUMU04T.
           04  WK01-DCXMAPL-PARMS.
               10  WK01-MAPNAME                  PIC X(8)
                                                 VALUE 'FPUMU04I'.
               10  WK01-IKE-LENGTH               PIC S9(8)  COMP
                                                 VALUE 17072.
               10  WK01-TINA-LENGTH              PIC S9(4)  COMP
                                                 VALUE 1017.
           05  WK01-ATTRIBUTES                   PIC X(60)
                                                 VALUE SPACE.
           05  WK01-ATTRIBUTES-ERROR             PIC X(60) VALUE
               'U  BIF'.
           05  WK01-CURSOR-DFLD                  PIC X(36)
                                                 VALUE SPACES.
           05  WK01-CURSOR-DFLD-QUAL             PIC X(30)
                                                 VALUE SPACES.
           05  WK01-ROW                          PIC S9(4) COMP
                                                 VALUE ZERO.
           05  WK01-COLUMN                       PIC S9(4) COMP
                                                 VALUE ZERO.
           05  WK01-ERROR-MSG                    PIC X(80)
                                                 VALUE SPACES.
           05  WK01-MAP-DATA-LEN                 PIC S9(6)
                                                 VALUE ZERO.
           05  WK01-1ST-FLAG                     PIC X(1)
                                                 VALUE 'Y'.
           05  WK01-FLAG-OUTPUT-DATA             PIC X(1)
                                                 VALUE 'Y'.
      *    05  WK01-STATUS-RETURN-FLAG           PIC X(1)
      *                                          VALUE SPACES.
           05  WK01-ALL-BUT-FLAG                 PIC X(1)
                                                 VALUE SPACES.
           05  WK01-FLAG-ALL-FIELDS-CHANGED      PIC X(1)  VALUE 'Y'.
           05  WK01-FLAG-ANY-FIELDS-CHANGED      PIC X(1)  VALUE 'N'.
           05  WK01-FLAG-ALL-FIELDS-ERROR        PIC X(1)  VALUE 'Y'.
           05  WK01-FLAG-ANY-FIELDS-ERROR        PIC X(1)  VALUE 'N'.
           05  WK01-FLAG-ALL-FIELDS-ERASE        PIC X(1)  VALUE 'Y'.
           05  WK01-FLAG-ANY-FIELDS-ERASE        PIC X(1)  VALUE 'Y'.

           05  WK01-VARDATA                      PIC X(11880)
                                                 VALUE SPACES.
           05  FILLER                            PIC X(100)
                                                 VALUE SPACES.
           04  WK01-ELEMENT-AREA.

               10  WK01-ID-SY00-Z              PIC X(1)
                                               VALUE SPACE.
               10  WK01-ID-SY00-F              PIC X(1)
                                               VALUE SPACE.
               10  WK01-ID-SY00-A              PIC X(1)
                                               VALUE SPACE.
               10  WK01-ID-SY00-V              PIC X(1)
                                               VALUE SPACE.
               10  WK01-ID-SY00-O              PIC X(1)
                                               VALUE SPACE.
               10  WK01-ID-SY00       PIC X(8)
                                               VALUE SPACES.
               10  WK01-NAME-6001-SY00-Z              PIC X(1)
                                               VALUE SPACE.
               10  WK01-NAME-6001-SY00-F              PIC X(1)
                                               VALUE SPACE.
               10  WK01-NAME-6001-SY00-A              PIC X(1)
                                               VALUE SPACE.
               10  WK01-NAME-6001-SY00-V              PIC X(1)
                                               VALUE SPACE.
               10  WK01-NAME-6001-SY00-O              PIC X(1)
                                               VALUE SPACE.
               10  WK01-NAME-6001-SY00       PIC X(35)
                                               VALUE SPACES.
               10  WK01-DATE-Z              PIC X(1)
                                               VALUE SPACE.
               10  WK01-DATE-F              PIC X(1)
                                               VALUE SPACE.
               10  WK01-DATE-A              PIC X(1)
                                               VALUE SPACE.
               10  WK01-DATE-V              PIC X(1)
                                               VALUE SPACE.
               10  WK01-DATE-O              PIC X(1)
                                               VALUE SPACE.
               10  WK01-DATE       PIC X(8)
                                               VALUE SPACES.
               10  WK01-HH-MM-TIME-SY00-Z              PIC X(1)
                                               VALUE SPACE.
               10  WK01-HH-MM-TIME-SY00-F              PIC X(1)
                                               VALUE SPACE.
               10  WK01-HH-MM-TIME-SY00-A              PIC X(1)
                                               VALUE SPACE.
               10  WK01-HH-MM-TIME-SY00-V              PIC X(1)
                                               VALUE SPACE.
               10  WK01-HH-MM-TIME-SY00-O              PIC X(1)
                                               VALUE SPACE.
               10  WK01-HH-MM-TIME-SY00       PIC X(4)
                                               VALUE SPACES.
               10  WK01-PM-FLAG-SY00-Z              PIC X(1)
                                               VALUE SPACE.
               10  WK01-PM-FLAG-SY00-F              PIC X(1)
                                               VALUE SPACE.
               10  WK01-PM-FLAG-SY00-A              PIC X(1)
                                               VALUE SPACE.
               10  WK01-PM-FLAG-SY00-V              PIC X(1)
                                               VALUE SPACE.
               10  WK01-PM-FLAG-SY00-O              PIC X(1)
                                               VALUE SPACE.
               10  WK01-PM-FLAG-SY00       PIC X(1)
                                               VALUE SPACES.
               10  WK01-USER-ID-Z              PIC X(1)
                                               VALUE SPACE.
               10  WK01-USER-ID-F              PIC X(1)
                                               VALUE SPACE.
               10  WK01-USER-ID-A              PIC X(1)
                                               VALUE SPACE.
               10  WK01-USER-ID-V              PIC X(1)
                                               VALUE SPACE.
               10  WK01-USER-ID-O              PIC X(1)
                                               VALUE SPACE.
               10  WK01-USER-ID       PIC X(32)
                                               VALUE SPACES.
               10  WK01-RSPNS-ID-SY00-Z              PIC X(1)
                                               VALUE SPACE.
               10  WK01-RSPNS-ID-SY00-F              PIC X(1)
                                               VALUE SPACE.
               10  WK01-RSPNS-ID-SY00-A              PIC X(1)
                                               VALUE SPACE.
               10  WK01-RSPNS-ID-SY00-V              PIC X(1)
                                               VALUE SPACE.
               10  WK01-RSPNS-ID-SY00-O              PIC X(1)
                                               VALUE SPACE.
               10  WK01-RSPNS-ID-SY00       PIC X(8)
                                               VALUE SPACES.
               10  WK01-FUNC-DESCRIPTION-Z              PIC X(1)
                                               VALUE SPACE.
               10  WK01-FUNC-DESCRIPTION-F              PIC X(1)
                                               VALUE SPACE.
               10  WK01-FUNC-DESCRIPTION-A              PIC X(1)
                                               VALUE SPACE.
               10  WK01-FUNC-DESCRIPTION-V              PIC X(1)
                                               VALUE SPACE.
               10  WK01-FUNC-DESCRIPTION-O              PIC X(1)
                                               VALUE SPACE.
               10  WK01-FUNC-DESCRIPTION       PIC X(28)
                                               VALUE SPACES.
               10  WK01-STATUS-CODE-SY00-Z              PIC X(1)
                                               VALUE SPACE.
               10  WK01-STATUS-CODE-SY00-F              PIC X(1)
                                               VALUE SPACE.
               10  WK01-STATUS-CODE-SY00-A              PIC X(1)
                                               VALUE SPACE.
               10  WK01-STATUS-CODE-SY00-V              PIC X(1)
                                               VALUE SPACE.
               10  WK01-STATUS-CODE-SY00-O              PIC X(1)
                                               VALUE SPACE.
               10  WK01-STATUS-CODE-SY00       PIC X(1)
                                               VALUE SPACES.
               10  WK01-CODE-4070-PU04-Z              PIC X(1)
                                               VALUE SPACE.
               10  WK01-CODE-4070-PU04-F              PIC X(1)
                                               VALUE SPACE.
               10  WK01-CODE-4070-PU04-A              PIC X(1)
                                               VALUE SPACE.
               10  WK01-CODE-4070-PU04-V              PIC X(1)
                                               VALUE SPACE.
               10  WK01-CODE-4070-PU04-O              PIC X(1)
                                               VALUE SPACE.
               10  WK01-CODE-4070-PU04       PIC X(8)
                                               VALUE SPACES.
               10  WK01-NAME-4070-PU04-Z              PIC X(1)
                                               VALUE SPACE.
               10  WK01-NAME-4070-PU04-F              PIC X(1)
                                               VALUE SPACE.
               10  WK01-NAME-4070-PU04-A              PIC X(1)
                                               VALUE SPACE.
               10  WK01-NAME-4070-PU04-V              PIC X(1)
                                               VALUE SPACE.
               10  WK01-NAME-4070-PU04-O              PIC X(1)
                                               VALUE SPACE.
               10  WK01-NAME-4070-PU04       PIC X(35)
                                               VALUE SPACES.
               10  WK01-NMBR-4071-PU04-Z              PIC X(1)
                                               VALUE SPACE.
               10  WK01-NMBR-4071-PU04-F              PIC X(1)
                                               VALUE SPACE.
               10  WK01-NMBR-4071-PU04-A              PIC X(1)
                                               VALUE SPACE.
               10  WK01-NMBR-4071-PU04-V              PIC X(1)
                                               VALUE SPACE.
               10  WK01-NMBR-4071-PU04-O              PIC X(1)
                                               VALUE SPACE.
               10  WK01-NMBR-4071-PU04       PIC X(4)
                                               VALUE SPACES.
               10  WK01-CODE-4074-PU04-Z              PIC X(1)
                                               VALUE SPACE.
               10  WK01-CODE-4074-PU04-F              PIC X(1)
                                               VALUE SPACE.
               10  WK01-CODE-4074-PU04-A              PIC X(1)
                                               VALUE SPACE.
               10  WK01-CODE-4074-PU04-V              PIC X(1)
                                               VALUE SPACE.
               10  WK01-CODE-4074-PU04-O              PIC X(1)
                                               VALUE SPACE.
               10  WK01-CODE-4074-PU04       PIC X(8)
                                               VALUE SPACES.
               10  WK01-DESC-4074-PU04-Z              PIC X(1)
                                               VALUE SPACE.
               10  WK01-DESC-4074-PU04-F              PIC X(1)
                                               VALUE SPACE.
               10  WK01-DESC-4074-PU04-A              PIC X(1)
                                               VALUE SPACE.
               10  WK01-DESC-4074-PU04-V              PIC X(1)
                                               VALUE SPACE.
               10  WK01-DESC-4074-PU04-O              PIC X(1)
                                               VALUE SPACE.
               10  WK01-DESC-4074-PU04       PIC X(35)
                                               VALUE SPACES.
               10  WK01-PRICE-4071-PU04-Z              PIC X(1)
                                               VALUE SPACE.
               10  WK01-PRICE-4071-PU04-F              PIC X(1)
                                               VALUE SPACE.
               10  WK01-PRICE-4071-PU04-A              PIC X(1)
                                               VALUE SPACE.
               10  WK01-PRICE-4071-PU04-V              PIC X(1)
                                               VALUE SPACE.
               10  WK01-PRICE-4071-PU04-O              PIC X(1)
                                               VALUE SPACE.
               10  WK01-PRICE-4071-PU04       PIC X(13)
                                               VALUE SPACES.
               10  WK01-CODE-PU041-Z              PIC X(1)
                                               VALUE SPACE.
               10  WK01-CODE-PU041-F              PIC X(1)
                                               VALUE SPACE.
               10  WK01-CODE-PU041-A              PIC X(1)
                                               VALUE SPACE.
               10  WK01-CODE-PU041-V              PIC X(1)
                                               VALUE SPACE.
               10  WK01-CODE-PU041-O              PIC X(1)
                                               VALUE SPACE.
               10  WK01-CODE-PU041       PIC X(1)
                                               VALUE SPACES.
               10  WK01-NMBR-4080-PU041-Z              PIC X(1)
                                               VALUE SPACE.
               10  WK01-NMBR-4080-PU041-F              PIC X(1)
                                               VALUE SPACE.
               10  WK01-NMBR-4080-PU041-A              PIC X(1)
                                               VALUE SPACE.
               10  WK01-NMBR-4080-PU041-V              PIC X(1)
                                               VALUE SPACE.
               10  WK01-NMBR-4080-PU041-O              PIC X(1)
                                               VALUE SPACE.
               10  WK01-NMBR-4080-PU041       PIC X(4)
                                               VALUE SPACES.
               10  WK01-CLASS-CODE-4080-PU041-Z              PIC X(1)
                                               VALUE SPACE.
               10  WK01-CLASS-CODE-4080-PU041-F              PIC X(1)
                                               VALUE SPACE.
               10  WK01-CLASS-CODE-4080-PU041-A              PIC X(1)
                                               VALUE SPACE.
               10  WK01-CLASS-CODE-4080-PU041-V              PIC X(1)
                                               VALUE SPACE.
               10  WK01-CLASS-CODE-4080-PU041-O              PIC X(1)
                                               VALUE SPACE.
               10  WK01-CLASS-CODE-4080-PU041       PIC X(4)
                                               VALUE SPACES.
               10  WK01-ERROR-IND-4080-PU041-Z              PIC X(1)
                                               VALUE SPACE.
               10  WK01-ERROR-IND-4080-PU041-F              PIC X(1)
                                               VALUE SPACE.
               10  WK01-ERROR-IND-4080-PU041-A              PIC X(1)
                                               VALUE SPACE.
               10  WK01-ERROR-IND-4080-PU041-V              PIC X(1)
                                               VALUE SPACE.
               10  WK01-ERROR-IND-4080-PU041-O              PIC X(1)
                                               VALUE SPACE.
               10  WK01-ERROR-IND-4080-PU041       PIC X(1)
                                               VALUE SPACES.
               10  WK01-CODE-4080-PU041-Z              PIC X(1)
                                               VALUE SPACE.
               10  WK01-CODE-4080-PU041-F              PIC X(1)
                                               VALUE SPACE.
               10  WK01-CODE-4080-PU041-A              PIC X(1)
                                               VALUE SPACE.
               10  WK01-CODE-4080-PU041-V              PIC X(1)
                                               VALUE SPACE.
               10  WK01-CODE-4080-PU041-O              PIC X(1)
                                               VALUE SPACE.
               10  WK01-CODE-4080-PU041       PIC X(1)
                                               VALUE SPACES.
               10  WK01-INDX-CODE-4080-PU041-Z              PIC X(1)
                                               VALUE SPACE.
               10  WK01-INDX-CODE-4080-PU041-F              PIC X(1)
                                               VALUE SPACE.
               10  WK01-INDX-CODE-4080-PU041-A              PIC X(1)
                                               VALUE SPACE.
               10  WK01-INDX-CODE-4080-PU041-V              PIC X(1)
                                               VALUE SPACE.
               10  WK01-INDX-CODE-4080-PU041-O              PIC X(1)
                                               VALUE SPACE.
               10  WK01-INDX-CODE-4080-PU041       PIC X(10)
                                               VALUE SPACES.
               10  WK01-CODE-4080-PU0A1-Z              PIC X(1)
                                               VALUE SPACE.
               10  WK01-CODE-4080-PU0A1-F              PIC X(1)
                                               VALUE SPACE.
               10  WK01-CODE-4080-PU0A1-A              PIC X(1)
                                               VALUE SPACE.
               10  WK01-CODE-4080-PU0A1-V              PIC X(1)
                                               VALUE SPACE.
               10  WK01-CODE-4080-PU0A1-O              PIC X(1)
                                               VALUE SPACE.
               10  WK01-CODE-4080-PU0A1       PIC X(6)
                                               VALUE SPACES.
               10  WK01-CODE-4080-PU0B1-Z              PIC X(1)
                                               VALUE SPACE.
               10  WK01-CODE-4080-PU0B1-F              PIC X(1)
                                               VALUE SPACE.
               10  WK01-CODE-4080-PU0B1-A              PIC X(1)
                                               VALUE SPACE.
               10  WK01-CODE-4080-PU0B1-V              PIC X(1)
                                               VALUE SPACE.
               10  WK01-CODE-4080-PU0B1-O              PIC X(1)
                                               VALUE SPACE.
               10  WK01-CODE-4080-PU0B1       PIC X(6)
                                               VALUE SPACES.
               10  WK01-CODE-4080-PU0C1-Z              PIC X(1)
                                               VALUE SPACE.
               10  WK01-CODE-4080-PU0C1-F              PIC X(1)
                                               VALUE SPACE.
               10  WK01-CODE-4080-PU0C1-A              PIC X(1)
                                               VALUE SPACE.
               10  WK01-CODE-4080-PU0C1-V              PIC X(1)
                                               VALUE SPACE.
               10  WK01-CODE-4080-PU0C1-O              PIC X(1)
                                               VALUE SPACE.
               10  WK01-CODE-4080-PU0C1       PIC X(6)
                                               VALUE SPACES.
               10  WK01-CODE-4080-PU0D1-Z              PIC X(1)
                                               VALUE SPACE.
               10  WK01-CODE-4080-PU0D1-F              PIC X(1)
                                               VALUE SPACE.
               10  WK01-CODE-4080-PU0D1-A              PIC X(1)
                                               VALUE SPACE.
               10  WK01-CODE-4080-PU0D1-V              PIC X(1)
                                               VALUE SPACE.
               10  WK01-CODE-4080-PU0D1-O              PIC X(1)
                                               VALUE SPACE.
               10  WK01-CODE-4080-PU0D1       PIC X(6)
                                               VALUE SPACES.
               10  WK01-CODE-4080-PU0E1-Z              PIC X(1)
                                               VALUE SPACE.
               10  WK01-CODE-4080-PU0E1-F              PIC X(1)
                                               VALUE SPACE.
               10  WK01-CODE-4080-PU0E1-A              PIC X(1)
                                               VALUE SPACE.
               10  WK01-CODE-4080-PU0E1-V              PIC X(1)
                                               VALUE SPACE.
               10  WK01-CODE-4080-PU0E1-O              PIC X(1)
                                               VALUE SPACE.
               10  WK01-CODE-4080-PU0E1       PIC X(6)
                                               VALUE SPACES.
               10  WK01-CODE-4080-PU0F1-Z              PIC X(1)
                                               VALUE SPACE.
               10  WK01-CODE-4080-PU0F1-F              PIC X(1)
                                               VALUE SPACE.
               10  WK01-CODE-4080-PU0F1-A              PIC X(1)
                                               VALUE SPACE.
               10  WK01-CODE-4080-PU0F1-V              PIC X(1)
                                               VALUE SPACE.
               10  WK01-CODE-4080-PU0F1-O              PIC X(1)
                                               VALUE SPACE.
               10  WK01-CODE-4080-PU0F1       PIC X(6)
                                               VALUE SPACES.
               10  WK01-DSTBN-4080-PU041-Z              PIC X(1)
                                               VALUE SPACE.
               10  WK01-DSTBN-4080-PU041-F              PIC X(1)
                                               VALUE SPACE.
               10  WK01-DSTBN-4080-PU041-A              PIC X(1)
                                               VALUE SPACE.
               10  WK01-DSTBN-4080-PU041-V              PIC X(1)
                                               VALUE SPACE.
               10  WK01-DSTBN-4080-PU041-O              PIC X(1)
                                               VALUE SPACE.
               10  WK01-DSTBN-4080-PU041       PIC X(7)
                                               VALUE SPACES.
               10  WK01-AMT-4080-PU041-Z              PIC X(1)
                                               VALUE SPACE.
               10  WK01-AMT-4080-PU041-F              PIC X(1)
                                               VALUE SPACE.
               10  WK01-AMT-4080-PU041-A              PIC X(1)
                                               VALUE SPACE.
               10  WK01-AMT-4080-PU041-V              PIC X(1)
                                               VALUE SPACE.
               10  WK01-AMT-4080-PU041-O              PIC X(1)
                                               VALUE SPACE.
               10  WK01-AMT-4080-PU041       PIC X(13)
                                               VALUE SPACES.
               10  WK01-CODE-PU042-Z              PIC X(1)
                                               VALUE SPACE.
               10  WK01-CODE-PU042-F              PIC X(1)
                                               VALUE SPACE.
               10  WK01-CODE-PU042-A              PIC X(1)
                                               VALUE SPACE.
               10  WK01-CODE-PU042-V              PIC X(1)
                                               VALUE SPACE.
               10  WK01-CODE-PU042-O              PIC X(1)
                                               VALUE SPACE.
               10  WK01-CODE-PU042       PIC X(1)
                                               VALUE SPACES.
               10  WK01-NMBR-4080-PU042-Z              PIC X(1)
                                               VALUE SPACE.
               10  WK01-NMBR-4080-PU042-F              PIC X(1)
                                               VALUE SPACE.
               10  WK01-NMBR-4080-PU042-A              PIC X(1)
                                               VALUE SPACE.
               10  WK01-NMBR-4080-PU042-V              PIC X(1)
                                               VALUE SPACE.
               10  WK01-NMBR-4080-PU042-O              PIC X(1)
                                               VALUE SPACE.
               10  WK01-NMBR-4080-PU042       PIC X(4)
                                               VALUE SPACES.
               10  WK01-CLASS-CODE-4080-PU042-Z              PIC X(1)
                                               VALUE SPACE.
               10  WK01-CLASS-CODE-4080-PU042-F              PIC X(1)
                                               VALUE SPACE.
               10  WK01-CLASS-CODE-4080-PU042-A              PIC X(1)
                                               VALUE SPACE.
               10  WK01-CLASS-CODE-4080-PU042-V              PIC X(1)
                                               VALUE SPACE.
               10  WK01-CLASS-CODE-4080-PU042-O              PIC X(1)
                                               VALUE SPACE.
               10  WK01-CLASS-CODE-4080-PU042       PIC X(4)
                                               VALUE SPACES.
               10  WK01-ERROR-IND-4080-PU042-Z              PIC X(1)
                                               VALUE SPACE.
               10  WK01-ERROR-IND-4080-PU042-F              PIC X(1)
                                               VALUE SPACE.
               10  WK01-ERROR-IND-4080-PU042-A              PIC X(1)
                                               VALUE SPACE.
               10  WK01-ERROR-IND-4080-PU042-V              PIC X(1)
                                               VALUE SPACE.
               10  WK01-ERROR-IND-4080-PU042-O              PIC X(1)
                                               VALUE SPACE.
               10  WK01-ERROR-IND-4080-PU042       PIC X(1)
                                               VALUE SPACES.
               10  WK01-CODE-4080-PU042-Z              PIC X(1)
                                               VALUE SPACE.
               10  WK01-CODE-4080-PU042-F              PIC X(1)
                                               VALUE SPACE.
               10  WK01-CODE-4080-PU042-A              PIC X(1)
                                               VALUE SPACE.
               10  WK01-CODE-4080-PU042-V              PIC X(1)
                                               VALUE SPACE.
               10  WK01-CODE-4080-PU042-O              PIC X(1)
                                               VALUE SPACE.
               10  WK01-CODE-4080-PU042       PIC X(1)
                                               VALUE SPACES.
               10  WK01-INDX-CODE-4080-PU042-Z              PIC X(1)
                                               VALUE SPACE.
               10  WK01-INDX-CODE-4080-PU042-F              PIC X(1)
                                               VALUE SPACE.
               10  WK01-INDX-CODE-4080-PU042-A              PIC X(1)
                                               VALUE SPACE.
               10  WK01-INDX-CODE-4080-PU042-V              PIC X(1)
                                               VALUE SPACE.
               10  WK01-INDX-CODE-4080-PU042-O              PIC X(1)
                                               VALUE SPACE.
               10  WK01-INDX-CODE-4080-PU042       PIC X(10)
                                               VALUE SPACES.
               10  WK01-CODE-4080-PU0A2-Z              PIC X(1)
                                               VALUE SPACE.
               10  WK01-CODE-4080-PU0A2-F              PIC X(1)
                                               VALUE SPACE.
               10  WK01-CODE-4080-PU0A2-A              PIC X(1)
                                               VALUE SPACE.
               10  WK01-CODE-4080-PU0A2-V              PIC X(1)
                                               VALUE SPACE.
               10  WK01-CODE-4080-PU0A2-O              PIC X(1)
                                               VALUE SPACE.
               10  WK01-CODE-4080-PU0A2       PIC X(6)
                                               VALUE SPACES.
               10  WK01-CODE-4080-PU0B2-Z              PIC X(1)
                                               VALUE SPACE.
               10  WK01-CODE-4080-PU0B2-F              PIC X(1)
                                               VALUE SPACE.
               10  WK01-CODE-4080-PU0B2-A              PIC X(1)
                                               VALUE SPACE.
               10  WK01-CODE-4080-PU0B2-V              PIC X(1)
                                               VALUE SPACE.
               10  WK01-CODE-4080-PU0B2-O              PIC X(1)
                                               VALUE SPACE.
               10  WK01-CODE-4080-PU0B2       PIC X(6)
                                               VALUE SPACES.
               10  WK01-CODE-4080-PU0C2-Z              PIC X(1)
                                               VALUE SPACE.
               10  WK01-CODE-4080-PU0C2-F              PIC X(1)
                                               VALUE SPACE.
               10  WK01-CODE-4080-PU0C2-A              PIC X(1)
                                               VALUE SPACE.
               10  WK01-CODE-4080-PU0C2-V              PIC X(1)
                                               VALUE SPACE.
               10  WK01-CODE-4080-PU0C2-O              PIC X(1)
                                               VALUE SPACE.
               10  WK01-CODE-4080-PU0C2       PIC X(6)
                                               VALUE SPACES.
               10  WK01-CODE-4080-PU0D2-Z              PIC X(1)
                                               VALUE SPACE.
               10  WK01-CODE-4080-PU0D2-F              PIC X(1)
                                               VALUE SPACE.
               10  WK01-CODE-4080-PU0D2-A              PIC X(1)
                                               VALUE SPACE.
               10  WK01-CODE-4080-PU0D2-V              PIC X(1)
                                               VALUE SPACE.
               10  WK01-CODE-4080-PU0D2-O              PIC X(1)
                                               VALUE SPACE.
               10  WK01-CODE-4080-PU0D2       PIC X(6)
                                               VALUE SPACES.
               10  WK01-CODE-4080-PU0E2-Z              PIC X(1)
                                               VALUE SPACE.
               10  WK01-CODE-4080-PU0E2-F              PIC X(1)
                                               VALUE SPACE.
               10  WK01-CODE-4080-PU0E2-A              PIC X(1)
                                               VALUE SPACE.
               10  WK01-CODE-4080-PU0E2-V              PIC X(1)
                                               VALUE SPACE.
               10  WK01-CODE-4080-PU0E2-O              PIC X(1)
                                               VALUE SPACE.
               10  WK01-CODE-4080-PU0E2       PIC X(6)
                                               VALUE SPACES.
               10  WK01-CODE-4080-PU0F2-Z              PIC X(1)
                                               VALUE SPACE.
               10  WK01-CODE-4080-PU0F2-F              PIC X(1)
                                               VALUE SPACE.
               10  WK01-CODE-4080-PU0F2-A              PIC X(1)
                                               VALUE SPACE.
               10  WK01-CODE-4080-PU0F2-V              PIC X(1)
                                               VALUE SPACE.
               10  WK01-CODE-4080-PU0F2-O              PIC X(1)
                                               VALUE SPACE.
               10  WK01-CODE-4080-PU0F2       PIC X(6)
                                               VALUE SPACES.
               10  WK01-DSTBN-4080-PU042-Z              PIC X(1)
                                               VALUE SPACE.
               10  WK01-DSTBN-4080-PU042-F              PIC X(1)
                                               VALUE SPACE.
               10  WK01-DSTBN-4080-PU042-A              PIC X(1)
                                               VALUE SPACE.
               10  WK01-DSTBN-4080-PU042-V              PIC X(1)
                                               VALUE SPACE.
               10  WK01-DSTBN-4080-PU042-O              PIC X(1)
                                               VALUE SPACE.
               10  WK01-DSTBN-4080-PU042       PIC X(7)
                                               VALUE SPACES.
               10  WK01-AMT-4080-PU042-Z              PIC X(1)
                                               VALUE SPACE.
               10  WK01-AMT-4080-PU042-F              PIC X(1)
                                               VALUE SPACE.
               10  WK01-AMT-4080-PU042-A              PIC X(1)
                                               VALUE SPACE.
               10  WK01-AMT-4080-PU042-V              PIC X(1)
                                               VALUE SPACE.
               10  WK01-AMT-4080-PU042-O              PIC X(1)
                                               VALUE SPACE.
               10  WK01-AMT-4080-PU042       PIC X(13)
                                               VALUE SPACES.
               10  WK01-CODE-PU043-Z              PIC X(1)
                                               VALUE SPACE.
               10  WK01-CODE-PU043-F              PIC X(1)
                                               VALUE SPACE.
               10  WK01-CODE-PU043-A              PIC X(1)
                                               VALUE SPACE.
               10  WK01-CODE-PU043-V              PIC X(1)
                                               VALUE SPACE.
               10  WK01-CODE-PU043-O              PIC X(1)
                                               VALUE SPACE.
               10  WK01-CODE-PU043       PIC X(1)
                                               VALUE SPACES.
               10  WK01-NMBR-4080-PU043-Z              PIC X(1)
                                               VALUE SPACE.
               10  WK01-NMBR-4080-PU043-F              PIC X(1)
                                               VALUE SPACE.
               10  WK01-NMBR-4080-PU043-A              PIC X(1)
                                               VALUE SPACE.
               10  WK01-NMBR-4080-PU043-V              PIC X(1)
                                               VALUE SPACE.
               10  WK01-NMBR-4080-PU043-O              PIC X(1)
                                               VALUE SPACE.
               10  WK01-NMBR-4080-PU043       PIC X(4)
                                               VALUE SPACES.
               10  WK01-CLASS-CODE-4080-PU043-Z              PIC X(1)
                                               VALUE SPACE.
               10  WK01-CLASS-CODE-4080-PU043-F              PIC X(1)
                                               VALUE SPACE.
               10  WK01-CLASS-CODE-4080-PU043-A              PIC X(1)
                                               VALUE SPACE.
               10  WK01-CLASS-CODE-4080-PU043-V              PIC X(1)
                                               VALUE SPACE.
               10  WK01-CLASS-CODE-4080-PU043-O              PIC X(1)
                                               VALUE SPACE.
               10  WK01-CLASS-CODE-4080-PU043       PIC X(4)
                                               VALUE SPACES.
               10  WK01-ERROR-IND-4080-PU043-Z              PIC X(1)
                                               VALUE SPACE.
               10  WK01-ERROR-IND-4080-PU043-F              PIC X(1)
                                               VALUE SPACE.
               10  WK01-ERROR-IND-4080-PU043-A              PIC X(1)
                                               VALUE SPACE.
               10  WK01-ERROR-IND-4080-PU043-V              PIC X(1)
                                               VALUE SPACE.
               10  WK01-ERROR-IND-4080-PU043-O              PIC X(1)
                                               VALUE SPACE.
               10  WK01-ERROR-IND-4080-PU043       PIC X(1)
                                               VALUE SPACES.
               10  WK01-CODE-4080-PU043-Z              PIC X(1)
                                               VALUE SPACE.
               10  WK01-CODE-4080-PU043-F              PIC X(1)
                                               VALUE SPACE.
               10  WK01-CODE-4080-PU043-A              PIC X(1)
                                               VALUE SPACE.
               10  WK01-CODE-4080-PU043-V              PIC X(1)
                                               VALUE SPACE.
               10  WK01-CODE-4080-PU043-O              PIC X(1)
                                               VALUE SPACE.
               10  WK01-CODE-4080-PU043       PIC X(1)
                                               VALUE SPACES.
               10  WK01-INDX-CODE-4080-PU043-Z              PIC X(1)
                                               VALUE SPACE.
               10  WK01-INDX-CODE-4080-PU043-F              PIC X(1)
                                               VALUE SPACE.
               10  WK01-INDX-CODE-4080-PU043-A              PIC X(1)
                                               VALUE SPACE.
               10  WK01-INDX-CODE-4080-PU043-V              PIC X(1)
                                               VALUE SPACE.
               10  WK01-INDX-CODE-4080-PU043-O              PIC X(1)
                                               VALUE SPACE.
               10  WK01-INDX-CODE-4080-PU043       PIC X(10)
                                               VALUE SPACES.
               10  WK01-CODE-4080-PU0A3-Z              PIC X(1)
                                               VALUE SPACE.
               10  WK01-CODE-4080-PU0A3-F              PIC X(1)
                                               VALUE SPACE.
               10  WK01-CODE-4080-PU0A3-A              PIC X(1)
                                               VALUE SPACE.
               10  WK01-CODE-4080-PU0A3-V              PIC X(1)
                                               VALUE SPACE.
               10  WK01-CODE-4080-PU0A3-O              PIC X(1)
                                               VALUE SPACE.
               10  WK01-CODE-4080-PU0A3       PIC X(6)
                                               VALUE SPACES.
               10  WK01-CODE-4080-PU0B3-Z              PIC X(1)
                                               VALUE SPACE.
               10  WK01-CODE-4080-PU0B3-F              PIC X(1)
                                               VALUE SPACE.
               10  WK01-CODE-4080-PU0B3-A              PIC X(1)
                                               VALUE SPACE.
               10  WK01-CODE-4080-PU0B3-V              PIC X(1)
                                               VALUE SPACE.
               10  WK01-CODE-4080-PU0B3-O              PIC X(1)
                                               VALUE SPACE.
               10  WK01-CODE-4080-PU0B3       PIC X(6)
                                               VALUE SPACES.
               10  WK01-CODE-4080-PU0C3-Z              PIC X(1)
                                               VALUE SPACE.
               10  WK01-CODE-4080-PU0C3-F              PIC X(1)
                                               VALUE SPACE.
               10  WK01-CODE-4080-PU0C3-A              PIC X(1)
                                               VALUE SPACE.
               10  WK01-CODE-4080-PU0C3-V              PIC X(1)
                                               VALUE SPACE.
               10  WK01-CODE-4080-PU0C3-O              PIC X(1)
                                               VALUE SPACE.
               10  WK01-CODE-4080-PU0C3       PIC X(6)
                                               VALUE SPACES.
               10  WK01-CODE-4080-PU0D3-Z              PIC X(1)
                                               VALUE SPACE.
               10  WK01-CODE-4080-PU0D3-F              PIC X(1)
                                               VALUE SPACE.
               10  WK01-CODE-4080-PU0D3-A              PIC X(1)
                                               VALUE SPACE.
               10  WK01-CODE-4080-PU0D3-V              PIC X(1)
                                               VALUE SPACE.
               10  WK01-CODE-4080-PU0D3-O              PIC X(1)
                                               VALUE SPACE.
               10  WK01-CODE-4080-PU0D3       PIC X(6)
                                               VALUE SPACES.
               10  WK01-CODE-4080-PU0E3-Z              PIC X(1)
                                               VALUE SPACE.
               10  WK01-CODE-4080-PU0E3-F              PIC X(1)
                                               VALUE SPACE.
               10  WK01-CODE-4080-PU0E3-A              PIC X(1)
                                               VALUE SPACE.
               10  WK01-CODE-4080-PU0E3-V              PIC X(1)
                                               VALUE SPACE.
               10  WK01-CODE-4080-PU0E3-O              PIC X(1)
                                               VALUE SPACE.
               10  WK01-CODE-4080-PU0E3       PIC X(6)
                                               VALUE SPACES.
               10  WK01-CODE-4080-PU0F3-Z              PIC X(1)
                                               VALUE SPACE.
               10  WK01-CODE-4080-PU0F3-F              PIC X(1)
                                               VALUE SPACE.
               10  WK01-CODE-4080-PU0F3-A              PIC X(1)
                                               VALUE SPACE.
               10  WK01-CODE-4080-PU0F3-V              PIC X(1)
                                               VALUE SPACE.
               10  WK01-CODE-4080-PU0F3-O              PIC X(1)
                                               VALUE SPACE.
               10  WK01-CODE-4080-PU0F3       PIC X(6)
                                               VALUE SPACES.
               10  WK01-DSTBN-4080-PU043-Z              PIC X(1)
                                               VALUE SPACE.
               10  WK01-DSTBN-4080-PU043-F              PIC X(1)
                                               VALUE SPACE.
               10  WK01-DSTBN-4080-PU043-A              PIC X(1)
                                               VALUE SPACE.
               10  WK01-DSTBN-4080-PU043-V              PIC X(1)
                                               VALUE SPACE.
               10  WK01-DSTBN-4080-PU043-O              PIC X(1)
                                               VALUE SPACE.
               10  WK01-DSTBN-4080-PU043       PIC X(7)
                                               VALUE SPACES.
               10  WK01-AMT-4080-PU043-Z              PIC X(1)
                                               VALUE SPACE.
               10  WK01-AMT-4080-PU043-F              PIC X(1)
                                               VALUE SPACE.
               10  WK01-AMT-4080-PU043-A              PIC X(1)
                                               VALUE SPACE.
               10  WK01-AMT-4080-PU043-V              PIC X(1)
                                               VALUE SPACE.
               10  WK01-AMT-4080-PU043-O              PIC X(1)
                                               VALUE SPACE.
               10  WK01-AMT-4080-PU043       PIC X(13)
                                               VALUE SPACES.
               10  WK01-PCT-DSTBN-4080-PU04-Z              PIC X(1)
                                               VALUE SPACE.
               10  WK01-PCT-DSTBN-4080-PU04-F              PIC X(1)
                                               VALUE SPACE.
               10  WK01-PCT-DSTBN-4080-PU04-A              PIC X(1)
                                               VALUE SPACE.
               10  WK01-PCT-DSTBN-4080-PU04-V              PIC X(1)
                                               VALUE SPACE.
               10  WK01-PCT-DSTBN-4080-PU04-O              PIC X(1)
                                               VALUE SPACE.
               10  WK01-PCT-DSTBN-4080-PU04       PIC X(7)
                                               VALUE SPACES.
               10  WK01-TOTAL-PU04-Z              PIC X(1)
                                               VALUE SPACE.
               10  WK01-TOTAL-PU04-F              PIC X(1)
                                               VALUE SPACE.
               10  WK01-TOTAL-PU04-A              PIC X(1)
                                               VALUE SPACE.
               10  WK01-TOTAL-PU04-V              PIC X(1)
                                               VALUE SPACE.
               10  WK01-TOTAL-PU04-O              PIC X(1)
                                               VALUE SPACE.
               10  WK01-TOTAL-PU04       PIC X(13)
                                               VALUE SPACES.
               10  WK01-SEQ-NMBR-PU04-Z              PIC X(1)
                                               VALUE SPACE.
               10  WK01-SEQ-NMBR-PU04-F              PIC X(1)
                                               VALUE SPACE.
               10  WK01-SEQ-NMBR-PU04-A              PIC X(1)
                                               VALUE SPACE.
               10  WK01-SEQ-NMBR-PU04-V              PIC X(1)
                                               VALUE SPACE.
               10  WK01-SEQ-NMBR-PU04-O              PIC X(1)
                                               VALUE SPACE.
               10  WK01-SEQ-NMBR-PU04       PIC X(4)
                                               VALUE SPACES.
               10  WK01-ZZMESSAGE-Z              PIC X(1)
                                               VALUE SPACE.
               10  WK01-ZZMESSAGE-F              PIC X(1)
                                               VALUE SPACE.
               10  WK01-ZZMESSAGE-A              PIC X(1)
                                               VALUE SPACE.
               10  WK01-ZZMESSAGE-V              PIC X(1)
                                               VALUE SPACE.
               10  WK01-ZZMESSAGE-O              PIC X(1)
                                               VALUE SPACE.
               10  WK01-ZZMESSAGE       PIC X(160)
                                               VALUE SPACES.
               10  WK01-PASSED-ONE-Z              PIC X(1)
                                               VALUE SPACE.
               10  WK01-PASSED-ONE-F              PIC X(1)
                                               VALUE SPACE.
               10  WK01-PASSED-ONE-A              PIC X(1)
                                               VALUE SPACE.
               10  WK01-PASSED-ONE-V              PIC X(1)
                                               VALUE SPACE.
               10  WK01-PASSED-ONE-O              PIC X(1)
                                               VALUE SPACE.
               10  WK01-PASSED-ONE       PIC X(32)
                                               VALUE SPACES.
               10  WK01-MAP-RESPONSE-Z              PIC X(1)
                                               VALUE SPACE.
               10  WK01-MAP-RESPONSE-F              PIC X(1)
                                               VALUE SPACE.
               10  WK01-MAP-RESPONSE-A              PIC X(1)
                                               VALUE SPACE.
               10  WK01-MAP-RESPONSE-V              PIC X(1)
                                               VALUE SPACE.
               10  WK01-MAP-RESPONSE-O              PIC X(1)
                                               VALUE SPACE.
               10  WK01-MAP-RESPONSE       PIC X(8)
                                               VALUE SPACES.
               10  WK01-TEXT-SY00-Z              PIC X(1)
                                               VALUE SPACE.
               10  WK01-TEXT-SY00-F              PIC X(1)
                                               VALUE SPACE.
               10  WK01-TEXT-SY00-A              PIC X(1)
                                               VALUE SPACE.
               10  WK01-TEXT-SY00-V              PIC X(1)
                                               VALUE SPACE.
               10  WK01-TEXT-SY00-O              PIC X(1)
                                               VALUE SPACE.
               10  WK01-TEXT-SY00       PIC X(14)
                                               VALUE SPACES.
           04  WK01-SUBSCRIPTED-WORK-AREA.
               05  FILLER                      PIC X(1).
               05  WK01-NMBR-4080-PU04-F             PIC X(1)
                                               OCCURS 3.
               05  WK01-CODE-4080-PU04-F             PIC X(1)
                                               OCCURS 3.
               05  WK01-INDX-CODE-4080-PU04-F             PIC X(1)
                                               OCCURS 3.
               05  WK01-CODE-4080-PU0A-F             PIC X(1)
                                               OCCURS 3.
               05  WK01-CODE-4080-PU0B-F             PIC X(1)
                                               OCCURS 3.
               05  WK01-CODE-4080-PU0C-F             PIC X(1)
                                               OCCURS 3.
               05  WK01-CODE-4080-PU0D-F             PIC X(1)
                                               OCCURS 3.
               05  WK01-CODE-4080-PU0E-F             PIC X(1)
                                               OCCURS 3.
               05  WK01-CODE-4080-PU0F-F             PIC X(1)
                                               OCCURS 3.
               05  WK01-DSTBN-4080-PU04-F             PIC X(1)
                                               OCCURS 3.
               05  WK01-AMT-4080-PU04-F             PIC X(1)
                                               OCCURS 3.
               05  WK01-CODE-PU04-F             PIC X(1)
                                               OCCURS 3.
               05  WK01-ERROR-IND-4080-PU04-F             PIC X(1)
                                               OCCURS 3.
               05  WK01-CLASS-CODE-4080-PU04-F             PIC X(1)
                                               OCCURS 3.
