      *---------------------------------------------------------------*
      *                                                               *
      *  RECORD FPUWK39                              04/24/00  12:40  *
      *                                                               *
      *---------------------------------------------------------------*
       01  FPUWK39.
           02  RQST-PO-CLASS-CODE-PU39                  PIC X(4).
