      *---------------------------------------------------------------*
      *                                                               *
      *  RECORD FPUWD49                              04/24/00  13:12  *
      *                                                               *
      *---------------------------------------------------------------*
       01  FPUWD49.
           02  SAVE-DBKEY-ID-4072-PU49
DEVBWS                                      OCCURS 12   PIC X(4).
           02  ACTN-FLAG-PU49                           PIC X(1).
           02  ITEM-NMBR-PU49                           PIC 9(4).
