      *---------------------------------------------------------------*
      *                                                               *
      *  RECORD FPUWK66                              04/24/00  12:41  *
      *                                                               *
      *---------------------------------------------------------------*
       01  FPUWK66.
           02  PO-NMBR-PU66                             PIC X(8).
           02  ACTN-CODE-PU66                           PIC X(1).
           02  CHNG-SEQ-NMBR-PU66                       PIC X(3).
