      *---------------------------------------------------------------*
      *                                                               *
      *  RECORD FSYWG07D                             04/24/00  12:00  *
      *                                                               *
      *---------------------------------------------------------------*
       01  FSYWG07D.
           02  MSG-SEQ-NMBR-SY07                        PIC 9(4).
           02  MSG-DCMNT-NMBR-SY07                      PIC X(8).
           02  MSG-ID-SY07                              PIC 9(6).
           02  MODE-IND-SY07                            PIC X(1).
