       01  MAP-CONTROL.

    ***Created by Convert/DC version V8R03 on 12/05/00 at 15:00***

           02  FTAMI31-MAP-CONTROL.
           03  FTAMI31T.
           04  WK01-DCXMAPL-PARMS.
               10  WK01-MAPNAME                  PIC X(8)
                                                 VALUE 'FTAMI31I'.
               10  WK01-IKE-LENGTH               PIC S9(8)  COMP
                                                 VALUE 27329.
               10  WK01-TINA-LENGTH              PIC S9(4)  COMP
                                                 VALUE 1325.
           05  WK01-ATTRIBUTES                   PIC X(60)
                                                 VALUE SPACE.
           05  WK01-ATTRIBUTES-ERROR             PIC X(60) VALUE
               'U  BIF'.
           05  WK01-CURSOR-DFLD                  PIC X(36)
                                                 VALUE SPACES.
           05  WK01-CURSOR-DFLD-QUAL             PIC X(30)
                                                 VALUE SPACES.
           05  WK01-ROW                          PIC S9(4) COMP
                                                 VALUE ZERO.
           05  WK01-COLUMN                       PIC S9(4) COMP
                                                 VALUE ZERO.
           05  WK01-ERROR-MSG                    PIC X(80)
                                                 VALUE SPACES.
           05  WK01-MAP-DATA-LEN                 PIC S9(6)
                                                 VALUE ZERO.
           05  WK01-1ST-FLAG                     PIC X(1)
                                                 VALUE 'Y'.
           05  WK01-FLAG-OUTPUT-DATA             PIC X(1)
                                                 VALUE 'Y'.
      *    05  WK01-STATUS-RETURN-FLAG           PIC X(1)
      *                                          VALUE SPACES.
           05  WK01-ALL-BUT-FLAG                 PIC X(1)
                                                 VALUE SPACES.
           05  WK01-FLAG-ALL-FIELDS-CHANGED      PIC X(1)  VALUE 'Y'.
           05  WK01-FLAG-ANY-FIELDS-CHANGED      PIC X(1)  VALUE 'N'.
           05  WK01-FLAG-ALL-FIELDS-ERROR        PIC X(1)  VALUE 'Y'.
           05  WK01-FLAG-ANY-FIELDS-ERROR        PIC X(1)  VALUE 'N'.
           05  WK01-FLAG-ALL-FIELDS-ERASE        PIC X(1)  VALUE 'Y'.
           05  WK01-FLAG-ANY-FIELDS-ERASE        PIC X(1)  VALUE 'Y'.

           05  WK01-VARDATA                      PIC X(11880)
                                                 VALUE SPACES.
           05  FILLER                            PIC X(100)
                                                 VALUE SPACES.
           04  WK01-ELEMENT-AREA.

               10  WK01-ID-SY00-Z              PIC X(1)
                                               VALUE SPACE.
               10  WK01-ID-SY00-F              PIC X(1)
                                               VALUE SPACE.
               10  WK01-ID-SY00-A              PIC X(1)
                                               VALUE SPACE.
               10  WK01-ID-SY00-V              PIC X(1)
                                               VALUE SPACE.
               10  WK01-ID-SY00-O              PIC X(1)
                                               VALUE SPACE.
               10  WK01-ID-SY00       PIC X(8)
                                               VALUE SPACES.
               10  WK01-NAME-6001-SY00-Z              PIC X(1)
                                               VALUE SPACE.
               10  WK01-NAME-6001-SY00-F              PIC X(1)
                                               VALUE SPACE.
               10  WK01-NAME-6001-SY00-A              PIC X(1)
                                               VALUE SPACE.
               10  WK01-NAME-6001-SY00-V              PIC X(1)
                                               VALUE SPACE.
               10  WK01-NAME-6001-SY00-O              PIC X(1)
                                               VALUE SPACE.
               10  WK01-NAME-6001-SY00       PIC X(35)
                                               VALUE SPACES.
               10  WK01-DATE-Z              PIC X(1)
                                               VALUE SPACE.
               10  WK01-DATE-F              PIC X(1)
                                               VALUE SPACE.
               10  WK01-DATE-A              PIC X(1)
                                               VALUE SPACE.
               10  WK01-DATE-V              PIC X(1)
                                               VALUE SPACE.
               10  WK01-DATE-O              PIC X(1)
                                               VALUE SPACE.
               10  WK01-DATE       PIC X(8)
                                               VALUE SPACES.
               10  WK01-HH-MM-TIME-SY00-Z              PIC X(1)
                                               VALUE SPACE.
               10  WK01-HH-MM-TIME-SY00-F              PIC X(1)
                                               VALUE SPACE.
               10  WK01-HH-MM-TIME-SY00-A              PIC X(1)
                                               VALUE SPACE.
               10  WK01-HH-MM-TIME-SY00-V              PIC X(1)
                                               VALUE SPACE.
               10  WK01-HH-MM-TIME-SY00-O              PIC X(1)
                                               VALUE SPACE.
               10  WK01-HH-MM-TIME-SY00       PIC X(4)
                                               VALUE SPACES.
               10  WK01-PM-FLAG-SY00-Z              PIC X(1)
                                               VALUE SPACE.
               10  WK01-PM-FLAG-SY00-F              PIC X(1)
                                               VALUE SPACE.
               10  WK01-PM-FLAG-SY00-A              PIC X(1)
                                               VALUE SPACE.
               10  WK01-PM-FLAG-SY00-V              PIC X(1)
                                               VALUE SPACE.
               10  WK01-PM-FLAG-SY00-O              PIC X(1)
                                               VALUE SPACE.
               10  WK01-PM-FLAG-SY00       PIC X(1)
                                               VALUE SPACES.
               10  WK01-USER-ID-Z              PIC X(1)
                                               VALUE SPACE.
               10  WK01-USER-ID-F              PIC X(1)
                                               VALUE SPACE.
               10  WK01-USER-ID-A              PIC X(1)
                                               VALUE SPACE.
               10  WK01-USER-ID-V              PIC X(1)
                                               VALUE SPACE.
               10  WK01-USER-ID-O              PIC X(1)
                                               VALUE SPACE.
               10  WK01-USER-ID       PIC X(32)
                                               VALUE SPACES.
               10  WK01-RSPNS-ID-SY00-Z              PIC X(1)
                                               VALUE SPACE.
               10  WK01-RSPNS-ID-SY00-F              PIC X(1)
                                               VALUE SPACE.
               10  WK01-RSPNS-ID-SY00-A              PIC X(1)
                                               VALUE SPACE.
               10  WK01-RSPNS-ID-SY00-V              PIC X(1)
                                               VALUE SPACE.
               10  WK01-RSPNS-ID-SY00-O              PIC X(1)
                                               VALUE SPACE.
               10  WK01-RSPNS-ID-SY00       PIC X(8)
                                               VALUE SPACES.
               10  WK01-FUNC-DESCRIPTION-Z              PIC X(1)
                                               VALUE SPACE.
               10  WK01-FUNC-DESCRIPTION-F              PIC X(1)
                                               VALUE SPACE.
               10  WK01-FUNC-DESCRIPTION-A              PIC X(1)
                                               VALUE SPACE.
               10  WK01-FUNC-DESCRIPTION-V              PIC X(1)
                                               VALUE SPACE.
               10  WK01-FUNC-DESCRIPTION-O              PIC X(1)
                                               VALUE SPACE.
               10  WK01-FUNC-DESCRIPTION       PIC X(28)
                                               VALUE SPACES.
               10  WK01-STATUS-CODE-SY00-Z              PIC X(1)
                                               VALUE SPACE.
               10  WK01-STATUS-CODE-SY00-F              PIC X(1)
                                               VALUE SPACE.
               10  WK01-STATUS-CODE-SY00-A              PIC X(1)
                                               VALUE SPACE.
               10  WK01-STATUS-CODE-SY00-V              PIC X(1)
                                               VALUE SPACE.
               10  WK01-STATUS-CODE-SY00-O              PIC X(1)
                                               VALUE SPACE.
               10  WK01-STATUS-CODE-SY00       PIC X(1)
                                               VALUE SPACES.
               10  WK01-FLAG-TA31-Z              PIC X(1)
                                               VALUE SPACE.
               10  WK01-FLAG-TA31-F              PIC X(1)
                                               VALUE SPACE.
               10  WK01-FLAG-TA31-A              PIC X(1)
                                               VALUE SPACE.
               10  WK01-FLAG-TA31-V              PIC X(1)
                                               VALUE SPACE.
               10  WK01-FLAG-TA31-O              PIC X(1)
                                               VALUE SPACE.
               10  WK01-FLAG-TA31       PIC X(1)
                                               VALUE SPACES.
               10  WK01-CODE-TA311-Z              PIC X(1)
                                               VALUE SPACE.
               10  WK01-CODE-TA311-F              PIC X(1)
                                               VALUE SPACE.
               10  WK01-CODE-TA311-A              PIC X(1)
                                               VALUE SPACE.
               10  WK01-CODE-TA311-V              PIC X(1)
                                               VALUE SPACE.
               10  WK01-CODE-TA311-O              PIC X(1)
                                               VALUE SPACE.
               10  WK01-CODE-TA311       PIC X(1)
                                               VALUE SPACES.
               10  WK01-NMBR-TA311-Z              PIC X(1)
                                               VALUE SPACE.
               10  WK01-NMBR-TA311-F              PIC X(1)
                                               VALUE SPACE.
               10  WK01-NMBR-TA311-A              PIC X(1)
                                               VALUE SPACE.
               10  WK01-NMBR-TA311-V              PIC X(1)
                                               VALUE SPACE.
               10  WK01-NMBR-TA311-O              PIC X(1)
                                               VALUE SPACE.
               10  WK01-NMBR-TA311       PIC X(8)
                                               VALUE SPACES.
               10  WK01-AMT-TA311-Z              PIC X(1)
                                               VALUE SPACE.
               10  WK01-AMT-TA311-F              PIC X(1)
                                               VALUE SPACE.
               10  WK01-AMT-TA311-A              PIC X(1)
                                               VALUE SPACE.
               10  WK01-AMT-TA311-V              PIC X(1)
                                               VALUE SPACE.
               10  WK01-AMT-TA311-O              PIC X(1)
                                               VALUE SPACE.
               10  WK01-AMT-TA311       PIC X(12)
                                               VALUE SPACES.
               10  WK01-AMT-TA3A1-Z              PIC X(1)
                                               VALUE SPACE.
               10  WK01-AMT-TA3A1-F              PIC X(1)
                                               VALUE SPACE.
               10  WK01-AMT-TA3A1-A              PIC X(1)
                                               VALUE SPACE.
               10  WK01-AMT-TA3A1-V              PIC X(1)
                                               VALUE SPACE.
               10  WK01-AMT-TA3A1-O              PIC X(1)
                                               VALUE SPACE.
               10  WK01-AMT-TA3A1       PIC X(12)
                                               VALUE SPACES.
               10  WK01-ACTVY-DATE-TA311-Z              PIC X(1)
                                               VALUE SPACE.
               10  WK01-ACTVY-DATE-TA311-F              PIC X(1)
                                               VALUE SPACE.
               10  WK01-ACTVY-DATE-TA311-A              PIC X(1)
                                               VALUE SPACE.
               10  WK01-ACTVY-DATE-TA311-V              PIC X(1)
                                               VALUE SPACE.
               10  WK01-ACTVY-DATE-TA311-O              PIC X(1)
                                               VALUE SPACE.
               10  WK01-ACTVY-DATE-TA311       PIC X(6)
                                               VALUE SPACES.
               10  WK01-IND-TA311-Z              PIC X(1)
                                               VALUE SPACE.
               10  WK01-IND-TA311-F              PIC X(1)
                                               VALUE SPACE.
               10  WK01-IND-TA311-A              PIC X(1)
                                               VALUE SPACE.
               10  WK01-IND-TA311-V              PIC X(1)
                                               VALUE SPACE.
               10  WK01-IND-TA311-O              PIC X(1)
                                               VALUE SPACE.
               10  WK01-IND-TA311       PIC X(1)
                                               VALUE SPACES.
               10  WK01-PAID-IND-TA311-Z              PIC X(1)
                                               VALUE SPACE.
               10  WK01-PAID-IND-TA311-F              PIC X(1)
                                               VALUE SPACE.
               10  WK01-PAID-IND-TA311-A              PIC X(1)
                                               VALUE SPACE.
               10  WK01-PAID-IND-TA311-V              PIC X(1)
                                               VALUE SPACE.
               10  WK01-PAID-IND-TA311-O              PIC X(1)
                                               VALUE SPACE.
               10  WK01-PAID-IND-TA311       PIC X(1)
                                               VALUE SPACES.
               10  WK01-MEMO-TA311-Z              PIC X(1)
                                               VALUE SPACE.
               10  WK01-MEMO-TA311-F              PIC X(1)
                                               VALUE SPACE.
               10  WK01-MEMO-TA311-A              PIC X(1)
                                               VALUE SPACE.
               10  WK01-MEMO-TA311-V              PIC X(1)
                                               VALUE SPACE.
               10  WK01-MEMO-TA311-O              PIC X(1)
                                               VALUE SPACE.
               10  WK01-MEMO-TA311       PIC X(1)
                                               VALUE SPACES.
               10  WK01-CODE-TA312-Z              PIC X(1)
                                               VALUE SPACE.
               10  WK01-CODE-TA312-F              PIC X(1)
                                               VALUE SPACE.
               10  WK01-CODE-TA312-A              PIC X(1)
                                               VALUE SPACE.
               10  WK01-CODE-TA312-V              PIC X(1)
                                               VALUE SPACE.
               10  WK01-CODE-TA312-O              PIC X(1)
                                               VALUE SPACE.
               10  WK01-CODE-TA312       PIC X(1)
                                               VALUE SPACES.
               10  WK01-NMBR-TA312-Z              PIC X(1)
                                               VALUE SPACE.
               10  WK01-NMBR-TA312-F              PIC X(1)
                                               VALUE SPACE.
               10  WK01-NMBR-TA312-A              PIC X(1)
                                               VALUE SPACE.
               10  WK01-NMBR-TA312-V              PIC X(1)
                                               VALUE SPACE.
               10  WK01-NMBR-TA312-O              PIC X(1)
                                               VALUE SPACE.
               10  WK01-NMBR-TA312       PIC X(8)
                                               VALUE SPACES.
               10  WK01-AMT-TA312-Z              PIC X(1)
                                               VALUE SPACE.
               10  WK01-AMT-TA312-F              PIC X(1)
                                               VALUE SPACE.
               10  WK01-AMT-TA312-A              PIC X(1)
                                               VALUE SPACE.
               10  WK01-AMT-TA312-V              PIC X(1)
                                               VALUE SPACE.
               10  WK01-AMT-TA312-O              PIC X(1)
                                               VALUE SPACE.
               10  WK01-AMT-TA312       PIC X(12)
                                               VALUE SPACES.
               10  WK01-AMT-TA3A2-Z              PIC X(1)
                                               VALUE SPACE.
               10  WK01-AMT-TA3A2-F              PIC X(1)
                                               VALUE SPACE.
               10  WK01-AMT-TA3A2-A              PIC X(1)
                                               VALUE SPACE.
               10  WK01-AMT-TA3A2-V              PIC X(1)
                                               VALUE SPACE.
               10  WK01-AMT-TA3A2-O              PIC X(1)
                                               VALUE SPACE.
               10  WK01-AMT-TA3A2       PIC X(12)
                                               VALUE SPACES.
               10  WK01-ACTVY-DATE-TA312-Z              PIC X(1)
                                               VALUE SPACE.
               10  WK01-ACTVY-DATE-TA312-F              PIC X(1)
                                               VALUE SPACE.
               10  WK01-ACTVY-DATE-TA312-A              PIC X(1)
                                               VALUE SPACE.
               10  WK01-ACTVY-DATE-TA312-V              PIC X(1)
                                               VALUE SPACE.
               10  WK01-ACTVY-DATE-TA312-O              PIC X(1)
                                               VALUE SPACE.
               10  WK01-ACTVY-DATE-TA312       PIC X(6)
                                               VALUE SPACES.
               10  WK01-IND-TA312-Z              PIC X(1)
                                               VALUE SPACE.
               10  WK01-IND-TA312-F              PIC X(1)
                                               VALUE SPACE.
               10  WK01-IND-TA312-A              PIC X(1)
                                               VALUE SPACE.
               10  WK01-IND-TA312-V              PIC X(1)
                                               VALUE SPACE.
               10  WK01-IND-TA312-O              PIC X(1)
                                               VALUE SPACE.
               10  WK01-IND-TA312       PIC X(1)
                                               VALUE SPACES.
               10  WK01-PAID-IND-TA312-Z              PIC X(1)
                                               VALUE SPACE.
               10  WK01-PAID-IND-TA312-F              PIC X(1)
                                               VALUE SPACE.
               10  WK01-PAID-IND-TA312-A              PIC X(1)
                                               VALUE SPACE.
               10  WK01-PAID-IND-TA312-V              PIC X(1)
                                               VALUE SPACE.
               10  WK01-PAID-IND-TA312-O              PIC X(1)
                                               VALUE SPACE.
               10  WK01-PAID-IND-TA312       PIC X(1)
                                               VALUE SPACES.
               10  WK01-MEMO-TA312-Z              PIC X(1)
                                               VALUE SPACE.
               10  WK01-MEMO-TA312-F              PIC X(1)
                                               VALUE SPACE.
               10  WK01-MEMO-TA312-A              PIC X(1)
                                               VALUE SPACE.
               10  WK01-MEMO-TA312-V              PIC X(1)
                                               VALUE SPACE.
               10  WK01-MEMO-TA312-O              PIC X(1)
                                               VALUE SPACE.
               10  WK01-MEMO-TA312       PIC X(1)
                                               VALUE SPACES.
               10  WK01-CODE-TA313-Z              PIC X(1)
                                               VALUE SPACE.
               10  WK01-CODE-TA313-F              PIC X(1)
                                               VALUE SPACE.
               10  WK01-CODE-TA313-A              PIC X(1)
                                               VALUE SPACE.
               10  WK01-CODE-TA313-V              PIC X(1)
                                               VALUE SPACE.
               10  WK01-CODE-TA313-O              PIC X(1)
                                               VALUE SPACE.
               10  WK01-CODE-TA313       PIC X(1)
                                               VALUE SPACES.
               10  WK01-NMBR-TA313-Z              PIC X(1)
                                               VALUE SPACE.
               10  WK01-NMBR-TA313-F              PIC X(1)
                                               VALUE SPACE.
               10  WK01-NMBR-TA313-A              PIC X(1)
                                               VALUE SPACE.
               10  WK01-NMBR-TA313-V              PIC X(1)
                                               VALUE SPACE.
               10  WK01-NMBR-TA313-O              PIC X(1)
                                               VALUE SPACE.
               10  WK01-NMBR-TA313       PIC X(8)
                                               VALUE SPACES.
               10  WK01-AMT-TA313-Z              PIC X(1)
                                               VALUE SPACE.
               10  WK01-AMT-TA313-F              PIC X(1)
                                               VALUE SPACE.
               10  WK01-AMT-TA313-A              PIC X(1)
                                               VALUE SPACE.
               10  WK01-AMT-TA313-V              PIC X(1)
                                               VALUE SPACE.
               10  WK01-AMT-TA313-O              PIC X(1)
                                               VALUE SPACE.
               10  WK01-AMT-TA313       PIC X(12)
                                               VALUE SPACES.
               10  WK01-AMT-TA3A3-Z              PIC X(1)
                                               VALUE SPACE.
               10  WK01-AMT-TA3A3-F              PIC X(1)
                                               VALUE SPACE.
               10  WK01-AMT-TA3A3-A              PIC X(1)
                                               VALUE SPACE.
               10  WK01-AMT-TA3A3-V              PIC X(1)
                                               VALUE SPACE.
               10  WK01-AMT-TA3A3-O              PIC X(1)
                                               VALUE SPACE.
               10  WK01-AMT-TA3A3       PIC X(12)
                                               VALUE SPACES.
               10  WK01-ACTVY-DATE-TA313-Z              PIC X(1)
                                               VALUE SPACE.
               10  WK01-ACTVY-DATE-TA313-F              PIC X(1)
                                               VALUE SPACE.
               10  WK01-ACTVY-DATE-TA313-A              PIC X(1)
                                               VALUE SPACE.
               10  WK01-ACTVY-DATE-TA313-V              PIC X(1)
                                               VALUE SPACE.
               10  WK01-ACTVY-DATE-TA313-O              PIC X(1)
                                               VALUE SPACE.
               10  WK01-ACTVY-DATE-TA313       PIC X(6)
                                               VALUE SPACES.
               10  WK01-IND-TA313-Z              PIC X(1)
                                               VALUE SPACE.
               10  WK01-IND-TA313-F              PIC X(1)
                                               VALUE SPACE.
               10  WK01-IND-TA313-A              PIC X(1)
                                               VALUE SPACE.
               10  WK01-IND-TA313-V              PIC X(1)
                                               VALUE SPACE.
               10  WK01-IND-TA313-O              PIC X(1)
                                               VALUE SPACE.
               10  WK01-IND-TA313       PIC X(1)
                                               VALUE SPACES.
               10  WK01-PAID-IND-TA313-Z              PIC X(1)
                                               VALUE SPACE.
               10  WK01-PAID-IND-TA313-F              PIC X(1)
                                               VALUE SPACE.
               10  WK01-PAID-IND-TA313-A              PIC X(1)
                                               VALUE SPACE.
               10  WK01-PAID-IND-TA313-V              PIC X(1)
                                               VALUE SPACE.
               10  WK01-PAID-IND-TA313-O              PIC X(1)
                                               VALUE SPACE.
               10  WK01-PAID-IND-TA313       PIC X(1)
                                               VALUE SPACES.
               10  WK01-MEMO-TA313-Z              PIC X(1)
                                               VALUE SPACE.
               10  WK01-MEMO-TA313-F              PIC X(1)
                                               VALUE SPACE.
               10  WK01-MEMO-TA313-A              PIC X(1)
                                               VALUE SPACE.
               10  WK01-MEMO-TA313-V              PIC X(1)
                                               VALUE SPACE.
               10  WK01-MEMO-TA313-O              PIC X(1)
                                               VALUE SPACE.
               10  WK01-MEMO-TA313       PIC X(1)
                                               VALUE SPACES.
               10  WK01-CODE-TA314-Z              PIC X(1)
                                               VALUE SPACE.
               10  WK01-CODE-TA314-F              PIC X(1)
                                               VALUE SPACE.
               10  WK01-CODE-TA314-A              PIC X(1)
                                               VALUE SPACE.
               10  WK01-CODE-TA314-V              PIC X(1)
                                               VALUE SPACE.
               10  WK01-CODE-TA314-O              PIC X(1)
                                               VALUE SPACE.
               10  WK01-CODE-TA314       PIC X(1)
                                               VALUE SPACES.
               10  WK01-NMBR-TA314-Z              PIC X(1)
                                               VALUE SPACE.
               10  WK01-NMBR-TA314-F              PIC X(1)
                                               VALUE SPACE.
               10  WK01-NMBR-TA314-A              PIC X(1)
                                               VALUE SPACE.
               10  WK01-NMBR-TA314-V              PIC X(1)
                                               VALUE SPACE.
               10  WK01-NMBR-TA314-O              PIC X(1)
                                               VALUE SPACE.
               10  WK01-NMBR-TA314       PIC X(8)
                                               VALUE SPACES.
               10  WK01-AMT-TA314-Z              PIC X(1)
                                               VALUE SPACE.
               10  WK01-AMT-TA314-F              PIC X(1)
                                               VALUE SPACE.
               10  WK01-AMT-TA314-A              PIC X(1)
                                               VALUE SPACE.
               10  WK01-AMT-TA314-V              PIC X(1)
                                               VALUE SPACE.
               10  WK01-AMT-TA314-O              PIC X(1)
                                               VALUE SPACE.
               10  WK01-AMT-TA314       PIC X(12)
                                               VALUE SPACES.
               10  WK01-AMT-TA3A4-Z              PIC X(1)
                                               VALUE SPACE.
               10  WK01-AMT-TA3A4-F              PIC X(1)
                                               VALUE SPACE.
               10  WK01-AMT-TA3A4-A              PIC X(1)
                                               VALUE SPACE.
               10  WK01-AMT-TA3A4-V              PIC X(1)
                                               VALUE SPACE.
               10  WK01-AMT-TA3A4-O              PIC X(1)
                                               VALUE SPACE.
               10  WK01-AMT-TA3A4       PIC X(12)
                                               VALUE SPACES.
               10  WK01-ACTVY-DATE-TA314-Z              PIC X(1)
                                               VALUE SPACE.
               10  WK01-ACTVY-DATE-TA314-F              PIC X(1)
                                               VALUE SPACE.
               10  WK01-ACTVY-DATE-TA314-A              PIC X(1)
                                               VALUE SPACE.
               10  WK01-ACTVY-DATE-TA314-V              PIC X(1)
                                               VALUE SPACE.
               10  WK01-ACTVY-DATE-TA314-O              PIC X(1)
                                               VALUE SPACE.
               10  WK01-ACTVY-DATE-TA314       PIC X(6)
                                               VALUE SPACES.
               10  WK01-IND-TA314-Z              PIC X(1)
                                               VALUE SPACE.
               10  WK01-IND-TA314-F              PIC X(1)
                                               VALUE SPACE.
               10  WK01-IND-TA314-A              PIC X(1)
                                               VALUE SPACE.
               10  WK01-IND-TA314-V              PIC X(1)
                                               VALUE SPACE.
               10  WK01-IND-TA314-O              PIC X(1)
                                               VALUE SPACE.
               10  WK01-IND-TA314       PIC X(1)
                                               VALUE SPACES.
               10  WK01-PAID-IND-TA314-Z              PIC X(1)
                                               VALUE SPACE.
               10  WK01-PAID-IND-TA314-F              PIC X(1)
                                               VALUE SPACE.
               10  WK01-PAID-IND-TA314-A              PIC X(1)
                                               VALUE SPACE.
               10  WK01-PAID-IND-TA314-V              PIC X(1)
                                               VALUE SPACE.
               10  WK01-PAID-IND-TA314-O              PIC X(1)
                                               VALUE SPACE.
               10  WK01-PAID-IND-TA314       PIC X(1)
                                               VALUE SPACES.
               10  WK01-MEMO-TA314-Z              PIC X(1)
                                               VALUE SPACE.
               10  WK01-MEMO-TA314-F              PIC X(1)
                                               VALUE SPACE.
               10  WK01-MEMO-TA314-A              PIC X(1)
                                               VALUE SPACE.
               10  WK01-MEMO-TA314-V              PIC X(1)
                                               VALUE SPACE.
               10  WK01-MEMO-TA314-O              PIC X(1)
                                               VALUE SPACE.
               10  WK01-MEMO-TA314       PIC X(1)
                                               VALUE SPACES.
               10  WK01-CODE-TA315-Z              PIC X(1)
                                               VALUE SPACE.
               10  WK01-CODE-TA315-F              PIC X(1)
                                               VALUE SPACE.
               10  WK01-CODE-TA315-A              PIC X(1)
                                               VALUE SPACE.
               10  WK01-CODE-TA315-V              PIC X(1)
                                               VALUE SPACE.
               10  WK01-CODE-TA315-O              PIC X(1)
                                               VALUE SPACE.
               10  WK01-CODE-TA315       PIC X(1)
                                               VALUE SPACES.
               10  WK01-NMBR-TA315-Z              PIC X(1)
                                               VALUE SPACE.
               10  WK01-NMBR-TA315-F              PIC X(1)
                                               VALUE SPACE.
               10  WK01-NMBR-TA315-A              PIC X(1)
                                               VALUE SPACE.
               10  WK01-NMBR-TA315-V              PIC X(1)
                                               VALUE SPACE.
               10  WK01-NMBR-TA315-O              PIC X(1)
                                               VALUE SPACE.
               10  WK01-NMBR-TA315       PIC X(8)
                                               VALUE SPACES.
               10  WK01-AMT-TA315-Z              PIC X(1)
                                               VALUE SPACE.
               10  WK01-AMT-TA315-F              PIC X(1)
                                               VALUE SPACE.
               10  WK01-AMT-TA315-A              PIC X(1)
                                               VALUE SPACE.
               10  WK01-AMT-TA315-V              PIC X(1)
                                               VALUE SPACE.
               10  WK01-AMT-TA315-O              PIC X(1)
                                               VALUE SPACE.
               10  WK01-AMT-TA315       PIC X(12)
                                               VALUE SPACES.
               10  WK01-AMT-TA3A5-Z              PIC X(1)
                                               VALUE SPACE.
               10  WK01-AMT-TA3A5-F              PIC X(1)
                                               VALUE SPACE.
               10  WK01-AMT-TA3A5-A              PIC X(1)
                                               VALUE SPACE.
               10  WK01-AMT-TA3A5-V              PIC X(1)
                                               VALUE SPACE.
               10  WK01-AMT-TA3A5-O              PIC X(1)
                                               VALUE SPACE.
               10  WK01-AMT-TA3A5       PIC X(12)
                                               VALUE SPACES.
               10  WK01-ACTVY-DATE-TA315-Z              PIC X(1)
                                               VALUE SPACE.
               10  WK01-ACTVY-DATE-TA315-F              PIC X(1)
                                               VALUE SPACE.
               10  WK01-ACTVY-DATE-TA315-A              PIC X(1)
                                               VALUE SPACE.
               10  WK01-ACTVY-DATE-TA315-V              PIC X(1)
                                               VALUE SPACE.
               10  WK01-ACTVY-DATE-TA315-O              PIC X(1)
                                               VALUE SPACE.
               10  WK01-ACTVY-DATE-TA315       PIC X(6)
                                               VALUE SPACES.
               10  WK01-IND-TA315-Z              PIC X(1)
                                               VALUE SPACE.
               10  WK01-IND-TA315-F              PIC X(1)
                                               VALUE SPACE.
               10  WK01-IND-TA315-A              PIC X(1)
                                               VALUE SPACE.
               10  WK01-IND-TA315-V              PIC X(1)
                                               VALUE SPACE.
               10  WK01-IND-TA315-O              PIC X(1)
                                               VALUE SPACE.
               10  WK01-IND-TA315       PIC X(1)
                                               VALUE SPACES.
               10  WK01-PAID-IND-TA315-Z              PIC X(1)
                                               VALUE SPACE.
               10  WK01-PAID-IND-TA315-F              PIC X(1)
                                               VALUE SPACE.
               10  WK01-PAID-IND-TA315-A              PIC X(1)
                                               VALUE SPACE.
               10  WK01-PAID-IND-TA315-V              PIC X(1)
                                               VALUE SPACE.
               10  WK01-PAID-IND-TA315-O              PIC X(1)
                                               VALUE SPACE.
               10  WK01-PAID-IND-TA315       PIC X(1)
                                               VALUE SPACES.
               10  WK01-MEMO-TA315-Z              PIC X(1)
                                               VALUE SPACE.
               10  WK01-MEMO-TA315-F              PIC X(1)
                                               VALUE SPACE.
               10  WK01-MEMO-TA315-A              PIC X(1)
                                               VALUE SPACE.
               10  WK01-MEMO-TA315-V              PIC X(1)
                                               VALUE SPACE.
               10  WK01-MEMO-TA315-O              PIC X(1)
                                               VALUE SPACE.
               10  WK01-MEMO-TA315       PIC X(1)
                                               VALUE SPACES.
               10  WK01-CODE-TA316-Z              PIC X(1)
                                               VALUE SPACE.
               10  WK01-CODE-TA316-F              PIC X(1)
                                               VALUE SPACE.
               10  WK01-CODE-TA316-A              PIC X(1)
                                               VALUE SPACE.
               10  WK01-CODE-TA316-V              PIC X(1)
                                               VALUE SPACE.
               10  WK01-CODE-TA316-O              PIC X(1)
                                               VALUE SPACE.
               10  WK01-CODE-TA316       PIC X(1)
                                               VALUE SPACES.
               10  WK01-NMBR-TA316-Z              PIC X(1)
                                               VALUE SPACE.
               10  WK01-NMBR-TA316-F              PIC X(1)
                                               VALUE SPACE.
               10  WK01-NMBR-TA316-A              PIC X(1)
                                               VALUE SPACE.
               10  WK01-NMBR-TA316-V              PIC X(1)
                                               VALUE SPACE.
               10  WK01-NMBR-TA316-O              PIC X(1)
                                               VALUE SPACE.
               10  WK01-NMBR-TA316       PIC X(8)
                                               VALUE SPACES.
               10  WK01-AMT-TA316-Z              PIC X(1)
                                               VALUE SPACE.
               10  WK01-AMT-TA316-F              PIC X(1)
                                               VALUE SPACE.
               10  WK01-AMT-TA316-A              PIC X(1)
                                               VALUE SPACE.
               10  WK01-AMT-TA316-V              PIC X(1)
                                               VALUE SPACE.
               10  WK01-AMT-TA316-O              PIC X(1)
                                               VALUE SPACE.
               10  WK01-AMT-TA316       PIC X(12)
                                               VALUE SPACES.
               10  WK01-AMT-TA3A6-Z              PIC X(1)
                                               VALUE SPACE.
               10  WK01-AMT-TA3A6-F              PIC X(1)
                                               VALUE SPACE.
               10  WK01-AMT-TA3A6-A              PIC X(1)
                                               VALUE SPACE.
               10  WK01-AMT-TA3A6-V              PIC X(1)
                                               VALUE SPACE.
               10  WK01-AMT-TA3A6-O              PIC X(1)
                                               VALUE SPACE.
               10  WK01-AMT-TA3A6       PIC X(12)
                                               VALUE SPACES.
               10  WK01-ACTVY-DATE-TA316-Z              PIC X(1)
                                               VALUE SPACE.
               10  WK01-ACTVY-DATE-TA316-F              PIC X(1)
                                               VALUE SPACE.
               10  WK01-ACTVY-DATE-TA316-A              PIC X(1)
                                               VALUE SPACE.
               10  WK01-ACTVY-DATE-TA316-V              PIC X(1)
                                               VALUE SPACE.
               10  WK01-ACTVY-DATE-TA316-O              PIC X(1)
                                               VALUE SPACE.
               10  WK01-ACTVY-DATE-TA316       PIC X(6)
                                               VALUE SPACES.
               10  WK01-IND-TA316-Z              PIC X(1)
                                               VALUE SPACE.
               10  WK01-IND-TA316-F              PIC X(1)
                                               VALUE SPACE.
               10  WK01-IND-TA316-A              PIC X(1)
                                               VALUE SPACE.
               10  WK01-IND-TA316-V              PIC X(1)
                                               VALUE SPACE.
               10  WK01-IND-TA316-O              PIC X(1)
                                               VALUE SPACE.
               10  WK01-IND-TA316       PIC X(1)
                                               VALUE SPACES.
               10  WK01-PAID-IND-TA316-Z              PIC X(1)
                                               VALUE SPACE.
               10  WK01-PAID-IND-TA316-F              PIC X(1)
                                               VALUE SPACE.
               10  WK01-PAID-IND-TA316-A              PIC X(1)
                                               VALUE SPACE.
               10  WK01-PAID-IND-TA316-V              PIC X(1)
                                               VALUE SPACE.
               10  WK01-PAID-IND-TA316-O              PIC X(1)
                                               VALUE SPACE.
               10  WK01-PAID-IND-TA316       PIC X(1)
                                               VALUE SPACES.
               10  WK01-MEMO-TA316-Z              PIC X(1)
                                               VALUE SPACE.
               10  WK01-MEMO-TA316-F              PIC X(1)
                                               VALUE SPACE.
               10  WK01-MEMO-TA316-A              PIC X(1)
                                               VALUE SPACE.
               10  WK01-MEMO-TA316-V              PIC X(1)
                                               VALUE SPACE.
               10  WK01-MEMO-TA316-O              PIC X(1)
                                               VALUE SPACE.
               10  WK01-MEMO-TA316       PIC X(1)
                                               VALUE SPACES.
               10  WK01-CODE-TA317-Z              PIC X(1)
                                               VALUE SPACE.
               10  WK01-CODE-TA317-F              PIC X(1)
                                               VALUE SPACE.
               10  WK01-CODE-TA317-A              PIC X(1)
                                               VALUE SPACE.
               10  WK01-CODE-TA317-V              PIC X(1)
                                               VALUE SPACE.
               10  WK01-CODE-TA317-O              PIC X(1)
                                               VALUE SPACE.
               10  WK01-CODE-TA317       PIC X(1)
                                               VALUE SPACES.
               10  WK01-NMBR-TA317-Z              PIC X(1)
                                               VALUE SPACE.
               10  WK01-NMBR-TA317-F              PIC X(1)
                                               VALUE SPACE.
               10  WK01-NMBR-TA317-A              PIC X(1)
                                               VALUE SPACE.
               10  WK01-NMBR-TA317-V              PIC X(1)
                                               VALUE SPACE.
               10  WK01-NMBR-TA317-O              PIC X(1)
                                               VALUE SPACE.
               10  WK01-NMBR-TA317       PIC X(8)
                                               VALUE SPACES.
               10  WK01-AMT-TA317-Z              PIC X(1)
                                               VALUE SPACE.
               10  WK01-AMT-TA317-F              PIC X(1)
                                               VALUE SPACE.
               10  WK01-AMT-TA317-A              PIC X(1)
                                               VALUE SPACE.
               10  WK01-AMT-TA317-V              PIC X(1)
                                               VALUE SPACE.
               10  WK01-AMT-TA317-O              PIC X(1)
                                               VALUE SPACE.
               10  WK01-AMT-TA317       PIC X(12)
                                               VALUE SPACES.
               10  WK01-AMT-TA3A7-Z              PIC X(1)
                                               VALUE SPACE.
               10  WK01-AMT-TA3A7-F              PIC X(1)
                                               VALUE SPACE.
               10  WK01-AMT-TA3A7-A              PIC X(1)
                                               VALUE SPACE.
               10  WK01-AMT-TA3A7-V              PIC X(1)
                                               VALUE SPACE.
               10  WK01-AMT-TA3A7-O              PIC X(1)
                                               VALUE SPACE.
               10  WK01-AMT-TA3A7       PIC X(12)
                                               VALUE SPACES.
               10  WK01-ACTVY-DATE-TA317-Z              PIC X(1)
                                               VALUE SPACE.
               10  WK01-ACTVY-DATE-TA317-F              PIC X(1)
                                               VALUE SPACE.
               10  WK01-ACTVY-DATE-TA317-A              PIC X(1)
                                               VALUE SPACE.
               10  WK01-ACTVY-DATE-TA317-V              PIC X(1)
                                               VALUE SPACE.
               10  WK01-ACTVY-DATE-TA317-O              PIC X(1)
                                               VALUE SPACE.
               10  WK01-ACTVY-DATE-TA317       PIC X(6)
                                               VALUE SPACES.
               10  WK01-IND-TA317-Z              PIC X(1)
                                               VALUE SPACE.
               10  WK01-IND-TA317-F              PIC X(1)
                                               VALUE SPACE.
               10  WK01-IND-TA317-A              PIC X(1)
                                               VALUE SPACE.
               10  WK01-IND-TA317-V              PIC X(1)
                                               VALUE SPACE.
               10  WK01-IND-TA317-O              PIC X(1)
                                               VALUE SPACE.
               10  WK01-IND-TA317       PIC X(1)
                                               VALUE SPACES.
               10  WK01-PAID-IND-TA317-Z              PIC X(1)
                                               VALUE SPACE.
               10  WK01-PAID-IND-TA317-F              PIC X(1)
                                               VALUE SPACE.
               10  WK01-PAID-IND-TA317-A              PIC X(1)
                                               VALUE SPACE.
               10  WK01-PAID-IND-TA317-V              PIC X(1)
                                               VALUE SPACE.
               10  WK01-PAID-IND-TA317-O              PIC X(1)
                                               VALUE SPACE.
               10  WK01-PAID-IND-TA317       PIC X(1)
                                               VALUE SPACES.
               10  WK01-MEMO-TA317-Z              PIC X(1)
                                               VALUE SPACE.
               10  WK01-MEMO-TA317-F              PIC X(1)
                                               VALUE SPACE.
               10  WK01-MEMO-TA317-A              PIC X(1)
                                               VALUE SPACE.
               10  WK01-MEMO-TA317-V              PIC X(1)
                                               VALUE SPACE.
               10  WK01-MEMO-TA317-O              PIC X(1)
                                               VALUE SPACE.
               10  WK01-MEMO-TA317       PIC X(1)
                                               VALUE SPACES.
               10  WK01-CODE-TA318-Z              PIC X(1)
                                               VALUE SPACE.
               10  WK01-CODE-TA318-F              PIC X(1)
                                               VALUE SPACE.
               10  WK01-CODE-TA318-A              PIC X(1)
                                               VALUE SPACE.
               10  WK01-CODE-TA318-V              PIC X(1)
                                               VALUE SPACE.
               10  WK01-CODE-TA318-O              PIC X(1)
                                               VALUE SPACE.
               10  WK01-CODE-TA318       PIC X(1)
                                               VALUE SPACES.
               10  WK01-NMBR-TA318-Z              PIC X(1)
                                               VALUE SPACE.
               10  WK01-NMBR-TA318-F              PIC X(1)
                                               VALUE SPACE.
               10  WK01-NMBR-TA318-A              PIC X(1)
                                               VALUE SPACE.
               10  WK01-NMBR-TA318-V              PIC X(1)
                                               VALUE SPACE.
               10  WK01-NMBR-TA318-O              PIC X(1)
                                               VALUE SPACE.
               10  WK01-NMBR-TA318       PIC X(8)
                                               VALUE SPACES.
               10  WK01-AMT-TA318-Z              PIC X(1)
                                               VALUE SPACE.
               10  WK01-AMT-TA318-F              PIC X(1)
                                               VALUE SPACE.
               10  WK01-AMT-TA318-A              PIC X(1)
                                               VALUE SPACE.
               10  WK01-AMT-TA318-V              PIC X(1)
                                               VALUE SPACE.
               10  WK01-AMT-TA318-O              PIC X(1)
                                               VALUE SPACE.
               10  WK01-AMT-TA318       PIC X(12)
                                               VALUE SPACES.
               10  WK01-AMT-TA3A8-Z              PIC X(1)
                                               VALUE SPACE.
               10  WK01-AMT-TA3A8-F              PIC X(1)
                                               VALUE SPACE.
               10  WK01-AMT-TA3A8-A              PIC X(1)
                                               VALUE SPACE.
               10  WK01-AMT-TA3A8-V              PIC X(1)
                                               VALUE SPACE.
               10  WK01-AMT-TA3A8-O              PIC X(1)
                                               VALUE SPACE.
               10  WK01-AMT-TA3A8       PIC X(12)
                                               VALUE SPACES.
               10  WK01-ACTVY-DATE-TA318-Z              PIC X(1)
                                               VALUE SPACE.
               10  WK01-ACTVY-DATE-TA318-F              PIC X(1)
                                               VALUE SPACE.
               10  WK01-ACTVY-DATE-TA318-A              PIC X(1)
                                               VALUE SPACE.
               10  WK01-ACTVY-DATE-TA318-V              PIC X(1)
                                               VALUE SPACE.
               10  WK01-ACTVY-DATE-TA318-O              PIC X(1)
                                               VALUE SPACE.
               10  WK01-ACTVY-DATE-TA318       PIC X(6)
                                               VALUE SPACES.
               10  WK01-IND-TA318-Z              PIC X(1)
                                               VALUE SPACE.
               10  WK01-IND-TA318-F              PIC X(1)
                                               VALUE SPACE.
               10  WK01-IND-TA318-A              PIC X(1)
                                               VALUE SPACE.
               10  WK01-IND-TA318-V              PIC X(1)
                                               VALUE SPACE.
               10  WK01-IND-TA318-O              PIC X(1)
                                               VALUE SPACE.
               10  WK01-IND-TA318       PIC X(1)
                                               VALUE SPACES.
               10  WK01-PAID-IND-TA318-Z              PIC X(1)
                                               VALUE SPACE.
               10  WK01-PAID-IND-TA318-F              PIC X(1)
                                               VALUE SPACE.
               10  WK01-PAID-IND-TA318-A              PIC X(1)
                                               VALUE SPACE.
               10  WK01-PAID-IND-TA318-V              PIC X(1)
                                               VALUE SPACE.
               10  WK01-PAID-IND-TA318-O              PIC X(1)
                                               VALUE SPACE.
               10  WK01-PAID-IND-TA318       PIC X(1)
                                               VALUE SPACES.
               10  WK01-MEMO-TA318-Z              PIC X(1)
                                               VALUE SPACE.
               10  WK01-MEMO-TA318-F              PIC X(1)
                                               VALUE SPACE.
               10  WK01-MEMO-TA318-A              PIC X(1)
                                               VALUE SPACE.
               10  WK01-MEMO-TA318-V              PIC X(1)
                                               VALUE SPACE.
               10  WK01-MEMO-TA318-O              PIC X(1)
                                               VALUE SPACE.
               10  WK01-MEMO-TA318       PIC X(1)
                                               VALUE SPACES.
               10  WK01-CODE-TA319-Z              PIC X(1)
                                               VALUE SPACE.
               10  WK01-CODE-TA319-F              PIC X(1)
                                               VALUE SPACE.
               10  WK01-CODE-TA319-A              PIC X(1)
                                               VALUE SPACE.
               10  WK01-CODE-TA319-V              PIC X(1)
                                               VALUE SPACE.
               10  WK01-CODE-TA319-O              PIC X(1)
                                               VALUE SPACE.
               10  WK01-CODE-TA319       PIC X(1)
                                               VALUE SPACES.
               10  WK01-NMBR-TA319-Z              PIC X(1)
                                               VALUE SPACE.
               10  WK01-NMBR-TA319-F              PIC X(1)
                                               VALUE SPACE.
               10  WK01-NMBR-TA319-A              PIC X(1)
                                               VALUE SPACE.
               10  WK01-NMBR-TA319-V              PIC X(1)
                                               VALUE SPACE.
               10  WK01-NMBR-TA319-O              PIC X(1)
                                               VALUE SPACE.
               10  WK01-NMBR-TA319       PIC X(8)
                                               VALUE SPACES.
               10  WK01-AMT-TA319-Z              PIC X(1)
                                               VALUE SPACE.
               10  WK01-AMT-TA319-F              PIC X(1)
                                               VALUE SPACE.
               10  WK01-AMT-TA319-A              PIC X(1)
                                               VALUE SPACE.
               10  WK01-AMT-TA319-V              PIC X(1)
                                               VALUE SPACE.
               10  WK01-AMT-TA319-O              PIC X(1)
                                               VALUE SPACE.
               10  WK01-AMT-TA319       PIC X(12)
                                               VALUE SPACES.
               10  WK01-AMT-TA3A9-Z              PIC X(1)
                                               VALUE SPACE.
               10  WK01-AMT-TA3A9-F              PIC X(1)
                                               VALUE SPACE.
               10  WK01-AMT-TA3A9-A              PIC X(1)
                                               VALUE SPACE.
               10  WK01-AMT-TA3A9-V              PIC X(1)
                                               VALUE SPACE.
               10  WK01-AMT-TA3A9-O              PIC X(1)
                                               VALUE SPACE.
               10  WK01-AMT-TA3A9       PIC X(12)
                                               VALUE SPACES.
               10  WK01-ACTVY-DATE-TA319-Z              PIC X(1)
                                               VALUE SPACE.
               10  WK01-ACTVY-DATE-TA319-F              PIC X(1)
                                               VALUE SPACE.
               10  WK01-ACTVY-DATE-TA319-A              PIC X(1)
                                               VALUE SPACE.
               10  WK01-ACTVY-DATE-TA319-V              PIC X(1)
                                               VALUE SPACE.
               10  WK01-ACTVY-DATE-TA319-O              PIC X(1)
                                               VALUE SPACE.
               10  WK01-ACTVY-DATE-TA319       PIC X(6)
                                               VALUE SPACES.
               10  WK01-IND-TA319-Z              PIC X(1)
                                               VALUE SPACE.
               10  WK01-IND-TA319-F              PIC X(1)
                                               VALUE SPACE.
               10  WK01-IND-TA319-A              PIC X(1)
                                               VALUE SPACE.
               10  WK01-IND-TA319-V              PIC X(1)
                                               VALUE SPACE.
               10  WK01-IND-TA319-O              PIC X(1)
                                               VALUE SPACE.
               10  WK01-IND-TA319       PIC X(1)
                                               VALUE SPACES.
               10  WK01-PAID-IND-TA319-Z              PIC X(1)
                                               VALUE SPACE.
               10  WK01-PAID-IND-TA319-F              PIC X(1)
                                               VALUE SPACE.
               10  WK01-PAID-IND-TA319-A              PIC X(1)
                                               VALUE SPACE.
               10  WK01-PAID-IND-TA319-V              PIC X(1)
                                               VALUE SPACE.
               10  WK01-PAID-IND-TA319-O              PIC X(1)
                                               VALUE SPACE.
               10  WK01-PAID-IND-TA319       PIC X(1)
                                               VALUE SPACES.
               10  WK01-MEMO-TA319-Z              PIC X(1)
                                               VALUE SPACE.
               10  WK01-MEMO-TA319-F              PIC X(1)
                                               VALUE SPACE.
               10  WK01-MEMO-TA319-A              PIC X(1)
                                               VALUE SPACE.
               10  WK01-MEMO-TA319-V              PIC X(1)
                                               VALUE SPACE.
               10  WK01-MEMO-TA319-O              PIC X(1)
                                               VALUE SPACE.
               10  WK01-MEMO-TA319       PIC X(1)
                                               VALUE SPACES.
               10  WK01-CODE-TA3110-Z              PIC X(1)
                                               VALUE SPACE.
               10  WK01-CODE-TA3110-F              PIC X(1)
                                               VALUE SPACE.
               10  WK01-CODE-TA3110-A              PIC X(1)
                                               VALUE SPACE.
               10  WK01-CODE-TA3110-V              PIC X(1)
                                               VALUE SPACE.
               10  WK01-CODE-TA3110-O              PIC X(1)
                                               VALUE SPACE.
               10  WK01-CODE-TA3110       PIC X(1)
                                               VALUE SPACES.
               10  WK01-NMBR-TA3110-Z              PIC X(1)
                                               VALUE SPACE.
               10  WK01-NMBR-TA3110-F              PIC X(1)
                                               VALUE SPACE.
               10  WK01-NMBR-TA3110-A              PIC X(1)
                                               VALUE SPACE.
               10  WK01-NMBR-TA3110-V              PIC X(1)
                                               VALUE SPACE.
               10  WK01-NMBR-TA3110-O              PIC X(1)
                                               VALUE SPACE.
               10  WK01-NMBR-TA3110       PIC X(8)
                                               VALUE SPACES.
               10  WK01-AMT-TA3110-Z              PIC X(1)
                                               VALUE SPACE.
               10  WK01-AMT-TA3110-F              PIC X(1)
                                               VALUE SPACE.
               10  WK01-AMT-TA3110-A              PIC X(1)
                                               VALUE SPACE.
               10  WK01-AMT-TA3110-V              PIC X(1)
                                               VALUE SPACE.
               10  WK01-AMT-TA3110-O              PIC X(1)
                                               VALUE SPACE.
               10  WK01-AMT-TA3110       PIC X(12)
                                               VALUE SPACES.
               10  WK01-AMT-TA3A10-Z              PIC X(1)
                                               VALUE SPACE.
               10  WK01-AMT-TA3A10-F              PIC X(1)
                                               VALUE SPACE.
               10  WK01-AMT-TA3A10-A              PIC X(1)
                                               VALUE SPACE.
               10  WK01-AMT-TA3A10-V              PIC X(1)
                                               VALUE SPACE.
               10  WK01-AMT-TA3A10-O              PIC X(1)
                                               VALUE SPACE.
               10  WK01-AMT-TA3A10       PIC X(12)
                                               VALUE SPACES.
               10  WK01-ACTVY-DATE-TA3110-Z              PIC X(1)
                                               VALUE SPACE.
               10  WK01-ACTVY-DATE-TA3110-F              PIC X(1)
                                               VALUE SPACE.
               10  WK01-ACTVY-DATE-TA3110-A              PIC X(1)
                                               VALUE SPACE.
               10  WK01-ACTVY-DATE-TA3110-V              PIC X(1)
                                               VALUE SPACE.
               10  WK01-ACTVY-DATE-TA3110-O              PIC X(1)
                                               VALUE SPACE.
               10  WK01-ACTVY-DATE-TA3110       PIC X(6)
                                               VALUE SPACES.
               10  WK01-IND-TA3110-Z              PIC X(1)
                                               VALUE SPACE.
               10  WK01-IND-TA3110-F              PIC X(1)
                                               VALUE SPACE.
               10  WK01-IND-TA3110-A              PIC X(1)
                                               VALUE SPACE.
               10  WK01-IND-TA3110-V              PIC X(1)
                                               VALUE SPACE.
               10  WK01-IND-TA3110-O              PIC X(1)
                                               VALUE SPACE.
               10  WK01-IND-TA3110       PIC X(1)
                                               VALUE SPACES.
               10  WK01-PAID-IND-TA3110-Z              PIC X(1)
                                               VALUE SPACE.
               10  WK01-PAID-IND-TA3110-F              PIC X(1)
                                               VALUE SPACE.
               10  WK01-PAID-IND-TA3110-A              PIC X(1)
                                               VALUE SPACE.
               10  WK01-PAID-IND-TA3110-V              PIC X(1)
                                               VALUE SPACE.
               10  WK01-PAID-IND-TA3110-O              PIC X(1)
                                               VALUE SPACE.
               10  WK01-PAID-IND-TA3110       PIC X(1)
                                               VALUE SPACES.
               10  WK01-MEMO-TA3110-Z              PIC X(1)
                                               VALUE SPACE.
               10  WK01-MEMO-TA3110-F              PIC X(1)
                                               VALUE SPACE.
               10  WK01-MEMO-TA3110-A              PIC X(1)
                                               VALUE SPACE.
               10  WK01-MEMO-TA3110-V              PIC X(1)
                                               VALUE SPACE.
               10  WK01-MEMO-TA3110-O              PIC X(1)
                                               VALUE SPACE.
               10  WK01-MEMO-TA3110       PIC X(1)
                                               VALUE SPACES.
               10  WK01-CODE-TA3111-Z              PIC X(1)
                                               VALUE SPACE.
               10  WK01-CODE-TA3111-F              PIC X(1)
                                               VALUE SPACE.
               10  WK01-CODE-TA3111-A              PIC X(1)
                                               VALUE SPACE.
               10  WK01-CODE-TA3111-V              PIC X(1)
                                               VALUE SPACE.
               10  WK01-CODE-TA3111-O              PIC X(1)
                                               VALUE SPACE.
               10  WK01-CODE-TA3111       PIC X(1)
                                               VALUE SPACES.
               10  WK01-NMBR-TA3111-Z              PIC X(1)
                                               VALUE SPACE.
               10  WK01-NMBR-TA3111-F              PIC X(1)
                                               VALUE SPACE.
               10  WK01-NMBR-TA3111-A              PIC X(1)
                                               VALUE SPACE.
               10  WK01-NMBR-TA3111-V              PIC X(1)
                                               VALUE SPACE.
               10  WK01-NMBR-TA3111-O              PIC X(1)
                                               VALUE SPACE.
               10  WK01-NMBR-TA3111       PIC X(8)
                                               VALUE SPACES.
               10  WK01-AMT-TA3111-Z              PIC X(1)
                                               VALUE SPACE.
               10  WK01-AMT-TA3111-F              PIC X(1)
                                               VALUE SPACE.
               10  WK01-AMT-TA3111-A              PIC X(1)
                                               VALUE SPACE.
               10  WK01-AMT-TA3111-V              PIC X(1)
                                               VALUE SPACE.
               10  WK01-AMT-TA3111-O              PIC X(1)
                                               VALUE SPACE.
               10  WK01-AMT-TA3111       PIC X(12)
                                               VALUE SPACES.
               10  WK01-AMT-TA3A11-Z              PIC X(1)
                                               VALUE SPACE.
               10  WK01-AMT-TA3A11-F              PIC X(1)
                                               VALUE SPACE.
               10  WK01-AMT-TA3A11-A              PIC X(1)
                                               VALUE SPACE.
               10  WK01-AMT-TA3A11-V              PIC X(1)
                                               VALUE SPACE.
               10  WK01-AMT-TA3A11-O              PIC X(1)
                                               VALUE SPACE.
               10  WK01-AMT-TA3A11       PIC X(12)
                                               VALUE SPACES.
               10  WK01-ACTVY-DATE-TA3111-Z              PIC X(1)
                                               VALUE SPACE.
               10  WK01-ACTVY-DATE-TA3111-F              PIC X(1)
                                               VALUE SPACE.
               10  WK01-ACTVY-DATE-TA3111-A              PIC X(1)
                                               VALUE SPACE.
               10  WK01-ACTVY-DATE-TA3111-V              PIC X(1)
                                               VALUE SPACE.
               10  WK01-ACTVY-DATE-TA3111-O              PIC X(1)
                                               VALUE SPACE.
               10  WK01-ACTVY-DATE-TA3111       PIC X(6)
                                               VALUE SPACES.
               10  WK01-IND-TA3111-Z              PIC X(1)
                                               VALUE SPACE.
               10  WK01-IND-TA3111-F              PIC X(1)
                                               VALUE SPACE.
               10  WK01-IND-TA3111-A              PIC X(1)
                                               VALUE SPACE.
               10  WK01-IND-TA3111-V              PIC X(1)
                                               VALUE SPACE.
               10  WK01-IND-TA3111-O              PIC X(1)
                                               VALUE SPACE.
               10  WK01-IND-TA3111       PIC X(1)
                                               VALUE SPACES.
               10  WK01-PAID-IND-TA3111-Z              PIC X(1)
                                               VALUE SPACE.
               10  WK01-PAID-IND-TA3111-F              PIC X(1)
                                               VALUE SPACE.
               10  WK01-PAID-IND-TA3111-A              PIC X(1)
                                               VALUE SPACE.
               10  WK01-PAID-IND-TA3111-V              PIC X(1)
                                               VALUE SPACE.
               10  WK01-PAID-IND-TA3111-O              PIC X(1)
                                               VALUE SPACE.
               10  WK01-PAID-IND-TA3111       PIC X(1)
                                               VALUE SPACES.
               10  WK01-MEMO-TA3111-Z              PIC X(1)
                                               VALUE SPACE.
               10  WK01-MEMO-TA3111-F              PIC X(1)
                                               VALUE SPACE.
               10  WK01-MEMO-TA3111-A              PIC X(1)
                                               VALUE SPACE.
               10  WK01-MEMO-TA3111-V              PIC X(1)
                                               VALUE SPACE.
               10  WK01-MEMO-TA3111-O              PIC X(1)
                                               VALUE SPACE.
               10  WK01-MEMO-TA3111       PIC X(1)
                                               VALUE SPACES.
               10  WK01-RQST-CODE-TA31-Z              PIC X(1)
                                               VALUE SPACE.
               10  WK01-RQST-CODE-TA31-F              PIC X(1)
                                               VALUE SPACE.
               10  WK01-RQST-CODE-TA31-A              PIC X(1)
                                               VALUE SPACE.
               10  WK01-RQST-CODE-TA31-V              PIC X(1)
                                               VALUE SPACE.
               10  WK01-RQST-CODE-TA31-O              PIC X(1)
                                               VALUE SPACE.
               10  WK01-RQST-CODE-TA31       PIC X(8)
                                               VALUE SPACES.
               10  WK01-ZZMESSAGE-Z              PIC X(1)
                                               VALUE SPACE.
               10  WK01-ZZMESSAGE-F              PIC X(1)
                                               VALUE SPACE.
               10  WK01-ZZMESSAGE-A              PIC X(1)
                                               VALUE SPACE.
               10  WK01-ZZMESSAGE-V              PIC X(1)
                                               VALUE SPACE.
               10  WK01-ZZMESSAGE-O              PIC X(1)
                                               VALUE SPACE.
               10  WK01-ZZMESSAGE       PIC X(160)
                                               VALUE SPACES.
               10  WK01-PASSED-ONE-Z              PIC X(1)
                                               VALUE SPACE.
               10  WK01-PASSED-ONE-F              PIC X(1)
                                               VALUE SPACE.
               10  WK01-PASSED-ONE-A              PIC X(1)
                                               VALUE SPACE.
               10  WK01-PASSED-ONE-V              PIC X(1)
                                               VALUE SPACE.
               10  WK01-PASSED-ONE-O              PIC X(1)
                                               VALUE SPACE.
               10  WK01-PASSED-ONE       PIC X(32)
                                               VALUE SPACES.
               10  WK01-MAP-RESPONSE-Z              PIC X(1)
                                               VALUE SPACE.
               10  WK01-MAP-RESPONSE-F              PIC X(1)
                                               VALUE SPACE.
               10  WK01-MAP-RESPONSE-A              PIC X(1)
                                               VALUE SPACE.
               10  WK01-MAP-RESPONSE-V              PIC X(1)
                                               VALUE SPACE.
               10  WK01-MAP-RESPONSE-O              PIC X(1)
                                               VALUE SPACE.
               10  WK01-MAP-RESPONSE       PIC X(8)
                                               VALUE SPACES.
               10  WK01-TEXT-SY00-Z              PIC X(1)
                                               VALUE SPACE.
               10  WK01-TEXT-SY00-F              PIC X(1)
                                               VALUE SPACE.
               10  WK01-TEXT-SY00-A              PIC X(1)
                                               VALUE SPACE.
               10  WK01-TEXT-SY00-V              PIC X(1)
                                               VALUE SPACE.
               10  WK01-TEXT-SY00-O              PIC X(1)
                                               VALUE SPACE.
               10  WK01-TEXT-SY00       PIC X(14)
                                               VALUE SPACES.
           04  WK01-SUBSCRIPTED-WORK-AREA.
               05  FILLER                      PIC X(1).
               05  WK01-CODE-TA31-F             PIC X(1)
                                               OCCURS 11.
               05  WK01-NMBR-TA31-F             PIC X(1)
                                               OCCURS 11.
               05  WK01-AMT-TA31-F             PIC X(1)
                                               OCCURS 11.
               05  WK01-AMT-TA3A-F             PIC X(1)
                                               OCCURS 11.
               05  WK01-ACTVY-DATE-TA31-F             PIC X(1)
                                               OCCURS 11.
               05  WK01-IND-TA31-F             PIC X(1)
                                               OCCURS 11.
               05  WK01-PAID-IND-TA31-F             PIC X(1)
                                               OCCURS 11.
               05  WK01-MEMO-TA31-F             PIC X(1)
                                               OCCURS 11.
