       01  MAP-CONTROL.

    ***Created by Convert/DC version V8R03 on 12/08/00 at 16:00***

           02  FTAMU03-MAP-CONTROL.
           03  FTAMU03T.
           04  WK01-DCXMAPL-PARMS.
               10  WK01-MAPNAME                  PIC X(8)
                                                 VALUE 'FTAMU03I'.
               10  WK01-IKE-LENGTH               PIC S9(8)  COMP
                                                 VALUE 18124.
               10  WK01-TINA-LENGTH              PIC S9(4)  COMP
                                                 VALUE 1169.
           05  WK01-ATTRIBUTES                   PIC X(60)
                                                 VALUE SPACE.
           05  WK01-ATTRIBUTES-ERROR             PIC X(60) VALUE
               'U  BIF'.
           05  WK01-CURSOR-DFLD                  PIC X(36)
                                                 VALUE SPACES.
           05  WK01-CURSOR-DFLD-QUAL             PIC X(30)
                                                 VALUE SPACES.
           05  WK01-ROW                          PIC S9(4) COMP
                                                 VALUE ZERO.
           05  WK01-COLUMN                       PIC S9(4) COMP
                                                 VALUE ZERO.
           05  WK01-ERROR-MSG                    PIC X(80)
                                                 VALUE SPACES.
           05  WK01-MAP-DATA-LEN                 PIC S9(6)
                                                 VALUE ZERO.
           05  WK01-1ST-FLAG                     PIC X(1)
                                                 VALUE 'Y'.
           05  WK01-FLAG-OUTPUT-DATA             PIC X(1)
                                                 VALUE 'Y'.
      *    05  WK01-STATUS-RETURN-FLAG           PIC X(1)
      *                                          VALUE SPACES.
           05  WK01-ALL-BUT-FLAG                 PIC X(1)
                                                 VALUE SPACES.
           05  WK01-FLAG-ALL-FIELDS-CHANGED      PIC X(1)  VALUE 'Y'.
           05  WK01-FLAG-ANY-FIELDS-CHANGED      PIC X(1)  VALUE 'N'.
           05  WK01-FLAG-ALL-FIELDS-ERROR        PIC X(1)  VALUE 'Y'.
           05  WK01-FLAG-ANY-FIELDS-ERROR        PIC X(1)  VALUE 'N'.
           05  WK01-FLAG-ALL-FIELDS-ERASE        PIC X(1)  VALUE 'Y'.
           05  WK01-FLAG-ANY-FIELDS-ERASE        PIC X(1)  VALUE 'Y'.

           05  WK01-VARDATA                      PIC X(11880)
                                                 VALUE SPACES.
           05  FILLER                            PIC X(100)
                                                 VALUE SPACES.
           04  WK01-ELEMENT-AREA.

               10  WK01-ID-SY00-Z              PIC X(1)
                                               VALUE SPACE.
               10  WK01-ID-SY00-F              PIC X(1)
                                               VALUE SPACE.
               10  WK01-ID-SY00-A              PIC X(1)
                                               VALUE SPACE.
               10  WK01-ID-SY00-V              PIC X(1)
                                               VALUE SPACE.
               10  WK01-ID-SY00-O              PIC X(1)
                                               VALUE SPACE.
               10  WK01-ID-SY00       PIC X(8)
                                               VALUE SPACES.
               10  WK01-NAME-6001-SY00-Z              PIC X(1)
                                               VALUE SPACE.
               10  WK01-NAME-6001-SY00-F              PIC X(1)
                                               VALUE SPACE.
               10  WK01-NAME-6001-SY00-A              PIC X(1)
                                               VALUE SPACE.
               10  WK01-NAME-6001-SY00-V              PIC X(1)
                                               VALUE SPACE.
               10  WK01-NAME-6001-SY00-O              PIC X(1)
                                               VALUE SPACE.
               10  WK01-NAME-6001-SY00       PIC X(35)
                                               VALUE SPACES.
               10  WK01-DATE-Z              PIC X(1)
                                               VALUE SPACE.
               10  WK01-DATE-F              PIC X(1)
                                               VALUE SPACE.
               10  WK01-DATE-A              PIC X(1)
                                               VALUE SPACE.
               10  WK01-DATE-V              PIC X(1)
                                               VALUE SPACE.
               10  WK01-DATE-O              PIC X(1)
                                               VALUE SPACE.
               10  WK01-DATE       PIC X(8)
                                               VALUE SPACES.
               10  WK01-HH-MM-TIME-SY00-Z              PIC X(1)
                                               VALUE SPACE.
               10  WK01-HH-MM-TIME-SY00-F              PIC X(1)
                                               VALUE SPACE.
               10  WK01-HH-MM-TIME-SY00-A              PIC X(1)
                                               VALUE SPACE.
               10  WK01-HH-MM-TIME-SY00-V              PIC X(1)
                                               VALUE SPACE.
               10  WK01-HH-MM-TIME-SY00-O              PIC X(1)
                                               VALUE SPACE.
               10  WK01-HH-MM-TIME-SY00       PIC X(4)
                                               VALUE SPACES.
               10  WK01-PM-FLAG-SY00-Z              PIC X(1)
                                               VALUE SPACE.
               10  WK01-PM-FLAG-SY00-F              PIC X(1)
                                               VALUE SPACE.
               10  WK01-PM-FLAG-SY00-A              PIC X(1)
                                               VALUE SPACE.
               10  WK01-PM-FLAG-SY00-V              PIC X(1)
                                               VALUE SPACE.
               10  WK01-PM-FLAG-SY00-O              PIC X(1)
                                               VALUE SPACE.
               10  WK01-PM-FLAG-SY00       PIC X(1)
                                               VALUE SPACES.
               10  WK01-USER-ID-Z              PIC X(1)
                                               VALUE SPACE.
               10  WK01-USER-ID-F              PIC X(1)
                                               VALUE SPACE.
               10  WK01-USER-ID-A              PIC X(1)
                                               VALUE SPACE.
               10  WK01-USER-ID-V              PIC X(1)
                                               VALUE SPACE.
               10  WK01-USER-ID-O              PIC X(1)
                                               VALUE SPACE.
               10  WK01-USER-ID       PIC X(32)
                                               VALUE SPACES.
               10  WK01-RSPNS-ID-SY00-Z              PIC X(1)
                                               VALUE SPACE.
               10  WK01-RSPNS-ID-SY00-F              PIC X(1)
                                               VALUE SPACE.
               10  WK01-RSPNS-ID-SY00-A              PIC X(1)
                                               VALUE SPACE.
               10  WK01-RSPNS-ID-SY00-V              PIC X(1)
                                               VALUE SPACE.
               10  WK01-RSPNS-ID-SY00-O              PIC X(1)
                                               VALUE SPACE.
               10  WK01-RSPNS-ID-SY00       PIC X(8)
                                               VALUE SPACES.
               10  WK01-FUNC-DESCRIPTION-Z              PIC X(1)
                                               VALUE SPACE.
               10  WK01-FUNC-DESCRIPTION-F              PIC X(1)
                                               VALUE SPACE.
               10  WK01-FUNC-DESCRIPTION-A              PIC X(1)
                                               VALUE SPACE.
               10  WK01-FUNC-DESCRIPTION-V              PIC X(1)
                                               VALUE SPACE.
               10  WK01-FUNC-DESCRIPTION-O              PIC X(1)
                                               VALUE SPACE.
               10  WK01-FUNC-DESCRIPTION       PIC X(28)
                                               VALUE SPACES.
               10  WK01-STATUS-CODE-SY00-Z              PIC X(1)
                                               VALUE SPACE.
               10  WK01-STATUS-CODE-SY00-F              PIC X(1)
                                               VALUE SPACE.
               10  WK01-STATUS-CODE-SY00-A              PIC X(1)
                                               VALUE SPACE.
               10  WK01-STATUS-CODE-SY00-V              PIC X(1)
                                               VALUE SPACE.
               10  WK01-STATUS-CODE-SY00-O              PIC X(1)
                                               VALUE SPACE.
               10  WK01-STATUS-CODE-SY00       PIC X(1)
                                               VALUE SPACES.
               10  WK01-TEXT-SY01-Z              PIC X(1)
                                               VALUE SPACE.
               10  WK01-TEXT-SY01-F              PIC X(1)
                                               VALUE SPACE.
               10  WK01-TEXT-SY01-A              PIC X(1)
                                               VALUE SPACE.
               10  WK01-TEXT-SY01-V              PIC X(1)
                                               VALUE SPACE.
               10  WK01-TEXT-SY01-O              PIC X(1)
                                               VALUE SPACE.
               10  WK01-TEXT-SY01       PIC X(8)
                                               VALUE SPACES.
               10  WK01-TEXT-SY0A-Z              PIC X(1)
                                               VALUE SPACE.
               10  WK01-TEXT-SY0A-F              PIC X(1)
                                               VALUE SPACE.
               10  WK01-TEXT-SY0A-A              PIC X(1)
                                               VALUE SPACE.
               10  WK01-TEXT-SY0A-V              PIC X(1)
                                               VALUE SPACE.
               10  WK01-TEXT-SY0A-O              PIC X(1)
                                               VALUE SPACE.
               10  WK01-TEXT-SY0A       PIC X(11)
                                               VALUE SPACES.
               10  WK01-TEXT-SY0B-Z              PIC X(1)
                                               VALUE SPACE.
               10  WK01-TEXT-SY0B-F              PIC X(1)
                                               VALUE SPACE.
               10  WK01-TEXT-SY0B-A              PIC X(1)
                                               VALUE SPACE.
               10  WK01-TEXT-SY0B-V              PIC X(1)
                                               VALUE SPACE.
               10  WK01-TEXT-SY0B-O              PIC X(1)
                                               VALUE SPACE.
               10  WK01-TEXT-SY0B       PIC X(5)
                                               VALUE SPACES.
               10  WK01-CODE-TA03-Z              PIC X(1)
                                               VALUE SPACE.
               10  WK01-CODE-TA03-F              PIC X(1)
                                               VALUE SPACE.
               10  WK01-CODE-TA03-A              PIC X(1)
                                               VALUE SPACE.
               10  WK01-CODE-TA03-V              PIC X(1)
                                               VALUE SPACE.
               10  WK01-CODE-TA03-O              PIC X(1)
                                               VALUE SPACE.
               10  WK01-CODE-TA03       PIC X(1)
                                               VALUE SPACES.
               10  WK01-DESC-TA03-Z              PIC X(1)
                                               VALUE SPACE.
               10  WK01-DESC-TA03-F              PIC X(1)
                                               VALUE SPACE.
               10  WK01-DESC-TA03-A              PIC X(1)
                                               VALUE SPACE.
               10  WK01-DESC-TA03-V              PIC X(1)
                                               VALUE SPACE.
               10  WK01-DESC-TA03-O              PIC X(1)
                                               VALUE SPACE.
               10  WK01-DESC-TA03       PIC X(17)
                                               VALUE SPACES.
               10  WK01-ACCT-LST-NN-4400-T03-Z              PIC X(1)
                                               VALUE SPACE.
               10  WK01-ACCT-LST-NN-4400-T03-F              PIC X(1)
                                               VALUE SPACE.
               10  WK01-ACCT-LST-NN-4400-T03-A              PIC X(1)
                                               VALUE SPACE.
               10  WK01-ACCT-LST-NN-4400-T03-V              PIC X(1)
                                               VALUE SPACE.
               10  WK01-ACCT-LST-NN-4400-T03-O              PIC X(1)
                                               VALUE SPACE.
               10  WK01-ACCT-LST-NN-4400-T03       PIC X(9)
                                               VALUE SPACES.
               10  WK01-KEY-6117-TA03-Z              PIC X(1)
                                               VALUE SPACE.
               10  WK01-KEY-6117-TA03-F              PIC X(1)
                                               VALUE SPACE.
               10  WK01-KEY-6117-TA03-A              PIC X(1)
                                               VALUE SPACE.
               10  WK01-KEY-6117-TA03-V              PIC X(1)
                                               VALUE SPACE.
               10  WK01-KEY-6117-TA03-O              PIC X(1)
                                               VALUE SPACE.
               10  WK01-KEY-6117-TA03       PIC X(35)
                                               VALUE SPACES.
               10  WK01-IND-4400-TA03-Z              PIC X(1)
                                               VALUE SPACE.
               10  WK01-IND-4400-TA03-F              PIC X(1)
                                               VALUE SPACE.
               10  WK01-IND-4400-TA03-A              PIC X(1)
                                               VALUE SPACE.
               10  WK01-IND-4400-TA03-V              PIC X(1)
                                               VALUE SPACE.
               10  WK01-IND-4400-TA03-O              PIC X(1)
                                               VALUE SPACE.
               10  WK01-IND-4400-TA03       PIC X(1)
                                               VALUE SPACES.
               10  WK01-NMBR-4404-TA03-Z              PIC X(1)
                                               VALUE SPACE.
               10  WK01-NMBR-4404-TA03-F              PIC X(1)
                                               VALUE SPACE.
               10  WK01-NMBR-4404-TA03-A              PIC X(1)
                                               VALUE SPACE.
               10  WK01-NMBR-4404-TA03-V              PIC X(1)
                                               VALUE SPACE.
               10  WK01-NMBR-4404-TA03-O              PIC X(1)
                                               VALUE SPACE.
               10  WK01-NMBR-4404-TA03       PIC X(8)
                                               VALUE SPACES.
               10  WK01-LIT-TA03-Z              PIC X(1)
                                               VALUE SPACE.
               10  WK01-LIT-TA03-F              PIC X(1)
                                               VALUE SPACE.
               10  WK01-LIT-TA03-A              PIC X(1)
                                               VALUE SPACE.
               10  WK01-LIT-TA03-V              PIC X(1)
                                               VALUE SPACE.
               10  WK01-LIT-TA03-O              PIC X(1)
                                               VALUE SPACE.
               10  WK01-LIT-TA03       PIC X(8)
                                               VALUE SPACES.
               10  WK01-DELETE-TA03-Z              PIC X(1)
                                               VALUE SPACE.
               10  WK01-DELETE-TA03-F              PIC X(1)
                                               VALUE SPACE.
               10  WK01-DELETE-TA03-A              PIC X(1)
                                               VALUE SPACE.
               10  WK01-DELETE-TA03-V              PIC X(1)
                                               VALUE SPACE.
               10  WK01-DELETE-TA03-O              PIC X(1)
                                               VALUE SPACE.
               10  WK01-DELETE-TA03       PIC X(1)
                                               VALUE SPACES.
               10  WK01-DATE-4404-TA03-Z              PIC X(1)
                                               VALUE SPACE.
               10  WK01-DATE-4404-TA03-F              PIC X(1)
                                               VALUE SPACE.
               10  WK01-DATE-4404-TA03-A              PIC X(1)
                                               VALUE SPACE.
               10  WK01-DATE-4404-TA03-V              PIC X(1)
                                               VALUE SPACE.
               10  WK01-DATE-4404-TA03-O              PIC X(1)
                                               VALUE SPACE.
               10  WK01-DATE-4404-TA03       PIC X(8)
                                               VALUE SPACES.
               10  WK01-STATUS-4404-TA03-Z              PIC X(1)
                                               VALUE SPACE.
               10  WK01-STATUS-4404-TA03-F              PIC X(1)
                                               VALUE SPACE.
               10  WK01-STATUS-4404-TA03-A              PIC X(1)
                                               VALUE SPACE.
               10  WK01-STATUS-4404-TA03-V              PIC X(1)
                                               VALUE SPACE.
               10  WK01-STATUS-4404-TA03-O              PIC X(1)
                                               VALUE SPACE.
               10  WK01-STATUS-4404-TA03       PIC X(1)
                                               VALUE SPACES.
               10  WK01-STATUS-DESC-TA03-Z              PIC X(1)
                                               VALUE SPACE.
               10  WK01-STATUS-DESC-TA03-F              PIC X(1)
                                               VALUE SPACE.
               10  WK01-STATUS-DESC-TA03-A              PIC X(1)
                                               VALUE SPACE.
               10  WK01-STATUS-DESC-TA03-V              PIC X(1)
                                               VALUE SPACE.
               10  WK01-STATUS-DESC-TA03-O              PIC X(1)
                                               VALUE SPACE.
               10  WK01-STATUS-DESC-TA03       PIC X(10)
                                               VALUE SPACES.
               10  WK01-LIT-TA0A-Z              PIC X(1)
                                               VALUE SPACE.
               10  WK01-LIT-TA0A-F              PIC X(1)
                                               VALUE SPACE.
               10  WK01-LIT-TA0A-A              PIC X(1)
                                               VALUE SPACE.
               10  WK01-LIT-TA0A-V              PIC X(1)
                                               VALUE SPACE.
               10  WK01-LIT-TA0A-O              PIC X(1)
                                               VALUE SPACE.
               10  WK01-LIT-TA0A       PIC X(7)
                                               VALUE SPACES.
               10  WK01-CHECK-TA03-Z              PIC X(1)
                                               VALUE SPACE.
               10  WK01-CHECK-TA03-F              PIC X(1)
                                               VALUE SPACE.
               10  WK01-CHECK-TA03-A              PIC X(1)
                                               VALUE SPACE.
               10  WK01-CHECK-TA03-V              PIC X(1)
                                               VALUE SPACE.
               10  WK01-CHECK-TA03-O              PIC X(1)
                                               VALUE SPACE.
               10  WK01-CHECK-TA03       PIC X(1)
                                               VALUE SPACES.
               10  WK01-NMBR-4401-TA03-Z              PIC X(1)
                                               VALUE SPACE.
               10  WK01-NMBR-4401-TA03-F              PIC X(1)
                                               VALUE SPACE.
               10  WK01-NMBR-4401-TA03-A              PIC X(1)
                                               VALUE SPACE.
               10  WK01-NMBR-4401-TA03-V              PIC X(1)
                                               VALUE SPACE.
               10  WK01-NMBR-4401-TA03-O              PIC X(1)
                                               VALUE SPACE.
               10  WK01-NMBR-4401-TA03       PIC X(8)
                                               VALUE SPACES.
               10  WK01-DESC-4401-TA03-Z              PIC X(1)
                                               VALUE SPACE.
               10  WK01-DESC-4401-TA03-F              PIC X(1)
                                               VALUE SPACE.
               10  WK01-DESC-4401-TA03-A              PIC X(1)
                                               VALUE SPACE.
               10  WK01-DESC-4401-TA03-V              PIC X(1)
                                               VALUE SPACE.
               10  WK01-DESC-4401-TA03-O              PIC X(1)
                                               VALUE SPACE.
               10  WK01-DESC-4401-TA03       PIC X(35)
                                               VALUE SPACES.
               10  WK01-DATE-TA03-Z              PIC X(1)
                                               VALUE SPACE.
               10  WK01-DATE-TA03-F              PIC X(1)
                                               VALUE SPACE.
               10  WK01-DATE-TA03-A              PIC X(1)
                                               VALUE SPACE.
               10  WK01-DATE-TA03-V              PIC X(1)
                                               VALUE SPACE.
               10  WK01-DATE-TA03-O              PIC X(1)
                                               VALUE SPACE.
               10  WK01-DATE-TA03       PIC X(6)
                                               VALUE SPACES.
               10  WK01-DATE-TA0A-Z              PIC X(1)
                                               VALUE SPACE.
               10  WK01-DATE-TA0A-F              PIC X(1)
                                               VALUE SPACE.
               10  WK01-DATE-TA0A-A              PIC X(1)
                                               VALUE SPACE.
               10  WK01-DATE-TA0A-V              PIC X(1)
                                               VALUE SPACE.
               10  WK01-DATE-TA0A-O              PIC X(1)
                                               VALUE SPACE.
               10  WK01-DATE-TA0A       PIC X(6)
                                               VALUE SPACES.
               10  WK01-DUE-DATE-4401-TA03-Z              PIC X(1)
                                               VALUE SPACE.
               10  WK01-DUE-DATE-4401-TA03-F              PIC X(1)
                                               VALUE SPACE.
               10  WK01-DUE-DATE-4401-TA03-A              PIC X(1)
                                               VALUE SPACE.
               10  WK01-DUE-DATE-4401-TA03-V              PIC X(1)
                                               VALUE SPACE.
               10  WK01-DUE-DATE-4401-TA03-O              PIC X(1)
                                               VALUE SPACE.
               10  WK01-DUE-DATE-4401-TA03       PIC X(8)
                                               VALUE SPACES.
               10  WK01-AMT-4404-TA03-Z              PIC X(1)
                                               VALUE SPACE.
               10  WK01-AMT-4404-TA03-F              PIC X(1)
                                               VALUE SPACE.
               10  WK01-AMT-4404-TA03-A              PIC X(1)
                                               VALUE SPACE.
               10  WK01-AMT-4404-TA03-V              PIC X(1)
                                               VALUE SPACE.
               10  WK01-AMT-4404-TA03-O              PIC X(1)
                                               VALUE SPACE.
               10  WK01-AMT-4404-TA03       PIC X(10)
                                               VALUE SPACES.
               10  WK01-NMBR-4404-TA0A-Z              PIC X(1)
                                               VALUE SPACE.
               10  WK01-NMBR-4404-TA0A-F              PIC X(1)
                                               VALUE SPACE.
               10  WK01-NMBR-4404-TA0A-A              PIC X(1)
                                               VALUE SPACE.
               10  WK01-NMBR-4404-TA0A-V              PIC X(1)
                                               VALUE SPACE.
               10  WK01-NMBR-4404-TA0A-O              PIC X(1)
                                               VALUE SPACE.
               10  WK01-NMBR-4404-TA0A       PIC X(8)
                                               VALUE SPACES.
               10  WK01-ACCT-CODE-4404-TA03-Z              PIC X(1)
                                               VALUE SPACE.
               10  WK01-ACCT-CODE-4404-TA03-F              PIC X(1)
                                               VALUE SPACE.
               10  WK01-ACCT-CODE-4404-TA03-A              PIC X(1)
                                               VALUE SPACE.
               10  WK01-ACCT-CODE-4404-TA03-V              PIC X(1)
                                               VALUE SPACE.
               10  WK01-ACCT-CODE-4404-TA03-O              PIC X(1)
                                               VALUE SPACE.
               10  WK01-ACCT-CODE-4404-TA03       PIC X(2)
                                               VALUE SPACES.
               10  WK01-TYPE-4417-TA03-Z              PIC X(1)
                                               VALUE SPACE.
               10  WK01-TYPE-4417-TA03-F              PIC X(1)
                                               VALUE SPACE.
               10  WK01-TYPE-4417-TA03-A              PIC X(1)
                                               VALUE SPACE.
               10  WK01-TYPE-4417-TA03-V              PIC X(1)
                                               VALUE SPACE.
               10  WK01-TYPE-4417-TA03-O              PIC X(1)
                                               VALUE SPACE.
               10  WK01-TYPE-4417-TA03       PIC X(4)
                                               VALUE SPACES.
               10  WK01-DESC-4417-TA03-Z              PIC X(1)
                                               VALUE SPACE.
               10  WK01-DESC-4417-TA03-F              PIC X(1)
                                               VALUE SPACE.
               10  WK01-DESC-4417-TA03-A              PIC X(1)
                                               VALUE SPACE.
               10  WK01-DESC-4417-TA03-V              PIC X(1)
                                               VALUE SPACE.
               10  WK01-DESC-4417-TA03-O              PIC X(1)
                                               VALUE SPACE.
               10  WK01-DESC-4417-TA03       PIC X(10)
                                               VALUE SPACES.
               10  WK01-DATE-4404-TA0A-Z              PIC X(1)
                                               VALUE SPACE.
               10  WK01-DATE-4404-TA0A-F              PIC X(1)
                                               VALUE SPACE.
               10  WK01-DATE-4404-TA0A-A              PIC X(1)
                                               VALUE SPACE.
               10  WK01-DATE-4404-TA0A-V              PIC X(1)
                                               VALUE SPACE.
               10  WK01-DATE-4404-TA0A-O              PIC X(1)
                                               VALUE SPACE.
               10  WK01-DATE-4404-TA0A       PIC X(8)
                                               VALUE SPACES.
               10  WK01-TEXT-IND-TA03-Z              PIC X(1)
                                               VALUE SPACE.
               10  WK01-TEXT-IND-TA03-F              PIC X(1)
                                               VALUE SPACE.
               10  WK01-TEXT-IND-TA03-A              PIC X(1)
                                               VALUE SPACE.
               10  WK01-TEXT-IND-TA03-V              PIC X(1)
                                               VALUE SPACE.
               10  WK01-TEXT-IND-TA03-O              PIC X(1)
                                               VALUE SPACE.
               10  WK01-TEXT-IND-TA03       PIC X(1)
                                               VALUE SPACES.
               10  WK01-TEXT-IND-TA0A-Z              PIC X(1)
                                               VALUE SPACE.
               10  WK01-TEXT-IND-TA0A-F              PIC X(1)
                                               VALUE SPACE.
               10  WK01-TEXT-IND-TA0A-A              PIC X(1)
                                               VALUE SPACE.
               10  WK01-TEXT-IND-TA0A-V              PIC X(1)
                                               VALUE SPACE.
               10  WK01-TEXT-IND-TA0A-O              PIC X(1)
                                               VALUE SPACE.
               10  WK01-TEXT-IND-TA0A       PIC X(1)
                                               VALUE SPACES.
               10  WK01-CLASS-CODE-4404-TA03-Z              PIC X(1)
                                               VALUE SPACE.
               10  WK01-CLASS-CODE-4404-TA03-F              PIC X(1)
                                               VALUE SPACE.
               10  WK01-CLASS-CODE-4404-TA03-A              PIC X(1)
                                               VALUE SPACE.
               10  WK01-CLASS-CODE-4404-TA03-V              PIC X(1)
                                               VALUE SPACE.
               10  WK01-CLASS-CODE-4404-TA03-O              PIC X(1)
                                               VALUE SPACE.
               10  WK01-CLASS-CODE-4404-TA03       PIC X(4)
                                               VALUE SPACES.
               10  WK01-CODE-4404-TA03-Z              PIC X(1)
                                               VALUE SPACE.
               10  WK01-CODE-4404-TA03-F              PIC X(1)
                                               VALUE SPACE.
               10  WK01-CODE-4404-TA03-A              PIC X(1)
                                               VALUE SPACE.
               10  WK01-CODE-4404-TA03-V              PIC X(1)
                                               VALUE SPACE.
               10  WK01-CODE-4404-TA03-O              PIC X(1)
                                               VALUE SPACE.
               10  WK01-CODE-4404-TA03       PIC X(1)
                                               VALUE SPACES.
               10  WK01-INDX-CODE-4404-TA03-Z              PIC X(1)
                                               VALUE SPACE.
               10  WK01-INDX-CODE-4404-TA03-F              PIC X(1)
                                               VALUE SPACE.
               10  WK01-INDX-CODE-4404-TA03-A              PIC X(1)
                                               VALUE SPACE.
               10  WK01-INDX-CODE-4404-TA03-V              PIC X(1)
                                               VALUE SPACE.
               10  WK01-INDX-CODE-4404-TA03-O              PIC X(1)
                                               VALUE SPACE.
               10  WK01-INDX-CODE-4404-TA03       PIC X(10)
                                               VALUE SPACES.
               10  WK01-CODE-4404-TA0A-Z              PIC X(1)
                                               VALUE SPACE.
               10  WK01-CODE-4404-TA0A-F              PIC X(1)
                                               VALUE SPACE.
               10  WK01-CODE-4404-TA0A-A              PIC X(1)
                                               VALUE SPACE.
               10  WK01-CODE-4404-TA0A-V              PIC X(1)
                                               VALUE SPACE.
               10  WK01-CODE-4404-TA0A-O              PIC X(1)
                                               VALUE SPACE.
               10  WK01-CODE-4404-TA0A       PIC X(6)
                                               VALUE SPACES.
               10  WK01-CODE-4404-TA0B-Z              PIC X(1)
                                               VALUE SPACE.
               10  WK01-CODE-4404-TA0B-F              PIC X(1)
                                               VALUE SPACE.
               10  WK01-CODE-4404-TA0B-A              PIC X(1)
                                               VALUE SPACE.
               10  WK01-CODE-4404-TA0B-V              PIC X(1)
                                               VALUE SPACE.
               10  WK01-CODE-4404-TA0B-O              PIC X(1)
                                               VALUE SPACE.
               10  WK01-CODE-4404-TA0B       PIC X(6)
                                               VALUE SPACES.
               10  WK01-CODE-4404-TA0C-Z              PIC X(1)
                                               VALUE SPACE.
               10  WK01-CODE-4404-TA0C-F              PIC X(1)
                                               VALUE SPACE.
               10  WK01-CODE-4404-TA0C-A              PIC X(1)
                                               VALUE SPACE.
               10  WK01-CODE-4404-TA0C-V              PIC X(1)
                                               VALUE SPACE.
               10  WK01-CODE-4404-TA0C-O              PIC X(1)
                                               VALUE SPACE.
               10  WK01-CODE-4404-TA0C       PIC X(6)
                                               VALUE SPACES.
               10  WK01-CODE-4404-TA0D-Z              PIC X(1)
                                               VALUE SPACE.
               10  WK01-CODE-4404-TA0D-F              PIC X(1)
                                               VALUE SPACE.
               10  WK01-CODE-4404-TA0D-A              PIC X(1)
                                               VALUE SPACE.
               10  WK01-CODE-4404-TA0D-V              PIC X(1)
                                               VALUE SPACE.
               10  WK01-CODE-4404-TA0D-O              PIC X(1)
                                               VALUE SPACE.
               10  WK01-CODE-4404-TA0D       PIC X(6)
                                               VALUE SPACES.
               10  WK01-CODE-4404-TA0E-Z              PIC X(1)
                                               VALUE SPACE.
               10  WK01-CODE-4404-TA0E-F              PIC X(1)
                                               VALUE SPACE.
               10  WK01-CODE-4404-TA0E-A              PIC X(1)
                                               VALUE SPACE.
               10  WK01-CODE-4404-TA0E-V              PIC X(1)
                                               VALUE SPACE.
               10  WK01-CODE-4404-TA0E-O              PIC X(1)
                                               VALUE SPACE.
               10  WK01-CODE-4404-TA0E       PIC X(6)
                                               VALUE SPACES.
               10  WK01-CODE-4404-TA0F-Z              PIC X(1)
                                               VALUE SPACE.
               10  WK01-CODE-4404-TA0F-F              PIC X(1)
                                               VALUE SPACE.
               10  WK01-CODE-4404-TA0F-A              PIC X(1)
                                               VALUE SPACE.
               10  WK01-CODE-4404-TA0F-V              PIC X(1)
                                               VALUE SPACE.
               10  WK01-CODE-4404-TA0F-O              PIC X(1)
                                               VALUE SPACE.
               10  WK01-CODE-4404-TA0F       PIC X(6)
                                               VALUE SPACES.
               10  WK01-TYPE-CODE-6139-TA03-Z              PIC X(1)
                                               VALUE SPACE.
               10  WK01-TYPE-CODE-6139-TA03-F              PIC X(1)
                                               VALUE SPACE.
               10  WK01-TYPE-CODE-6139-TA03-A              PIC X(1)
                                               VALUE SPACE.
               10  WK01-TYPE-CODE-6139-TA03-V              PIC X(1)
                                               VALUE SPACE.
               10  WK01-TYPE-CODE-6139-TA03-O              PIC X(1)
                                               VALUE SPACE.
               10  WK01-TYPE-CODE-6139-TA03       PIC X(2)
                                               VALUE SPACES.
               10  WK01-DESC-6137-TA03-Z              PIC X(1)
                                               VALUE SPACE.
               10  WK01-DESC-6137-TA03-F              PIC X(1)
                                               VALUE SPACE.
               10  WK01-DESC-6137-TA03-A              PIC X(1)
                                               VALUE SPACE.
               10  WK01-DESC-6137-TA03-V              PIC X(1)
                                               VALUE SPACE.
               10  WK01-DESC-6137-TA03-O              PIC X(1)
                                               VALUE SPACE.
               10  WK01-DESC-6137-TA03       PIC X(10)
                                               VALUE SPACES.
               10  WK01-IND-4404-TA03-Z              PIC X(1)
                                               VALUE SPACE.
               10  WK01-IND-4404-TA03-F              PIC X(1)
                                               VALUE SPACE.
               10  WK01-IND-4404-TA03-A              PIC X(1)
                                               VALUE SPACE.
               10  WK01-IND-4404-TA03-V              PIC X(1)
                                               VALUE SPACE.
               10  WK01-IND-4404-TA03-O              PIC X(1)
                                               VALUE SPACE.
               10  WK01-IND-4404-TA03       PIC X(1)
                                               VALUE SPACES.
               10  WK01-ADR-6139-TA031-Z              PIC X(1)
                                               VALUE SPACE.
               10  WK01-ADR-6139-TA031-F              PIC X(1)
                                               VALUE SPACE.
               10  WK01-ADR-6139-TA031-A              PIC X(1)
                                               VALUE SPACE.
               10  WK01-ADR-6139-TA031-V              PIC X(1)
                                               VALUE SPACE.
               10  WK01-ADR-6139-TA031-O              PIC X(1)
                                               VALUE SPACE.
               10  WK01-ADR-6139-TA031       PIC X(35)
                                               VALUE SPACES.
               10  WK01-IND-4404-TA0A-Z              PIC X(1)
                                               VALUE SPACE.
               10  WK01-IND-4404-TA0A-F              PIC X(1)
                                               VALUE SPACE.
               10  WK01-IND-4404-TA0A-A              PIC X(1)
                                               VALUE SPACE.
               10  WK01-IND-4404-TA0A-V              PIC X(1)
                                               VALUE SPACE.
               10  WK01-IND-4404-TA0A-O              PIC X(1)
                                               VALUE SPACE.
               10  WK01-IND-4404-TA0A       PIC X(1)
                                               VALUE SPACES.
               10  WK01-ADR-TYPE-TA03-Z              PIC X(1)
                                               VALUE SPACE.
               10  WK01-ADR-TYPE-TA03-F              PIC X(1)
                                               VALUE SPACE.
               10  WK01-ADR-TYPE-TA03-A              PIC X(1)
                                               VALUE SPACE.
               10  WK01-ADR-TYPE-TA03-V              PIC X(1)
                                               VALUE SPACE.
               10  WK01-ADR-TYPE-TA03-O              PIC X(1)
                                               VALUE SPACE.
               10  WK01-ADR-TYPE-TA03       PIC X(2)
                                               VALUE SPACES.
               10  WK01-ADR-6139-TA032-Z              PIC X(1)
                                               VALUE SPACE.
               10  WK01-ADR-6139-TA032-F              PIC X(1)
                                               VALUE SPACE.
               10  WK01-ADR-6139-TA032-A              PIC X(1)
                                               VALUE SPACE.
               10  WK01-ADR-6139-TA032-V              PIC X(1)
                                               VALUE SPACE.
               10  WK01-ADR-6139-TA032-O              PIC X(1)
                                               VALUE SPACE.
               10  WK01-ADR-6139-TA032       PIC X(35)
                                               VALUE SPACES.
               10  WK01-TMPLT-CODE-TA03-Z              PIC X(1)
                                               VALUE SPACE.
               10  WK01-TMPLT-CODE-TA03-F              PIC X(1)
                                               VALUE SPACE.
               10  WK01-TMPLT-CODE-TA03-A              PIC X(1)
                                               VALUE SPACE.
               10  WK01-TMPLT-CODE-TA03-V              PIC X(1)
                                               VALUE SPACE.
               10  WK01-TMPLT-CODE-TA03-O              PIC X(1)
                                               VALUE SPACE.
               10  WK01-TMPLT-CODE-TA03       PIC X(3)
                                               VALUE SPACES.
               10  WK01-ADR-6139-TA033-Z              PIC X(1)
                                               VALUE SPACE.
               10  WK01-ADR-6139-TA033-F              PIC X(1)
                                               VALUE SPACE.
               10  WK01-ADR-6139-TA033-A              PIC X(1)
                                               VALUE SPACE.
               10  WK01-ADR-6139-TA033-V              PIC X(1)
                                               VALUE SPACE.
               10  WK01-ADR-6139-TA033-O              PIC X(1)
                                               VALUE SPACE.
               10  WK01-ADR-6139-TA033       PIC X(35)
                                               VALUE SPACES.
               10  WK01-IND-4404-TA0B-Z              PIC X(1)
                                               VALUE SPACE.
               10  WK01-IND-4404-TA0B-F              PIC X(1)
                                               VALUE SPACE.
               10  WK01-IND-4404-TA0B-A              PIC X(1)
                                               VALUE SPACE.
               10  WK01-IND-4404-TA0B-V              PIC X(1)
                                               VALUE SPACE.
               10  WK01-IND-4404-TA0B-O              PIC X(1)
                                               VALUE SPACE.
               10  WK01-IND-4404-TA0B       PIC X(1)
                                               VALUE SPACES.
               10  WK01-ADR-6139-TA034-Z              PIC X(1)
                                               VALUE SPACE.
               10  WK01-ADR-6139-TA034-F              PIC X(1)
                                               VALUE SPACE.
               10  WK01-ADR-6139-TA034-A              PIC X(1)
                                               VALUE SPACE.
               10  WK01-ADR-6139-TA034-V              PIC X(1)
                                               VALUE SPACE.
               10  WK01-ADR-6139-TA034-O              PIC X(1)
                                               VALUE SPACE.
               10  WK01-ADR-6139-TA034       PIC X(35)
                                               VALUE SPACES.
               10  WK01-DATE-4404-TA0B-Z              PIC X(1)
                                               VALUE SPACE.
               10  WK01-DATE-4404-TA0B-F              PIC X(1)
                                               VALUE SPACE.
               10  WK01-DATE-4404-TA0B-A              PIC X(1)
                                               VALUE SPACE.
               10  WK01-DATE-4404-TA0B-V              PIC X(1)
                                               VALUE SPACE.
               10  WK01-DATE-4404-TA0B-O              PIC X(1)
                                               VALUE SPACE.
               10  WK01-DATE-4404-TA0B       PIC X(8)
                                               VALUE SPACES.
               10  WK01-NAME-6139-TA03-Z              PIC X(1)
                                               VALUE SPACE.
               10  WK01-NAME-6139-TA03-F              PIC X(1)
                                               VALUE SPACE.
               10  WK01-NAME-6139-TA03-A              PIC X(1)
                                               VALUE SPACE.
               10  WK01-NAME-6139-TA03-V              PIC X(1)
                                               VALUE SPACE.
               10  WK01-NAME-6139-TA03-O              PIC X(1)
                                               VALUE SPACE.
               10  WK01-NAME-6139-TA03       PIC X(18)
                                               VALUE SPACES.
               10  WK01-CODE-6151-TA03-Z              PIC X(1)
                                               VALUE SPACE.
               10  WK01-CODE-6151-TA03-F              PIC X(1)
                                               VALUE SPACE.
               10  WK01-CODE-6151-TA03-A              PIC X(1)
                                               VALUE SPACE.
               10  WK01-CODE-6151-TA03-V              PIC X(1)
                                               VALUE SPACE.
               10  WK01-CODE-6151-TA03-O              PIC X(1)
                                               VALUE SPACE.
               10  WK01-CODE-6151-TA03       PIC X(2)
                                               VALUE SPACES.
               10  WK01-CODE-6152-TA03-Z              PIC X(1)
                                               VALUE SPACE.
               10  WK01-CODE-6152-TA03-F              PIC X(1)
                                               VALUE SPACE.
               10  WK01-CODE-6152-TA03-A              PIC X(1)
                                               VALUE SPACE.
               10  WK01-CODE-6152-TA03-V              PIC X(1)
                                               VALUE SPACE.
               10  WK01-CODE-6152-TA03-O              PIC X(1)
                                               VALUE SPACE.
               10  WK01-CODE-6152-TA03       PIC X(10)
                                               VALUE SPACES.
               10  WK01-CODE-6153-TA03-Z              PIC X(1)
                                               VALUE SPACE.
               10  WK01-CODE-6153-TA03-F              PIC X(1)
                                               VALUE SPACE.
               10  WK01-CODE-6153-TA03-A              PIC X(1)
                                               VALUE SPACE.
               10  WK01-CODE-6153-TA03-V              PIC X(1)
                                               VALUE SPACE.
               10  WK01-CODE-6153-TA03-O              PIC X(1)
                                               VALUE SPACE.
               10  WK01-CODE-6153-TA03       PIC X(2)
                                               VALUE SPACES.
               10  WK01-ERROR-IND-4404-TA03-Z              PIC X(1)
                                               VALUE SPACE.
               10  WK01-ERROR-IND-4404-TA03-F              PIC X(1)
                                               VALUE SPACE.
               10  WK01-ERROR-IND-4404-TA03-A              PIC X(1)
                                               VALUE SPACE.
               10  WK01-ERROR-IND-4404-TA03-V              PIC X(1)
                                               VALUE SPACE.
               10  WK01-ERROR-IND-4404-TA03-O              PIC X(1)
                                               VALUE SPACE.
               10  WK01-ERROR-IND-4404-TA03       PIC X(1)
                                               VALUE SPACES.
               10  WK01-ZZMESSAGE-Z              PIC X(1)
                                               VALUE SPACE.
               10  WK01-ZZMESSAGE-F              PIC X(1)
                                               VALUE SPACE.
               10  WK01-ZZMESSAGE-A              PIC X(1)
                                               VALUE SPACE.
               10  WK01-ZZMESSAGE-V              PIC X(1)
                                               VALUE SPACE.
               10  WK01-ZZMESSAGE-O              PIC X(1)
                                               VALUE SPACE.
               10  WK01-ZZMESSAGE       PIC X(160)
                                               VALUE SPACES.
               10  WK01-PASSED-ONE-Z              PIC X(1)
                                               VALUE SPACE.
               10  WK01-PASSED-ONE-F              PIC X(1)
                                               VALUE SPACE.
               10  WK01-PASSED-ONE-A              PIC X(1)
                                               VALUE SPACE.
               10  WK01-PASSED-ONE-V              PIC X(1)
                                               VALUE SPACE.
               10  WK01-PASSED-ONE-O              PIC X(1)
                                               VALUE SPACE.
               10  WK01-PASSED-ONE       PIC X(32)
                                               VALUE SPACES.
               10  WK01-MAP-RESPONSE-Z              PIC X(1)
                                               VALUE SPACE.
               10  WK01-MAP-RESPONSE-F              PIC X(1)
                                               VALUE SPACE.
               10  WK01-MAP-RESPONSE-A              PIC X(1)
                                               VALUE SPACE.
               10  WK01-MAP-RESPONSE-V              PIC X(1)
                                               VALUE SPACE.
               10  WK01-MAP-RESPONSE-O              PIC X(1)
                                               VALUE SPACE.
               10  WK01-MAP-RESPONSE       PIC X(8)
                                               VALUE SPACES.
               10  WK01-TEXT-SY00-Z              PIC X(1)
                                               VALUE SPACE.
               10  WK01-TEXT-SY00-F              PIC X(1)
                                               VALUE SPACE.
               10  WK01-TEXT-SY00-A              PIC X(1)
                                               VALUE SPACE.
               10  WK01-TEXT-SY00-V              PIC X(1)
                                               VALUE SPACE.
               10  WK01-TEXT-SY00-O              PIC X(1)
                                               VALUE SPACE.
               10  WK01-TEXT-SY00       PIC X(14)
                                               VALUE SPACES.
           04  WK01-SUBSCRIPTED-WORK-AREA.
               05  FILLER                      PIC X(1).
               05  WK01-ADR-6139-TA03-F             PIC X(1)
                                               OCCURS 4.
