       01  MAP-CONTROL.

    ***Created by Convert/DC version V8R03 on 12/08/00 at 16:00***

           02  FTAMU08-MAP-CONTROL.
           03  FTAMU08T.
           04  WK01-DCXMAPL-PARMS.
               10  WK01-MAPNAME                  PIC X(8)
                                                 VALUE 'FTAMU08I'.
               10  WK01-IKE-LENGTH               PIC S9(8)  COMP
                                                 VALUE 29696.
               10  WK01-TINA-LENGTH              PIC S9(4)  COMP
                                                 VALUE 1498.
           05  WK01-ATTRIBUTES                   PIC X(60)
                                                 VALUE SPACE.
           05  WK01-ATTRIBUTES-ERROR             PIC X(60) VALUE
               'U  BIF'.
           05  WK01-CURSOR-DFLD                  PIC X(36)
                                                 VALUE SPACES.
           05  WK01-CURSOR-DFLD-QUAL             PIC X(30)
                                                 VALUE SPACES.
           05  WK01-ROW                          PIC S9(4) COMP
                                                 VALUE ZERO.
           05  WK01-COLUMN                       PIC S9(4) COMP
                                                 VALUE ZERO.
           05  WK01-ERROR-MSG                    PIC X(80)
                                                 VALUE SPACES.
           05  WK01-MAP-DATA-LEN                 PIC S9(6)
                                                 VALUE ZERO.
           05  WK01-1ST-FLAG                     PIC X(1)
                                                 VALUE 'Y'.
           05  WK01-FLAG-OUTPUT-DATA             PIC X(1)
                                                 VALUE 'Y'.
      *    05  WK01-STATUS-RETURN-FLAG           PIC X(1)
      *                                          VALUE SPACES.
           05  WK01-ALL-BUT-FLAG                 PIC X(1)
                                                 VALUE SPACES.
           05  WK01-FLAG-ALL-FIELDS-CHANGED      PIC X(1)  VALUE 'Y'.
           05  WK01-FLAG-ANY-FIELDS-CHANGED      PIC X(1)  VALUE 'N'.
           05  WK01-FLAG-ALL-FIELDS-ERROR        PIC X(1)  VALUE 'Y'.
           05  WK01-FLAG-ANY-FIELDS-ERROR        PIC X(1)  VALUE 'N'.
           05  WK01-FLAG-ALL-FIELDS-ERASE        PIC X(1)  VALUE 'Y'.
           05  WK01-FLAG-ANY-FIELDS-ERASE        PIC X(1)  VALUE 'Y'.

           05  WK01-VARDATA                      PIC X(11880)
                                                 VALUE SPACES.
           05  FILLER                            PIC X(100)
                                                 VALUE SPACES.
           04  WK01-ELEMENT-AREA.

               10  WK01-ID-SY00-Z              PIC X(1)
                                               VALUE SPACE.
               10  WK01-ID-SY00-F              PIC X(1)
                                               VALUE SPACE.
               10  WK01-ID-SY00-A              PIC X(1)
                                               VALUE SPACE.
               10  WK01-ID-SY00-V              PIC X(1)
                                               VALUE SPACE.
               10  WK01-ID-SY00-O              PIC X(1)
                                               VALUE SPACE.
               10  WK01-ID-SY00       PIC X(8)
                                               VALUE SPACES.
               10  WK01-NAME-6001-SY00-Z              PIC X(1)
                                               VALUE SPACE.
               10  WK01-NAME-6001-SY00-F              PIC X(1)
                                               VALUE SPACE.
               10  WK01-NAME-6001-SY00-A              PIC X(1)
                                               VALUE SPACE.
               10  WK01-NAME-6001-SY00-V              PIC X(1)
                                               VALUE SPACE.
               10  WK01-NAME-6001-SY00-O              PIC X(1)
                                               VALUE SPACE.
               10  WK01-NAME-6001-SY00       PIC X(35)
                                               VALUE SPACES.
               10  WK01-DATE-Z              PIC X(1)
                                               VALUE SPACE.
               10  WK01-DATE-F              PIC X(1)
                                               VALUE SPACE.
               10  WK01-DATE-A              PIC X(1)
                                               VALUE SPACE.
               10  WK01-DATE-V              PIC X(1)
                                               VALUE SPACE.
               10  WK01-DATE-O              PIC X(1)
                                               VALUE SPACE.
               10  WK01-DATE       PIC X(8)
                                               VALUE SPACES.
               10  WK01-HH-MM-TIME-SY00-Z              PIC X(1)
                                               VALUE SPACE.
               10  WK01-HH-MM-TIME-SY00-F              PIC X(1)
                                               VALUE SPACE.
               10  WK01-HH-MM-TIME-SY00-A              PIC X(1)
                                               VALUE SPACE.
               10  WK01-HH-MM-TIME-SY00-V              PIC X(1)
                                               VALUE SPACE.
               10  WK01-HH-MM-TIME-SY00-O              PIC X(1)
                                               VALUE SPACE.
               10  WK01-HH-MM-TIME-SY00       PIC X(4)
                                               VALUE SPACES.
               10  WK01-PM-FLAG-SY00-Z              PIC X(1)
                                               VALUE SPACE.
               10  WK01-PM-FLAG-SY00-F              PIC X(1)
                                               VALUE SPACE.
               10  WK01-PM-FLAG-SY00-A              PIC X(1)
                                               VALUE SPACE.
               10  WK01-PM-FLAG-SY00-V              PIC X(1)
                                               VALUE SPACE.
               10  WK01-PM-FLAG-SY00-O              PIC X(1)
                                               VALUE SPACE.
               10  WK01-PM-FLAG-SY00       PIC X(1)
                                               VALUE SPACES.
               10  WK01-USER-ID-Z              PIC X(1)
                                               VALUE SPACE.
               10  WK01-USER-ID-F              PIC X(1)
                                               VALUE SPACE.
               10  WK01-USER-ID-A              PIC X(1)
                                               VALUE SPACE.
               10  WK01-USER-ID-V              PIC X(1)
                                               VALUE SPACE.
               10  WK01-USER-ID-O              PIC X(1)
                                               VALUE SPACE.
               10  WK01-USER-ID       PIC X(32)
                                               VALUE SPACES.
               10  WK01-RSPNS-ID-SY00-Z              PIC X(1)
                                               VALUE SPACE.
               10  WK01-RSPNS-ID-SY00-F              PIC X(1)
                                               VALUE SPACE.
               10  WK01-RSPNS-ID-SY00-A              PIC X(1)
                                               VALUE SPACE.
               10  WK01-RSPNS-ID-SY00-V              PIC X(1)
                                               VALUE SPACE.
               10  WK01-RSPNS-ID-SY00-O              PIC X(1)
                                               VALUE SPACE.
               10  WK01-RSPNS-ID-SY00       PIC X(8)
                                               VALUE SPACES.
               10  WK01-FUNC-DESCRIPTION-Z              PIC X(1)
                                               VALUE SPACE.
               10  WK01-FUNC-DESCRIPTION-F              PIC X(1)
                                               VALUE SPACE.
               10  WK01-FUNC-DESCRIPTION-A              PIC X(1)
                                               VALUE SPACE.
               10  WK01-FUNC-DESCRIPTION-V              PIC X(1)
                                               VALUE SPACE.
               10  WK01-FUNC-DESCRIPTION-O              PIC X(1)
                                               VALUE SPACE.
               10  WK01-FUNC-DESCRIPTION       PIC X(28)
                                               VALUE SPACES.
               10  WK01-STATUS-CODE-SY00-Z              PIC X(1)
                                               VALUE SPACE.
               10  WK01-STATUS-CODE-SY00-F              PIC X(1)
                                               VALUE SPACE.
               10  WK01-STATUS-CODE-SY00-A              PIC X(1)
                                               VALUE SPACE.
               10  WK01-STATUS-CODE-SY00-V              PIC X(1)
                                               VALUE SPACE.
               10  WK01-STATUS-CODE-SY00-O              PIC X(1)
                                               VALUE SPACE.
               10  WK01-STATUS-CODE-SY00       PIC X(1)
                                               VALUE SPACES.
               10  WK01-TEXT-SY01-Z              PIC X(1)
                                               VALUE SPACE.
               10  WK01-TEXT-SY01-F              PIC X(1)
                                               VALUE SPACE.
               10  WK01-TEXT-SY01-A              PIC X(1)
                                               VALUE SPACE.
               10  WK01-TEXT-SY01-V              PIC X(1)
                                               VALUE SPACE.
               10  WK01-TEXT-SY01-O              PIC X(1)
                                               VALUE SPACE.
               10  WK01-TEXT-SY01       PIC X(8)
                                               VALUE SPACES.
               10  WK01-TEXT-SY0A-Z              PIC X(1)
                                               VALUE SPACE.
               10  WK01-TEXT-SY0A-F              PIC X(1)
                                               VALUE SPACE.
               10  WK01-TEXT-SY0A-A              PIC X(1)
                                               VALUE SPACE.
               10  WK01-TEXT-SY0A-V              PIC X(1)
                                               VALUE SPACE.
               10  WK01-TEXT-SY0A-O              PIC X(1)
                                               VALUE SPACE.
               10  WK01-TEXT-SY0A       PIC X(11)
                                               VALUE SPACES.
               10  WK01-TEXT-SY0B-Z              PIC X(1)
                                               VALUE SPACE.
               10  WK01-TEXT-SY0B-F              PIC X(1)
                                               VALUE SPACE.
               10  WK01-TEXT-SY0B-A              PIC X(1)
                                               VALUE SPACE.
               10  WK01-TEXT-SY0B-V              PIC X(1)
                                               VALUE SPACE.
               10  WK01-TEXT-SY0B-O              PIC X(1)
                                               VALUE SPACE.
               10  WK01-TEXT-SY0B       PIC X(5)
                                               VALUE SPACES.
               10  WK01-NMBR-4410-TA08-Z              PIC X(1)
                                               VALUE SPACE.
               10  WK01-NMBR-4410-TA08-F              PIC X(1)
                                               VALUE SPACE.
               10  WK01-NMBR-4410-TA08-A              PIC X(1)
                                               VALUE SPACE.
               10  WK01-NMBR-4410-TA08-V              PIC X(1)
                                               VALUE SPACE.
               10  WK01-NMBR-4410-TA08-O              PIC X(1)
                                               VALUE SPACE.
               10  WK01-NMBR-4410-TA08       PIC X(8)
                                               VALUE SPACES.
               10  WK01-ID-LAST-NIN-4073-T08-Z              PIC X(1)
                                               VALUE SPACE.
               10  WK01-ID-LAST-NIN-4073-T08-F              PIC X(1)
                                               VALUE SPACE.
               10  WK01-ID-LAST-NIN-4073-T08-A              PIC X(1)
                                               VALUE SPACE.
               10  WK01-ID-LAST-NIN-4073-T08-V              PIC X(1)
                                               VALUE SPACE.
               10  WK01-ID-LAST-NIN-4073-T08-O              PIC X(1)
                                               VALUE SPACE.
               10  WK01-ID-LAST-NIN-4073-T08       PIC X(9)
                                               VALUE SPACES.
               10  WK01-KEY-6311-TA08-Z              PIC X(1)
                                               VALUE SPACE.
               10  WK01-KEY-6311-TA08-F              PIC X(1)
                                               VALUE SPACE.
               10  WK01-KEY-6311-TA08-A              PIC X(1)
                                               VALUE SPACE.
               10  WK01-KEY-6311-TA08-V              PIC X(1)
                                               VALUE SPACE.
               10  WK01-KEY-6311-TA08-O              PIC X(1)
                                               VALUE SPACE.
               10  WK01-KEY-6311-TA08       PIC X(35)
                                               VALUE SPACES.
               10  WK01-AMT-4410-TA08-Z              PIC X(1)
                                               VALUE SPACE.
               10  WK01-AMT-4410-TA08-F              PIC X(1)
                                               VALUE SPACE.
               10  WK01-AMT-4410-TA08-A              PIC X(1)
                                               VALUE SPACE.
               10  WK01-AMT-4410-TA08-V              PIC X(1)
                                               VALUE SPACE.
               10  WK01-AMT-4410-TA08-O              PIC X(1)
                                               VALUE SPACE.
               10  WK01-AMT-4410-TA08       PIC X(17)
                                               VALUE SPACES.
               10  WK01-DATE-4410-TA08-Z              PIC X(1)
                                               VALUE SPACE.
               10  WK01-DATE-4410-TA08-F              PIC X(1)
                                               VALUE SPACE.
               10  WK01-DATE-4410-TA08-A              PIC X(1)
                                               VALUE SPACE.
               10  WK01-DATE-4410-TA08-V              PIC X(1)
                                               VALUE SPACE.
               10  WK01-DATE-4410-TA08-O              PIC X(1)
                                               VALUE SPACE.
               10  WK01-DATE-4410-TA08       PIC X(8)
                                               VALUE SPACES.
               10  WK01-INV-DATE-4410-TA08-Z              PIC X(1)
                                               VALUE SPACE.
               10  WK01-INV-DATE-4410-TA08-F              PIC X(1)
                                               VALUE SPACE.
               10  WK01-INV-DATE-4410-TA08-A              PIC X(1)
                                               VALUE SPACE.
               10  WK01-INV-DATE-4410-TA08-V              PIC X(1)
                                               VALUE SPACE.
               10  WK01-INV-DATE-4410-TA08-O              PIC X(1)
                                               VALUE SPACE.
               10  WK01-INV-DATE-4410-TA08       PIC X(8)
                                               VALUE SPACES.
               10  WK01-CODE-TA081-Z              PIC X(1)
                                               VALUE SPACE.
               10  WK01-CODE-TA081-F              PIC X(1)
                                               VALUE SPACE.
               10  WK01-CODE-TA081-A              PIC X(1)
                                               VALUE SPACE.
               10  WK01-CODE-TA081-V              PIC X(1)
                                               VALUE SPACE.
               10  WK01-CODE-TA081-O              PIC X(1)
                                               VALUE SPACE.
               10  WK01-CODE-TA081       PIC X(1)
                                               VALUE SPACES.
               10  WK01-NMBR-4411-TA081-Z              PIC X(1)
                                               VALUE SPACE.
               10  WK01-NMBR-4411-TA081-F              PIC X(1)
                                               VALUE SPACE.
               10  WK01-NMBR-4411-TA081-A              PIC X(1)
                                               VALUE SPACE.
               10  WK01-NMBR-4411-TA081-V              PIC X(1)
                                               VALUE SPACE.
               10  WK01-NMBR-4411-TA081-O              PIC X(1)
                                               VALUE SPACE.
               10  WK01-NMBR-4411-TA081       PIC X(4)
                                               VALUE SPACES.
               10  WK01-ACCT-LST-NN-4400-T081-Z              PIC X(1)
                                               VALUE SPACE.
               10  WK01-ACCT-LST-NN-4400-T081-F              PIC X(1)
                                               VALUE SPACE.
               10  WK01-ACCT-LST-NN-4400-T081-A              PIC X(1)
                                               VALUE SPACE.
               10  WK01-ACCT-LST-NN-4400-T081-V              PIC X(1)
                                               VALUE SPACE.
               10  WK01-ACCT-LST-NN-4400-T081-O              PIC X(1)
                                               VALUE SPACE.
               10  WK01-ACCT-LST-NN-4400-T081       PIC X(9)
                                               VALUE SPACES.
               10  WK01-NMBR-4401-TA081-Z              PIC X(1)
                                               VALUE SPACE.
               10  WK01-NMBR-4401-TA081-F              PIC X(1)
                                               VALUE SPACE.
               10  WK01-NMBR-4401-TA081-A              PIC X(1)
                                               VALUE SPACE.
               10  WK01-NMBR-4401-TA081-V              PIC X(1)
                                               VALUE SPACE.
               10  WK01-NMBR-4401-TA081-O              PIC X(1)
                                               VALUE SPACE.
               10  WK01-NMBR-4401-TA081       PIC X(8)
                                               VALUE SPACES.
               10  WK01-TYPE-IND-4411-TA081-Z              PIC X(1)
                                               VALUE SPACE.
               10  WK01-TYPE-IND-4411-TA081-F              PIC X(1)
                                               VALUE SPACE.
               10  WK01-TYPE-IND-4411-TA081-A              PIC X(1)
                                               VALUE SPACE.
               10  WK01-TYPE-IND-4411-TA081-V              PIC X(1)
                                               VALUE SPACE.
               10  WK01-TYPE-IND-4411-TA081-O              PIC X(1)
                                               VALUE SPACE.
               10  WK01-TYPE-IND-4411-TA081       PIC X(1)
                                               VALUE SPACES.
               10  WK01-TYPE-DESC-TA081-Z              PIC X(1)
                                               VALUE SPACE.
               10  WK01-TYPE-DESC-TA081-F              PIC X(1)
                                               VALUE SPACE.
               10  WK01-TYPE-DESC-TA081-A              PIC X(1)
                                               VALUE SPACE.
               10  WK01-TYPE-DESC-TA081-V              PIC X(1)
                                               VALUE SPACE.
               10  WK01-TYPE-DESC-TA081-O              PIC X(1)
                                               VALUE SPACE.
               10  WK01-TYPE-DESC-TA081       PIC X(10)
                                               VALUE SPACES.
               10  WK01-INVD-AMT-4411-TA081-Z              PIC X(1)
                                               VALUE SPACE.
               10  WK01-INVD-AMT-4411-TA081-F              PIC X(1)
                                               VALUE SPACE.
               10  WK01-INVD-AMT-4411-TA081-A              PIC X(1)
                                               VALUE SPACE.
               10  WK01-INVD-AMT-4411-TA081-V              PIC X(1)
                                               VALUE SPACE.
               10  WK01-INVD-AMT-4411-TA081-O              PIC X(1)
                                               VALUE SPACE.
               10  WK01-INVD-AMT-4411-TA081       PIC X(11)
                                               VALUE SPACES.
               10  WK01-ACCT-CODE-4033-TA081-Z              PIC X(1)
                                               VALUE SPACE.
               10  WK01-ACCT-CODE-4033-TA081-F              PIC X(1)
                                               VALUE SPACE.
               10  WK01-ACCT-CODE-4033-TA081-A              PIC X(1)
                                               VALUE SPACE.
               10  WK01-ACCT-CODE-4033-TA081-V              PIC X(1)
                                               VALUE SPACE.
               10  WK01-ACCT-CODE-4033-TA081-O              PIC X(1)
                                               VALUE SPACE.
               10  WK01-ACCT-CODE-4033-TA081       PIC X(2)
                                               VALUE SPACES.
               10  WK01-CLASS-CODE-4180-TA081-Z              PIC X(1)
                                               VALUE SPACE.
               10  WK01-CLASS-CODE-4180-TA081-F              PIC X(1)
                                               VALUE SPACE.
               10  WK01-CLASS-CODE-4180-TA081-A              PIC X(1)
                                               VALUE SPACE.
               10  WK01-CLASS-CODE-4180-TA081-V              PIC X(1)
                                               VALUE SPACE.
               10  WK01-CLASS-CODE-4180-TA081-O              PIC X(1)
                                               VALUE SPACE.
               10  WK01-CLASS-CODE-4180-TA081       PIC X(4)
                                               VALUE SPACES.
               10  WK01-CODE-4000-TA081-Z              PIC X(1)
                                               VALUE SPACE.
               10  WK01-CODE-4000-TA081-F              PIC X(1)
                                               VALUE SPACE.
               10  WK01-CODE-4000-TA081-A              PIC X(1)
                                               VALUE SPACE.
               10  WK01-CODE-4000-TA081-V              PIC X(1)
                                               VALUE SPACE.
               10  WK01-CODE-4000-TA081-O              PIC X(1)
                                               VALUE SPACE.
               10  WK01-CODE-4000-TA081       PIC X(1)
                                               VALUE SPACES.
               10  WK01-INDX-CODE-4411-TA081-Z              PIC X(1)
                                               VALUE SPACE.
               10  WK01-INDX-CODE-4411-TA081-F              PIC X(1)
                                               VALUE SPACE.
               10  WK01-INDX-CODE-4411-TA081-A              PIC X(1)
                                               VALUE SPACE.
               10  WK01-INDX-CODE-4411-TA081-V              PIC X(1)
                                               VALUE SPACE.
               10  WK01-INDX-CODE-4411-TA081-O              PIC X(1)
                                               VALUE SPACE.
               10  WK01-INDX-CODE-4411-TA081       PIC X(10)
                                               VALUE SPACES.
               10  WK01-CODE-4411-TA081-Z              PIC X(1)
                                               VALUE SPACE.
               10  WK01-CODE-4411-TA081-F              PIC X(1)
                                               VALUE SPACE.
               10  WK01-CODE-4411-TA081-A              PIC X(1)
                                               VALUE SPACE.
               10  WK01-CODE-4411-TA081-V              PIC X(1)
                                               VALUE SPACE.
               10  WK01-CODE-4411-TA081-O              PIC X(1)
                                               VALUE SPACE.
               10  WK01-CODE-4411-TA081       PIC X(6)
                                               VALUE SPACES.
               10  WK01-CODE-4411-TA0A1-Z              PIC X(1)
                                               VALUE SPACE.
               10  WK01-CODE-4411-TA0A1-F              PIC X(1)
                                               VALUE SPACE.
               10  WK01-CODE-4411-TA0A1-A              PIC X(1)
                                               VALUE SPACE.
               10  WK01-CODE-4411-TA0A1-V              PIC X(1)
                                               VALUE SPACE.
               10  WK01-CODE-4411-TA0A1-O              PIC X(1)
                                               VALUE SPACE.
               10  WK01-CODE-4411-TA0A1       PIC X(6)
                                               VALUE SPACES.
               10  WK01-CODE-4411-TA0B1-Z              PIC X(1)
                                               VALUE SPACE.
               10  WK01-CODE-4411-TA0B1-F              PIC X(1)
                                               VALUE SPACE.
               10  WK01-CODE-4411-TA0B1-A              PIC X(1)
                                               VALUE SPACE.
               10  WK01-CODE-4411-TA0B1-V              PIC X(1)
                                               VALUE SPACE.
               10  WK01-CODE-4411-TA0B1-O              PIC X(1)
                                               VALUE SPACE.
               10  WK01-CODE-4411-TA0B1       PIC X(6)
                                               VALUE SPACES.
               10  WK01-CODE-4411-TA0C1-Z              PIC X(1)
                                               VALUE SPACE.
               10  WK01-CODE-4411-TA0C1-F              PIC X(1)
                                               VALUE SPACE.
               10  WK01-CODE-4411-TA0C1-A              PIC X(1)
                                               VALUE SPACE.
               10  WK01-CODE-4411-TA0C1-V              PIC X(1)
                                               VALUE SPACE.
               10  WK01-CODE-4411-TA0C1-O              PIC X(1)
                                               VALUE SPACE.
               10  WK01-CODE-4411-TA0C1       PIC X(6)
                                               VALUE SPACES.
               10  WK01-CODE-4411-TA0D1-Z              PIC X(1)
                                               VALUE SPACE.
               10  WK01-CODE-4411-TA0D1-F              PIC X(1)
                                               VALUE SPACE.
               10  WK01-CODE-4411-TA0D1-A              PIC X(1)
                                               VALUE SPACE.
               10  WK01-CODE-4411-TA0D1-V              PIC X(1)
                                               VALUE SPACE.
               10  WK01-CODE-4411-TA0D1-O              PIC X(1)
                                               VALUE SPACE.
               10  WK01-CODE-4411-TA0D1       PIC X(6)
                                               VALUE SPACES.
               10  WK01-CODE-4411-TA0E1-Z              PIC X(1)
                                               VALUE SPACE.
               10  WK01-CODE-4411-TA0E1-F              PIC X(1)
                                               VALUE SPACE.
               10  WK01-CODE-4411-TA0E1-A              PIC X(1)
                                               VALUE SPACE.
               10  WK01-CODE-4411-TA0E1-V              PIC X(1)
                                               VALUE SPACE.
               10  WK01-CODE-4411-TA0E1-O              PIC X(1)
                                               VALUE SPACE.
               10  WK01-CODE-4411-TA0E1       PIC X(6)
                                               VALUE SPACES.
               10  WK01-ERROR-IND-TA081-Z              PIC X(1)
                                               VALUE SPACE.
               10  WK01-ERROR-IND-TA081-F              PIC X(1)
                                               VALUE SPACE.
               10  WK01-ERROR-IND-TA081-A              PIC X(1)
                                               VALUE SPACE.
               10  WK01-ERROR-IND-TA081-V              PIC X(1)
                                               VALUE SPACE.
               10  WK01-ERROR-IND-TA081-O              PIC X(1)
                                               VALUE SPACE.
               10  WK01-ERROR-IND-TA081       PIC X(1)
                                               VALUE SPACES.
               10  WK01-CODE-TA082-Z              PIC X(1)
                                               VALUE SPACE.
               10  WK01-CODE-TA082-F              PIC X(1)
                                               VALUE SPACE.
               10  WK01-CODE-TA082-A              PIC X(1)
                                               VALUE SPACE.
               10  WK01-CODE-TA082-V              PIC X(1)
                                               VALUE SPACE.
               10  WK01-CODE-TA082-O              PIC X(1)
                                               VALUE SPACE.
               10  WK01-CODE-TA082       PIC X(1)
                                               VALUE SPACES.
               10  WK01-NMBR-4411-TA082-Z              PIC X(1)
                                               VALUE SPACE.
               10  WK01-NMBR-4411-TA082-F              PIC X(1)
                                               VALUE SPACE.
               10  WK01-NMBR-4411-TA082-A              PIC X(1)
                                               VALUE SPACE.
               10  WK01-NMBR-4411-TA082-V              PIC X(1)
                                               VALUE SPACE.
               10  WK01-NMBR-4411-TA082-O              PIC X(1)
                                               VALUE SPACE.
               10  WK01-NMBR-4411-TA082       PIC X(4)
                                               VALUE SPACES.
               10  WK01-ACCT-LST-NN-4400-T082-Z              PIC X(1)
                                               VALUE SPACE.
               10  WK01-ACCT-LST-NN-4400-T082-F              PIC X(1)
                                               VALUE SPACE.
               10  WK01-ACCT-LST-NN-4400-T082-A              PIC X(1)
                                               VALUE SPACE.
               10  WK01-ACCT-LST-NN-4400-T082-V              PIC X(1)
                                               VALUE SPACE.
               10  WK01-ACCT-LST-NN-4400-T082-O              PIC X(1)
                                               VALUE SPACE.
               10  WK01-ACCT-LST-NN-4400-T082       PIC X(9)
                                               VALUE SPACES.
               10  WK01-NMBR-4401-TA082-Z              PIC X(1)
                                               VALUE SPACE.
               10  WK01-NMBR-4401-TA082-F              PIC X(1)
                                               VALUE SPACE.
               10  WK01-NMBR-4401-TA082-A              PIC X(1)
                                               VALUE SPACE.
               10  WK01-NMBR-4401-TA082-V              PIC X(1)
                                               VALUE SPACE.
               10  WK01-NMBR-4401-TA082-O              PIC X(1)
                                               VALUE SPACE.
               10  WK01-NMBR-4401-TA082       PIC X(8)
                                               VALUE SPACES.
               10  WK01-TYPE-IND-4411-TA082-Z              PIC X(1)
                                               VALUE SPACE.
               10  WK01-TYPE-IND-4411-TA082-F              PIC X(1)
                                               VALUE SPACE.
               10  WK01-TYPE-IND-4411-TA082-A              PIC X(1)
                                               VALUE SPACE.
               10  WK01-TYPE-IND-4411-TA082-V              PIC X(1)
                                               VALUE SPACE.
               10  WK01-TYPE-IND-4411-TA082-O              PIC X(1)
                                               VALUE SPACE.
               10  WK01-TYPE-IND-4411-TA082       PIC X(1)
                                               VALUE SPACES.
               10  WK01-TYPE-DESC-TA082-Z              PIC X(1)
                                               VALUE SPACE.
               10  WK01-TYPE-DESC-TA082-F              PIC X(1)
                                               VALUE SPACE.
               10  WK01-TYPE-DESC-TA082-A              PIC X(1)
                                               VALUE SPACE.
               10  WK01-TYPE-DESC-TA082-V              PIC X(1)
                                               VALUE SPACE.
               10  WK01-TYPE-DESC-TA082-O              PIC X(1)
                                               VALUE SPACE.
               10  WK01-TYPE-DESC-TA082       PIC X(10)
                                               VALUE SPACES.
               10  WK01-INVD-AMT-4411-TA082-Z              PIC X(1)
                                               VALUE SPACE.
               10  WK01-INVD-AMT-4411-TA082-F              PIC X(1)
                                               VALUE SPACE.
               10  WK01-INVD-AMT-4411-TA082-A              PIC X(1)
                                               VALUE SPACE.
               10  WK01-INVD-AMT-4411-TA082-V              PIC X(1)
                                               VALUE SPACE.
               10  WK01-INVD-AMT-4411-TA082-O              PIC X(1)
                                               VALUE SPACE.
               10  WK01-INVD-AMT-4411-TA082       PIC X(11)
                                               VALUE SPACES.
               10  WK01-ACCT-CODE-4033-TA082-Z              PIC X(1)
                                               VALUE SPACE.
               10  WK01-ACCT-CODE-4033-TA082-F              PIC X(1)
                                               VALUE SPACE.
               10  WK01-ACCT-CODE-4033-TA082-A              PIC X(1)
                                               VALUE SPACE.
               10  WK01-ACCT-CODE-4033-TA082-V              PIC X(1)
                                               VALUE SPACE.
               10  WK01-ACCT-CODE-4033-TA082-O              PIC X(1)
                                               VALUE SPACE.
               10  WK01-ACCT-CODE-4033-TA082       PIC X(2)
                                               VALUE SPACES.
               10  WK01-CLASS-CODE-4180-TA082-Z              PIC X(1)
                                               VALUE SPACE.
               10  WK01-CLASS-CODE-4180-TA082-F              PIC X(1)
                                               VALUE SPACE.
               10  WK01-CLASS-CODE-4180-TA082-A              PIC X(1)
                                               VALUE SPACE.
               10  WK01-CLASS-CODE-4180-TA082-V              PIC X(1)
                                               VALUE SPACE.
               10  WK01-CLASS-CODE-4180-TA082-O              PIC X(1)
                                               VALUE SPACE.
               10  WK01-CLASS-CODE-4180-TA082       PIC X(4)
                                               VALUE SPACES.
               10  WK01-CODE-4000-TA082-Z              PIC X(1)
                                               VALUE SPACE.
               10  WK01-CODE-4000-TA082-F              PIC X(1)
                                               VALUE SPACE.
               10  WK01-CODE-4000-TA082-A              PIC X(1)
                                               VALUE SPACE.
               10  WK01-CODE-4000-TA082-V              PIC X(1)
                                               VALUE SPACE.
               10  WK01-CODE-4000-TA082-O              PIC X(1)
                                               VALUE SPACE.
               10  WK01-CODE-4000-TA082       PIC X(1)
                                               VALUE SPACES.
               10  WK01-INDX-CODE-4411-TA082-Z              PIC X(1)
                                               VALUE SPACE.
               10  WK01-INDX-CODE-4411-TA082-F              PIC X(1)
                                               VALUE SPACE.
               10  WK01-INDX-CODE-4411-TA082-A              PIC X(1)
                                               VALUE SPACE.
               10  WK01-INDX-CODE-4411-TA082-V              PIC X(1)
                                               VALUE SPACE.
               10  WK01-INDX-CODE-4411-TA082-O              PIC X(1)
                                               VALUE SPACE.
               10  WK01-INDX-CODE-4411-TA082       PIC X(10)
                                               VALUE SPACES.
               10  WK01-CODE-4411-TA082-Z              PIC X(1)
                                               VALUE SPACE.
               10  WK01-CODE-4411-TA082-F              PIC X(1)
                                               VALUE SPACE.
               10  WK01-CODE-4411-TA082-A              PIC X(1)
                                               VALUE SPACE.
               10  WK01-CODE-4411-TA082-V              PIC X(1)
                                               VALUE SPACE.
               10  WK01-CODE-4411-TA082-O              PIC X(1)
                                               VALUE SPACE.
               10  WK01-CODE-4411-TA082       PIC X(6)
                                               VALUE SPACES.
               10  WK01-CODE-4411-TA0A2-Z              PIC X(1)
                                               VALUE SPACE.
               10  WK01-CODE-4411-TA0A2-F              PIC X(1)
                                               VALUE SPACE.
               10  WK01-CODE-4411-TA0A2-A              PIC X(1)
                                               VALUE SPACE.
               10  WK01-CODE-4411-TA0A2-V              PIC X(1)
                                               VALUE SPACE.
               10  WK01-CODE-4411-TA0A2-O              PIC X(1)
                                               VALUE SPACE.
               10  WK01-CODE-4411-TA0A2       PIC X(6)
                                               VALUE SPACES.
               10  WK01-CODE-4411-TA0B2-Z              PIC X(1)
                                               VALUE SPACE.
               10  WK01-CODE-4411-TA0B2-F              PIC X(1)
                                               VALUE SPACE.
               10  WK01-CODE-4411-TA0B2-A              PIC X(1)
                                               VALUE SPACE.
               10  WK01-CODE-4411-TA0B2-V              PIC X(1)
                                               VALUE SPACE.
               10  WK01-CODE-4411-TA0B2-O              PIC X(1)
                                               VALUE SPACE.
               10  WK01-CODE-4411-TA0B2       PIC X(6)
                                               VALUE SPACES.
               10  WK01-CODE-4411-TA0C2-Z              PIC X(1)
                                               VALUE SPACE.
               10  WK01-CODE-4411-TA0C2-F              PIC X(1)
                                               VALUE SPACE.
               10  WK01-CODE-4411-TA0C2-A              PIC X(1)
                                               VALUE SPACE.
               10  WK01-CODE-4411-TA0C2-V              PIC X(1)
                                               VALUE SPACE.
               10  WK01-CODE-4411-TA0C2-O              PIC X(1)
                                               VALUE SPACE.
               10  WK01-CODE-4411-TA0C2       PIC X(6)
                                               VALUE SPACES.
               10  WK01-CODE-4411-TA0D2-Z              PIC X(1)
                                               VALUE SPACE.
               10  WK01-CODE-4411-TA0D2-F              PIC X(1)
                                               VALUE SPACE.
               10  WK01-CODE-4411-TA0D2-A              PIC X(1)
                                               VALUE SPACE.
               10  WK01-CODE-4411-TA0D2-V              PIC X(1)
                                               VALUE SPACE.
               10  WK01-CODE-4411-TA0D2-O              PIC X(1)
                                               VALUE SPACE.
               10  WK01-CODE-4411-TA0D2       PIC X(6)
                                               VALUE SPACES.
               10  WK01-CODE-4411-TA0E2-Z              PIC X(1)
                                               VALUE SPACE.
               10  WK01-CODE-4411-TA0E2-F              PIC X(1)
                                               VALUE SPACE.
               10  WK01-CODE-4411-TA0E2-A              PIC X(1)
                                               VALUE SPACE.
               10  WK01-CODE-4411-TA0E2-V              PIC X(1)
                                               VALUE SPACE.
               10  WK01-CODE-4411-TA0E2-O              PIC X(1)
                                               VALUE SPACE.
               10  WK01-CODE-4411-TA0E2       PIC X(6)
                                               VALUE SPACES.
               10  WK01-ERROR-IND-TA082-Z              PIC X(1)
                                               VALUE SPACE.
               10  WK01-ERROR-IND-TA082-F              PIC X(1)
                                               VALUE SPACE.
               10  WK01-ERROR-IND-TA082-A              PIC X(1)
                                               VALUE SPACE.
               10  WK01-ERROR-IND-TA082-V              PIC X(1)
                                               VALUE SPACE.
               10  WK01-ERROR-IND-TA082-O              PIC X(1)
                                               VALUE SPACE.
               10  WK01-ERROR-IND-TA082       PIC X(1)
                                               VALUE SPACES.
               10  WK01-CODE-TA083-Z              PIC X(1)
                                               VALUE SPACE.
               10  WK01-CODE-TA083-F              PIC X(1)
                                               VALUE SPACE.
               10  WK01-CODE-TA083-A              PIC X(1)
                                               VALUE SPACE.
               10  WK01-CODE-TA083-V              PIC X(1)
                                               VALUE SPACE.
               10  WK01-CODE-TA083-O              PIC X(1)
                                               VALUE SPACE.
               10  WK01-CODE-TA083       PIC X(1)
                                               VALUE SPACES.
               10  WK01-NMBR-4411-TA083-Z              PIC X(1)
                                               VALUE SPACE.
               10  WK01-NMBR-4411-TA083-F              PIC X(1)
                                               VALUE SPACE.
               10  WK01-NMBR-4411-TA083-A              PIC X(1)
                                               VALUE SPACE.
               10  WK01-NMBR-4411-TA083-V              PIC X(1)
                                               VALUE SPACE.
               10  WK01-NMBR-4411-TA083-O              PIC X(1)
                                               VALUE SPACE.
               10  WK01-NMBR-4411-TA083       PIC X(4)
                                               VALUE SPACES.
               10  WK01-ACCT-LST-NN-4400-T083-Z              PIC X(1)
                                               VALUE SPACE.
               10  WK01-ACCT-LST-NN-4400-T083-F              PIC X(1)
                                               VALUE SPACE.
               10  WK01-ACCT-LST-NN-4400-T083-A              PIC X(1)
                                               VALUE SPACE.
               10  WK01-ACCT-LST-NN-4400-T083-V              PIC X(1)
                                               VALUE SPACE.
               10  WK01-ACCT-LST-NN-4400-T083-O              PIC X(1)
                                               VALUE SPACE.
               10  WK01-ACCT-LST-NN-4400-T083       PIC X(9)
                                               VALUE SPACES.
               10  WK01-NMBR-4401-TA083-Z              PIC X(1)
                                               VALUE SPACE.
               10  WK01-NMBR-4401-TA083-F              PIC X(1)
                                               VALUE SPACE.
               10  WK01-NMBR-4401-TA083-A              PIC X(1)
                                               VALUE SPACE.
               10  WK01-NMBR-4401-TA083-V              PIC X(1)
                                               VALUE SPACE.
               10  WK01-NMBR-4401-TA083-O              PIC X(1)
                                               VALUE SPACE.
               10  WK01-NMBR-4401-TA083       PIC X(8)
                                               VALUE SPACES.
               10  WK01-TYPE-IND-4411-TA083-Z              PIC X(1)
                                               VALUE SPACE.
               10  WK01-TYPE-IND-4411-TA083-F              PIC X(1)
                                               VALUE SPACE.
               10  WK01-TYPE-IND-4411-TA083-A              PIC X(1)
                                               VALUE SPACE.
               10  WK01-TYPE-IND-4411-TA083-V              PIC X(1)
                                               VALUE SPACE.
               10  WK01-TYPE-IND-4411-TA083-O              PIC X(1)
                                               VALUE SPACE.
               10  WK01-TYPE-IND-4411-TA083       PIC X(1)
                                               VALUE SPACES.
               10  WK01-TYPE-DESC-TA083-Z              PIC X(1)
                                               VALUE SPACE.
               10  WK01-TYPE-DESC-TA083-F              PIC X(1)
                                               VALUE SPACE.
               10  WK01-TYPE-DESC-TA083-A              PIC X(1)
                                               VALUE SPACE.
               10  WK01-TYPE-DESC-TA083-V              PIC X(1)
                                               VALUE SPACE.
               10  WK01-TYPE-DESC-TA083-O              PIC X(1)
                                               VALUE SPACE.
               10  WK01-TYPE-DESC-TA083       PIC X(10)
                                               VALUE SPACES.
               10  WK01-INVD-AMT-4411-TA083-Z              PIC X(1)
                                               VALUE SPACE.
               10  WK01-INVD-AMT-4411-TA083-F              PIC X(1)
                                               VALUE SPACE.
               10  WK01-INVD-AMT-4411-TA083-A              PIC X(1)
                                               VALUE SPACE.
               10  WK01-INVD-AMT-4411-TA083-V              PIC X(1)
                                               VALUE SPACE.
               10  WK01-INVD-AMT-4411-TA083-O              PIC X(1)
                                               VALUE SPACE.
               10  WK01-INVD-AMT-4411-TA083       PIC X(11)
                                               VALUE SPACES.
               10  WK01-ACCT-CODE-4033-TA083-Z              PIC X(1)
                                               VALUE SPACE.
               10  WK01-ACCT-CODE-4033-TA083-F              PIC X(1)
                                               VALUE SPACE.
               10  WK01-ACCT-CODE-4033-TA083-A              PIC X(1)
                                               VALUE SPACE.
               10  WK01-ACCT-CODE-4033-TA083-V              PIC X(1)
                                               VALUE SPACE.
               10  WK01-ACCT-CODE-4033-TA083-O              PIC X(1)
                                               VALUE SPACE.
               10  WK01-ACCT-CODE-4033-TA083       PIC X(2)
                                               VALUE SPACES.
               10  WK01-CLASS-CODE-4180-TA083-Z              PIC X(1)
                                               VALUE SPACE.
               10  WK01-CLASS-CODE-4180-TA083-F              PIC X(1)
                                               VALUE SPACE.
               10  WK01-CLASS-CODE-4180-TA083-A              PIC X(1)
                                               VALUE SPACE.
               10  WK01-CLASS-CODE-4180-TA083-V              PIC X(1)
                                               VALUE SPACE.
               10  WK01-CLASS-CODE-4180-TA083-O              PIC X(1)
                                               VALUE SPACE.
               10  WK01-CLASS-CODE-4180-TA083       PIC X(4)
                                               VALUE SPACES.
               10  WK01-CODE-4000-TA083-Z              PIC X(1)
                                               VALUE SPACE.
               10  WK01-CODE-4000-TA083-F              PIC X(1)
                                               VALUE SPACE.
               10  WK01-CODE-4000-TA083-A              PIC X(1)
                                               VALUE SPACE.
               10  WK01-CODE-4000-TA083-V              PIC X(1)
                                               VALUE SPACE.
               10  WK01-CODE-4000-TA083-O              PIC X(1)
                                               VALUE SPACE.
               10  WK01-CODE-4000-TA083       PIC X(1)
                                               VALUE SPACES.
               10  WK01-INDX-CODE-4411-TA083-Z              PIC X(1)
                                               VALUE SPACE.
               10  WK01-INDX-CODE-4411-TA083-F              PIC X(1)
                                               VALUE SPACE.
               10  WK01-INDX-CODE-4411-TA083-A              PIC X(1)
                                               VALUE SPACE.
               10  WK01-INDX-CODE-4411-TA083-V              PIC X(1)
                                               VALUE SPACE.
               10  WK01-INDX-CODE-4411-TA083-O              PIC X(1)
                                               VALUE SPACE.
               10  WK01-INDX-CODE-4411-TA083       PIC X(10)
                                               VALUE SPACES.
               10  WK01-CODE-4411-TA083-Z              PIC X(1)
                                               VALUE SPACE.
               10  WK01-CODE-4411-TA083-F              PIC X(1)
                                               VALUE SPACE.
               10  WK01-CODE-4411-TA083-A              PIC X(1)
                                               VALUE SPACE.
               10  WK01-CODE-4411-TA083-V              PIC X(1)
                                               VALUE SPACE.
               10  WK01-CODE-4411-TA083-O              PIC X(1)
                                               VALUE SPACE.
               10  WK01-CODE-4411-TA083       PIC X(6)
                                               VALUE SPACES.
               10  WK01-CODE-4411-TA0A3-Z              PIC X(1)
                                               VALUE SPACE.
               10  WK01-CODE-4411-TA0A3-F              PIC X(1)
                                               VALUE SPACE.
               10  WK01-CODE-4411-TA0A3-A              PIC X(1)
                                               VALUE SPACE.
               10  WK01-CODE-4411-TA0A3-V              PIC X(1)
                                               VALUE SPACE.
               10  WK01-CODE-4411-TA0A3-O              PIC X(1)
                                               VALUE SPACE.
               10  WK01-CODE-4411-TA0A3       PIC X(6)
                                               VALUE SPACES.
               10  WK01-CODE-4411-TA0B3-Z              PIC X(1)
                                               VALUE SPACE.
               10  WK01-CODE-4411-TA0B3-F              PIC X(1)
                                               VALUE SPACE.
               10  WK01-CODE-4411-TA0B3-A              PIC X(1)
                                               VALUE SPACE.
               10  WK01-CODE-4411-TA0B3-V              PIC X(1)
                                               VALUE SPACE.
               10  WK01-CODE-4411-TA0B3-O              PIC X(1)
                                               VALUE SPACE.
               10  WK01-CODE-4411-TA0B3       PIC X(6)
                                               VALUE SPACES.
               10  WK01-CODE-4411-TA0C3-Z              PIC X(1)
                                               VALUE SPACE.
               10  WK01-CODE-4411-TA0C3-F              PIC X(1)
                                               VALUE SPACE.
               10  WK01-CODE-4411-TA0C3-A              PIC X(1)
                                               VALUE SPACE.
               10  WK01-CODE-4411-TA0C3-V              PIC X(1)
                                               VALUE SPACE.
               10  WK01-CODE-4411-TA0C3-O              PIC X(1)
                                               VALUE SPACE.
               10  WK01-CODE-4411-TA0C3       PIC X(6)
                                               VALUE SPACES.
               10  WK01-CODE-4411-TA0D3-Z              PIC X(1)
                                               VALUE SPACE.
               10  WK01-CODE-4411-TA0D3-F              PIC X(1)
                                               VALUE SPACE.
               10  WK01-CODE-4411-TA0D3-A              PIC X(1)
                                               VALUE SPACE.
               10  WK01-CODE-4411-TA0D3-V              PIC X(1)
                                               VALUE SPACE.
               10  WK01-CODE-4411-TA0D3-O              PIC X(1)
                                               VALUE SPACE.
               10  WK01-CODE-4411-TA0D3       PIC X(6)
                                               VALUE SPACES.
               10  WK01-CODE-4411-TA0E3-Z              PIC X(1)
                                               VALUE SPACE.
               10  WK01-CODE-4411-TA0E3-F              PIC X(1)
                                               VALUE SPACE.
               10  WK01-CODE-4411-TA0E3-A              PIC X(1)
                                               VALUE SPACE.
               10  WK01-CODE-4411-TA0E3-V              PIC X(1)
                                               VALUE SPACE.
               10  WK01-CODE-4411-TA0E3-O              PIC X(1)
                                               VALUE SPACE.
               10  WK01-CODE-4411-TA0E3       PIC X(6)
                                               VALUE SPACES.
               10  WK01-ERROR-IND-TA083-Z              PIC X(1)
                                               VALUE SPACE.
               10  WK01-ERROR-IND-TA083-F              PIC X(1)
                                               VALUE SPACE.
               10  WK01-ERROR-IND-TA083-A              PIC X(1)
                                               VALUE SPACE.
               10  WK01-ERROR-IND-TA083-V              PIC X(1)
                                               VALUE SPACE.
               10  WK01-ERROR-IND-TA083-O              PIC X(1)
                                               VALUE SPACE.
               10  WK01-ERROR-IND-TA083       PIC X(1)
                                               VALUE SPACES.
               10  WK01-CODE-TA084-Z              PIC X(1)
                                               VALUE SPACE.
               10  WK01-CODE-TA084-F              PIC X(1)
                                               VALUE SPACE.
               10  WK01-CODE-TA084-A              PIC X(1)
                                               VALUE SPACE.
               10  WK01-CODE-TA084-V              PIC X(1)
                                               VALUE SPACE.
               10  WK01-CODE-TA084-O              PIC X(1)
                                               VALUE SPACE.
               10  WK01-CODE-TA084       PIC X(1)
                                               VALUE SPACES.
               10  WK01-NMBR-4411-TA084-Z              PIC X(1)
                                               VALUE SPACE.
               10  WK01-NMBR-4411-TA084-F              PIC X(1)
                                               VALUE SPACE.
               10  WK01-NMBR-4411-TA084-A              PIC X(1)
                                               VALUE SPACE.
               10  WK01-NMBR-4411-TA084-V              PIC X(1)
                                               VALUE SPACE.
               10  WK01-NMBR-4411-TA084-O              PIC X(1)
                                               VALUE SPACE.
               10  WK01-NMBR-4411-TA084       PIC X(4)
                                               VALUE SPACES.
               10  WK01-ACCT-LST-NN-4400-T084-Z              PIC X(1)
                                               VALUE SPACE.
               10  WK01-ACCT-LST-NN-4400-T084-F              PIC X(1)
                                               VALUE SPACE.
               10  WK01-ACCT-LST-NN-4400-T084-A              PIC X(1)
                                               VALUE SPACE.
               10  WK01-ACCT-LST-NN-4400-T084-V              PIC X(1)
                                               VALUE SPACE.
               10  WK01-ACCT-LST-NN-4400-T084-O              PIC X(1)
                                               VALUE SPACE.
               10  WK01-ACCT-LST-NN-4400-T084       PIC X(9)
                                               VALUE SPACES.
               10  WK01-NMBR-4401-TA084-Z              PIC X(1)
                                               VALUE SPACE.
               10  WK01-NMBR-4401-TA084-F              PIC X(1)
                                               VALUE SPACE.
               10  WK01-NMBR-4401-TA084-A              PIC X(1)
                                               VALUE SPACE.
               10  WK01-NMBR-4401-TA084-V              PIC X(1)
                                               VALUE SPACE.
               10  WK01-NMBR-4401-TA084-O              PIC X(1)
                                               VALUE SPACE.
               10  WK01-NMBR-4401-TA084       PIC X(8)
                                               VALUE SPACES.
               10  WK01-TYPE-IND-4411-TA084-Z              PIC X(1)
                                               VALUE SPACE.
               10  WK01-TYPE-IND-4411-TA084-F              PIC X(1)
                                               VALUE SPACE.
               10  WK01-TYPE-IND-4411-TA084-A              PIC X(1)
                                               VALUE SPACE.
               10  WK01-TYPE-IND-4411-TA084-V              PIC X(1)
                                               VALUE SPACE.
               10  WK01-TYPE-IND-4411-TA084-O              PIC X(1)
                                               VALUE SPACE.
               10  WK01-TYPE-IND-4411-TA084       PIC X(1)
                                               VALUE SPACES.
               10  WK01-TYPE-DESC-TA084-Z              PIC X(1)
                                               VALUE SPACE.
               10  WK01-TYPE-DESC-TA084-F              PIC X(1)
                                               VALUE SPACE.
               10  WK01-TYPE-DESC-TA084-A              PIC X(1)
                                               VALUE SPACE.
               10  WK01-TYPE-DESC-TA084-V              PIC X(1)
                                               VALUE SPACE.
               10  WK01-TYPE-DESC-TA084-O              PIC X(1)
                                               VALUE SPACE.
               10  WK01-TYPE-DESC-TA084       PIC X(10)
                                               VALUE SPACES.
               10  WK01-INVD-AMT-4411-TA084-Z              PIC X(1)
                                               VALUE SPACE.
               10  WK01-INVD-AMT-4411-TA084-F              PIC X(1)
                                               VALUE SPACE.
               10  WK01-INVD-AMT-4411-TA084-A              PIC X(1)
                                               VALUE SPACE.
               10  WK01-INVD-AMT-4411-TA084-V              PIC X(1)
                                               VALUE SPACE.
               10  WK01-INVD-AMT-4411-TA084-O              PIC X(1)
                                               VALUE SPACE.
               10  WK01-INVD-AMT-4411-TA084       PIC X(11)
                                               VALUE SPACES.
               10  WK01-ACCT-CODE-4033-TA084-Z              PIC X(1)
                                               VALUE SPACE.
               10  WK01-ACCT-CODE-4033-TA084-F              PIC X(1)
                                               VALUE SPACE.
               10  WK01-ACCT-CODE-4033-TA084-A              PIC X(1)
                                               VALUE SPACE.
               10  WK01-ACCT-CODE-4033-TA084-V              PIC X(1)
                                               VALUE SPACE.
               10  WK01-ACCT-CODE-4033-TA084-O              PIC X(1)
                                               VALUE SPACE.
               10  WK01-ACCT-CODE-4033-TA084       PIC X(2)
                                               VALUE SPACES.
               10  WK01-CLASS-CODE-4180-TA084-Z              PIC X(1)
                                               VALUE SPACE.
               10  WK01-CLASS-CODE-4180-TA084-F              PIC X(1)
                                               VALUE SPACE.
               10  WK01-CLASS-CODE-4180-TA084-A              PIC X(1)
                                               VALUE SPACE.
               10  WK01-CLASS-CODE-4180-TA084-V              PIC X(1)
                                               VALUE SPACE.
               10  WK01-CLASS-CODE-4180-TA084-O              PIC X(1)
                                               VALUE SPACE.
               10  WK01-CLASS-CODE-4180-TA084       PIC X(4)
                                               VALUE SPACES.
               10  WK01-CODE-4000-TA084-Z              PIC X(1)
                                               VALUE SPACE.
               10  WK01-CODE-4000-TA084-F              PIC X(1)
                                               VALUE SPACE.
               10  WK01-CODE-4000-TA084-A              PIC X(1)
                                               VALUE SPACE.
               10  WK01-CODE-4000-TA084-V              PIC X(1)
                                               VALUE SPACE.
               10  WK01-CODE-4000-TA084-O              PIC X(1)
                                               VALUE SPACE.
               10  WK01-CODE-4000-TA084       PIC X(1)
                                               VALUE SPACES.
               10  WK01-INDX-CODE-4411-TA084-Z              PIC X(1)
                                               VALUE SPACE.
               10  WK01-INDX-CODE-4411-TA084-F              PIC X(1)
                                               VALUE SPACE.
               10  WK01-INDX-CODE-4411-TA084-A              PIC X(1)
                                               VALUE SPACE.
               10  WK01-INDX-CODE-4411-TA084-V              PIC X(1)
                                               VALUE SPACE.
               10  WK01-INDX-CODE-4411-TA084-O              PIC X(1)
                                               VALUE SPACE.
               10  WK01-INDX-CODE-4411-TA084       PIC X(10)
                                               VALUE SPACES.
               10  WK01-CODE-4411-TA084-Z              PIC X(1)
                                               VALUE SPACE.
               10  WK01-CODE-4411-TA084-F              PIC X(1)
                                               VALUE SPACE.
               10  WK01-CODE-4411-TA084-A              PIC X(1)
                                               VALUE SPACE.
               10  WK01-CODE-4411-TA084-V              PIC X(1)
                                               VALUE SPACE.
               10  WK01-CODE-4411-TA084-O              PIC X(1)
                                               VALUE SPACE.
               10  WK01-CODE-4411-TA084       PIC X(6)
                                               VALUE SPACES.
               10  WK01-CODE-4411-TA0A4-Z              PIC X(1)
                                               VALUE SPACE.
               10  WK01-CODE-4411-TA0A4-F              PIC X(1)
                                               VALUE SPACE.
               10  WK01-CODE-4411-TA0A4-A              PIC X(1)
                                               VALUE SPACE.
               10  WK01-CODE-4411-TA0A4-V              PIC X(1)
                                               VALUE SPACE.
               10  WK01-CODE-4411-TA0A4-O              PIC X(1)
                                               VALUE SPACE.
               10  WK01-CODE-4411-TA0A4       PIC X(6)
                                               VALUE SPACES.
               10  WK01-CODE-4411-TA0B4-Z              PIC X(1)
                                               VALUE SPACE.
               10  WK01-CODE-4411-TA0B4-F              PIC X(1)
                                               VALUE SPACE.
               10  WK01-CODE-4411-TA0B4-A              PIC X(1)
                                               VALUE SPACE.
               10  WK01-CODE-4411-TA0B4-V              PIC X(1)
                                               VALUE SPACE.
               10  WK01-CODE-4411-TA0B4-O              PIC X(1)
                                               VALUE SPACE.
               10  WK01-CODE-4411-TA0B4       PIC X(6)
                                               VALUE SPACES.
               10  WK01-CODE-4411-TA0C4-Z              PIC X(1)
                                               VALUE SPACE.
               10  WK01-CODE-4411-TA0C4-F              PIC X(1)
                                               VALUE SPACE.
               10  WK01-CODE-4411-TA0C4-A              PIC X(1)
                                               VALUE SPACE.
               10  WK01-CODE-4411-TA0C4-V              PIC X(1)
                                               VALUE SPACE.
               10  WK01-CODE-4411-TA0C4-O              PIC X(1)
                                               VALUE SPACE.
               10  WK01-CODE-4411-TA0C4       PIC X(6)
                                               VALUE SPACES.
               10  WK01-CODE-4411-TA0D4-Z              PIC X(1)
                                               VALUE SPACE.
               10  WK01-CODE-4411-TA0D4-F              PIC X(1)
                                               VALUE SPACE.
               10  WK01-CODE-4411-TA0D4-A              PIC X(1)
                                               VALUE SPACE.
               10  WK01-CODE-4411-TA0D4-V              PIC X(1)
                                               VALUE SPACE.
               10  WK01-CODE-4411-TA0D4-O              PIC X(1)
                                               VALUE SPACE.
               10  WK01-CODE-4411-TA0D4       PIC X(6)
                                               VALUE SPACES.
               10  WK01-CODE-4411-TA0E4-Z              PIC X(1)
                                               VALUE SPACE.
               10  WK01-CODE-4411-TA0E4-F              PIC X(1)
                                               VALUE SPACE.
               10  WK01-CODE-4411-TA0E4-A              PIC X(1)
                                               VALUE SPACE.
               10  WK01-CODE-4411-TA0E4-V              PIC X(1)
                                               VALUE SPACE.
               10  WK01-CODE-4411-TA0E4-O              PIC X(1)
                                               VALUE SPACE.
               10  WK01-CODE-4411-TA0E4       PIC X(6)
                                               VALUE SPACES.
               10  WK01-ERROR-IND-TA084-Z              PIC X(1)
                                               VALUE SPACE.
               10  WK01-ERROR-IND-TA084-F              PIC X(1)
                                               VALUE SPACE.
               10  WK01-ERROR-IND-TA084-A              PIC X(1)
                                               VALUE SPACE.
               10  WK01-ERROR-IND-TA084-V              PIC X(1)
                                               VALUE SPACE.
               10  WK01-ERROR-IND-TA084-O              PIC X(1)
                                               VALUE SPACE.
               10  WK01-ERROR-IND-TA084       PIC X(1)
                                               VALUE SPACES.
               10  WK01-CODE-TA085-Z              PIC X(1)
                                               VALUE SPACE.
               10  WK01-CODE-TA085-F              PIC X(1)
                                               VALUE SPACE.
               10  WK01-CODE-TA085-A              PIC X(1)
                                               VALUE SPACE.
               10  WK01-CODE-TA085-V              PIC X(1)
                                               VALUE SPACE.
               10  WK01-CODE-TA085-O              PIC X(1)
                                               VALUE SPACE.
               10  WK01-CODE-TA085       PIC X(1)
                                               VALUE SPACES.
               10  WK01-NMBR-4411-TA085-Z              PIC X(1)
                                               VALUE SPACE.
               10  WK01-NMBR-4411-TA085-F              PIC X(1)
                                               VALUE SPACE.
               10  WK01-NMBR-4411-TA085-A              PIC X(1)
                                               VALUE SPACE.
               10  WK01-NMBR-4411-TA085-V              PIC X(1)
                                               VALUE SPACE.
               10  WK01-NMBR-4411-TA085-O              PIC X(1)
                                               VALUE SPACE.
               10  WK01-NMBR-4411-TA085       PIC X(4)
                                               VALUE SPACES.
               10  WK01-ACCT-LST-NN-4400-T085-Z              PIC X(1)
                                               VALUE SPACE.
               10  WK01-ACCT-LST-NN-4400-T085-F              PIC X(1)
                                               VALUE SPACE.
               10  WK01-ACCT-LST-NN-4400-T085-A              PIC X(1)
                                               VALUE SPACE.
               10  WK01-ACCT-LST-NN-4400-T085-V              PIC X(1)
                                               VALUE SPACE.
               10  WK01-ACCT-LST-NN-4400-T085-O              PIC X(1)
                                               VALUE SPACE.
               10  WK01-ACCT-LST-NN-4400-T085       PIC X(9)
                                               VALUE SPACES.
               10  WK01-NMBR-4401-TA085-Z              PIC X(1)
                                               VALUE SPACE.
               10  WK01-NMBR-4401-TA085-F              PIC X(1)
                                               VALUE SPACE.
               10  WK01-NMBR-4401-TA085-A              PIC X(1)
                                               VALUE SPACE.
               10  WK01-NMBR-4401-TA085-V              PIC X(1)
                                               VALUE SPACE.
               10  WK01-NMBR-4401-TA085-O              PIC X(1)
                                               VALUE SPACE.
               10  WK01-NMBR-4401-TA085       PIC X(8)
                                               VALUE SPACES.
               10  WK01-TYPE-IND-4411-TA085-Z              PIC X(1)
                                               VALUE SPACE.
               10  WK01-TYPE-IND-4411-TA085-F              PIC X(1)
                                               VALUE SPACE.
               10  WK01-TYPE-IND-4411-TA085-A              PIC X(1)
                                               VALUE SPACE.
               10  WK01-TYPE-IND-4411-TA085-V              PIC X(1)
                                               VALUE SPACE.
               10  WK01-TYPE-IND-4411-TA085-O              PIC X(1)
                                               VALUE SPACE.
               10  WK01-TYPE-IND-4411-TA085       PIC X(1)
                                               VALUE SPACES.
               10  WK01-TYPE-DESC-TA085-Z              PIC X(1)
                                               VALUE SPACE.
               10  WK01-TYPE-DESC-TA085-F              PIC X(1)
                                               VALUE SPACE.
               10  WK01-TYPE-DESC-TA085-A              PIC X(1)
                                               VALUE SPACE.
               10  WK01-TYPE-DESC-TA085-V              PIC X(1)
                                               VALUE SPACE.
               10  WK01-TYPE-DESC-TA085-O              PIC X(1)
                                               VALUE SPACE.
               10  WK01-TYPE-DESC-TA085       PIC X(10)
                                               VALUE SPACES.
               10  WK01-INVD-AMT-4411-TA085-Z              PIC X(1)
                                               VALUE SPACE.
               10  WK01-INVD-AMT-4411-TA085-F              PIC X(1)
                                               VALUE SPACE.
               10  WK01-INVD-AMT-4411-TA085-A              PIC X(1)
                                               VALUE SPACE.
               10  WK01-INVD-AMT-4411-TA085-V              PIC X(1)
                                               VALUE SPACE.
               10  WK01-INVD-AMT-4411-TA085-O              PIC X(1)
                                               VALUE SPACE.
               10  WK01-INVD-AMT-4411-TA085       PIC X(11)
                                               VALUE SPACES.
               10  WK01-ACCT-CODE-4033-TA085-Z              PIC X(1)
                                               VALUE SPACE.
               10  WK01-ACCT-CODE-4033-TA085-F              PIC X(1)
                                               VALUE SPACE.
               10  WK01-ACCT-CODE-4033-TA085-A              PIC X(1)
                                               VALUE SPACE.
               10  WK01-ACCT-CODE-4033-TA085-V              PIC X(1)
                                               VALUE SPACE.
               10  WK01-ACCT-CODE-4033-TA085-O              PIC X(1)
                                               VALUE SPACE.
               10  WK01-ACCT-CODE-4033-TA085       PIC X(2)
                                               VALUE SPACES.
               10  WK01-CLASS-CODE-4180-TA085-Z              PIC X(1)
                                               VALUE SPACE.
               10  WK01-CLASS-CODE-4180-TA085-F              PIC X(1)
                                               VALUE SPACE.
               10  WK01-CLASS-CODE-4180-TA085-A              PIC X(1)
                                               VALUE SPACE.
               10  WK01-CLASS-CODE-4180-TA085-V              PIC X(1)
                                               VALUE SPACE.
               10  WK01-CLASS-CODE-4180-TA085-O              PIC X(1)
                                               VALUE SPACE.
               10  WK01-CLASS-CODE-4180-TA085       PIC X(4)
                                               VALUE SPACES.
               10  WK01-CODE-4000-TA085-Z              PIC X(1)
                                               VALUE SPACE.
               10  WK01-CODE-4000-TA085-F              PIC X(1)
                                               VALUE SPACE.
               10  WK01-CODE-4000-TA085-A              PIC X(1)
                                               VALUE SPACE.
               10  WK01-CODE-4000-TA085-V              PIC X(1)
                                               VALUE SPACE.
               10  WK01-CODE-4000-TA085-O              PIC X(1)
                                               VALUE SPACE.
               10  WK01-CODE-4000-TA085       PIC X(1)
                                               VALUE SPACES.
               10  WK01-INDX-CODE-4411-TA085-Z              PIC X(1)
                                               VALUE SPACE.
               10  WK01-INDX-CODE-4411-TA085-F              PIC X(1)
                                               VALUE SPACE.
               10  WK01-INDX-CODE-4411-TA085-A              PIC X(1)
                                               VALUE SPACE.
               10  WK01-INDX-CODE-4411-TA085-V              PIC X(1)
                                               VALUE SPACE.
               10  WK01-INDX-CODE-4411-TA085-O              PIC X(1)
                                               VALUE SPACE.
               10  WK01-INDX-CODE-4411-TA085       PIC X(10)
                                               VALUE SPACES.
               10  WK01-CODE-4411-TA085-Z              PIC X(1)
                                               VALUE SPACE.
               10  WK01-CODE-4411-TA085-F              PIC X(1)
                                               VALUE SPACE.
               10  WK01-CODE-4411-TA085-A              PIC X(1)
                                               VALUE SPACE.
               10  WK01-CODE-4411-TA085-V              PIC X(1)
                                               VALUE SPACE.
               10  WK01-CODE-4411-TA085-O              PIC X(1)
                                               VALUE SPACE.
               10  WK01-CODE-4411-TA085       PIC X(6)
                                               VALUE SPACES.
               10  WK01-CODE-4411-TA0A5-Z              PIC X(1)
                                               VALUE SPACE.
               10  WK01-CODE-4411-TA0A5-F              PIC X(1)
                                               VALUE SPACE.
               10  WK01-CODE-4411-TA0A5-A              PIC X(1)
                                               VALUE SPACE.
               10  WK01-CODE-4411-TA0A5-V              PIC X(1)
                                               VALUE SPACE.
               10  WK01-CODE-4411-TA0A5-O              PIC X(1)
                                               VALUE SPACE.
               10  WK01-CODE-4411-TA0A5       PIC X(6)
                                               VALUE SPACES.
               10  WK01-CODE-4411-TA0B5-Z              PIC X(1)
                                               VALUE SPACE.
               10  WK01-CODE-4411-TA0B5-F              PIC X(1)
                                               VALUE SPACE.
               10  WK01-CODE-4411-TA0B5-A              PIC X(1)
                                               VALUE SPACE.
               10  WK01-CODE-4411-TA0B5-V              PIC X(1)
                                               VALUE SPACE.
               10  WK01-CODE-4411-TA0B5-O              PIC X(1)
                                               VALUE SPACE.
               10  WK01-CODE-4411-TA0B5       PIC X(6)
                                               VALUE SPACES.
               10  WK01-CODE-4411-TA0C5-Z              PIC X(1)
                                               VALUE SPACE.
               10  WK01-CODE-4411-TA0C5-F              PIC X(1)
                                               VALUE SPACE.
               10  WK01-CODE-4411-TA0C5-A              PIC X(1)
                                               VALUE SPACE.
               10  WK01-CODE-4411-TA0C5-V              PIC X(1)
                                               VALUE SPACE.
               10  WK01-CODE-4411-TA0C5-O              PIC X(1)
                                               VALUE SPACE.
               10  WK01-CODE-4411-TA0C5       PIC X(6)
                                               VALUE SPACES.
               10  WK01-CODE-4411-TA0D5-Z              PIC X(1)
                                               VALUE SPACE.
               10  WK01-CODE-4411-TA0D5-F              PIC X(1)
                                               VALUE SPACE.
               10  WK01-CODE-4411-TA0D5-A              PIC X(1)
                                               VALUE SPACE.
               10  WK01-CODE-4411-TA0D5-V              PIC X(1)
                                               VALUE SPACE.
               10  WK01-CODE-4411-TA0D5-O              PIC X(1)
                                               VALUE SPACE.
               10  WK01-CODE-4411-TA0D5       PIC X(6)
                                               VALUE SPACES.
               10  WK01-CODE-4411-TA0E5-Z              PIC X(1)
                                               VALUE SPACE.
               10  WK01-CODE-4411-TA0E5-F              PIC X(1)
                                               VALUE SPACE.
               10  WK01-CODE-4411-TA0E5-A              PIC X(1)
                                               VALUE SPACE.
               10  WK01-CODE-4411-TA0E5-V              PIC X(1)
                                               VALUE SPACE.
               10  WK01-CODE-4411-TA0E5-O              PIC X(1)
                                               VALUE SPACE.
               10  WK01-CODE-4411-TA0E5       PIC X(6)
                                               VALUE SPACES.
               10  WK01-ERROR-IND-TA085-Z              PIC X(1)
                                               VALUE SPACE.
               10  WK01-ERROR-IND-TA085-F              PIC X(1)
                                               VALUE SPACE.
               10  WK01-ERROR-IND-TA085-A              PIC X(1)
                                               VALUE SPACE.
               10  WK01-ERROR-IND-TA085-V              PIC X(1)
                                               VALUE SPACE.
               10  WK01-ERROR-IND-TA085-O              PIC X(1)
                                               VALUE SPACE.
               10  WK01-ERROR-IND-TA085       PIC X(1)
                                               VALUE SPACES.
               10  WK01-ZZMESSAGE-Z              PIC X(1)
                                               VALUE SPACE.
               10  WK01-ZZMESSAGE-F              PIC X(1)
                                               VALUE SPACE.
               10  WK01-ZZMESSAGE-A              PIC X(1)
                                               VALUE SPACE.
               10  WK01-ZZMESSAGE-V              PIC X(1)
                                               VALUE SPACE.
               10  WK01-ZZMESSAGE-O              PIC X(1)
                                               VALUE SPACE.
               10  WK01-ZZMESSAGE       PIC X(160)
                                               VALUE SPACES.
               10  WK01-PASSED-ONE-Z              PIC X(1)
                                               VALUE SPACE.
               10  WK01-PASSED-ONE-F              PIC X(1)
                                               VALUE SPACE.
               10  WK01-PASSED-ONE-A              PIC X(1)
                                               VALUE SPACE.
               10  WK01-PASSED-ONE-V              PIC X(1)
                                               VALUE SPACE.
               10  WK01-PASSED-ONE-O              PIC X(1)
                                               VALUE SPACE.
               10  WK01-PASSED-ONE       PIC X(32)
                                               VALUE SPACES.
               10  WK01-MAP-RESPONSE-Z              PIC X(1)
                                               VALUE SPACE.
               10  WK01-MAP-RESPONSE-F              PIC X(1)
                                               VALUE SPACE.
               10  WK01-MAP-RESPONSE-A              PIC X(1)
                                               VALUE SPACE.
               10  WK01-MAP-RESPONSE-V              PIC X(1)
                                               VALUE SPACE.
               10  WK01-MAP-RESPONSE-O              PIC X(1)
                                               VALUE SPACE.
               10  WK01-MAP-RESPONSE       PIC X(8)
                                               VALUE SPACES.
               10  WK01-TEXT-SY00-Z              PIC X(1)
                                               VALUE SPACE.
               10  WK01-TEXT-SY00-F              PIC X(1)
                                               VALUE SPACE.
               10  WK01-TEXT-SY00-A              PIC X(1)
                                               VALUE SPACE.
               10  WK01-TEXT-SY00-V              PIC X(1)
                                               VALUE SPACE.
               10  WK01-TEXT-SY00-O              PIC X(1)
                                               VALUE SPACE.
               10  WK01-TEXT-SY00       PIC X(14)
                                               VALUE SPACES.
           04  WK01-SUBSCRIPTED-WORK-AREA.
               05  FILLER                      PIC X(1).
               05  WK01-NMBR-4411-TA08-F             PIC X(1)
                                               OCCURS 5.
               05  WK01-ACCT-LST-NN-4400-T08-F             PIC X(1)
                                               OCCURS 5.
               05  WK01-NMBR-4401-TA08-F             PIC X(1)
                                               OCCURS 5.
               05  WK01-TYPE-IND-4411-TA08-F             PIC X(1)
                                               OCCURS 5.
               05  WK01-TYPE-DESC-TA08-F             PIC X(1)
                                               OCCURS 5.
               05  WK01-INVD-AMT-4411-TA08-F             PIC X(1)
                                               OCCURS 5.
               05  WK01-ACCT-CODE-4033-TA08-F             PIC X(1)
                                               OCCURS 5.
               05  WK01-CLASS-CODE-4180-TA08-F             PIC X(1)
                                               OCCURS 5.
               05  WK01-CODE-4000-TA08-F             PIC X(1)
                                               OCCURS 5.
               05  WK01-INDX-CODE-4411-TA08-F             PIC X(1)
                                               OCCURS 5.
               05  WK01-CODE-4411-TA08-F             PIC X(1)
                                               OCCURS 5.
               05  WK01-CODE-4411-TA0A-F             PIC X(1)
                                               OCCURS 5.
               05  WK01-CODE-4411-TA0B-F             PIC X(1)
                                               OCCURS 5.
               05  WK01-CODE-4411-TA0C-F             PIC X(1)
                                               OCCURS 5.
               05  WK01-CODE-4411-TA0D-F             PIC X(1)
                                               OCCURS 5.
               05  WK01-CODE-4411-TA0E-F             PIC X(1)
                                               OCCURS 5.
               05  WK01-ERROR-IND-TA08-F             PIC X(1)
                                               OCCURS 5.
               05  WK01-CODE-TA08-F             PIC X(1)
                                               OCCURS 5.
