      *---------------------------------------------------------------*
      *                                                               *
      *  RECORD FTAWD26                              04/24/00  13:19  *
      *                                                               *
      *---------------------------------------------------------------*
       01  FTAWD26.
           02  SAVE-DBKEY-ID-4415-TA26        COMP      PIC S9(8).
           02  OPTION-CNT-TA26                COMP      PIC 9(1).
