      *---------------------------------------------------------------*
      *                                                               *
      *  RECORD FTAWK26                              04/24/00  12:47  *
      *                                                               *
      *---------------------------------------------------------------*
       01  FTAWK26.
           02  RCNCLTN-TYPE-4415-TA26                   PIC X(4).
