       01  MAP-CONTROL.

    ***Created by Convert/DC version V8R03 on 11/17/00 at 17:00***

           02  FUTMI21-MAP-CONTROL.
           03  FUTMI21T.
           04  WK01-DCXMAPL-PARMS.
               10  WK01-MAPNAME                  PIC X(8)
                                                 VALUE 'FUTMI21I'.
               10  WK01-IKE-LENGTH               PIC S9(8)  COMP
                                                 VALUE 14179.
               10  WK01-TINA-LENGTH              PIC S9(4)  COMP
                                                 VALUE 1203.
           05  WK01-ATTRIBUTES                   PIC X(60)
                                                 VALUE SPACE.
           05  WK01-ATTRIBUTES-ERROR             PIC X(60) VALUE
               'U  BIF'.
           05  WK01-CURSOR-DFLD                  PIC X(36)
                                                 VALUE SPACES.
           05  WK01-CURSOR-DFLD-QUAL             PIC X(30)
                                                 VALUE SPACES.
           05  WK01-ROW                          PIC S9(4) COMP
                                                 VALUE ZERO.
           05  WK01-COLUMN                       PIC S9(4) COMP
                                                 VALUE ZERO.
           05  WK01-ERROR-MSG                    PIC X(80)
                                                 VALUE SPACES.
           05  WK01-MAP-DATA-LEN                 PIC S9(6)
                                                 VALUE ZERO.
           05  WK01-1ST-FLAG                     PIC X(1)
                                                 VALUE 'Y'.
           05  WK01-FLAG-OUTPUT-DATA             PIC X(1)
                                                 VALUE 'Y'.
      *    05  WK01-STATUS-RETURN-FLAG           PIC X(1)
      *                                          VALUE SPACES.
           05  WK01-ALL-BUT-FLAG                 PIC X(1)
                                                 VALUE SPACES.
           05  WK01-FLAG-ALL-FIELDS-CHANGED      PIC X(1)  VALUE 'Y'.
           05  WK01-FLAG-ANY-FIELDS-CHANGED      PIC X(1)  VALUE 'N'.
           05  WK01-FLAG-ALL-FIELDS-ERROR        PIC X(1)  VALUE 'Y'.
           05  WK01-FLAG-ANY-FIELDS-ERROR        PIC X(1)  VALUE 'N'.
           05  WK01-FLAG-ALL-FIELDS-ERASE        PIC X(1)  VALUE 'Y'.
           05  WK01-FLAG-ANY-FIELDS-ERASE        PIC X(1)  VALUE 'Y'.

           05  WK01-VARDATA                      PIC X(11880)
                                                 VALUE SPACES.
           05  FILLER                            PIC X(100)
                                                 VALUE SPACES.
           04  WK01-ELEMENT-AREA.

               10  WK01-ID-SY00-Z              PIC X(1)
                                               VALUE SPACE.
               10  WK01-ID-SY00-F              PIC X(1)
                                               VALUE SPACE.
               10  WK01-ID-SY00-A              PIC X(1)
                                               VALUE SPACE.
               10  WK01-ID-SY00-V              PIC X(1)
                                               VALUE SPACE.
               10  WK01-ID-SY00-O              PIC X(1)
                                               VALUE SPACE.
               10  WK01-ID-SY00       PIC X(8)
                                               VALUE SPACES.
               10  WK01-NAME-6001-SY00-Z              PIC X(1)
                                               VALUE SPACE.
               10  WK01-NAME-6001-SY00-F              PIC X(1)
                                               VALUE SPACE.
               10  WK01-NAME-6001-SY00-A              PIC X(1)
                                               VALUE SPACE.
               10  WK01-NAME-6001-SY00-V              PIC X(1)
                                               VALUE SPACE.
               10  WK01-NAME-6001-SY00-O              PIC X(1)
                                               VALUE SPACE.
               10  WK01-NAME-6001-SY00       PIC X(35)
                                               VALUE SPACES.
               10  WK01-DATE-Z              PIC X(1)
                                               VALUE SPACE.
               10  WK01-DATE-F              PIC X(1)
                                               VALUE SPACE.
               10  WK01-DATE-A              PIC X(1)
                                               VALUE SPACE.
               10  WK01-DATE-V              PIC X(1)
                                               VALUE SPACE.
               10  WK01-DATE-O              PIC X(1)
                                               VALUE SPACE.
               10  WK01-DATE       PIC X(8)
                                               VALUE SPACES.
               10  WK01-HH-MM-TIME-SY00-Z              PIC X(1)
                                               VALUE SPACE.
               10  WK01-HH-MM-TIME-SY00-F              PIC X(1)
                                               VALUE SPACE.
               10  WK01-HH-MM-TIME-SY00-A              PIC X(1)
                                               VALUE SPACE.
               10  WK01-HH-MM-TIME-SY00-V              PIC X(1)
                                               VALUE SPACE.
               10  WK01-HH-MM-TIME-SY00-O              PIC X(1)
                                               VALUE SPACE.
               10  WK01-HH-MM-TIME-SY00       PIC X(4)
                                               VALUE SPACES.
               10  WK01-PM-FLAG-SY00-Z              PIC X(1)
                                               VALUE SPACE.
               10  WK01-PM-FLAG-SY00-F              PIC X(1)
                                               VALUE SPACE.
               10  WK01-PM-FLAG-SY00-A              PIC X(1)
                                               VALUE SPACE.
               10  WK01-PM-FLAG-SY00-V              PIC X(1)
                                               VALUE SPACE.
               10  WK01-PM-FLAG-SY00-O              PIC X(1)
                                               VALUE SPACE.
               10  WK01-PM-FLAG-SY00       PIC X(1)
                                               VALUE SPACES.
               10  WK01-USER-ID-Z              PIC X(1)
                                               VALUE SPACE.
               10  WK01-USER-ID-F              PIC X(1)
                                               VALUE SPACE.
               10  WK01-USER-ID-A              PIC X(1)
                                               VALUE SPACE.
               10  WK01-USER-ID-V              PIC X(1)
                                               VALUE SPACE.
               10  WK01-USER-ID-O              PIC X(1)
                                               VALUE SPACE.
               10  WK01-USER-ID       PIC X(32)
                                               VALUE SPACES.
               10  WK01-RSPNS-ID-SY00-Z              PIC X(1)
                                               VALUE SPACE.
               10  WK01-RSPNS-ID-SY00-F              PIC X(1)
                                               VALUE SPACE.
               10  WK01-RSPNS-ID-SY00-A              PIC X(1)
                                               VALUE SPACE.
               10  WK01-RSPNS-ID-SY00-V              PIC X(1)
                                               VALUE SPACE.
               10  WK01-RSPNS-ID-SY00-O              PIC X(1)
                                               VALUE SPACE.
               10  WK01-RSPNS-ID-SY00       PIC X(8)
                                               VALUE SPACES.
               10  WK01-FUNC-DESCRIPTION-Z              PIC X(1)
                                               VALUE SPACE.
               10  WK01-FUNC-DESCRIPTION-F              PIC X(1)
                                               VALUE SPACE.
               10  WK01-FUNC-DESCRIPTION-A              PIC X(1)
                                               VALUE SPACE.
               10  WK01-FUNC-DESCRIPTION-V              PIC X(1)
                                               VALUE SPACE.
               10  WK01-FUNC-DESCRIPTION-O              PIC X(1)
                                               VALUE SPACE.
               10  WK01-FUNC-DESCRIPTION       PIC X(28)
                                               VALUE SPACES.
               10  WK01-STATUS-CODE-SY00-Z              PIC X(1)
                                               VALUE SPACE.
               10  WK01-STATUS-CODE-SY00-F              PIC X(1)
                                               VALUE SPACE.
               10  WK01-STATUS-CODE-SY00-A              PIC X(1)
                                               VALUE SPACE.
               10  WK01-STATUS-CODE-SY00-V              PIC X(1)
                                               VALUE SPACE.
               10  WK01-STATUS-CODE-SY00-O              PIC X(1)
                                               VALUE SPACE.
               10  WK01-STATUS-CODE-SY00       PIC X(1)
                                               VALUE SPACES.
               10  WK01-TEXT-SY01-Z              PIC X(1)
                                               VALUE SPACE.
               10  WK01-TEXT-SY01-F              PIC X(1)
                                               VALUE SPACE.
               10  WK01-TEXT-SY01-A              PIC X(1)
                                               VALUE SPACE.
               10  WK01-TEXT-SY01-V              PIC X(1)
                                               VALUE SPACE.
               10  WK01-TEXT-SY01-O              PIC X(1)
                                               VALUE SPACE.
               10  WK01-TEXT-SY01       PIC X(8)
                                               VALUE SPACES.
               10  WK01-TEXT-SY0A-Z              PIC X(1)
                                               VALUE SPACE.
               10  WK01-TEXT-SY0A-F              PIC X(1)
                                               VALUE SPACE.
               10  WK01-TEXT-SY0A-A              PIC X(1)
                                               VALUE SPACE.
               10  WK01-TEXT-SY0A-V              PIC X(1)
                                               VALUE SPACE.
               10  WK01-TEXT-SY0A-O              PIC X(1)
                                               VALUE SPACE.
               10  WK01-TEXT-SY0A       PIC X(11)
                                               VALUE SPACES.
               10  WK01-TEXT-SY0B-Z              PIC X(1)
                                               VALUE SPACE.
               10  WK01-TEXT-SY0B-F              PIC X(1)
                                               VALUE SPACE.
               10  WK01-TEXT-SY0B-A              PIC X(1)
                                               VALUE SPACE.
               10  WK01-TEXT-SY0B-V              PIC X(1)
                                               VALUE SPACE.
               10  WK01-TEXT-SY0B-O              PIC X(1)
                                               VALUE SPACE.
               10  WK01-TEXT-SY0B       PIC X(5)
                                               VALUE SPACES.
               10  WK01-KEY-WK-UT21-Z              PIC X(1)
                                               VALUE SPACE.
               10  WK01-KEY-WK-UT21-F              PIC X(1)
                                               VALUE SPACE.
               10  WK01-KEY-WK-UT21-A              PIC X(1)
                                               VALUE SPACE.
               10  WK01-KEY-WK-UT21-V              PIC X(1)
                                               VALUE SPACE.
               10  WK01-KEY-WK-UT21-O              PIC X(1)
                                               VALUE SPACE.
               10  WK01-KEY-WK-UT21       PIC X(35)
                                               VALUE SPACES.
               10  WK01-CODE-UT211-Z              PIC X(1)
                                               VALUE SPACE.
               10  WK01-CODE-UT211-F              PIC X(1)
                                               VALUE SPACE.
               10  WK01-CODE-UT211-A              PIC X(1)
                                               VALUE SPACE.
               10  WK01-CODE-UT211-V              PIC X(1)
                                               VALUE SPACE.
               10  WK01-CODE-UT211-O              PIC X(1)
                                               VALUE SPACE.
               10  WK01-CODE-UT211       PIC X(1)
                                               VALUE SPACES.
               10  WK01-ID-WM-UT211-Z              PIC X(1)
                                               VALUE SPACE.
               10  WK01-ID-WM-UT211-F              PIC X(1)
                                               VALUE SPACE.
               10  WK01-ID-WM-UT211-A              PIC X(1)
                                               VALUE SPACE.
               10  WK01-ID-WM-UT211-V              PIC X(1)
                                               VALUE SPACE.
               10  WK01-ID-WM-UT211-O              PIC X(1)
                                               VALUE SPACE.
               10  WK01-ID-WM-UT211       PIC X(9)
                                               VALUE SPACES.
               10  WK01-KEY-WM-UT211-Z              PIC X(1)
                                               VALUE SPACE.
               10  WK01-KEY-WM-UT211-F              PIC X(1)
                                               VALUE SPACE.
               10  WK01-KEY-WM-UT211-A              PIC X(1)
                                               VALUE SPACE.
               10  WK01-KEY-WM-UT211-V              PIC X(1)
                                               VALUE SPACE.
               10  WK01-KEY-WM-UT211-O              PIC X(1)
                                               VALUE SPACE.
               10  WK01-KEY-WM-UT211       PIC X(35)
                                               VALUE SPACES.
               10  WK01-CODE-UT212-Z              PIC X(1)
                                               VALUE SPACE.
               10  WK01-CODE-UT212-F              PIC X(1)
                                               VALUE SPACE.
               10  WK01-CODE-UT212-A              PIC X(1)
                                               VALUE SPACE.
               10  WK01-CODE-UT212-V              PIC X(1)
                                               VALUE SPACE.
               10  WK01-CODE-UT212-O              PIC X(1)
                                               VALUE SPACE.
               10  WK01-CODE-UT212       PIC X(1)
                                               VALUE SPACES.
               10  WK01-ID-WM-UT212-Z              PIC X(1)
                                               VALUE SPACE.
               10  WK01-ID-WM-UT212-F              PIC X(1)
                                               VALUE SPACE.
               10  WK01-ID-WM-UT212-A              PIC X(1)
                                               VALUE SPACE.
               10  WK01-ID-WM-UT212-V              PIC X(1)
                                               VALUE SPACE.
               10  WK01-ID-WM-UT212-O              PIC X(1)
                                               VALUE SPACE.
               10  WK01-ID-WM-UT212       PIC X(9)
                                               VALUE SPACES.
               10  WK01-KEY-WM-UT212-Z              PIC X(1)
                                               VALUE SPACE.
               10  WK01-KEY-WM-UT212-F              PIC X(1)
                                               VALUE SPACE.
               10  WK01-KEY-WM-UT212-A              PIC X(1)
                                               VALUE SPACE.
               10  WK01-KEY-WM-UT212-V              PIC X(1)
                                               VALUE SPACE.
               10  WK01-KEY-WM-UT212-O              PIC X(1)
                                               VALUE SPACE.
               10  WK01-KEY-WM-UT212       PIC X(35)
                                               VALUE SPACES.
               10  WK01-CODE-UT213-Z              PIC X(1)
                                               VALUE SPACE.
               10  WK01-CODE-UT213-F              PIC X(1)
                                               VALUE SPACE.
               10  WK01-CODE-UT213-A              PIC X(1)
                                               VALUE SPACE.
               10  WK01-CODE-UT213-V              PIC X(1)
                                               VALUE SPACE.
               10  WK01-CODE-UT213-O              PIC X(1)
                                               VALUE SPACE.
               10  WK01-CODE-UT213       PIC X(1)
                                               VALUE SPACES.
               10  WK01-ID-WM-UT213-Z              PIC X(1)
                                               VALUE SPACE.
               10  WK01-ID-WM-UT213-F              PIC X(1)
                                               VALUE SPACE.
               10  WK01-ID-WM-UT213-A              PIC X(1)
                                               VALUE SPACE.
               10  WK01-ID-WM-UT213-V              PIC X(1)
                                               VALUE SPACE.
               10  WK01-ID-WM-UT213-O              PIC X(1)
                                               VALUE SPACE.
               10  WK01-ID-WM-UT213       PIC X(9)
                                               VALUE SPACES.
               10  WK01-KEY-WM-UT213-Z              PIC X(1)
                                               VALUE SPACE.
               10  WK01-KEY-WM-UT213-F              PIC X(1)
                                               VALUE SPACE.
               10  WK01-KEY-WM-UT213-A              PIC X(1)
                                               VALUE SPACE.
               10  WK01-KEY-WM-UT213-V              PIC X(1)
                                               VALUE SPACE.
               10  WK01-KEY-WM-UT213-O              PIC X(1)
                                               VALUE SPACE.
               10  WK01-KEY-WM-UT213       PIC X(35)
                                               VALUE SPACES.
               10  WK01-CODE-UT214-Z              PIC X(1)
                                               VALUE SPACE.
               10  WK01-CODE-UT214-F              PIC X(1)
                                               VALUE SPACE.
               10  WK01-CODE-UT214-A              PIC X(1)
                                               VALUE SPACE.
               10  WK01-CODE-UT214-V              PIC X(1)
                                               VALUE SPACE.
               10  WK01-CODE-UT214-O              PIC X(1)
                                               VALUE SPACE.
               10  WK01-CODE-UT214       PIC X(1)
                                               VALUE SPACES.
               10  WK01-ID-WM-UT214-Z              PIC X(1)
                                               VALUE SPACE.
               10  WK01-ID-WM-UT214-F              PIC X(1)
                                               VALUE SPACE.
               10  WK01-ID-WM-UT214-A              PIC X(1)
                                               VALUE SPACE.
               10  WK01-ID-WM-UT214-V              PIC X(1)
                                               VALUE SPACE.
               10  WK01-ID-WM-UT214-O              PIC X(1)
                                               VALUE SPACE.
               10  WK01-ID-WM-UT214       PIC X(9)
                                               VALUE SPACES.
               10  WK01-KEY-WM-UT214-Z              PIC X(1)
                                               VALUE SPACE.
               10  WK01-KEY-WM-UT214-F              PIC X(1)
                                               VALUE SPACE.
               10  WK01-KEY-WM-UT214-A              PIC X(1)
                                               VALUE SPACE.
               10  WK01-KEY-WM-UT214-V              PIC X(1)
                                               VALUE SPACE.
               10  WK01-KEY-WM-UT214-O              PIC X(1)
                                               VALUE SPACE.
               10  WK01-KEY-WM-UT214       PIC X(35)
                                               VALUE SPACES.
               10  WK01-CODE-UT215-Z              PIC X(1)
                                               VALUE SPACE.
               10  WK01-CODE-UT215-F              PIC X(1)
                                               VALUE SPACE.
               10  WK01-CODE-UT215-A              PIC X(1)
                                               VALUE SPACE.
               10  WK01-CODE-UT215-V              PIC X(1)
                                               VALUE SPACE.
               10  WK01-CODE-UT215-O              PIC X(1)
                                               VALUE SPACE.
               10  WK01-CODE-UT215       PIC X(1)
                                               VALUE SPACES.
               10  WK01-ID-WM-UT215-Z              PIC X(1)
                                               VALUE SPACE.
               10  WK01-ID-WM-UT215-F              PIC X(1)
                                               VALUE SPACE.
               10  WK01-ID-WM-UT215-A              PIC X(1)
                                               VALUE SPACE.
               10  WK01-ID-WM-UT215-V              PIC X(1)
                                               VALUE SPACE.
               10  WK01-ID-WM-UT215-O              PIC X(1)
                                               VALUE SPACE.
               10  WK01-ID-WM-UT215       PIC X(9)
                                               VALUE SPACES.
               10  WK01-KEY-WM-UT215-Z              PIC X(1)
                                               VALUE SPACE.
               10  WK01-KEY-WM-UT215-F              PIC X(1)
                                               VALUE SPACE.
               10  WK01-KEY-WM-UT215-A              PIC X(1)
                                               VALUE SPACE.
               10  WK01-KEY-WM-UT215-V              PIC X(1)
                                               VALUE SPACE.
               10  WK01-KEY-WM-UT215-O              PIC X(1)
                                               VALUE SPACE.
               10  WK01-KEY-WM-UT215       PIC X(35)
                                               VALUE SPACES.
               10  WK01-CODE-UT216-Z              PIC X(1)
                                               VALUE SPACE.
               10  WK01-CODE-UT216-F              PIC X(1)
                                               VALUE SPACE.
               10  WK01-CODE-UT216-A              PIC X(1)
                                               VALUE SPACE.
               10  WK01-CODE-UT216-V              PIC X(1)
                                               VALUE SPACE.
               10  WK01-CODE-UT216-O              PIC X(1)
                                               VALUE SPACE.
               10  WK01-CODE-UT216       PIC X(1)
                                               VALUE SPACES.
               10  WK01-ID-WM-UT216-Z              PIC X(1)
                                               VALUE SPACE.
               10  WK01-ID-WM-UT216-F              PIC X(1)
                                               VALUE SPACE.
               10  WK01-ID-WM-UT216-A              PIC X(1)
                                               VALUE SPACE.
               10  WK01-ID-WM-UT216-V              PIC X(1)
                                               VALUE SPACE.
               10  WK01-ID-WM-UT216-O              PIC X(1)
                                               VALUE SPACE.
               10  WK01-ID-WM-UT216       PIC X(9)
                                               VALUE SPACES.
               10  WK01-KEY-WM-UT216-Z              PIC X(1)
                                               VALUE SPACE.
               10  WK01-KEY-WM-UT216-F              PIC X(1)
                                               VALUE SPACE.
               10  WK01-KEY-WM-UT216-A              PIC X(1)
                                               VALUE SPACE.
               10  WK01-KEY-WM-UT216-V              PIC X(1)
                                               VALUE SPACE.
               10  WK01-KEY-WM-UT216-O              PIC X(1)
                                               VALUE SPACE.
               10  WK01-KEY-WM-UT216       PIC X(35)
                                               VALUE SPACES.
               10  WK01-CODE-UT217-Z              PIC X(1)
                                               VALUE SPACE.
               10  WK01-CODE-UT217-F              PIC X(1)
                                               VALUE SPACE.
               10  WK01-CODE-UT217-A              PIC X(1)
                                               VALUE SPACE.
               10  WK01-CODE-UT217-V              PIC X(1)
                                               VALUE SPACE.
               10  WK01-CODE-UT217-O              PIC X(1)
                                               VALUE SPACE.
               10  WK01-CODE-UT217       PIC X(1)
                                               VALUE SPACES.
               10  WK01-ID-WM-UT217-Z              PIC X(1)
                                               VALUE SPACE.
               10  WK01-ID-WM-UT217-F              PIC X(1)
                                               VALUE SPACE.
               10  WK01-ID-WM-UT217-A              PIC X(1)
                                               VALUE SPACE.
               10  WK01-ID-WM-UT217-V              PIC X(1)
                                               VALUE SPACE.
               10  WK01-ID-WM-UT217-O              PIC X(1)
                                               VALUE SPACE.
               10  WK01-ID-WM-UT217       PIC X(9)
                                               VALUE SPACES.
               10  WK01-KEY-WM-UT217-Z              PIC X(1)
                                               VALUE SPACE.
               10  WK01-KEY-WM-UT217-F              PIC X(1)
                                               VALUE SPACE.
               10  WK01-KEY-WM-UT217-A              PIC X(1)
                                               VALUE SPACE.
               10  WK01-KEY-WM-UT217-V              PIC X(1)
                                               VALUE SPACE.
               10  WK01-KEY-WM-UT217-O              PIC X(1)
                                               VALUE SPACE.
               10  WK01-KEY-WM-UT217       PIC X(35)
                                               VALUE SPACES.
               10  WK01-CODE-UT218-Z              PIC X(1)
                                               VALUE SPACE.
               10  WK01-CODE-UT218-F              PIC X(1)
                                               VALUE SPACE.
               10  WK01-CODE-UT218-A              PIC X(1)
                                               VALUE SPACE.
               10  WK01-CODE-UT218-V              PIC X(1)
                                               VALUE SPACE.
               10  WK01-CODE-UT218-O              PIC X(1)
                                               VALUE SPACE.
               10  WK01-CODE-UT218       PIC X(1)
                                               VALUE SPACES.
               10  WK01-ID-WM-UT218-Z              PIC X(1)
                                               VALUE SPACE.
               10  WK01-ID-WM-UT218-F              PIC X(1)
                                               VALUE SPACE.
               10  WK01-ID-WM-UT218-A              PIC X(1)
                                               VALUE SPACE.
               10  WK01-ID-WM-UT218-V              PIC X(1)
                                               VALUE SPACE.
               10  WK01-ID-WM-UT218-O              PIC X(1)
                                               VALUE SPACE.
               10  WK01-ID-WM-UT218       PIC X(9)
                                               VALUE SPACES.
               10  WK01-KEY-WM-UT218-Z              PIC X(1)
                                               VALUE SPACE.
               10  WK01-KEY-WM-UT218-F              PIC X(1)
                                               VALUE SPACE.
               10  WK01-KEY-WM-UT218-A              PIC X(1)
                                               VALUE SPACE.
               10  WK01-KEY-WM-UT218-V              PIC X(1)
                                               VALUE SPACE.
               10  WK01-KEY-WM-UT218-O              PIC X(1)
                                               VALUE SPACE.
               10  WK01-KEY-WM-UT218       PIC X(35)
                                               VALUE SPACES.
               10  WK01-CODE-UT219-Z              PIC X(1)
                                               VALUE SPACE.
               10  WK01-CODE-UT219-F              PIC X(1)
                                               VALUE SPACE.
               10  WK01-CODE-UT219-A              PIC X(1)
                                               VALUE SPACE.
               10  WK01-CODE-UT219-V              PIC X(1)
                                               VALUE SPACE.
               10  WK01-CODE-UT219-O              PIC X(1)
                                               VALUE SPACE.
               10  WK01-CODE-UT219       PIC X(1)
                                               VALUE SPACES.
               10  WK01-ID-WM-UT219-Z              PIC X(1)
                                               VALUE SPACE.
               10  WK01-ID-WM-UT219-F              PIC X(1)
                                               VALUE SPACE.
               10  WK01-ID-WM-UT219-A              PIC X(1)
                                               VALUE SPACE.
               10  WK01-ID-WM-UT219-V              PIC X(1)
                                               VALUE SPACE.
               10  WK01-ID-WM-UT219-O              PIC X(1)
                                               VALUE SPACE.
               10  WK01-ID-WM-UT219       PIC X(9)
                                               VALUE SPACES.
               10  WK01-KEY-WM-UT219-Z              PIC X(1)
                                               VALUE SPACE.
               10  WK01-KEY-WM-UT219-F              PIC X(1)
                                               VALUE SPACE.
               10  WK01-KEY-WM-UT219-A              PIC X(1)
                                               VALUE SPACE.
               10  WK01-KEY-WM-UT219-V              PIC X(1)
                                               VALUE SPACE.
               10  WK01-KEY-WM-UT219-O              PIC X(1)
                                               VALUE SPACE.
               10  WK01-KEY-WM-UT219       PIC X(35)
                                               VALUE SPACES.
               10  WK01-CODE-UT2110-Z              PIC X(1)
                                               VALUE SPACE.
               10  WK01-CODE-UT2110-F              PIC X(1)
                                               VALUE SPACE.
               10  WK01-CODE-UT2110-A              PIC X(1)
                                               VALUE SPACE.
               10  WK01-CODE-UT2110-V              PIC X(1)
                                               VALUE SPACE.
               10  WK01-CODE-UT2110-O              PIC X(1)
                                               VALUE SPACE.
               10  WK01-CODE-UT2110       PIC X(1)
                                               VALUE SPACES.
               10  WK01-ID-WM-UT2110-Z              PIC X(1)
                                               VALUE SPACE.
               10  WK01-ID-WM-UT2110-F              PIC X(1)
                                               VALUE SPACE.
               10  WK01-ID-WM-UT2110-A              PIC X(1)
                                               VALUE SPACE.
               10  WK01-ID-WM-UT2110-V              PIC X(1)
                                               VALUE SPACE.
               10  WK01-ID-WM-UT2110-O              PIC X(1)
                                               VALUE SPACE.
               10  WK01-ID-WM-UT2110       PIC X(9)
                                               VALUE SPACES.
               10  WK01-KEY-WM-UT2110-Z              PIC X(1)
                                               VALUE SPACE.
               10  WK01-KEY-WM-UT2110-F              PIC X(1)
                                               VALUE SPACE.
               10  WK01-KEY-WM-UT2110-A              PIC X(1)
                                               VALUE SPACE.
               10  WK01-KEY-WM-UT2110-V              PIC X(1)
                                               VALUE SPACE.
               10  WK01-KEY-WM-UT2110-O              PIC X(1)
                                               VALUE SPACE.
               10  WK01-KEY-WM-UT2110       PIC X(35)
                                               VALUE SPACES.
               10  WK01-CODE-UT2111-Z              PIC X(1)
                                               VALUE SPACE.
               10  WK01-CODE-UT2111-F              PIC X(1)
                                               VALUE SPACE.
               10  WK01-CODE-UT2111-A              PIC X(1)
                                               VALUE SPACE.
               10  WK01-CODE-UT2111-V              PIC X(1)
                                               VALUE SPACE.
               10  WK01-CODE-UT2111-O              PIC X(1)
                                               VALUE SPACE.
               10  WK01-CODE-UT2111       PIC X(1)
                                               VALUE SPACES.
               10  WK01-ID-WM-UT2111-Z              PIC X(1)
                                               VALUE SPACE.
               10  WK01-ID-WM-UT2111-F              PIC X(1)
                                               VALUE SPACE.
               10  WK01-ID-WM-UT2111-A              PIC X(1)
                                               VALUE SPACE.
               10  WK01-ID-WM-UT2111-V              PIC X(1)
                                               VALUE SPACE.
               10  WK01-ID-WM-UT2111-O              PIC X(1)
                                               VALUE SPACE.
               10  WK01-ID-WM-UT2111       PIC X(9)
                                               VALUE SPACES.
               10  WK01-KEY-WM-UT2111-Z              PIC X(1)
                                               VALUE SPACE.
               10  WK01-KEY-WM-UT2111-F              PIC X(1)
                                               VALUE SPACE.
               10  WK01-KEY-WM-UT2111-A              PIC X(1)
                                               VALUE SPACE.
               10  WK01-KEY-WM-UT2111-V              PIC X(1)
                                               VALUE SPACE.
               10  WK01-KEY-WM-UT2111-O              PIC X(1)
                                               VALUE SPACE.
               10  WK01-KEY-WM-UT2111       PIC X(35)
                                               VALUE SPACES.
               10  WK01-CODE-UT2112-Z              PIC X(1)
                                               VALUE SPACE.
               10  WK01-CODE-UT2112-F              PIC X(1)
                                               VALUE SPACE.
               10  WK01-CODE-UT2112-A              PIC X(1)
                                               VALUE SPACE.
               10  WK01-CODE-UT2112-V              PIC X(1)
                                               VALUE SPACE.
               10  WK01-CODE-UT2112-O              PIC X(1)
                                               VALUE SPACE.
               10  WK01-CODE-UT2112       PIC X(1)
                                               VALUE SPACES.
               10  WK01-ID-WM-UT2112-Z              PIC X(1)
                                               VALUE SPACE.
               10  WK01-ID-WM-UT2112-F              PIC X(1)
                                               VALUE SPACE.
               10  WK01-ID-WM-UT2112-A              PIC X(1)
                                               VALUE SPACE.
               10  WK01-ID-WM-UT2112-V              PIC X(1)
                                               VALUE SPACE.
               10  WK01-ID-WM-UT2112-O              PIC X(1)
                                               VALUE SPACE.
               10  WK01-ID-WM-UT2112       PIC X(9)
                                               VALUE SPACES.
               10  WK01-KEY-WM-UT2112-Z              PIC X(1)
                                               VALUE SPACE.
               10  WK01-KEY-WM-UT2112-F              PIC X(1)
                                               VALUE SPACE.
               10  WK01-KEY-WM-UT2112-A              PIC X(1)
                                               VALUE SPACE.
               10  WK01-KEY-WM-UT2112-V              PIC X(1)
                                               VALUE SPACE.
               10  WK01-KEY-WM-UT2112-O              PIC X(1)
                                               VALUE SPACE.
               10  WK01-KEY-WM-UT2112       PIC X(35)
                                               VALUE SPACES.
               10  WK01-ZZMESSAGE-Z              PIC X(1)
                                               VALUE SPACE.
               10  WK01-ZZMESSAGE-F              PIC X(1)
                                               VALUE SPACE.
               10  WK01-ZZMESSAGE-A              PIC X(1)
                                               VALUE SPACE.
               10  WK01-ZZMESSAGE-V              PIC X(1)
                                               VALUE SPACE.
               10  WK01-ZZMESSAGE-O              PIC X(1)
                                               VALUE SPACE.
               10  WK01-ZZMESSAGE       PIC X(160)
                                               VALUE SPACES.
               10  WK01-PASSED-ONE-Z              PIC X(1)
                                               VALUE SPACE.
               10  WK01-PASSED-ONE-F              PIC X(1)
                                               VALUE SPACE.
               10  WK01-PASSED-ONE-A              PIC X(1)
                                               VALUE SPACE.
               10  WK01-PASSED-ONE-V              PIC X(1)
                                               VALUE SPACE.
               10  WK01-PASSED-ONE-O              PIC X(1)
                                               VALUE SPACE.
               10  WK01-PASSED-ONE       PIC X(32)
                                               VALUE SPACES.
               10  WK01-MAP-RESPONSE-Z              PIC X(1)
                                               VALUE SPACE.
               10  WK01-MAP-RESPONSE-F              PIC X(1)
                                               VALUE SPACE.
               10  WK01-MAP-RESPONSE-A              PIC X(1)
                                               VALUE SPACE.
               10  WK01-MAP-RESPONSE-V              PIC X(1)
                                               VALUE SPACE.
               10  WK01-MAP-RESPONSE-O              PIC X(1)
                                               VALUE SPACE.
               10  WK01-MAP-RESPONSE       PIC X(8)
                                               VALUE SPACES.
               10  WK01-TEXT-SY00-Z              PIC X(1)
                                               VALUE SPACE.
               10  WK01-TEXT-SY00-F              PIC X(1)
                                               VALUE SPACE.
               10  WK01-TEXT-SY00-A              PIC X(1)
                                               VALUE SPACE.
               10  WK01-TEXT-SY00-V              PIC X(1)
                                               VALUE SPACE.
               10  WK01-TEXT-SY00-O              PIC X(1)
                                               VALUE SPACE.
               10  WK01-TEXT-SY00       PIC X(14)
                                               VALUE SPACES.
           04  WK01-SUBSCRIPTED-WORK-AREA.
               05  FILLER                      PIC X(1).
               05  WK01-CODE-UT21-F             PIC X(1)
                                               OCCURS 12.
               05  WK01-KEY-WM-UT21-F             PIC X(1)
                                               OCCURS 12.
               05  WK01-ID-WM-UT21-F             PIC X(1)
                                               OCCURS 12.
