       01  MAP-CONTROL.
           02  FUTMI19-MAP-CONTROL.
           03  FUTMI19T.
           04  WK01-DCXMAPL-PARMS.
               10  WK01-MAPNAME                  PIC X(8)
                                                 VALUE 'FUTMI19I'.
               10  WK01-IKE-LENGTH               PIC S9(8)  COMP
                                                 VALUE 24436.
               10  WK01-TINA-LENGTH              PIC S9(4)  COMP
                                                 VALUE 1363.
           05  WK01-ATTRIBUTES                   PIC X(60)
                                                 VALUE SPACE.
           05  WK01-ATTRIBUTES-ERROR             PIC X(60) VALUE
               'U  BIF'.
           05  WK01-CURSOR-DFLD                  PIC X(36)
                                                 VALUE SPACES.
           05  WK01-CURSOR-DFLD-QUAL             PIC X(30)
                                                 VALUE SPACES.
           05  WK01-ROW                          PIC S9(4) COMP
                                                 VALUE ZERO.
           05  WK01-COLUMN                       PIC S9(4) COMP
                                                 VALUE ZERO.
           05  WK01-ERROR-MSG                    PIC X(80)
                                                 VALUE SPACES.
           05  WK01-MAP-DATA-LEN                 PIC S9(6)
                                                 VALUE ZERO.
           05  WK01-1ST-FLAG                     PIC X(1)
                                                 VALUE 'Y'.
           05  WK01-FLAG-OUTPUT-DATA             PIC X(1)
                                                 VALUE 'Y'.
      *    05  WK01-STATUS-RETURN-FLAG           PIC X(1)
      *                                          VALUE SPACES.
           05  WK01-ALL-BUT-FLAG                 PIC X(1)
                                                 VALUE SPACES.
           05  WK01-FLAG-ALL-FIELDS-CHANGED      PIC X(1)  VALUE 'Y'.
           05  WK01-FLAG-ANY-FIELDS-CHANGED      PIC X(1)  VALUE 'N'.
           05  WK01-FLAG-ALL-FIELDS-ERROR        PIC X(1)  VALUE 'Y'.
           05  WK01-FLAG-ANY-FIELDS-ERROR        PIC X(1)  VALUE 'N'.
           05  WK01-FLAG-ALL-FIELDS-ERASE        PIC X(1)  VALUE 'Y'.
           05  WK01-FLAG-ANY-FIELDS-ERASE        PIC X(1)  VALUE 'Y'.

           05  WK01-VARDATA                      PIC X(11880)
                                                 VALUE SPACES.
           05  FILLER                            PIC X(100)
                                                 VALUE SPACES.
           04  WK01-ELEMENT-AREA.

               10  WK01-ID-SY00-Z              PIC X(1)
                                               VALUE SPACE.
               10  WK01-ID-SY00-F              PIC X(1)
                                               VALUE SPACE.
               10  WK01-ID-SY00-A              PIC X(1)
                                               VALUE SPACE.
               10  WK01-ID-SY00-V              PIC X(1)
                                               VALUE SPACE.
               10  WK01-ID-SY00-O              PIC X(1)
                                               VALUE SPACE.
               10  WK01-ID-SY00       PIC X(8)
                                               VALUE SPACES.
               10  WK01-NAME-6001-SY00-Z              PIC X(1)
                                               VALUE SPACE.
               10  WK01-NAME-6001-SY00-F              PIC X(1)
                                               VALUE SPACE.
               10  WK01-NAME-6001-SY00-A              PIC X(1)
                                               VALUE SPACE.
               10  WK01-NAME-6001-SY00-V              PIC X(1)
                                               VALUE SPACE.
               10  WK01-NAME-6001-SY00-O              PIC X(1)
                                               VALUE SPACE.
               10  WK01-NAME-6001-SY00       PIC X(35)
                                               VALUE SPACES.
               10  WK01-DATE-Z              PIC X(1)
                                               VALUE SPACE.
               10  WK01-DATE-F              PIC X(1)
                                               VALUE SPACE.
               10  WK01-DATE-A              PIC X(1)
                                               VALUE SPACE.
               10  WK01-DATE-V              PIC X(1)
                                               VALUE SPACE.
               10  WK01-DATE-O              PIC X(1)
                                               VALUE SPACE.
               10  WK01-DATE       PIC X(8)
                                               VALUE SPACES.
               10  WK01-HH-MM-TIME-SY00-Z              PIC X(1)
                                               VALUE SPACE.
               10  WK01-HH-MM-TIME-SY00-F              PIC X(1)
                                               VALUE SPACE.
               10  WK01-HH-MM-TIME-SY00-A              PIC X(1)
                                               VALUE SPACE.
               10  WK01-HH-MM-TIME-SY00-V              PIC X(1)
                                               VALUE SPACE.
               10  WK01-HH-MM-TIME-SY00-O              PIC X(1)
                                               VALUE SPACE.
               10  WK01-HH-MM-TIME-SY00       PIC X(4)
                                               VALUE SPACES.
               10  WK01-PM-FLAG-SY00-Z              PIC X(1)
                                               VALUE SPACE.
               10  WK01-PM-FLAG-SY00-F              PIC X(1)
                                               VALUE SPACE.
               10  WK01-PM-FLAG-SY00-A              PIC X(1)
                                               VALUE SPACE.
               10  WK01-PM-FLAG-SY00-V              PIC X(1)
                                               VALUE SPACE.
               10  WK01-PM-FLAG-SY00-O              PIC X(1)
                                               VALUE SPACE.
               10  WK01-PM-FLAG-SY00       PIC X(1)
                                               VALUE SPACES.
               10  WK01-USER-ID-Z              PIC X(1)
                                               VALUE SPACE.
               10  WK01-USER-ID-F              PIC X(1)
                                               VALUE SPACE.
               10  WK01-USER-ID-A              PIC X(1)
                                               VALUE SPACE.
               10  WK01-USER-ID-V              PIC X(1)
                                               VALUE SPACE.
               10  WK01-USER-ID-O              PIC X(1)
                                               VALUE SPACE.
               10  WK01-USER-ID       PIC X(32)
                                               VALUE SPACES.
               10  WK01-RSPNS-ID-SY00-Z              PIC X(1)
                                               VALUE SPACE.
               10  WK01-RSPNS-ID-SY00-F              PIC X(1)
                                               VALUE SPACE.
               10  WK01-RSPNS-ID-SY00-A              PIC X(1)
                                               VALUE SPACE.
               10  WK01-RSPNS-ID-SY00-V              PIC X(1)
                                               VALUE SPACE.
               10  WK01-RSPNS-ID-SY00-O              PIC X(1)
                                               VALUE SPACE.
               10  WK01-RSPNS-ID-SY00       PIC X(8)
                                               VALUE SPACES.
               10  WK01-FUNC-DESCRIPTION-Z              PIC X(1)
                                               VALUE SPACE.
               10  WK01-FUNC-DESCRIPTION-F              PIC X(1)
                                               VALUE SPACE.
               10  WK01-FUNC-DESCRIPTION-A              PIC X(1)
                                               VALUE SPACE.
               10  WK01-FUNC-DESCRIPTION-V              PIC X(1)
                                               VALUE SPACE.
               10  WK01-FUNC-DESCRIPTION-O              PIC X(1)
                                               VALUE SPACE.
               10  WK01-FUNC-DESCRIPTION       PIC X(28)
                                               VALUE SPACES.
               10  WK01-STATUS-CODE-SY00-Z              PIC X(1)
                                               VALUE SPACE.
               10  WK01-STATUS-CODE-SY00-F              PIC X(1)
                                               VALUE SPACE.
               10  WK01-STATUS-CODE-SY00-A              PIC X(1)
                                               VALUE SPACE.
               10  WK01-STATUS-CODE-SY00-V              PIC X(1)
                                               VALUE SPACE.
               10  WK01-STATUS-CODE-SY00-O              PIC X(1)
                                               VALUE SPACE.
               10  WK01-STATUS-CODE-SY00       PIC X(1)
                                               VALUE SPACES.
               10  WK01-CODE-UT191-Z              PIC X(1)
                                               VALUE SPACE.
               10  WK01-CODE-UT191-F              PIC X(1)
                                               VALUE SPACE.
               10  WK01-CODE-UT191-A              PIC X(1)
                                               VALUE SPACE.
               10  WK01-CODE-UT191-V              PIC X(1)
                                               VALUE SPACE.
               10  WK01-CODE-UT191-O              PIC X(1)
                                               VALUE SPACE.
               10  WK01-CODE-UT191       PIC X(1)
                                               VALUE SPACES.
               10  WK01-EMPID-6117-UT191-Z             PIC X(1)
                                               VALUE SPACE.
               10  WK01-EMPID-6117-UT191-F             PIC X(1)
                                               VALUE SPACE.
               10  WK01-EMPID-6117-UT191-A             PIC X(1)
                                               VALUE SPACE.
               10  WK01-EMPID-6117-UT191-V             PIC X(1)
                                               VALUE SPACE.
               10  WK01-EMPID-6117-UT191-O             PIC X(1)
                                               VALUE SPACE.
               10  WK01-EMPID-6117-UT191      PIC X(9)
                                               VALUE SPACES.
               10  WK01-EMP-NAME-6117-UT191-Z                PIC X(1)
                                               VALUE SPACE.
               10  WK01-EMP-NAME-6117-UT191-F                PIC X(1)
                                               VALUE SPACE.
               10  WK01-EMP-NAME-6117-UT191-A                PIC X(1)
                                               VALUE SPACE.
               10  WK01-EMP-NAME-6117-UT191-V                PIC X(1)
                                               VALUE SPACE.
               10  WK01-EMP-NAME-6117-UT191-O                PIC X(1)
                                               VALUE SPACE.
               10  WK01-EMP-NAME-6117-UT191         PIC X(35)
                                               VALUE SPACES.
               10  WK01-EMP-STAT-6117-UT191-Z         PIC X(1)
                                               VALUE SPACE.
               10  WK01-EMP-STAT-6117-UT191-F         PIC X(1)
                                               VALUE SPACE.
               10  WK01-EMP-STAT-6117-UT191-A         PIC X(1)
                                               VALUE SPACE.
               10  WK01-EMP-STAT-6117-UT191-V         PIC X(1)
                                               VALUE SPACE.
               10  WK01-EMP-STAT-6117-UT191-O         PIC X(1)
                                               VALUE SPACE.
               10  WK01-EMP-STAT-6117-UT191  PIC X(1)
                                               VALUE SPACES.
               10  WK01-VNDR-FLAG-UT191-Z         PIC X(1)
                                               VALUE SPACE.
               10  WK01-VNDR-FLAG-UT191-F         PIC X(1)
                                               VALUE SPACE.
               10  WK01-VNDR-FLAG-UT191-A         PIC X(1)
                                               VALUE SPACE.
               10  WK01-VNDR-FLAG-UT191-V         PIC X(1)
                                               VALUE SPACE.
               10  WK01-VNDR-FLAG-UT191-O         PIC X(1)
                                               VALUE SPACE.
               10  WK01-VNDR-FLAG-UT191  PIC X(1)
                                               VALUE SPACES.
               10  WK01-TRVL-FLAG-UT191-Z         PIC X(1)
                                               VALUE SPACE.
               10  WK01-TRVL-FLAG-UT191-F         PIC X(1)
                                               VALUE SPACE.
               10  WK01-TRVL-FLAG-UT191-A         PIC X(1)
                                               VALUE SPACE.
               10  WK01-TRVL-FLAG-UT191-V         PIC X(1)
                                               VALUE SPACE.
               10  WK01-TRVL-FLAG-UT191-O         PIC X(1)
                                               VALUE SPACE.
               10  WK01-TRVL-FLAG-UT191  PIC X(1)
                                               VALUE SPACES.
               10  WK01-CODE-UT192-Z              PIC X(1)
                                               VALUE SPACE.
               10  WK01-CODE-UT192-F              PIC X(1)
                                               VALUE SPACE.
               10  WK01-CODE-UT192-A              PIC X(1)
                                               VALUE SPACE.
               10  WK01-CODE-UT192-V              PIC X(1)
                                               VALUE SPACE.
               10  WK01-CODE-UT192-O              PIC X(1)
                                               VALUE SPACE.
               10  WK01-CODE-UT192       PIC X(1)
                                               VALUE SPACES.
               10  WK01-EMPID-6117-UT192-Z             PIC X(1)
                                               VALUE SPACE.
               10  WK01-EMPID-6117-UT192-F             PIC X(1)
                                               VALUE SPACE.
               10  WK01-EMPID-6117-UT192-A             PIC X(1)
                                               VALUE SPACE.
               10  WK01-EMPID-6117-UT192-V             PIC X(1)
                                               VALUE SPACE.
               10  WK01-EMPID-6117-UT192-O             PIC X(1)
                                               VALUE SPACE.
               10  WK01-EMPID-6117-UT192      PIC X(9)
                                               VALUE SPACES.
               10  WK01-EMP-NAME-6117-UT192-Z                PIC X(1)
                                               VALUE SPACE.
               10  WK01-EMP-NAME-6117-UT192-F                PIC X(1)
                                               VALUE SPACE.
               10  WK01-EMP-NAME-6117-UT192-A                PIC X(1)
                                               VALUE SPACE.
               10  WK01-EMP-NAME-6117-UT192-V                PIC X(1)
                                               VALUE SPACE.
               10  WK01-EMP-NAME-6117-UT192-O                PIC X(1)
                                               VALUE SPACE.
               10  WK01-EMP-NAME-6117-UT192         PIC X(35)
                                               VALUE SPACES.
               10  WK01-EMP-STAT-6117-UT192-Z         PIC X(1)
                                               VALUE SPACE.
               10  WK01-EMP-STAT-6117-UT192-F         PIC X(1)
                                               VALUE SPACE.
               10  WK01-EMP-STAT-6117-UT192-A         PIC X(1)
                                               VALUE SPACE.
               10  WK01-EMP-STAT-6117-UT192-V         PIC X(1)
                                               VALUE SPACE.
               10  WK01-EMP-STAT-6117-UT192-O         PIC X(1)
                                               VALUE SPACE.
               10  WK01-EMP-STAT-6117-UT192  PIC X(1)
                                               VALUE SPACES.
               10  WK01-VNDR-FLAG-UT192-Z         PIC X(1)
                                               VALUE SPACE.
               10  WK01-VNDR-FLAG-UT192-F         PIC X(1)
                                               VALUE SPACE.
               10  WK01-VNDR-FLAG-UT192-A         PIC X(1)
                                               VALUE SPACE.
               10  WK01-VNDR-FLAG-UT192-V         PIC X(1)
                                               VALUE SPACE.
               10  WK01-VNDR-FLAG-UT192-O         PIC X(1)
                                               VALUE SPACE.
               10  WK01-VNDR-FLAG-UT192  PIC X(1)
                                               VALUE SPACES.
               10  WK01-TRVL-FLAG-UT192-Z         PIC X(1)
                                               VALUE SPACE.
               10  WK01-TRVL-FLAG-UT192-F         PIC X(1)
                                               VALUE SPACE.
               10  WK01-TRVL-FLAG-UT192-A         PIC X(1)
                                               VALUE SPACE.
               10  WK01-TRVL-FLAG-UT192-V         PIC X(1)
                                               VALUE SPACE.
               10  WK01-TRVL-FLAG-UT192-O         PIC X(1)
                                               VALUE SPACE.
               10  WK01-TRVL-FLAG-UT192  PIC X(1)
                                               VALUE SPACES.
               10  WK01-CODE-UT193-Z              PIC X(1)
                                               VALUE SPACE.
               10  WK01-CODE-UT193-F              PIC X(1)
                                               VALUE SPACE.
               10  WK01-CODE-UT193-A              PIC X(1)
                                               VALUE SPACE.
               10  WK01-CODE-UT193-V              PIC X(1)
                                               VALUE SPACE.
               10  WK01-CODE-UT193-O              PIC X(1)
                                               VALUE SPACE.
               10  WK01-CODE-UT193       PIC X(1)
                                               VALUE SPACES.
               10  WK01-EMPID-6117-UT193-Z             PIC X(1)
                                               VALUE SPACE.
               10  WK01-EMPID-6117-UT193-F             PIC X(1)
                                               VALUE SPACE.
               10  WK01-EMPID-6117-UT193-A             PIC X(1)
                                               VALUE SPACE.
               10  WK01-EMPID-6117-UT193-V             PIC X(1)
                                               VALUE SPACE.
               10  WK01-EMPID-6117-UT193-O             PIC X(1)
                                               VALUE SPACE.
               10  WK01-EMPID-6117-UT193      PIC X(9)
                                               VALUE SPACES.
               10  WK01-EMP-NAME-6117-UT193-Z                PIC X(1)
                                               VALUE SPACE.
               10  WK01-EMP-NAME-6117-UT193-F                PIC X(1)
                                               VALUE SPACE.
               10  WK01-EMP-NAME-6117-UT193-A                PIC X(1)
                                               VALUE SPACE.
               10  WK01-EMP-NAME-6117-UT193-V                PIC X(1)
                                               VALUE SPACE.
               10  WK01-EMP-NAME-6117-UT193-O                PIC X(1)
                                               VALUE SPACE.
               10  WK01-EMP-NAME-6117-UT193         PIC X(35)
                                               VALUE SPACES.
               10  WK01-EMP-STAT-6117-UT193-Z         PIC X(1)
                                               VALUE SPACE.
               10  WK01-EMP-STAT-6117-UT193-F         PIC X(1)
                                               VALUE SPACE.
               10  WK01-EMP-STAT-6117-UT193-A         PIC X(1)
                                               VALUE SPACE.
               10  WK01-EMP-STAT-6117-UT193-V         PIC X(1)
                                               VALUE SPACE.
               10  WK01-EMP-STAT-6117-UT193-O         PIC X(1)
                                               VALUE SPACE.
               10  WK01-EMP-STAT-6117-UT193  PIC X(1)
                                               VALUE SPACES.
               10  WK01-VNDR-FLAG-UT193-Z         PIC X(1)
                                               VALUE SPACE.
               10  WK01-VNDR-FLAG-UT193-F         PIC X(1)
                                               VALUE SPACE.
               10  WK01-VNDR-FLAG-UT193-A         PIC X(1)
                                               VALUE SPACE.
               10  WK01-VNDR-FLAG-UT193-V         PIC X(1)
                                               VALUE SPACE.
               10  WK01-VNDR-FLAG-UT193-O         PIC X(1)
                                               VALUE SPACE.
               10  WK01-VNDR-FLAG-UT193  PIC X(1)
                                               VALUE SPACES.
               10  WK01-TRVL-FLAG-UT193-Z         PIC X(1)
                                               VALUE SPACE.
               10  WK01-TRVL-FLAG-UT193-F         PIC X(1)
                                               VALUE SPACE.
               10  WK01-TRVL-FLAG-UT193-A         PIC X(1)
                                               VALUE SPACE.
               10  WK01-TRVL-FLAG-UT193-V         PIC X(1)
                                               VALUE SPACE.
               10  WK01-TRVL-FLAG-UT193-O         PIC X(1)
                                               VALUE SPACE.
               10  WK01-TRVL-FLAG-UT193  PIC X(1)
                                               VALUE SPACES.
               10  WK01-CODE-UT194-Z              PIC X(1)
                                               VALUE SPACE.
               10  WK01-CODE-UT194-F              PIC X(1)
                                               VALUE SPACE.
               10  WK01-CODE-UT194-A              PIC X(1)
                                               VALUE SPACE.
               10  WK01-CODE-UT194-V              PIC X(1)
                                               VALUE SPACE.
               10  WK01-CODE-UT194-O              PIC X(1)
                                               VALUE SPACE.
               10  WK01-CODE-UT194       PIC X(1)
                                               VALUE SPACES.
               10  WK01-EMPID-6117-UT194-Z             PIC X(1)
                                               VALUE SPACE.
               10  WK01-EMPID-6117-UT194-F             PIC X(1)
                                               VALUE SPACE.
               10  WK01-EMPID-6117-UT194-A             PIC X(1)
                                               VALUE SPACE.
               10  WK01-EMPID-6117-UT194-V             PIC X(1)
                                               VALUE SPACE.
               10  WK01-EMPID-6117-UT194-O             PIC X(1)
                                               VALUE SPACE.
               10  WK01-EMPID-6117-UT194      PIC X(9)
                                               VALUE SPACES.
               10  WK01-EMP-NAME-6117-UT194-Z                PIC X(1)
                                               VALUE SPACE.
               10  WK01-EMP-NAME-6117-UT194-F                PIC X(1)
                                               VALUE SPACE.
               10  WK01-EMP-NAME-6117-UT194-A                PIC X(1)
                                               VALUE SPACE.
               10  WK01-EMP-NAME-6117-UT194-V                PIC X(1)
                                               VALUE SPACE.
               10  WK01-EMP-NAME-6117-UT194-O                PIC X(1)
                                               VALUE SPACE.
               10  WK01-EMP-NAME-6117-UT194         PIC X(35)
                                               VALUE SPACES.
               10  WK01-EMP-STAT-6117-UT194-Z         PIC X(1)
                                               VALUE SPACE.
               10  WK01-EMP-STAT-6117-UT194-F         PIC X(1)
                                               VALUE SPACE.
               10  WK01-EMP-STAT-6117-UT194-A         PIC X(1)
                                               VALUE SPACE.
               10  WK01-EMP-STAT-6117-UT194-V         PIC X(1)
                                               VALUE SPACE.
               10  WK01-EMP-STAT-6117-UT194-O         PIC X(1)
                                               VALUE SPACE.
               10  WK01-EMP-STAT-6117-UT194  PIC X(1)
                                               VALUE SPACES.
               10  WK01-VNDR-FLAG-UT194-Z         PIC X(1)
                                               VALUE SPACE.
               10  WK01-VNDR-FLAG-UT194-F         PIC X(1)
                                               VALUE SPACE.
               10  WK01-VNDR-FLAG-UT194-A         PIC X(1)
                                               VALUE SPACE.
               10  WK01-VNDR-FLAG-UT194-V         PIC X(1)
                                               VALUE SPACE.
               10  WK01-VNDR-FLAG-UT194-O         PIC X(1)
                                               VALUE SPACE.
               10  WK01-VNDR-FLAG-UT194  PIC X(1)
                                               VALUE SPACES.
               10  WK01-TRVL-FLAG-UT194-Z         PIC X(1)
                                               VALUE SPACE.
               10  WK01-TRVL-FLAG-UT194-F         PIC X(1)
                                               VALUE SPACE.
               10  WK01-TRVL-FLAG-UT194-A         PIC X(1)
                                               VALUE SPACE.
               10  WK01-TRVL-FLAG-UT194-V         PIC X(1)
                                               VALUE SPACE.
               10  WK01-TRVL-FLAG-UT194-O         PIC X(1)
                                               VALUE SPACE.
               10  WK01-TRVL-FLAG-UT194  PIC X(1)
                                               VALUE SPACES.
               10  WK01-CODE-UT195-Z              PIC X(1)
                                               VALUE SPACE.
               10  WK01-CODE-UT195-F              PIC X(1)
                                               VALUE SPACE.
               10  WK01-CODE-UT195-A              PIC X(1)
                                               VALUE SPACE.
               10  WK01-CODE-UT195-V              PIC X(1)
                                               VALUE SPACE.
               10  WK01-CODE-UT195-O              PIC X(1)
                                               VALUE SPACE.
               10  WK01-CODE-UT195       PIC X(1)
                                               VALUE SPACES.
               10  WK01-EMPID-6117-UT195-Z             PIC X(1)
                                               VALUE SPACE.
               10  WK01-EMPID-6117-UT195-F             PIC X(1)
                                               VALUE SPACE.
               10  WK01-EMPID-6117-UT195-A             PIC X(1)
                                               VALUE SPACE.
               10  WK01-EMPID-6117-UT195-V             PIC X(1)
                                               VALUE SPACE.
               10  WK01-EMPID-6117-UT195-O             PIC X(1)
                                               VALUE SPACE.
               10  WK01-EMPID-6117-UT195      PIC X(9)
                                               VALUE SPACES.
               10  WK01-EMP-NAME-6117-UT195-Z                PIC X(1)
                                               VALUE SPACE.
               10  WK01-EMP-NAME-6117-UT195-F                PIC X(1)
                                               VALUE SPACE.
               10  WK01-EMP-NAME-6117-UT195-A                PIC X(1)
                                               VALUE SPACE.
               10  WK01-EMP-NAME-6117-UT195-V                PIC X(1)
                                               VALUE SPACE.
               10  WK01-EMP-NAME-6117-UT195-O                PIC X(1)
                                               VALUE SPACE.
               10  WK01-EMP-NAME-6117-UT195         PIC X(35)
                                               VALUE SPACES.
               10  WK01-EMP-STAT-6117-UT195-Z         PIC X(1)
                                               VALUE SPACE.
               10  WK01-EMP-STAT-6117-UT195-F         PIC X(1)
                                               VALUE SPACE.
               10  WK01-EMP-STAT-6117-UT195-A         PIC X(1)
                                               VALUE SPACE.
               10  WK01-EMP-STAT-6117-UT195-V         PIC X(1)
                                               VALUE SPACE.
               10  WK01-EMP-STAT-6117-UT195-O         PIC X(1)
                                               VALUE SPACE.
               10  WK01-EMP-STAT-6117-UT195  PIC X(1)
                                               VALUE SPACES.
               10  WK01-VNDR-FLAG-UT195-Z         PIC X(1)
                                               VALUE SPACE.
               10  WK01-VNDR-FLAG-UT195-F         PIC X(1)
                                               VALUE SPACE.
               10  WK01-VNDR-FLAG-UT195-A         PIC X(1)
                                               VALUE SPACE.
               10  WK01-VNDR-FLAG-UT195-V         PIC X(1)
                                               VALUE SPACE.
               10  WK01-VNDR-FLAG-UT195-O         PIC X(1)
                                               VALUE SPACE.
               10  WK01-VNDR-FLAG-UT195  PIC X(1)
                                               VALUE SPACES.
               10  WK01-TRVL-FLAG-UT195-Z         PIC X(1)
                                               VALUE SPACE.
               10  WK01-TRVL-FLAG-UT195-F         PIC X(1)
                                               VALUE SPACE.
               10  WK01-TRVL-FLAG-UT195-A         PIC X(1)
                                               VALUE SPACE.
               10  WK01-TRVL-FLAG-UT195-V         PIC X(1)
                                               VALUE SPACE.
               10  WK01-TRVL-FLAG-UT195-O         PIC X(1)
                                               VALUE SPACE.
               10  WK01-TRVL-FLAG-UT195  PIC X(1)
                                               VALUE SPACES.
               10  WK01-CODE-UT196-Z              PIC X(1)
                                               VALUE SPACE.
               10  WK01-CODE-UT196-F              PIC X(1)
                                               VALUE SPACE.
               10  WK01-CODE-UT196-A              PIC X(1)
                                               VALUE SPACE.
               10  WK01-CODE-UT196-V              PIC X(1)
                                               VALUE SPACE.
               10  WK01-CODE-UT196-O              PIC X(1)
                                               VALUE SPACE.
               10  WK01-CODE-UT196       PIC X(1)
                                               VALUE SPACES.
               10  WK01-EMPID-6117-UT196-Z             PIC X(1)
                                               VALUE SPACE.
               10  WK01-EMPID-6117-UT196-F             PIC X(1)
                                               VALUE SPACE.
               10  WK01-EMPID-6117-UT196-A             PIC X(1)
                                               VALUE SPACE.
               10  WK01-EMPID-6117-UT196-V             PIC X(1)
                                               VALUE SPACE.
               10  WK01-EMPID-6117-UT196-O             PIC X(1)
                                               VALUE SPACE.
               10  WK01-EMPID-6117-UT196      PIC X(9)
                                               VALUE SPACES.
               10  WK01-EMP-NAME-6117-UT196-Z                PIC X(1)
                                               VALUE SPACE.
               10  WK01-EMP-NAME-6117-UT196-F                PIC X(1)
                                               VALUE SPACE.
               10  WK01-EMP-NAME-6117-UT196-A                PIC X(1)
                                               VALUE SPACE.
               10  WK01-EMP-NAME-6117-UT196-V                PIC X(1)
                                               VALUE SPACE.
               10  WK01-EMP-NAME-6117-UT196-O                PIC X(1)
                                               VALUE SPACE.
               10  WK01-EMP-NAME-6117-UT196         PIC X(35)
                                               VALUE SPACES.
               10  WK01-EMP-STAT-6117-UT196-Z         PIC X(1)
                                               VALUE SPACE.
               10  WK01-EMP-STAT-6117-UT196-F         PIC X(1)
                                               VALUE SPACE.
               10  WK01-EMP-STAT-6117-UT196-A         PIC X(1)
                                               VALUE SPACE.
               10  WK01-EMP-STAT-6117-UT196-V         PIC X(1)
                                               VALUE SPACE.
               10  WK01-EMP-STAT-6117-UT196-O         PIC X(1)
                                               VALUE SPACE.
               10  WK01-EMP-STAT-6117-UT196  PIC X(1)
                                               VALUE SPACES.
               10  WK01-VNDR-FLAG-UT196-Z         PIC X(1)
                                               VALUE SPACE.
               10  WK01-VNDR-FLAG-UT196-F         PIC X(1)
                                               VALUE SPACE.
               10  WK01-VNDR-FLAG-UT196-A         PIC X(1)
                                               VALUE SPACE.
               10  WK01-VNDR-FLAG-UT196-V         PIC X(1)
                                               VALUE SPACE.
               10  WK01-VNDR-FLAG-UT196-O         PIC X(1)
                                               VALUE SPACE.
               10  WK01-VNDR-FLAG-UT196  PIC X(1)
                                               VALUE SPACES.
               10  WK01-TRVL-FLAG-UT196-Z         PIC X(1)
                                               VALUE SPACE.
               10  WK01-TRVL-FLAG-UT196-F         PIC X(1)
                                               VALUE SPACE.
               10  WK01-TRVL-FLAG-UT196-A         PIC X(1)
                                               VALUE SPACE.
               10  WK01-TRVL-FLAG-UT196-V         PIC X(1)
                                               VALUE SPACE.
               10  WK01-TRVL-FLAG-UT196-O         PIC X(1)
                                               VALUE SPACE.
               10  WK01-TRVL-FLAG-UT196  PIC X(1)
                                               VALUE SPACES.
               10  WK01-CODE-UT197-Z              PIC X(1)
                                               VALUE SPACE.
               10  WK01-CODE-UT197-F              PIC X(1)
                                               VALUE SPACE.
               10  WK01-CODE-UT197-A              PIC X(1)
                                               VALUE SPACE.
               10  WK01-CODE-UT197-V              PIC X(1)
                                               VALUE SPACE.
               10  WK01-CODE-UT197-O              PIC X(1)
                                               VALUE SPACE.
               10  WK01-CODE-UT197       PIC X(1)
                                               VALUE SPACES.
               10  WK01-EMPID-6117-UT197-Z             PIC X(1)
                                               VALUE SPACE.
               10  WK01-EMPID-6117-UT197-F             PIC X(1)
                                               VALUE SPACE.
               10  WK01-EMPID-6117-UT197-A             PIC X(1)
                                               VALUE SPACE.
               10  WK01-EMPID-6117-UT197-V             PIC X(1)
                                               VALUE SPACE.
               10  WK01-EMPID-6117-UT197-O             PIC X(1)
                                               VALUE SPACE.
               10  WK01-EMPID-6117-UT197      PIC X(9)
                                               VALUE SPACES.
               10  WK01-EMP-NAME-6117-UT197-Z                PIC X(1)
                                               VALUE SPACE.
               10  WK01-EMP-NAME-6117-UT197-F                PIC X(1)
                                               VALUE SPACE.
               10  WK01-EMP-NAME-6117-UT197-A                PIC X(1)
                                               VALUE SPACE.
               10  WK01-EMP-NAME-6117-UT197-V                PIC X(1)
                                               VALUE SPACE.
               10  WK01-EMP-NAME-6117-UT197-O                PIC X(1)
                                               VALUE SPACE.
               10  WK01-EMP-NAME-6117-UT197         PIC X(35)
                                               VALUE SPACES.
               10  WK01-EMP-STAT-6117-UT197-Z         PIC X(1)
                                               VALUE SPACE.
               10  WK01-EMP-STAT-6117-UT197-F         PIC X(1)
                                               VALUE SPACE.
               10  WK01-EMP-STAT-6117-UT197-A         PIC X(1)
                                               VALUE SPACE.
               10  WK01-EMP-STAT-6117-UT197-V         PIC X(1)
                                               VALUE SPACE.
               10  WK01-EMP-STAT-6117-UT197-O         PIC X(1)
                                               VALUE SPACE.
               10  WK01-EMP-STAT-6117-UT197  PIC X(1)
                                               VALUE SPACES.
               10  WK01-VNDR-FLAG-UT197-Z         PIC X(1)
                                               VALUE SPACE.
               10  WK01-VNDR-FLAG-UT197-F         PIC X(1)
                                               VALUE SPACE.
               10  WK01-VNDR-FLAG-UT197-A         PIC X(1)
                                               VALUE SPACE.
               10  WK01-VNDR-FLAG-UT197-V         PIC X(1)
                                               VALUE SPACE.
               10  WK01-VNDR-FLAG-UT197-O         PIC X(1)
                                               VALUE SPACE.
               10  WK01-VNDR-FLAG-UT197  PIC X(1)
                                               VALUE SPACES.
               10  WK01-TRVL-FLAG-UT197-Z         PIC X(1)
                                               VALUE SPACE.
               10  WK01-TRVL-FLAG-UT197-F         PIC X(1)
                                               VALUE SPACE.
               10  WK01-TRVL-FLAG-UT197-A         PIC X(1)
                                               VALUE SPACE.
               10  WK01-TRVL-FLAG-UT197-V         PIC X(1)
                                               VALUE SPACE.
               10  WK01-TRVL-FLAG-UT197-O         PIC X(1)
                                               VALUE SPACE.
               10  WK01-TRVL-FLAG-UT197  PIC X(1)
                                               VALUE SPACES.
               10  WK01-CODE-UT198-Z              PIC X(1)
                                               VALUE SPACE.
               10  WK01-CODE-UT198-F              PIC X(1)
                                               VALUE SPACE.
               10  WK01-CODE-UT198-A              PIC X(1)
                                               VALUE SPACE.
               10  WK01-CODE-UT198-V              PIC X(1)
                                               VALUE SPACE.
               10  WK01-CODE-UT198-O              PIC X(1)
                                               VALUE SPACE.
               10  WK01-CODE-UT198       PIC X(1)
                                               VALUE SPACES.
               10  WK01-EMPID-6117-UT198-Z             PIC X(1)
                                               VALUE SPACE.
               10  WK01-EMPID-6117-UT198-F             PIC X(1)
                                               VALUE SPACE.
               10  WK01-EMPID-6117-UT198-A             PIC X(1)
                                               VALUE SPACE.
               10  WK01-EMPID-6117-UT198-V             PIC X(1)
                                               VALUE SPACE.
               10  WK01-EMPID-6117-UT198-O             PIC X(1)
                                               VALUE SPACE.
               10  WK01-EMPID-6117-UT198      PIC X(9)
                                               VALUE SPACES.
               10  WK01-EMP-NAME-6117-UT198-Z                PIC X(1)
                                               VALUE SPACE.
               10  WK01-EMP-NAME-6117-UT198-F                PIC X(1)
                                               VALUE SPACE.
               10  WK01-EMP-NAME-6117-UT198-A                PIC X(1)
                                               VALUE SPACE.
               10  WK01-EMP-NAME-6117-UT198-V                PIC X(1)
                                               VALUE SPACE.
               10  WK01-EMP-NAME-6117-UT198-O                PIC X(1)
                                               VALUE SPACE.
               10  WK01-EMP-NAME-6117-UT198         PIC X(35)
                                               VALUE SPACES.
               10  WK01-EMP-STAT-6117-UT198-Z         PIC X(1)
                                               VALUE SPACE.
               10  WK01-EMP-STAT-6117-UT198-F         PIC X(1)
                                               VALUE SPACE.
               10  WK01-EMP-STAT-6117-UT198-A         PIC X(1)
                                               VALUE SPACE.
               10  WK01-EMP-STAT-6117-UT198-V         PIC X(1)
                                               VALUE SPACE.
               10  WK01-EMP-STAT-6117-UT198-O         PIC X(1)
                                               VALUE SPACE.
               10  WK01-EMP-STAT-6117-UT198  PIC X(1)
                                               VALUE SPACES.
               10  WK01-VNDR-FLAG-UT198-Z         PIC X(1)
                                               VALUE SPACE.
               10  WK01-VNDR-FLAG-UT198-F         PIC X(1)
                                               VALUE SPACE.
               10  WK01-VNDR-FLAG-UT198-A         PIC X(1)
                                               VALUE SPACE.
               10  WK01-VNDR-FLAG-UT198-V         PIC X(1)
                                               VALUE SPACE.
               10  WK01-VNDR-FLAG-UT198-O         PIC X(1)
                                               VALUE SPACE.
               10  WK01-VNDR-FLAG-UT198  PIC X(1)
                                               VALUE SPACES.
               10  WK01-TRVL-FLAG-UT198-Z         PIC X(1)
                                               VALUE SPACE.
               10  WK01-TRVL-FLAG-UT198-F         PIC X(1)
                                               VALUE SPACE.
               10  WK01-TRVL-FLAG-UT198-A         PIC X(1)
                                               VALUE SPACE.
               10  WK01-TRVL-FLAG-UT198-V         PIC X(1)
                                               VALUE SPACE.
               10  WK01-TRVL-FLAG-UT198-O         PIC X(1)
                                               VALUE SPACE.
               10  WK01-TRVL-FLAG-UT198  PIC X(1)
                                               VALUE SPACES.
               10  WK01-CODE-UT199-Z              PIC X(1)
                                               VALUE SPACE.
               10  WK01-CODE-UT199-F              PIC X(1)
                                               VALUE SPACE.
               10  WK01-CODE-UT199-A              PIC X(1)
                                               VALUE SPACE.
               10  WK01-CODE-UT199-V              PIC X(1)
                                               VALUE SPACE.
               10  WK01-CODE-UT199-O              PIC X(1)
                                               VALUE SPACE.
               10  WK01-CODE-UT199       PIC X(1)
                                               VALUE SPACES.
               10  WK01-EMPID-6117-UT199-Z             PIC X(1)
                                               VALUE SPACE.
               10  WK01-EMPID-6117-UT199-F             PIC X(1)
                                               VALUE SPACE.
               10  WK01-EMPID-6117-UT199-A             PIC X(1)
                                               VALUE SPACE.
               10  WK01-EMPID-6117-UT199-V             PIC X(1)
                                               VALUE SPACE.
               10  WK01-EMPID-6117-UT199-O             PIC X(1)
                                               VALUE SPACE.
               10  WK01-EMPID-6117-UT199      PIC X(9)
                                               VALUE SPACES.
               10  WK01-EMP-NAME-6117-UT199-Z                PIC X(1)
                                               VALUE SPACE.
               10  WK01-EMP-NAME-6117-UT199-F                PIC X(1)
                                               VALUE SPACE.
               10  WK01-EMP-NAME-6117-UT199-A                PIC X(1)
                                               VALUE SPACE.
               10  WK01-EMP-NAME-6117-UT199-V                PIC X(1)
                                               VALUE SPACE.
               10  WK01-EMP-NAME-6117-UT199-O                PIC X(1)
                                               VALUE SPACE.
               10  WK01-EMP-NAME-6117-UT199         PIC X(35)
                                               VALUE SPACES.
               10  WK01-EMP-STAT-6117-UT199-Z         PIC X(1)
                                               VALUE SPACE.
               10  WK01-EMP-STAT-6117-UT199-F         PIC X(1)
                                               VALUE SPACE.
               10  WK01-EMP-STAT-6117-UT199-A         PIC X(1)
                                               VALUE SPACE.
               10  WK01-EMP-STAT-6117-UT199-V         PIC X(1)
                                               VALUE SPACE.
               10  WK01-EMP-STAT-6117-UT199-O         PIC X(1)
                                               VALUE SPACE.
               10  WK01-EMP-STAT-6117-UT199  PIC X(1)
                                               VALUE SPACES.
               10  WK01-VNDR-FLAG-UT199-Z         PIC X(1)
                                               VALUE SPACE.
               10  WK01-VNDR-FLAG-UT199-F         PIC X(1)
                                               VALUE SPACE.
               10  WK01-VNDR-FLAG-UT199-A         PIC X(1)
                                               VALUE SPACE.
               10  WK01-VNDR-FLAG-UT199-V         PIC X(1)
                                               VALUE SPACE.
               10  WK01-VNDR-FLAG-UT199-O         PIC X(1)
                                               VALUE SPACE.
               10  WK01-VNDR-FLAG-UT199  PIC X(1)
                                               VALUE SPACES.
               10  WK01-TRVL-FLAG-UT199-Z         PIC X(1)
                                               VALUE SPACE.
               10  WK01-TRVL-FLAG-UT199-F         PIC X(1)
                                               VALUE SPACE.
               10  WK01-TRVL-FLAG-UT199-A         PIC X(1)
                                               VALUE SPACE.
               10  WK01-TRVL-FLAG-UT199-V         PIC X(1)
                                               VALUE SPACE.
               10  WK01-TRVL-FLAG-UT199-O         PIC X(1)
                                               VALUE SPACE.
               10  WK01-TRVL-FLAG-UT199  PIC X(1)
                                               VALUE SPACES.
               10  WK01-CODE-UT1910-Z              PIC X(1)
                                               VALUE SPACE.
               10  WK01-CODE-UT1910-F              PIC X(1)
                                               VALUE SPACE.
               10  WK01-CODE-UT1910-A              PIC X(1)
                                               VALUE SPACE.
               10  WK01-CODE-UT1910-V              PIC X(1)
                                               VALUE SPACE.
               10  WK01-CODE-UT1910-O              PIC X(1)
                                               VALUE SPACE.
               10  WK01-CODE-UT1910       PIC X(1)
                                               VALUE SPACES.
               10  WK01-EMPID-6117-UT1910-Z             PIC X(1)
                                               VALUE SPACE.
               10  WK01-EMPID-6117-UT1910-F             PIC X(1)
                                               VALUE SPACE.
               10  WK01-EMPID-6117-UT1910-A             PIC X(1)
                                               VALUE SPACE.
               10  WK01-EMPID-6117-UT1910-V             PIC X(1)
                                               VALUE SPACE.
               10  WK01-EMPID-6117-UT1910-O             PIC X(1)
                                               VALUE SPACE.
               10  WK01-EMPID-6117-UT1910      PIC X(9)
                                               VALUE SPACES.
               10  WK01-EMP-NAME-6117-UT1910-Z                PIC X(1)
                                               VALUE SPACE.
               10  WK01-EMP-NAME-6117-UT1910-F                PIC X(1)
                                               VALUE SPACE.
               10  WK01-EMP-NAME-6117-UT1910-A                PIC X(1)
                                               VALUE SPACE.
               10  WK01-EMP-NAME-6117-UT1910-V                PIC X(1)
                                               VALUE SPACE.
               10  WK01-EMP-NAME-6117-UT1910-O                PIC X(1)
                                               VALUE SPACE.
               10  WK01-EMP-NAME-6117-UT1910         PIC X(35)
                                               VALUE SPACES.
               10  WK01-EMP-STAT-6117-UT1910-Z         PIC X(1)
                                               VALUE SPACE.
               10  WK01-EMP-STAT-6117-UT1910-F         PIC X(1)
                                               VALUE SPACE.
               10  WK01-EMP-STAT-6117-UT1910-A         PIC X(1)
                                               VALUE SPACE.
               10  WK01-EMP-STAT-6117-UT1910-V         PIC X(1)
                                               VALUE SPACE.
               10  WK01-EMP-STAT-6117-UT1910-O         PIC X(1)
                                               VALUE SPACE.
               10  WK01-EMP-STAT-6117-UT1910  PIC X(1)
                                               VALUE SPACES.
               10  WK01-VNDR-FLAG-UT1910-Z         PIC X(1)
                                               VALUE SPACE.
               10  WK01-VNDR-FLAG-UT1910-F         PIC X(1)
                                               VALUE SPACE.
               10  WK01-VNDR-FLAG-UT1910-A         PIC X(1)
                                               VALUE SPACE.
               10  WK01-VNDR-FLAG-UT1910-V         PIC X(1)
                                               VALUE SPACE.
               10  WK01-VNDR-FLAG-UT1910-O         PIC X(1)
                                               VALUE SPACE.
               10  WK01-VNDR-FLAG-UT1910  PIC X(1)
                                               VALUE SPACES.
               10  WK01-TRVL-FLAG-UT1910-Z         PIC X(1)
                                               VALUE SPACE.
               10  WK01-TRVL-FLAG-UT1910-F         PIC X(1)
                                               VALUE SPACE.
               10  WK01-TRVL-FLAG-UT1910-A         PIC X(1)
                                               VALUE SPACE.
               10  WK01-TRVL-FLAG-UT1910-V         PIC X(1)
                                               VALUE SPACE.
               10  WK01-TRVL-FLAG-UT1910-O         PIC X(1)
                                               VALUE SPACE.
               10  WK01-TRVL-FLAG-UT1910  PIC X(1)
                                               VALUE SPACES.
               10  WK01-CODE-UT1911-Z              PIC X(1)
                                               VALUE SPACE.
               10  WK01-CODE-UT1911-F              PIC X(1)
                                               VALUE SPACE.
               10  WK01-CODE-UT1911-A              PIC X(1)
                                               VALUE SPACE.
               10  WK01-CODE-UT1911-V              PIC X(1)
                                               VALUE SPACE.
               10  WK01-CODE-UT1911-O              PIC X(1)
                                               VALUE SPACE.
               10  WK01-CODE-UT1911       PIC X(1)
                                               VALUE SPACES.
               10  WK01-EMPID-6117-UT1911-Z             PIC X(1)
                                               VALUE SPACE.
               10  WK01-EMPID-6117-UT1911-F             PIC X(1)
                                               VALUE SPACE.
               10  WK01-EMPID-6117-UT1911-A             PIC X(1)
                                               VALUE SPACE.
               10  WK01-EMPID-6117-UT1911-V             PIC X(1)
                                               VALUE SPACE.
               10  WK01-EMPID-6117-UT1911-O             PIC X(1)
                                               VALUE SPACE.
               10  WK01-EMPID-6117-UT1911      PIC X(9)
                                               VALUE SPACES.
               10  WK01-EMP-NAME-6117-UT1911-Z                PIC X(1)
                                               VALUE SPACE.
               10  WK01-EMP-NAME-6117-UT1911-F                PIC X(1)
                                               VALUE SPACE.
               10  WK01-EMP-NAME-6117-UT1911-A                PIC X(1)
                                               VALUE SPACE.
               10  WK01-EMP-NAME-6117-UT1911-V                PIC X(1)
                                               VALUE SPACE.
               10  WK01-EMP-NAME-6117-UT1911-O                PIC X(1)
                                               VALUE SPACE.
               10  WK01-EMP-NAME-6117-UT1911         PIC X(35)
                                               VALUE SPACES.
               10  WK01-EMP-STAT-6117-UT1911-Z         PIC X(1)
                                               VALUE SPACE.
               10  WK01-EMP-STAT-6117-UT1911-F         PIC X(1)
                                               VALUE SPACE.
               10  WK01-EMP-STAT-6117-UT1911-A         PIC X(1)
                                               VALUE SPACE.
               10  WK01-EMP-STAT-6117-UT1911-V         PIC X(1)
                                               VALUE SPACE.
               10  WK01-EMP-STAT-6117-UT1911-O         PIC X(1)
                                               VALUE SPACE.
               10  WK01-EMP-STAT-6117-UT1911  PIC X(1)
                                               VALUE SPACES.
               10  WK01-VNDR-FLAG-UT1911-Z         PIC X(1)
                                               VALUE SPACE.
               10  WK01-VNDR-FLAG-UT1911-F         PIC X(1)
                                               VALUE SPACE.
               10  WK01-VNDR-FLAG-UT1911-A         PIC X(1)
                                               VALUE SPACE.
               10  WK01-VNDR-FLAG-UT1911-V         PIC X(1)
                                               VALUE SPACE.
               10  WK01-VNDR-FLAG-UT1911-O         PIC X(1)
                                               VALUE SPACE.
               10  WK01-VNDR-FLAG-UT1911  PIC X(1)
                                               VALUE SPACES.
               10  WK01-TRVL-FLAG-UT1911-Z         PIC X(1)
                                               VALUE SPACE.
               10  WK01-TRVL-FLAG-UT1911-F         PIC X(1)
                                               VALUE SPACE.
               10  WK01-TRVL-FLAG-UT1911-A         PIC X(1)
                                               VALUE SPACE.
               10  WK01-TRVL-FLAG-UT1911-V         PIC X(1)
                                               VALUE SPACE.
               10  WK01-TRVL-FLAG-UT1911-O         PIC X(1)
                                               VALUE SPACE.
               10  WK01-TRVL-FLAG-UT1911  PIC X(1)
                                               VALUE SPACES.
               10  WK01-CODE-UT1912-Z              PIC X(1)
                                               VALUE SPACE.
               10  WK01-CODE-UT1912-F              PIC X(1)
                                               VALUE SPACE.
               10  WK01-CODE-UT1912-A              PIC X(1)
                                               VALUE SPACE.
               10  WK01-CODE-UT1912-V              PIC X(1)
                                               VALUE SPACE.
               10  WK01-CODE-UT1912-O              PIC X(1)
                                               VALUE SPACE.
               10  WK01-CODE-UT1912       PIC X(1)
                                               VALUE SPACES.
               10  WK01-EMPID-6117-UT1912-Z             PIC X(1)
                                               VALUE SPACE.
               10  WK01-EMPID-6117-UT1912-F             PIC X(1)
                                               VALUE SPACE.
               10  WK01-EMPID-6117-UT1912-A             PIC X(1)
                                               VALUE SPACE.
               10  WK01-EMPID-6117-UT1912-V             PIC X(1)
                                               VALUE SPACE.
               10  WK01-EMPID-6117-UT1912-O             PIC X(1)
                                               VALUE SPACE.
               10  WK01-EMPID-6117-UT1912      PIC X(9)
                                               VALUE SPACES.
               10  WK01-EMP-NAME-6117-UT1912-Z                PIC X(1)
                                               VALUE SPACE.
               10  WK01-EMP-NAME-6117-UT1912-F                PIC X(1)
                                               VALUE SPACE.
               10  WK01-EMP-NAME-6117-UT1912-A                PIC X(1)
                                               VALUE SPACE.
               10  WK01-EMP-NAME-6117-UT1912-V                PIC X(1)
                                               VALUE SPACE.
               10  WK01-EMP-NAME-6117-UT1912-O                PIC X(1)
                                               VALUE SPACE.
               10  WK01-EMP-NAME-6117-UT1912         PIC X(35)
                                               VALUE SPACES.
               10  WK01-EMP-STAT-6117-UT1912-Z         PIC X(1)
                                               VALUE SPACE.
               10  WK01-EMP-STAT-6117-UT1912-F         PIC X(1)
                                               VALUE SPACE.
               10  WK01-EMP-STAT-6117-UT1912-A         PIC X(1)
                                               VALUE SPACE.
               10  WK01-EMP-STAT-6117-UT1912-V         PIC X(1)
                                               VALUE SPACE.
               10  WK01-EMP-STAT-6117-UT1912-O         PIC X(1)
                                               VALUE SPACE.
               10  WK01-EMP-STAT-6117-UT1912  PIC X(1)
                                               VALUE SPACES.
               10  WK01-VNDR-FLAG-UT1912-Z         PIC X(1)
                                               VALUE SPACE.
               10  WK01-VNDR-FLAG-UT1912-F         PIC X(1)
                                               VALUE SPACE.
               10  WK01-VNDR-FLAG-UT1912-A         PIC X(1)
                                               VALUE SPACE.
               10  WK01-VNDR-FLAG-UT1912-V         PIC X(1)
                                               VALUE SPACE.
               10  WK01-VNDR-FLAG-UT1912-O         PIC X(1)
                                               VALUE SPACE.
               10  WK01-VNDR-FLAG-UT1912  PIC X(1)
                                               VALUE SPACES.
               10  WK01-TRVL-FLAG-UT1912-Z         PIC X(1)
                                               VALUE SPACE.
               10  WK01-TRVL-FLAG-UT1912-F         PIC X(1)
                                               VALUE SPACE.
               10  WK01-TRVL-FLAG-UT1912-A         PIC X(1)
                                               VALUE SPACE.
               10  WK01-TRVL-FLAG-UT1912-V         PIC X(1)
                                               VALUE SPACE.
               10  WK01-TRVL-FLAG-UT1912-O         PIC X(1)
                                               VALUE SPACE.
               10  WK01-TRVL-FLAG-UT1912  PIC X(1)
                                               VALUE SPACES.
               10  WK01-CODE-UT1913-Z              PIC X(1)
                                               VALUE SPACE.
               10  WK01-CODE-UT1913-F              PIC X(1)
                                               VALUE SPACE.
               10  WK01-CODE-UT1913-A              PIC X(1)
                                               VALUE SPACE.
               10  WK01-CODE-UT1913-V              PIC X(1)
                                               VALUE SPACE.
               10  WK01-CODE-UT1913-O              PIC X(1)
                                               VALUE SPACE.
               10  WK01-CODE-UT1913       PIC X(1)
                                               VALUE SPACES.
               10  WK01-EMPID-6117-UT1913-Z             PIC X(1)
                                               VALUE SPACE.
               10  WK01-EMPID-6117-UT1913-F             PIC X(1)
                                               VALUE SPACE.
               10  WK01-EMPID-6117-UT1913-A             PIC X(1)
                                               VALUE SPACE.
               10  WK01-EMPID-6117-UT1913-V             PIC X(1)
                                               VALUE SPACE.
               10  WK01-EMPID-6117-UT1913-O             PIC X(1)
                                               VALUE SPACE.
               10  WK01-EMPID-6117-UT1913      PIC X(9)
                                               VALUE SPACES.
               10  WK01-EMP-NAME-6117-UT1913-Z                PIC X(1)
                                               VALUE SPACE.
               10  WK01-EMP-NAME-6117-UT1913-F                PIC X(1)
                                               VALUE SPACE.
               10  WK01-EMP-NAME-6117-UT1913-A                PIC X(1)
                                               VALUE SPACE.
               10  WK01-EMP-NAME-6117-UT1913-V                PIC X(1)
                                               VALUE SPACE.
               10  WK01-EMP-NAME-6117-UT1913-O                PIC X(1)
                                               VALUE SPACE.
               10  WK01-EMP-NAME-6117-UT1913         PIC X(35)
                                               VALUE SPACES.
               10  WK01-EMP-STAT-6117-UT1913-Z         PIC X(1)
                                               VALUE SPACE.
               10  WK01-EMP-STAT-6117-UT1913-F         PIC X(1)
                                               VALUE SPACE.
               10  WK01-EMP-STAT-6117-UT1913-A         PIC X(1)
                                               VALUE SPACE.
               10  WK01-EMP-STAT-6117-UT1913-V         PIC X(1)
                                               VALUE SPACE.
               10  WK01-EMP-STAT-6117-UT1913-O         PIC X(1)
                                               VALUE SPACE.
               10  WK01-EMP-STAT-6117-UT1913  PIC X(1)
                                               VALUE SPACES.
               10  WK01-VNDR-FLAG-UT1913-Z         PIC X(1)
                                               VALUE SPACE.
               10  WK01-VNDR-FLAG-UT1913-F         PIC X(1)
                                               VALUE SPACE.
               10  WK01-VNDR-FLAG-UT1913-A         PIC X(1)
                                               VALUE SPACE.
               10  WK01-VNDR-FLAG-UT1913-V         PIC X(1)
                                               VALUE SPACE.
               10  WK01-VNDR-FLAG-UT1913-O         PIC X(1)
                                               VALUE SPACE.
               10  WK01-VNDR-FLAG-UT1913  PIC X(1)
                                               VALUE SPACES.
               10  WK01-TRVL-FLAG-UT1913-Z         PIC X(1)
                                               VALUE SPACE.
               10  WK01-TRVL-FLAG-UT1913-F         PIC X(1)
                                               VALUE SPACE.
               10  WK01-TRVL-FLAG-UT1913-A         PIC X(1)
                                               VALUE SPACE.
               10  WK01-TRVL-FLAG-UT1913-V         PIC X(1)
                                               VALUE SPACE.
               10  WK01-TRVL-FLAG-UT1913-O         PIC X(1)
                                               VALUE SPACE.
               10  WK01-TRVL-FLAG-UT1913  PIC X(1)
                                               VALUE SPACES.
               10  WK01-EMPID-RQST-UT19-Z                   PIC X(1)
                                               VALUE SPACE.
               10  WK01-EMPID-RQST-UT19-F                   PIC X(1)
                                               VALUE SPACE.
               10  WK01-EMPID-RQST-UT19-A                   PIC X(1)
                                               VALUE SPACE.
               10  WK01-EMPID-RQST-UT19-V                   PIC X(1)
                                               VALUE SPACE.
               10  WK01-EMPID-RQST-UT19-O                   PIC X(1)
                                               VALUE SPACE.
               10  WK01-EMPID-RQST-UT19            PIC X(9)
                                               VALUE SPACES.
               10  WK01-ZZMESSAGE-Z              PIC X(1)
                                               VALUE SPACE.
               10  WK01-ZZMESSAGE-F              PIC X(1)
                                               VALUE SPACE.
               10  WK01-ZZMESSAGE-A              PIC X(1)
                                               VALUE SPACE.
               10  WK01-ZZMESSAGE-V              PIC X(1)
                                               VALUE SPACE.
               10  WK01-ZZMESSAGE-O              PIC X(1)
                                               VALUE SPACE.
               10  WK01-ZZMESSAGE       PIC X(160)
                                               VALUE SPACES.
               10  WK01-PASSED-ONE-Z              PIC X(1)
                                               VALUE SPACE.
               10  WK01-PASSED-ONE-F              PIC X(1)
                                               VALUE SPACE.
               10  WK01-PASSED-ONE-A              PIC X(1)
                                               VALUE SPACE.
               10  WK01-PASSED-ONE-V              PIC X(1)
                                               VALUE SPACE.
               10  WK01-PASSED-ONE-O              PIC X(1)
                                               VALUE SPACE.
               10  WK01-PASSED-ONE       PIC X(32)
                                               VALUE SPACES.
               10  WK01-MAP-RESPONSE-Z              PIC X(1)
                                               VALUE SPACE.
               10  WK01-MAP-RESPONSE-F              PIC X(1)
                                               VALUE SPACE.
               10  WK01-MAP-RESPONSE-A              PIC X(1)
                                               VALUE SPACE.
               10  WK01-MAP-RESPONSE-V              PIC X(1)
                                               VALUE SPACE.
               10  WK01-MAP-RESPONSE-O              PIC X(1)
                                               VALUE SPACE.
               10  WK01-MAP-RESPONSE       PIC X(8)
                                               VALUE SPACES.
               10  WK01-TEXT-SY00-Z              PIC X(1)
                                               VALUE SPACE.
               10  WK01-TEXT-SY00-F              PIC X(1)
                                               VALUE SPACE.
               10  WK01-TEXT-SY00-A              PIC X(1)
                                               VALUE SPACE.
               10  WK01-TEXT-SY00-V              PIC X(1)
                                               VALUE SPACE.
               10  WK01-TEXT-SY00-O              PIC X(1)
                                               VALUE SPACE.
               10  WK01-TEXT-SY00       PIC X(14)
                                               VALUE SPACES.
           04  WK01-SUBSCRIPTED-WORK-AREA.
               05  FILLER                      PIC X(1).
               05  WK01-CODE-UT19-F             PIC X(1)
                                               OCCURS 13.
               05  WK01-EMP-NAME-6117-UT19-F               PIC X(1)
                                               OCCURS 13.
               05  WK01-EMPID-6117-UT19-F            PIC X(1)
                                               OCCURS 13.
               05  WK01-EMP-STAT-6117-UT19-F        PIC X(1)
                                               OCCURS 13.
               05  WK01-VNDR-FLAG-UT19-F        PIC X(1)
                                               OCCURS 13.
               05  WK01-TRVL-FLAG-UT19-F        PIC X(1)
                                               OCCURS 13.
