      *---------------------------------------------------------------*
      *                                                               *
      *  RECORD FUTWD88                              04/24/00  13:22  *
      *                                                               *
      *---------------------------------------------------------------*
       01  FUTWD88.
           02  WORK-TEXT-ENTY-CODE-UT88.
               03  WORK-DCMNT-NMBR-UT88                 PIC X(8).
               03  WORK-TEXT-TYPE-UT88                  PIC X(7).
