      *---------------------------------------------------------------*
      *                                                               *
      *  RECORD FUTWD33                              04/24/00  13:22  *
      *                                                               *
      *---------------------------------------------------------------*
       01  FUTWD33.
           02  SET-SORT-KEY-6311-UT33.
               03  UNVRS-CODE-UT33                      PIC X(2).
               03  INTRL-REF-ID-UT33          COMP-3    PIC S9(7).
