000100******************************************************************
000200*               COPYBOOK MEMBER STDNUMPR                         *
000300*  (MUST BE USED WITH WORKING STORAGE COPYBOOK MEMBER STDNUMWS)  *
000400*                                                                *
000500*             E D I T   N U M E R I C   F I E L D                *
000600*                                                                *
000700******************************************************************
000800*                                                                *
000900*    THIS PROCEDURE WILL EDIT THE INPUT-NUMBER FOR NUMERICS,     *
001000*    OPTIONALLY CHECKING FOR A DECIMAL POINT AND MINUS SIGN,     *
001100*    AND RETURN THE TRUE NUMERIC VALUE OF THE FIELD IN THE       *
001200*    OUTPUT-NUMBER.  ERROR-FLAG WILL BE SET TO 'Y' OR 'N' TO     *
001300*    INDICATE THE EXISTENCE OF ANY EDIT ERRORS.                  *
001400*                                                                *
001500******************************************************************
001600*                                                                *
001700*    TO USE THIS PROCEDURE, YOU MUST SUPPLY THE VALUES IN THE    *
001800*    FOLLOWING FIELDS:                                           *
001900*                                                                *
002000*    1) NUMEDIT-INPUT-NUMBER  - THIS IS THE MAP FIELD TO BE      *
002100*       VALIDATED. THE ONLY ACCEPTABLE NON-NUMERIC CHARACTORS    *
002200*       ARE A '.' (DECIMAL POINT) AND A '-' (MINUS SIGN).        *
002300*       COMMAS ARE NOT ACCEPTABLE IN THE INPUT FIELD.            *
002400*                                                                *
002500*    2) NUMEDIT-TOTAL-LENGTH  - THIS IS THE MAXIMUM SIZE OF THE  *
002600*       FIELD, INCLUDING THE DECIMAL POINT AND SIGN CHARACTER.   *
002700*                                                                *
002800*    3) NUMEDIT-WHOLE-LENGTH  - THIS IS THE MAXIMUM ALLOWABLE    *
002900*       NUMBER OF DIGITS THE LEFT OF THE DECIMAL POINT.          *
003000*                                                                *
003100*    4) NUMEDIT-DECIMAL-IND   - MUST BE SET TO 'Y' IF A DECIMAL  *
003200*       POINT CAN BE PRESENT;   OTHERWISE SET TO 'N'.            *
003300*                                                                *
003400*    5) NUMEDIT-SIGN-IND      - MUST BE SET TO 'Y' IF A MINUS    *
003500*       SIGN CAN BE PRESENT;    OTHERWISE SET TO 'N'.            *
003600*                                                                *
003700*    EXAMPLE FOR SIGNED AMOUNT FIELD WITH 2 DECIMAL POSITIONS:   *
003800*                               (PIC ZZZZZZ9.99-)                *
003900*        MOVE MP1-AMOUNT-I       TO NUMEDIT-INPUT-NUMBER         *
004000*        MOVE +11                TO NUMEDIT-TOTAL-LENGTH         *
004100*        MOVE +7                 TO NUMEDIT-WHOLE-LENGTH         *
004200*        MOVE 'Y'                TO NUMEDIT-DECIMAL-IND          *
004300*        MOVE 'Y'                TO NUMEDIT-SIGN-IND             *
004400*        PERFORM STD-NUMEDIT-ROUTINE THRU STD-NUMEDIT-EXIT       *
004500*        IF NUMEDIT-ERROR-FLAG = 'Y'                             *
004600*            MOVE 'Y'            TO STD-EDIT-ERROR-SW            *
004700*            MOVE (MSG NBR)      TO STD-MSG-ID                   *
004800*            PERFORM STD-GET-MESSAGE                             *
004900*            MOVE UNPR-ALP-BRT-MDT      TO MP1-AMOUNT-A          *
005000*            MOVE SET-CURSOR            TO MP1-AMOUNT-L          *
005100*        ELSE                                                    *
005200*            MOVE NUMEDIT-OUTPUT-NUMBER TO MP1-AMOUNT-O          *
005300*        END-IF                                                  *
005400*                                                                *
005500******************************************************************
005600
005700 STD-NUMEDIT-ROUTINE.
005800     MOVE 'N'    TO NUMEDIT-ERROR-FLAG.
005900     MOVE ZEROES TO NUMEDIT-OUTPUT-NUMBER.
006000     MOVE ZEROES TO NUMEDIT-DECIMAL-LOC.
006100     MOVE ZEROES TO NUMEDIT-WHOLE-WORK.
006200     MOVE ZEROES TO NUMEDIT-MINUS-COUNTER.
006300     MOVE ZEROES TO NUMEDIT-X1.
006400     INSPECT NUMEDIT-INPUT-NUMBER REPLACING LEADING ' ' BY '0'.
006500     SUBTRACT NUMEDIT-WHOLE-LENGTH FROM NUMEDIT-TOTAL-LENGTH
006600       GIVING NUMEDIT-DECIMAL-WORK.
006700     IF NUMEDIT-SIGN-IND = 'Y'
006800         SUBTRACT 1 FROM NUMEDIT-DECIMAL-WORK
006900     END-IF.
007000     IF NUMEDIT-DECIMAL-IND = 'Y'
007100         SUBTRACT 1 FROM NUMEDIT-DECIMAL-WORK
007200     END-IF.
007300     IF NUMEDIT-DECIMAL-WORK < ZERO
007400     OR NUMEDIT-TOTAL-LENGTH > +20
007500         MOVE 'Y' TO NUMEDIT-ERROR-FLAG
007600         GO TO STD-NUMEDIT-EXIT
007700     END-IF.
007800
007900 STD-NUMEDIT-INSPECT-FIELD.
008000     ADD +1 TO NUMEDIT-X1.
008100     IF NUMEDIT-X1 > +20
008200     OR NUMEDIT-INPUT-POS (NUMEDIT-X1) = (SPACE OR LOW-VALUE)
008300         MOVE NUMEDIT-X1 TO NUMEDIT-TOTAL-LENGTH
008400         SUBTRACT 1    FROM NUMEDIT-TOTAL-LENGTH
008500         GO TO STD-NUMEDIT-INSPECT-REST
008600     END-IF.
008700     IF NUMEDIT-INPUT-POS (NUMEDIT-X1) = '-'
008800         ADD +1       TO NUMEDIT-MINUS-COUNTER
008900         IF NUMEDIT-SIGN-IND      = 'N'
009000         OR NUMEDIT-MINUS-COUNTER > +1
009100             MOVE 'Y' TO NUMEDIT-ERROR-FLAG
009200             GO TO STD-NUMEDIT-EXIT
009300         ELSE
009400             MOVE ' ' TO NUMEDIT-INPUT-POS (NUMEDIT-X1)
009500             MOVE 'F' TO NUMEDIT-SIGN-IND
009600             GO TO STD-NUMEDIT-INSPECT-FIELD
009700         END-IF
009800     END-IF.
009900     IF  NUMEDIT-MINUS-COUNTER > ZERO
010000     AND NUMEDIT-INPUT-POS (NUMEDIT-X1) IS NUMERIC
010100         MOVE 'Y' TO NUMEDIT-ERROR-FLAG
010200         GO TO STD-NUMEDIT-EXIT
010300     END-IF.
010400     IF NUMEDIT-INPUT-POS (NUMEDIT-X1) = '.'
010500         IF NUMEDIT-DECIMAL-LOC NOT = ZERO
010600         OR NUMEDIT-DECIMAL-IND = 'N'
010700             MOVE 'Y' TO NUMEDIT-ERROR-FLAG
010800             GO TO STD-NUMEDIT-EXIT
010900         ELSE
011000             MOVE ' ' TO NUMEDIT-INPUT-POS (NUMEDIT-X1)
011100             MOVE NUMEDIT-X1 TO NUMEDIT-DECIMAL-LOC
011200         END-IF
011300     END-IF.
011400     IF NUMEDIT-DECIMAL-LOC NOT = ZERO
011500         GO TO STD-NUMEDIT-INSPECT-FIELD
011600     END-IF.
011700     IF NUMEDIT-INPUT-POS (NUMEDIT-X1) NOT = ZERO
011800         ADD +1 TO NUMEDIT-WHOLE-WORK
011900     ELSE
012000         IF NUMEDIT-WHOLE-WORK NOT = ZERO
012100             ADD +1 TO NUMEDIT-WHOLE-WORK
012200         END-IF
012300     END-IF.
012400     GO TO STD-NUMEDIT-INSPECT-FIELD.
012500
012600 STD-NUMEDIT-INSPECT-REST.
012700     IF NUMEDIT-X1 > +20
012800         GO TO STD-NUMEDIT-VALIDATE
012900     END-IF.
013000     ADD +1 TO NUMEDIT-X1.
013100     IF NUMEDIT-X1 > +20
013200     OR NUMEDIT-INPUT-POS (NUMEDIT-X1) = (SPACE OR LOW-VALUE)
013300         GO TO STD-NUMEDIT-INSPECT-REST
013400     END-IF.
013500     MOVE 'Y' TO NUMEDIT-ERROR-FLAG
013600     GO TO STD-NUMEDIT-EXIT.
013700
013800 STD-NUMEDIT-VALIDATE.
013900     IF NUMEDIT-SIGN-IND NOT = 'F'
014000         MOVE 'N' TO NUMEDIT-SIGN-IND
014100     ELSE
014200         SUBTRACT +1 FROM NUMEDIT-TOTAL-LENGTH
014300         MOVE 'Y' TO NUMEDIT-SIGN-IND
014400     END-IF.
014500     IF NUMEDIT-WHOLE-WORK > NUMEDIT-WHOLE-LENGTH
014600         MOVE 'Y' TO NUMEDIT-ERROR-FLAG
014700         GO TO STD-NUMEDIT-EXIT
014800     END-IF.
014900     IF NUMEDIT-DECIMAL-LOC = ZERO
015000        ADD NUMEDIT-TOTAL-LENGTH +1 GIVING NUMEDIT-DECIMAL-LOC
015100        GO TO STD-NUMEDIT-MOVE-INTEGER
015200     END-IF.
015300     MOVE NUMEDIT-TOTAL-LENGTH TO NUMEDIT-X2.
015400     MOVE NUMEDIT-TOTAL-LENGTH TO NUMEDIT-X3.
015500     ADD +1 TO NUMEDIT-X3.
015600
015700 STD-NUMEDIT-INSPECT-DEC-PLACES.
015800     SUBTRACT +1 FROM NUMEDIT-X2.
015900     SUBTRACT +1 FROM NUMEDIT-X3.
016000     IF NUMEDIT-INPUT-POS (NUMEDIT-X3) NOT = ZEROS
016100         GO TO STD-NUMEDIT-CHECK-DECIMALS
016200     END-IF.
016300     SUBTRACT +1 FROM NUMEDIT-TOTAL-LENGTH.
016400     IF NUMEDIT-INPUT-POS (NUMEDIT-X2) NOT = ZEROS
016500         GO TO STD-NUMEDIT-CHECK-DECIMALS
016600     END-IF.
016700     GO TO STD-NUMEDIT-INSPECT-DEC-PLACES.
016800
016900 STD-NUMEDIT-CHECK-DECIMALS.
017000     SUBTRACT NUMEDIT-DECIMAL-LOC FROM NUMEDIT-TOTAL-LENGTH
017100       GIVING NUMEDIT-X2.
017200     IF NUMEDIT-X2 > NUMEDIT-DECIMAL-WORK
017300         MOVE 'Y' TO NUMEDIT-ERROR-FLAG
017400         GO TO STD-NUMEDIT-EXIT
017500     END-IF.
017600     MOVE NUMEDIT-DECIMAL-LOC TO NUMEDIT-X1.
017700     ADD  +1  TO NUMEDIT-X1.
017800     MOVE +11 TO NUMEDIT-X2.
017900
018000 STD-NUMEDIT-MOVE-DECIMAL.
018100     IF NUMEDIT-X2 > +18
018200     OR NUMEDIT-X1 > NUMEDIT-TOTAL-LENGTH
018300     OR NUMEDIT-INPUT-POS (NUMEDIT-X1) = (SPACE OR LOW-VALUE)
018400         GO TO STD-NUMEDIT-MOVE-INTEGER
018500     END-IF.
018600     MOVE NUMEDIT-INPUT-POS (NUMEDIT-X1)
018700       TO NUMEDIT-OUTPUT-POS (NUMEDIT-X2).
018800     ADD +1 TO NUMEDIT-X1.
018900     ADD +1 TO NUMEDIT-X2.
019000     GO TO STD-NUMEDIT-MOVE-DECIMAL.
019100
019200 STD-NUMEDIT-MOVE-INTEGER.
019300     MOVE NUMEDIT-DECIMAL-LOC TO NUMEDIT-X1.
019400     SUBTRACT +1 FROM NUMEDIT-X1.
019500     MOVE +10      TO NUMEDIT-X2.
019600
019700 STD-NUMEDIT-LOAD-INTEGER.
019800     IF NUMEDIT-X1 < +1
019900     OR NUMEDIT-X2 < +1
020000     OR NUMEDIT-INPUT-POS (NUMEDIT-X1) = (SPACE OR LOW-VALUE)
020100         GO TO STD-NUMEDIT-NUMERIC-CHECK
020200     END-IF.
020300     MOVE NUMEDIT-INPUT-POS (NUMEDIT-X1)
020400       TO NUMEDIT-OUTPUT-POS (NUMEDIT-X2).
020500     SUBTRACT +1 FROM NUMEDIT-X1.
020600     SUBTRACT +1 FROM NUMEDIT-X2.
020700     GO TO STD-NUMEDIT-LOAD-INTEGER.
020800
020900 STD-NUMEDIT-NUMERIC-CHECK.
021000     IF NUMEDIT-OUTPUT-NUMBER IS NOT NUMERIC
021100         MOVE 'Y'    TO NUMEDIT-ERROR-FLAG
021200         MOVE ZEROES TO NUMEDIT-OUTPUT-NUMBER
021300         GO TO STD-NUMEDIT-EXIT
021400     END-IF.
021500
021600 STD-NUMEDIT-CHECK-SIGN.
021700     IF NUMEDIT-SIGN-IND = 'Y'
021800         MULTIPLY NUMEDIT-OUTPUT-NUMBER BY -1
021900           GIVING NUMEDIT-OUTPUT-NUMBER
022000     END-IF.
022100
022200 STD-NUMEDIT-EXIT.
022300     EXIT.
